certifi==2018.10.15
chardet==3.0.4
defusedxml==0.5.0
Django==1.11
django-activity-stream==0.6.5
django-allauth==0.38.0
django-appconf==1.0.2
django-braces==1.13.0
django-extra-fields==1.0.0
django-filter==2.0.0
django-imagekit==4.0.2
django-model-utils==3.1.2
django-private-chat==0.2.0
django-rest-auth==0.9.3
djangorestframework==3.8.0
djangorestframework-jwt==1.11.0
idna==2.7
oauthlib==2.1.0
pilkit==2.0
Pillow==5.3.0
psycopg2==2.7.5
PyJWT==1.6.4
python3-openid==3.1.0
pytz==2018.7
requests==2.20.1
requests-oauthlib==1.0.0
six==1.11.0
urllib3==1.24.1
websockets==3.2
