89.248.162.130 - - [04/Nov/2018:03:42:23 +0000] "GET / HTTP/1.1" 200 114689 "-" "Mozilla/5.0 (Windows NT 6.2; WOW64; rv:50.0) Gecko/20100101 Firefox/50.0"
50.63.12.201 - - [04/Nov/2018:04:00:49 +0000] "GET /wp-includes/wp-caches.php HTTP/1.1" 404 2241 "http://site.ru" "Mozilla/5.0 (Windows; U; Windows NT 5.1; en-US) AppleWebKit/533.4 (KHTML, like Gecko) Chrome/5.0.375.99 Safari/533.4"
50.63.12.201 - - [04/Nov/2018:04:00:59 +0000] "GET /wp-includes/wp-caches.php HTTP/1.1" 404 2241 "http://site.ru" "Mozilla/5.0 (Windows; U; Windows NT 5.1; en-US) AppleWebKit/533.4 (KHTML, like Gecko) Chrome/5.0.375.99 Safari/533.4"
2a01:4f8:160:808c::2 - - [04/Nov/2018:04:23:35 +0000] "GET /wp-admin/wp-caches.php HTTP/1.1" 404 2232 "http://site.ru" "Mozilla/5.0 (Windows; U; Windows NT 5.1; en-US) AppleWebKit/533.4 (KHTML, like Gecko) Chrome/5.0.375.99 Safari/533.4"
2a01:4f8:160:808c::2 - - [04/Nov/2018:04:23:40 +0000] "GET /wp-admin/wp-caches.php HTTP/1.1" 404 2232 "http://site.ru" "Mozilla/5.0 (Windows; U; Windows NT 5.1; en-US) AppleWebKit/533.4 (KHTML, like Gecko) Chrome/5.0.375.99 Safari/533.4"
97.74.228.245 - - [04/Nov/2018:05:14:21 +0000] "POST /xmlrpc.php HTTP/1.1" 404 2197 "-" "Mozilla/5.0 (Macintosh; U; Intel Mac OS X 10.6; fr; rv:1.9.2.8) Gecko/20100722 Firefox/3.6.8"
188.128.175.127 - - [04/Nov/2018:05:15:50 +0000] "GET /wp-content/plugins/wp-seo/wp-seo.php HTTP/1.1" 404 2274 "http://site.ru" "Mozilla/5.0 (Windows; U; Windows NT 5.1; en-US) AppleWebKit/533.4 (KHTML, like Gecko) Chrome/5.0.375.99 Safari/533.4"
188.128.175.127 - - [04/Nov/2018:05:16:00 +0000] "GET /wp-content/plugins/wp-seo/wp-seo.php HTTP/1.1" 404 2274 "http://site.ru" "Mozilla/5.0 (Windows; U; Windows NT 5.1; en-US) AppleWebKit/533.4 (KHTML, like Gecko) Chrome/5.0.375.99 Safari/533.4"
137.74.169.241 - - [04/Nov/2018:05:47:49 +0000] "GET / HTTP/1.1" 200 114689 "-" "Mozilla/5.0 (Windows NT 10.0; WOW64; Trident/7.0; Touch; rv:11.0) like Gecko"
46.20.35.114 - - [04/Nov/2018:06:27:57 +0000] "GET / HTTP/1.1" 200 114689 "-" "Mozilla/5.0 (Windows NT 6.1; WOW64; rv:56.0) Gecko/20100101 Firefox/56.0"
185.107.47.215 - - [04/Nov/2018:07:23:16 +0000] "GET / HTTP/1.1" 200 114689 "-" "Mozilla/5.0 (Windows NT 5.1) AppleWebKit/537.36 (KHTML, like Gecko) Chrome/49.0.2623.112 Safari/537.36"
97.74.228.245 - - [04/Nov/2018:07:28:53 +0000] "POST /xmlrpc.php HTTP/1.1" 404 2197 "-" "Mozilla/5.0 (Macintosh; U; Intel Mac OS X 10.6; fr; rv:1.9.2.8) Gecko/20100722 Firefox/3.6.8"
92.61.148.10 - - [04/Nov/2018:07:58:32 +0000] "GET /_.php HTTP/1.1" 404 2181 "http://site.ru" "Mozilla/5.0 (Windows; U; Windows NT 5.1; en-US) AppleWebKit/533.4 (KHTML, like Gecko) Chrome/5.0.375.99 Safari/533.4"
92.61.148.10 - - [04/Nov/2018:07:58:33 +0000] "GET /_.php HTTP/1.1" 404 2181 "http://site.ru" "Mozilla/5.0 (Windows; U; Windows NT 5.1; en-US) AppleWebKit/533.4 (KHTML, like Gecko) Chrome/5.0.375.99 Safari/533.4"
198.98.58.135 - - [04/Nov/2018:08:30:47 +0000] "GET / HTTP/1.1" 200 114689 "-" "Mozilla/5.0 (Windows NT 6.1; Win64; x64) AppleWebKit/537.36 (KHTML, like Gecko) Chrome/62.0.3202.89 Safari/537.36"
180.76.15.144 - - [04/Nov/2018:08:46:28 +0000] "GET / HTTP/1.1" 200 114689 "-" "Mozilla/5.0 (compatible; Baiduspider/2.0; +http://www.baidu.com/search/spider.html)"
180.76.15.141 - - [04/Nov/2018:09:19:48 +0000] "GET /index_files/svgavatars-custom.css HTTP/1.1" 404 2265 "-" "Mozilla/5.0 (compatible; Baiduspider/2.0; +http://www.baidu.com/search/spider.html)"
54.36.150.80 - - [04/Nov/2018:09:26:29 +0000] "GET /robots.txt HTTP/1.1" 404 2200 "-" "Mozilla/5.0 (compatible; AhrefsBot/5.2; +http://ahrefs.com/robot/)"
97.74.228.245 - - [04/Nov/2018:09:46:07 +0000] "POST /xmlrpc.php HTTP/1.1" 404 2197 "-" "Mozilla/5.0 (Macintosh; U; Intel Mac OS X 10.6; fr; rv:1.9.2.8) Gecko/20100722 Firefox/3.6.8"
89.248.169.130 - - [04/Nov/2018:10:12:09 +0000] "POST /xmlrpc.php HTTP/1.1" 404 2197 "-" "Mozilla/5.0 (Macintosh; U; Intel Mac OS X 10.6; fr; rv:1.9.2.8) Gecko/20100722 Firefox/3.6.8"
89.248.169.130 - - [04/Nov/2018:10:12:09 +0000] "POST /xmlrpc.php HTTP/1.1" 404 2197 "-" "Mozilla/5.0 (Macintosh; U; Intel Mac OS X 10.6; fr; rv:1.9.2.8) Gecko/20100722 Firefox/3.6.8"
89.248.169.130 - - [04/Nov/2018:10:12:09 +0000] "POST /xmlrpc.php HTTP/1.1" 404 2197 "-" "Mozilla/5.0 (Macintosh; U; Intel Mac OS X 10.6; fr; rv:1.9.2.8) Gecko/20100722 Firefox/3.6.8"
89.248.169.130 - - [04/Nov/2018:10:12:10 +0000] "POST /xmlrpc.php HTTP/1.1" 404 2197 "-" "Mozilla/5.0 (Macintosh; U; Intel Mac OS X 10.6; fr; rv:1.9.2.8) Gecko/20100722 Firefox/3.6.8"
123.57.254.142 - - [04/Nov/2018:10:23:45 +0000] "POST /xmlrpc.php HTTP/1.1" 404 2197 "-" "Mozilla/5.0 (Macintosh; U; Intel Mac OS X 10.6; fr; rv:1.9.2.8) Gecko/20100722 Firefox/3.6.8"
123.57.254.142 - - [04/Nov/2018:10:23:45 +0000] "POST /xmlrpc.php HTTP/1.1" 404 2197 "-" "Mozilla/5.0 (Macintosh; U; Intel Mac OS X 10.6; fr; rv:1.9.2.8) Gecko/20100722 Firefox/3.6.8"
66.249.66.130 - - [04/Nov/2018:10:41:05 +0000] "GET /robots.txt HTTP/1.1" 404 2196 "-" "Mozilla/5.0 (compatible; Googlebot/2.1; +http://www.google.com/bot.html)"
66.249.66.128 - - [04/Nov/2018:10:41:07 +0000] "GET / HTTP/1.1" 200 114689 "-" "Mozilla/5.0 (Linux; Android 6.0.1; Nexus 5X Build/MMB29P) AppleWebKit/537.36 (KHTML, like Gecko) Chrome/41.0.2272.96 Mobile Safari/537.36 (compatible; Googlebot/2.1; +http://www.google.com/bot.html)"
66.249.66.130 - - [04/Nov/2018:10:41:08 +0000] "GET /index_files/wp-mediaelement.min.css HTTP/1.1" 404 2271 "http://radicalbit.com/" "Mozilla/5.0 (Linux; Android 6.0.1; Nexus 5X Build/MMB29P) AppleWebKit/537.36 (KHTML, like Gecko) Chrome/41.0.2272.96 Mobile Safari/537.36 (compatible; Googlebot/2.1; +http://www.google.com/bot.html)"
66.249.66.130 - - [04/Nov/2018:10:41:09 +0000] "GET /index_files/styles.css HTTP/1.1" 404 2232 "http://radicalbit.com/" "Mozilla/5.0 (Linux; Android 6.0.1; Nexus 5X Build/MMB29P) AppleWebKit/537.36 (KHTML, like Gecko) Chrome/41.0.2272.96 Mobile Safari/537.36 (compatible; Googlebot/2.1; +http://www.google.com/bot.html)"
66.249.66.128 - - [04/Nov/2018:10:41:11 +0000] "GET /index_files/widget.min.js.download HTTP/1.1" 404 2268 "http://radicalbit.com/" "Mozilla/5.0 (Linux; Android 6.0.1; Nexus 5X Build/MMB29P) AppleWebKit/537.36 (KHTML, like Gecko) Chrome/41.0.2272.96 Mobile Safari/537.36 (compatible; Googlebot/2.1; +http://www.google.com/bot.html)"
66.249.66.128 - - [04/Nov/2018:10:41:13 +0000] "GET /index_files/style(4).css HTTP/1.1" 404 2238 "http://radicalbit.com/" "Mozilla/5.0 (Linux; Android 6.0.1; Nexus 5X Build/MMB29P) AppleWebKit/537.36 (KHTML, like Gecko) Chrome/41.0.2272.96 Mobile Safari/537.36 (compatible; Googlebot/2.1; +http://www.google.com/bot.html)"
66.249.66.128 - - [04/Nov/2018:10:41:14 +0000] "GET /index_files/wp-a11y.min.js.download HTTP/1.1" 404 2271 "http://radicalbit.com/" "Mozilla/5.0 (Linux; Android 6.0.1; Nexus 5X Build/MMB29P) AppleWebKit/537.36 (KHTML, like Gecko) Chrome/41.0.2272.96 Mobile Safari/537.36 (compatible; Googlebot/2.1; +http://www.google.com/bot.html)"
66.249.66.128 - - [04/Nov/2018:10:41:15 +0000] "GET /index_files/collapse.js.download HTTP/1.1" 404 2262 "http://radicalbit.com/" "Mozilla/5.0 (Linux; Android 6.0.1; Nexus 5X Build/MMB29P) AppleWebKit/537.36 (KHTML, like Gecko) Chrome/41.0.2272.96 Mobile Safari/537.36 (compatible; Googlebot/2.1; +http://www.google.com/bot.html)"
66.249.66.159 - - [04/Nov/2018:10:41:16 +0000] "GET /index_files/css-stars.css HTTP/1.1" 404 2241 "http://radicalbit.com/" "Mozilla/5.0 (Linux; Android 6.0.1; Nexus 5X Build/MMB29P) AppleWebKit/537.36 (KHTML, like Gecko) Chrome/41.0.2272.96 Mobile Safari/537.36 (compatible; Googlebot/2.1; +http://www.google.com/bot.html)"
66.249.66.159 - - [04/Nov/2018:10:41:17 +0000] "GET /index_files/lifterlms.min.css HTTP/1.1" 404 2253 "http://radicalbit.com/" "Mozilla/5.0 (Linux; Android 6.0.1; Nexus 5X Build/MMB29P) AppleWebKit/537.36 (KHTML, like Gecko) Chrome/41.0.2272.96 Mobile Safari/537.36 (compatible; Googlebot/2.1; +http://www.google.com/bot.html)"
66.249.66.159 - - [04/Nov/2018:10:41:18 +0000] "GET /index_files/style(2).css HTTP/1.1" 404 2238 "http://radicalbit.com/" "Mozilla/5.0 (Linux; Android 6.0.1; Nexus 5X Build/MMB29P) AppleWebKit/537.36 (KHTML, like Gecko) Chrome/41.0.2272.96 Mobile Safari/537.36 (compatible; Googlebot/2.1; +http://www.google.com/bot.html)"
66.249.66.128 - - [04/Nov/2018:10:42:33 +0000] "GET /index_files/style.css HTTP/1.1" 404 2229 "http://radicalbit.com/" "Mozilla/5.0 (Linux; Android 6.0.1; Nexus 5X Build/MMB29P) AppleWebKit/537.36 (KHTML, like Gecko) Chrome/41.0.2272.96 Mobile Safari/537.36 (compatible; Googlebot/2.1; +http://www.google.com/bot.html)"
66.249.66.159 - - [04/Nov/2018:10:42:34 +0000] "GET /index_files/style(1).css HTTP/1.1" 404 2238 "http://radicalbit.com/" "Mozilla/5.0 (Linux; Android 6.0.1; Nexus 5X Build/MMB29P) AppleWebKit/537.36 (KHTML, like Gecko) Chrome/41.0.2272.96 Mobile Safari/537.36 (compatible; Googlebot/2.1; +http://www.google.com/bot.html)"
97.74.228.245 - - [04/Nov/2018:12:05:25 +0000] "POST /xmlrpc.php HTTP/1.1" 404 2197 "-" "Mozilla/5.0 (Macintosh; U; Intel Mac OS X 10.6; fr; rv:1.9.2.8) Gecko/20100722 Firefox/3.6.8"
52.165.166.139 - - [04/Nov/2018:12:11:34 +0000] "GET / HTTP/1.1" 200 28612 "-" "Mozilla/5.0 (Windows NT 10.0; Win64; x64) AppleWebKit/537.36 (KHTML, like Gecko) Chrome/64.0.3282.186 Safari/537.36"
198.96.155.3 - - [04/Nov/2018:12:23:10 +0000] "GET / HTTP/1.1" 200 114689 "-" "Mozilla/5.0 (Windows NT 6.1; Win64; x64) AppleWebKit/537.36 (KHTML, like Gecko) Chrome/66.0.3359.117 Safari/537.36"
52.173.241.248 - - [04/Nov/2018:12:25:00 +0000] "GET / HTTP/1.1" 200 28612 "-" "Mozilla/5.0 (Windows NT 10.0; Win64; x64) AppleWebKit/537.36 (KHTML, like Gecko) Chrome/58.0.3029.110 Safari/537.36 Edge/16.16299"
65.19.167.132 - - [04/Nov/2018:13:23:40 +0000] "GET / HTTP/1.1" 200 114689 "-" "Mozilla/5.0 (X11; Linux x86_64) AppleWebKit/537.36 (KHTML, like Gecko) Chrome/44.0.2403.157 Safari/537.36"
37.9.113.168 - - [04/Nov/2018:14:15:04 +0000] "GET /robots.txt HTTP/1.1" 404 2200 "-" "Mozilla/5.0 (compatible; YandexBot/3.0; +http://yandex.com/bots)"
213.180.203.23 - - [04/Nov/2018:14:15:05 +0000] "GET /robots.txt HTTP/1.1" 404 2196 "-" "Mozilla/5.0 (compatible; YandexBot/3.0; +http://yandex.com/bots)"
141.8.132.4 - - [04/Nov/2018:14:15:08 +0000] "GET / HTTP/1.1" 200 114689 "-" "Mozilla/5.0 (compatible; YandexBot/3.0; +http://yandex.com/bots)"
141.8.132.14 - - [04/Nov/2018:14:15:09 +0000] "GET / HTTP/1.1" 200 114689 "-" "Mozilla/5.0 (compatible; YandexBot/3.0; +http://yandex.com/bots)"
51.15.205.84 - - [04/Nov/2018:14:28:06 +0000] "GET /.git/info/refs?service=git-upload-pack HTTP/1.1" 404 2232 "-" "git/2.7.4"
97.74.228.245 - - [04/Nov/2018:14:30:49 +0000] "POST /xmlrpc.php HTTP/1.1" 404 2197 "-" "Mozilla/5.0 (Macintosh; U; Intel Mac OS X 10.6; fr; rv:1.9.2.8) Gecko/20100722 Firefox/3.6.8"
176.10.99.200 - - [04/Nov/2018:15:56:24 +0000] "GET / HTTP/1.1" 200 114689 "-" "Mozilla/5.0 (Windows NT 6.1; WOW64; rv:48.0) Gecko/20100101 Firefox/48.0"
110.83.60.21 - - [04/Nov/2018:16:01:27 +0000] "HEAD /wp-content/themes/twentysixteen/inc/customizer.php HTTP/1.1" 404 0 "-" "-"
180.76.15.28 - - [04/Nov/2018:16:23:58 +0000] "GET / HTTP/1.1" 200 114689 "-" "Mozilla/5.0 (compatible; Baiduspider/2.0; +http://www.baidu.com/search/spider.html)"
97.74.228.245 - - [04/Nov/2018:16:41:58 +0000] "POST /xmlrpc.php HTTP/1.1" 404 2197 "-" "Mozilla/5.0 (Macintosh; U; Intel Mac OS X 10.6; fr; rv:1.9.2.8) Gecko/20100722 Firefox/3.6.8"
192.42.116.17 - - [04/Nov/2018:17:05:37 +0000] "GET / HTTP/1.1" 200 114689 "-" "Mozilla/5.0 (Windows NT 10.0; Win64; x64) AppleWebKit/537.36 (KHTML, like Gecko) Chrome/58.0.3029.110 Safari/537.36"
130.149.80.199 - - [04/Nov/2018:17:46:21 +0000] "GET / HTTP/1.1" 200 114689 "-" "Mozilla/5.0 (Windows NT 10.0; WOW64; Trident/7.0; rv:11.0) like Gecko"
137.117.152.181 - - [04/Nov/2018:18:11:09 +0000] "GET /kickstart.php HTTP/1.1" 404 2205 "-" "Mozilla/5.0 (Windows NT 6.1) AppleWebKit/537.36 (KHTML, like Gecko) Chrome/67.0.3396.87 Safari/537.36 OPR/54.0.2952.51"
97.74.228.245 - - [04/Nov/2018:18:50:59 +0000] "POST /xmlrpc.php HTTP/1.1" 404 2197 "-" "Mozilla/5.0 (Macintosh; U; Intel Mac OS X 10.6; fr; rv:1.9.2.8) Gecko/20100722 Firefox/3.6.8"
54.36.148.149 - - [04/Nov/2018:19:07:13 +0000] "GET /methode-om-te-visualiseren-tijdens-een-gesprek/ HTTP/1.1" 404 2307 "-" "Mozilla/5.0 (compatible; AhrefsBot/5.2; +http://ahrefs.com/robot/)"
157.55.39.27 - - [04/Nov/2018:19:21:36 +0000] "GET /robots.txt HTTP/1.1" 404 2196 "-" "Mozilla/5.0 (compatible; bingbot/2.0; +http://www.bing.com/bingbot.htm)"
157.55.39.27 - - [04/Nov/2018:19:23:40 +0000] "GET /robots.txt HTTP/1.1" 404 2196 "-" "Mozilla/5.0 (compatible; bingbot/2.0; +http://www.bing.com/bingbot.htm)"
157.55.39.50 - - [04/Nov/2018:19:24:12 +0000] "GET /freya/ HTTP/1.1" 404 2184 "-" "Mozilla/5.0 (compatible; bingbot/2.0; +http://www.bing.com/bingbot.htm)"
157.55.39.27 - - [04/Nov/2018:19:26:33 +0000] "GET /robots.txt HTTP/1.1" 404 2196 "-" "Mozilla/5.0 (compatible; bingbot/2.0; +http://www.bing.com/bingbot.htm)"
104.244.78.163 - - [04/Nov/2018:19:34:33 +0000] "GET / HTTP/1.1" 200 114689 "-" "Mozilla/5.0 (Windows NT 6.1; WOW64) AppleWebKit/537.36 (KHTML, like Gecko) Chrome/55.0.2883.87 Safari/537.36 OPR/42.0.2393.94"
89.248.169.130 - - [04/Nov/2018:19:39:52 +0000] "POST /xmlrpc.php HTTP/1.1" 404 2197 "-" "Mozilla/5.0 (Macintosh; U; Intel Mac OS X 10.6; fr; rv:1.9.2.8) Gecko/20100722 Firefox/3.6.8"
89.248.169.130 - - [04/Nov/2018:19:39:52 +0000] "POST /xmlrpc.php HTTP/1.1" 404 2197 "-" "Mozilla/5.0 (Macintosh; U; Intel Mac OS X 10.6; fr; rv:1.9.2.8) Gecko/20100722 Firefox/3.6.8"
89.248.169.130 - - [04/Nov/2018:19:39:52 +0000] "POST /xmlrpc.php HTTP/1.1" 404 2197 "-" "Mozilla/5.0 (Macintosh; U; Intel Mac OS X 10.6; fr; rv:1.9.2.8) Gecko/20100722 Firefox/3.6.8"
89.248.169.130 - - [04/Nov/2018:19:39:52 +0000] "POST /xmlrpc.php HTTP/1.1" 404 2197 "-" "Mozilla/5.0 (Macintosh; U; Intel Mac OS X 10.6; fr; rv:1.9.2.8) Gecko/20100722 Firefox/3.6.8"
185.220.101.21 - - [04/Nov/2018:19:41:59 +0000] "GET / HTTP/1.1" 200 114689 "-" "Mozilla/5.0 (Windows NT 5.1; Win64; x64) AppleWebKit/537.36 (KHTML, like Gecko) Chrome/55.0.2883.87 Safari/537.36"
159.65.3.179 - - [04/Nov/2018:19:45:41 +0000] "GET /wp-content/plugins/Aviliate/user.php HTTP/1.1" 404 2274 "http://site.ru" "Mozilla/5.0 (Windows; U; Windows NT 5.1; en-US) AppleWebKit/533.4 (KHTML, like Gecko) Chrome/5.0.375.99 Safari/533.4"
97.74.228.245 - - [04/Nov/2018:21:02:05 +0000] "POST /xmlrpc.php HTTP/1.1" 404 2197 "-" "Mozilla/5.0 (Macintosh; U; Intel Mac OS X 10.6; fr; rv:1.9.2.8) Gecko/20100722 Firefox/3.6.8"
69.12.66.241 - - [04/Nov/2018:21:24:57 +0000] "GET /wp-content/plugins/vcrm/x.php?xi HTTP/1.1" 404 2256 "http://radicalbit.com/wp-content/plugins/vcrm/x.php?xi" "Mozilla/5.0 (Windows NT 6.1; WOW64) AppleWebKit/537.36 (KHTML, like Gecko) Chrome/42.0.2311.152 Safari/537.36"
54.36.149.104 - - [04/Nov/2018:22:51:23 +0000] "GET /jam/ HTTP/1.1" 404 2178 "-" "Mozilla/5.0 (compatible; AhrefsBot/5.2; +http://ahrefs.com/robot/)"
97.74.228.245 - - [04/Nov/2018:23:12:34 +0000] "POST /xmlrpc.php HTTP/1.1" 404 2197 "-" "Mozilla/5.0 (Macintosh; U; Intel Mac OS X 10.6; fr; rv:1.9.2.8) Gecko/20100722 Firefox/3.6.8"
71.248.162.59 - - [04/Nov/2018:23:55:22 +0000] "HEAD / HTTP/1.1" 200 0 "-" "curl/7.54.0"
37.187.94.86 - - [05/Nov/2018:00:31:18 +0000] "GET / HTTP/1.1" 200 114689 "-" "Mozilla/5.0 (Windows NT 6.1; WOW64; rv:47.0) Gecko/20100101 Firefox/47.0"
193.201.224.210 - - [05/Nov/2018:01:07:50 +0000] "GET /wp-content/themes/ThisWay/includes/uploadify/upload_settings_image.php HTTP/1.1" 404 2376 "http://radicalbit.com/wp-content/themes/ThisWay/includes/uploadify/upload_settings_image.php" "Mozilla/5.0 (Windows NT 6.1; WOW64) AppleWebKit/537.36 (KHTML, like Gecko) Chrome/42.0.2311.152 Safari/537.36"
97.74.228.245 - - [05/Nov/2018:01:25:46 +0000] "POST /xmlrpc.php HTTP/1.1" 404 2197 "-" "Mozilla/5.0 (Macintosh; U; Intel Mac OS X 10.6; fr; rv:1.9.2.8) Gecko/20100722 Firefox/3.6.8"
180.76.15.29 - - [05/Nov/2018:01:34:45 +0000] "GET /wp-content/uploads/2016/05/JAM-Communicatietraining-Visueel-Denken_april-20161.pdf HTTP/1.1" 404 2412 "-" "Mozilla/5.0 (compatible; Baiduspider/2.0; +http://www.baidu.com/search/spider.html)"
165.225.170.35 - - [05/Nov/2018:01:47:22 +0000] "GET /?author=1 HTTP/1.1" 200 114689 "-" "Mozilla/5.0 (Windows NT 10.0; Win64; x64) AppleWebKit/537.36 (KHTML, like Gecko) Chrome/61.0.3163.100 Safari/537.36"
165.225.170.35 - - [05/Nov/2018:01:47:22 +0000] "GET /wp-json/wp/v2/users/ HTTP/1.1" 404 2226 "-" "Mozilla/5.0 (Windows NT 10.0; Win64; x64) AppleWebKit/537.36 (KHTML, like Gecko) Chrome/61.0.3163.100 Safari/537.36"
165.225.170.35 - - [05/Nov/2018:01:47:23 +0000] "POST /xmlrpc.php HTTP/1.1" 404 2197 "-" "Mozilla/5.0 (Windows NT 10.0; Win64; x64) AppleWebKit/537.36 (KHTML, like Gecko) Chrome/61.0.3163.100 Safari/537.36"
165.225.170.35 - - [05/Nov/2018:01:47:23 +0000] "POST /xmlrpc.php HTTP/1.1" 404 2197 "-" "Mozilla/5.0 (Windows NT 10.0; Win64; x64) AppleWebKit/537.36 (KHTML, like Gecko) Chrome/61.0.3163.100 Safari/537.36"
123.57.254.142 - - [05/Nov/2018:02:32:32 +0000] "POST /xmlrpc.php HTTP/1.1" 404 2197 "-" "Mozilla/5.0 (Macintosh; U; Intel Mac OS X 10.6; fr; rv:1.9.2.8) Gecko/20100722 Firefox/3.6.8"
123.57.254.142 - - [05/Nov/2018:02:32:32 +0000] "POST /xmlrpc.php HTTP/1.1" 404 2197 "-" "Mozilla/5.0 (Macintosh; U; Intel Mac OS X 10.6; fr; rv:1.9.2.8) Gecko/20100722 Firefox/3.6.8"
