51.15.68.66 - - [03/Nov/2018:03:27:25 +0000] "GET / HTTP/1.1" 200 114689 "-" "Mozilla/5.0 (Windows NT 6.2; Win64; x64) AppleWebKit/537.36 (KHTML, like Gecko) Chrome/52.0.2743.116 Safari/537.36 Edge/15.15063"
185.119.81.11 - - [03/Nov/2018:03:55:04 +0000] "GET /wp-login.php HTTP/1.1" 404 2202 "-" "Mozilla/5.0 (Windows NT 10.0; WOW64) AppleWebKit/537.36 (KHTML, like Gecko) Chrome/51.0.2704.103 Safari/537.36"
185.86.164.100 - - [03/Nov/2018:03:57:07 +0000] "GET /wp-login.php HTTP/1.1" 404 2202 "-" "Mozilla/5.0 (Windows NT 10.0; WOW64) AppleWebKit/537.36 (KHTML, like Gecko) Chrome/51.0.2704.103 Safari/537.36"
123.57.254.142 - - [03/Nov/2018:04:04:51 +0000] "POST /xmlrpc.php HTTP/1.1" 404 2197 "-" "Mozilla/5.0 (Macintosh; U; Intel Mac OS X 10.6; fr; rv:1.9.2.8) Gecko/20100722 Firefox/3.6.8"
123.57.254.142 - - [03/Nov/2018:04:04:52 +0000] "POST /xmlrpc.php HTTP/1.1" 404 2197 "-" "Mozilla/5.0 (Macintosh; U; Intel Mac OS X 10.6; fr; rv:1.9.2.8) Gecko/20100722 Firefox/3.6.8"
97.74.228.245 - - [03/Nov/2018:04:58:10 +0000] "POST /xmlrpc.php HTTP/1.1" 404 2197 "-" "Mozilla/5.0 (Macintosh; U; Intel Mac OS X 10.6; fr; rv:1.9.2.8) Gecko/20100722 Firefox/3.6.8"
31.220.111.192 - - [03/Nov/2018:05:49:17 +0000] "GET /sec.php HTTP/1.1" 404 2187 "http://site.ru" "Mozilla/5.0 (Windows; U; Windows NT 5.1; en-US) AppleWebKit/533.4 (KHTML, like Gecko) Chrome/5.0.375.99 Safari/533.4"
51.15.88.249 - - [03/Nov/2018:05:50:19 +0000] "GET / HTTP/1.1" 200 114689 "-" "Mozilla/5.0 (compatible; MSIE 9.0; Windows NT 6.1; WOW64; Trident/5.0)"
180.76.15.147 - - [03/Nov/2018:05:50:20 +0000] "GET / HTTP/1.1" 200 114689 "-" "Mozilla/5.0 (compatible; Baiduspider/2.0; +http://www.baidu.com/search/spider.html)"
52.53.201.78 - - [03/Nov/2018:06:05:02 +0000] "GET / HTTP/1.1" 200 114689 "-" "Mozilla/5.0 (Macintosh; Intel Mac OS X 10_12_6) AppleWebKit/537.36 (KHTML, like Gecko) Chrome/61.0.3163.100 Safari/537.36"
180.76.15.150 - - [03/Nov/2018:06:23:40 +0000] "GET /work-case-sample/ HTTP/1.1" 404 2217 "-" "Mozilla/5.0 (compatible; Baiduspider/2.0; +http://www.baidu.com/search/spider.html)"
97.74.228.245 - - [03/Nov/2018:07:09:42 +0000] "POST /xmlrpc.php HTTP/1.1" 404 2197 "-" "Mozilla/5.0 (Macintosh; U; Intel Mac OS X 10.6; fr; rv:1.9.2.8) Gecko/20100722 Firefox/3.6.8"
2a03:2880:20ff:12::face:b00c - - [03/Nov/2018:07:25:03 +0000] "GET /robots.txt HTTP/1.1" 404 2196 "-" "facebookexternalhit/1.1 (+http://www.facebook.com/externalhit_uatext.php)"
2a03:2880:31ff:4::face:b00c - - [03/Nov/2018:07:25:54 +0000] "GET / HTTP/1.1" 200 114689 "-" "Mozilla/5.0 (Windows NT 10.0; Win64; x64) AppleWebKit/537.36 (KHTML, like Gecko) Chrome/64.0.3282.140 Safari/537.36 Edge/17.17134"
2a03:2880:31ff:7::face:b00c - - [03/Nov/2018:07:25:54 +0000] "GET /index_files/analytics.js.download HTTP/1.1" 404 2265 "http://radicalbit.com/" "Mozilla/5.0 (Windows NT 10.0; Win64; x64) AppleWebKit/537.36 (KHTML, like Gecko) Chrome/64.0.3282.140 Safari/537.36 Edge/17.17134"
2a03:2880:31ff:7::face:b00c - - [03/Nov/2018:07:25:55 +0000] "GET /index_files/analytics.js(1).download HTTP/1.1" 404 2274 "http://radicalbit.com/" "Mozilla/5.0 (Windows NT 10.0; Win64; x64) AppleWebKit/537.36 (KHTML, like Gecko) Chrome/64.0.3282.140 Safari/537.36 Edge/17.17134"
2a03:2880:31ff:7::face:b00c - - [03/Nov/2018:07:25:55 +0000] "GET /index_files/wp-emoji-release.min.js.download HTTP/1.1" 404 2298 "http://radicalbit.com/" "Mozilla/5.0 (Windows NT 10.0; Win64; x64) AppleWebKit/537.36 (KHTML, like Gecko) Chrome/64.0.3282.140 Safari/537.36 Edge/17.17134"
2a03:2880:31ff:7::face:b00c - - [03/Nov/2018:07:25:55 +0000] "GET /index_files/jquery.webui-popover.min.css HTTP/1.1" 404 2286 "http://radicalbit.com/" "Mozilla/5.0 (Windows NT 10.0; Win64; x64) AppleWebKit/537.36 (KHTML, like Gecko) Chrome/64.0.3282.140 Safari/537.36 Edge/17.17134"
2a03:2880:31ff:7::face:b00c - - [03/Nov/2018:07:25:55 +0000] "GET /index_files/lifterlms.min.css HTTP/1.1" 404 2253 "http://radicalbit.com/" "Mozilla/5.0 (Windows NT 10.0; Win64; x64) AppleWebKit/537.36 (KHTML, like Gecko) Chrome/64.0.3282.140 Safari/537.36 Edge/17.17134"
2a03:2880:31ff:7::face:b00c - - [03/Nov/2018:07:25:55 +0000] "GET /index_files/style(1).css HTTP/1.1" 404 2238 "http://radicalbit.com/" "Mozilla/5.0 (Windows NT 10.0; Win64; x64) AppleWebKit/537.36 (KHTML, like Gecko) Chrome/64.0.3282.140 Safari/537.36 Edge/17.17134"
2a03:2880:31ff:7::face:b00c - - [03/Nov/2018:07:25:55 +0000] "GET /index_files/css HTTP/1.1" 404 2211 "http://radicalbit.com/" "Mozilla/5.0 (Windows NT 10.0; Win64; x64) AppleWebKit/537.36 (KHTML, like Gecko) Chrome/64.0.3282.140 Safari/537.36 Edge/17.17134"
2a03:2880:31ff:7::face:b00c - - [03/Nov/2018:07:25:55 +0000] "GET /index_files/spectrum.css HTTP/1.1" 404 2238 "http://radicalbit.com/" "Mozilla/5.0 (Windows NT 10.0; Win64; x64) AppleWebKit/537.36 (KHTML, like Gecko) Chrome/64.0.3282.140 Safari/537.36 Edge/17.17134"
2a03:2880:31ff:7::face:b00c - - [03/Nov/2018:07:25:55 +0000] "GET /index_files/svgavatars.css HTTP/1.1" 404 2244 "http://radicalbit.com/" "Mozilla/5.0 (Windows NT 10.0; Win64; x64) AppleWebKit/537.36 (KHTML, like Gecko) Chrome/64.0.3282.140 Safari/537.36 Edge/17.17134"
2a03:2880:31ff:a::face:b00c - - [03/Nov/2018:07:25:55 +0000] "GET /index_files/style.css HTTP/1.1" 404 2229 "http://radicalbit.com/" "Mozilla/5.0 (Windows NT 10.0; Win64; x64) AppleWebKit/537.36 (KHTML, like Gecko) Chrome/64.0.3282.140 Safari/537.36 Edge/17.17134"
2a03:2880:31ff:c::face:b00c - - [03/Nov/2018:07:25:55 +0000] "GET /index_files/styles.css HTTP/1.1" 404 2232 "http://radicalbit.com/" "Mozilla/5.0 (Windows NT 10.0; Win64; x64) AppleWebKit/537.36 (KHTML, like Gecko) Chrome/64.0.3282.140 Safari/537.36 Edge/17.17134"
2a03:2880:31ff:a::face:b00c - - [03/Nov/2018:07:25:55 +0000] "GET /index_files/rtl.css HTTP/1.1" 404 2223 "http://radicalbit.com/" "Mozilla/5.0 (Windows NT 10.0; Win64; x64) AppleWebKit/537.36 (KHTML, like Gecko) Chrome/64.0.3282.140 Safari/537.36 Edge/17.17134"
2a03:2880:31ff:d::face:b00c - - [03/Nov/2018:07:25:55 +0000] "GET /index_files/front.min.css HTTP/1.1" 404 2241 "http://radicalbit.com/" "Mozilla/5.0 (Windows NT 10.0; Win64; x64) AppleWebKit/537.36 (KHTML, like Gecko) Chrome/64.0.3282.140 Safari/537.36 Edge/17.17134"
2a03:2880:31ff:7::face:b00c - - [03/Nov/2018:07:25:55 +0000] "GET /index_files/svgavatars-custom.css HTTP/1.1" 404 2265 "http://radicalbit.com/" "Mozilla/5.0 (Windows NT 10.0; Win64; x64) AppleWebKit/537.36 (KHTML, like Gecko) Chrome/64.0.3282.140 Safari/537.36 Edge/17.17134"
2a03:2880:31ff:a::face:b00c - - [03/Nov/2018:07:25:55 +0000] "GET /index_files/frontend-forms.css HTTP/1.1" 404 2256 "http://radicalbit.com/" "Mozilla/5.0 (Windows NT 10.0; Win64; x64) AppleWebKit/537.36 (KHTML, like Gecko) Chrome/64.0.3282.140 Safari/537.36 Edge/17.17134"
2a03:2880:31ff:c::face:b00c - - [03/Nov/2018:07:25:55 +0000] "GET /index_files/jquery-ui-1.9.1.custom.css HTTP/1.1" 404 2280 "http://radicalbit.com/" "Mozilla/5.0 (Windows NT 10.0; Win64; x64) AppleWebKit/537.36 (KHTML, like Gecko) Chrome/64.0.3282.140 Safari/537.36 Edge/17.17134"
2a03:2880:31ff:a::face:b00c - - [03/Nov/2018:07:25:55 +0000] "GET /index_files/sweetalert2.css HTTP/1.1" 404 2247 "http://radicalbit.com/" "Mozilla/5.0 (Windows NT 10.0; Win64; x64) AppleWebKit/537.36 (KHTML, like Gecko) Chrome/64.0.3282.140 Safari/537.36 Edge/17.17134"
2a03:2880:31ff:d::face:b00c - - [03/Nov/2018:07:25:55 +0000] "GET /index_files/style(2).css HTTP/1.1" 404 2238 "http://radicalbit.com/" "Mozilla/5.0 (Windows NT 10.0; Win64; x64) AppleWebKit/537.36 (KHTML, like Gecko) Chrome/64.0.3282.140 Safari/537.36 Edge/17.17134"
2a03:2880:31ff:7::face:b00c - - [03/Nov/2018:07:25:55 +0000] "GET /index_files/css(1) HTTP/1.1" 404 2220 "http://radicalbit.com/" "Mozilla/5.0 (Windows NT 10.0; Win64; x64) AppleWebKit/537.36 (KHTML, like Gecko) Chrome/64.0.3282.140 Safari/537.36 Edge/17.17134"
2a03:2880:31ff:c::face:b00c - - [03/Nov/2018:07:25:55 +0000] "GET /index_files/css(2) HTTP/1.1" 404 2220 "http://radicalbit.com/" "Mozilla/5.0 (Windows NT 10.0; Win64; x64) AppleWebKit/537.36 (KHTML, like Gecko) Chrome/64.0.3282.140 Safari/537.36 Edge/17.17134"
2a03:2880:31ff:a::face:b00c - - [03/Nov/2018:07:25:55 +0000] "GET /index_files/style(3).css HTTP/1.1" 404 2238 "http://radicalbit.com/" "Mozilla/5.0 (Windows NT 10.0; Win64; x64) AppleWebKit/537.36 (KHTML, like Gecko) Chrome/64.0.3282.140 Safari/537.36 Edge/17.17134"
2a03:2880:31ff:d::face:b00c - - [03/Nov/2018:07:25:55 +0000] "GET /index_files/style(4).css HTTP/1.1" 404 2238 "http://radicalbit.com/" "Mozilla/5.0 (Windows NT 10.0; Win64; x64) AppleWebKit/537.36 (KHTML, like Gecko) Chrome/64.0.3282.140 Safari/537.36 Edge/17.17134"
2a03:2880:31ff:7::face:b00c - - [03/Nov/2018:07:25:55 +0000] "GET /index_files/css(3) HTTP/1.1" 404 2220 "http://radicalbit.com/" "Mozilla/5.0 (Windows NT 10.0; Win64; x64) AppleWebKit/537.36 (KHTML, like Gecko) Chrome/64.0.3282.140 Safari/537.36 Edge/17.17134"
2a03:2880:31ff:a::face:b00c - - [03/Nov/2018:07:25:55 +0000] "GET /index_files/css-stars.css HTTP/1.1" 404 2241 "http://radicalbit.com/" "Mozilla/5.0 (Windows NT 10.0; Win64; x64) AppleWebKit/537.36 (KHTML, like Gecko) Chrome/64.0.3282.140 Safari/537.36 Edge/17.17134"
2a03:2880:31ff:c::face:b00c - - [03/Nov/2018:07:25:55 +0000] "GET /index_files/style(5).css HTTP/1.1" 404 2238 "http://radicalbit.com/" "Mozilla/5.0 (Windows NT 10.0; Win64; x64) AppleWebKit/537.36 (KHTML, like Gecko) Chrome/64.0.3282.140 Safari/537.36 Edge/17.17134"
2a03:2880:31ff:a::face:b00c - - [03/Nov/2018:07:25:55 +0000] "GET /index_files/css(4) HTTP/1.1" 404 2220 "http://radicalbit.com/" "Mozilla/5.0 (Windows NT 10.0; Win64; x64) AppleWebKit/537.36 (KHTML, like Gecko) Chrome/64.0.3282.140 Safari/537.36 Edge/17.17134"
2a03:2880:31ff:d::face:b00c - - [03/Nov/2018:07:25:55 +0000] "GET /index_files/dashicons.min.css HTTP/1.1" 404 2253 "http://radicalbit.com/" "Mozilla/5.0 (Windows NT 10.0; Win64; x64) AppleWebKit/537.36 (KHTML, like Gecko) Chrome/64.0.3282.140 Safari/537.36 Edge/17.17134"
2a03:2880:31ff:7::face:b00c - - [03/Nov/2018:07:25:55 +0000] "GET /index_files/et-extra-customizer-global-15393515465325.min.css HTTP/1.1" 404 2349 "http://radicalbit.com/" "Mozilla/5.0 (Windows NT 10.0; Win64; x64) AppleWebKit/537.36 (KHTML, like Gecko) Chrome/64.0.3282.140 Safari/537.36 Edge/17.17134"
2a03:2880:31ff:a::face:b00c - - [03/Nov/2018:07:25:55 +0000] "GET /index_files/classic-10_7.css HTTP/1.1" 404 2250 "http://radicalbit.com/" "Mozilla/5.0 (Windows NT 10.0; Win64; x64) AppleWebKit/537.36 (KHTML, like Gecko) Chrome/64.0.3282.140 Safari/537.36 Edge/17.17134"
2a03:2880:31ff:d::face:b00c - - [03/Nov/2018:07:25:55 +0000] "GET /index_files/jquery.js.download HTTP/1.1" 404 2256 "http://radicalbit.com/" "Mozilla/5.0 (Windows NT 10.0; Win64; x64) AppleWebKit/537.36 (KHTML, like Gecko) Chrome/64.0.3282.140 Safari/537.36 Edge/17.17134"
2a03:2880:31ff:c::face:b00c - - [03/Nov/2018:07:25:55 +0000] "GET /index_files/mediaelementplayer-legacy.min.css HTTP/1.1" 404 2301 "http://radicalbit.com/" "Mozilla/5.0 (Windows NT 10.0; Win64; x64) AppleWebKit/537.36 (KHTML, like Gecko) Chrome/64.0.3282.140 Safari/537.36 Edge/17.17134"
2a03:2880:31ff:a::face:b00c - - [03/Nov/2018:07:25:55 +0000] "GET /index_files/front.min.js.download HTTP/1.1" 404 2265 "http://radicalbit.com/" "Mozilla/5.0 (Windows NT 10.0; Win64; x64) AppleWebKit/537.36 (KHTML, like Gecko) Chrome/64.0.3282.140 Safari/537.36 Edge/17.17134"
2a03:2880:31ff:a::face:b00c - - [03/Nov/2018:07:25:55 +0000] "GET /index_files/wp-mediaelement.min.css HTTP/1.1" 404 2271 "http://radicalbit.com/" "Mozilla/5.0 (Windows NT 10.0; Win64; x64) AppleWebKit/537.36 (KHTML, like Gecko) Chrome/64.0.3282.140 Safari/537.36 Edge/17.17134"
2a03:2880:31ff:7::face:b00c - - [03/Nov/2018:07:25:55 +0000] "GET /index_files/jquery-migrate.min.js.download HTTP/1.1" 404 2292 "http://radicalbit.com/" "Mozilla/5.0 (Windows NT 10.0; Win64; x64) AppleWebKit/537.36 (KHTML, like Gecko) Chrome/64.0.3282.140 Safari/537.36 Edge/17.17134"
2a03:2880:31ff:d::face:b00c - - [03/Nov/2018:07:25:55 +0000] "GET /index_files/core.min.js.download HTTP/1.1" 404 2262 "http://radicalbit.com/" "Mozilla/5.0 (Windows NT 10.0; Win64; x64) AppleWebKit/537.36 (KHTML, like Gecko) Chrome/64.0.3282.140 Safari/537.36 Edge/17.17134"
2a03:2880:31ff:c::face:b00c - - [03/Nov/2018:07:25:55 +0000] "GET /index_files/widget.min.js.download HTTP/1.1" 404 2268 "http://radicalbit.com/" "Mozilla/5.0 (Windows NT 10.0; Win64; x64) AppleWebKit/537.36 (KHTML, like Gecko) Chrome/64.0.3282.140 Safari/537.36 Edge/17.17134"
2a03:2880:31ff:7::face:b00c - - [03/Nov/2018:07:25:55 +0000] "GET /index_files/collapse.js.download HTTP/1.1" 404 2262 "http://radicalbit.com/" "Mozilla/5.0 (Windows NT 10.0; Win64; x64) AppleWebKit/537.36 (KHTML, like Gecko) Chrome/64.0.3282.140 Safari/537.36 Edge/17.17134"
2a03:2880:31ff:a::face:b00c - - [03/Nov/2018:07:25:55 +0000] "GET /index_files/datepicker.min.js.download HTTP/1.1" 404 2280 "http://radicalbit.com/" "Mozilla/5.0 (Windows NT 10.0; Win64; x64) AppleWebKit/537.36 (KHTML, like Gecko) Chrome/64.0.3282.140 Safari/537.36 Edge/17.17134"
2a03:2880:31ff:a::face:b00c - - [03/Nov/2018:07:25:55 +0000] "GET /index_files/mouse.min.js.download HTTP/1.1" 404 2265 "http://radicalbit.com/" "Mozilla/5.0 (Windows NT 10.0; Win64; x64) AppleWebKit/537.36 (KHTML, like Gecko) Chrome/64.0.3282.140 Safari/537.36 Edge/17.17134"
2a03:2880:31ff:d::face:b00c - - [03/Nov/2018:07:25:55 +0000] "GET /index_files/transition.js.download HTTP/1.1" 404 2268 "http://radicalbit.com/" "Mozilla/5.0 (Windows NT 10.0; Win64; x64) AppleWebKit/537.36 (KHTML, like Gecko) Chrome/64.0.3282.140 Safari/537.36 Edge/17.17134"
2a03:2880:31ff:c::face:b00c - - [03/Nov/2018:07:25:55 +0000] "GET /index_files/svg.min.js.download HTTP/1.1" 404 2259 "http://radicalbit.com/" "Mozilla/5.0 (Windows NT 10.0; Win64; x64) AppleWebKit/537.36 (KHTML, like Gecko) Chrome/64.0.3282.140 Safari/537.36 Edge/17.17134"
2a03:2880:31ff:7::face:b00c - - [03/Nov/2018:07:25:55 +0000] "GET /index_files/spectrum.min.js.download HTTP/1.1" 404 2274 "http://radicalbit.com/" "Mozilla/5.0 (Windows NT 10.0; Win64; x64) AppleWebKit/537.36 (KHTML, like Gecko) Chrome/64.0.3282.140 Safari/537.36 Edge/17.17134"
2a03:2880:31ff:a::face:b00c - - [03/Nov/2018:07:25:55 +0000] "GET /index_files/jquery.scrollbar.min.js.download HTTP/1.1" 404 2298 "http://radicalbit.com/" "Mozilla/5.0 (Windows NT 10.0; Win64; x64) AppleWebKit/537.36 (KHTML, like Gecko) Chrome/64.0.3282.140 Safari/537.36 Edge/17.17134"
2a03:2880:31ff:a::face:b00c - - [03/Nov/2018:07:25:55 +0000] "GET /index_files/rgbcolor.js.download HTTP/1.1" 404 2262 "http://radicalbit.com/" "Mozilla/5.0 (Windows NT 10.0; Win64; x64) AppleWebKit/537.36 (KHTML, like Gecko) Chrome/64.0.3282.140 Safari/537.36 Edge/17.17134"
2a03:2880:31ff:d::face:b00c - - [03/Nov/2018:07:25:55 +0000] "GET /index_files/StackBlur.js.download HTTP/1.1" 404 2265 "http://radicalbit.com/" "Mozilla/5.0 (Windows NT 10.0; Win64; x64) AppleWebKit/537.36 (KHTML, like Gecko) Chrome/64.0.3282.140 Safari/537.36 Edge/17.17134"
2a03:2880:31ff:c::face:b00c - - [03/Nov/2018:07:25:55 +0000] "GET /index_files/canvg.js.download HTTP/1.1" 404 2253 "http://radicalbit.com/" "Mozilla/5.0 (Windows NT 10.0; Win64; x64) AppleWebKit/537.36 (KHTML, like Gecko) Chrome/64.0.3282.140 Safari/537.36 Edge/17.17134"
2a03:2880:31ff:7::face:b00c - - [03/Nov/2018:07:25:55 +0000] "GET /index_files/svgavatars.result.min.js.download HTTP/1.1" 404 2301 "http://radicalbit.com/" "Mozilla/5.0 (Windows NT 10.0; Win64; x64) AppleWebKit/537.36 (KHTML, like Gecko) Chrome/64.0.3282.140 Safari/537.36 Edge/17.17134"
2a03:2880:31ff:a::face:b00c - - [03/Nov/2018:07:25:55 +0000] "GET /index_files/moxie.min.js.download HTTP/1.1" 404 2265 "http://radicalbit.com/" "Mozilla/5.0 (Windows NT 10.0; Win64; x64) AppleWebKit/537.36 (KHTML, like Gecko) Chrome/64.0.3282.140 Safari/537.36 Edge/17.17134"
2a03:2880:31ff:a::face:b00c - - [03/Nov/2018:07:25:55 +0000] "GET /index_files/plupload.min.js.download HTTP/1.1" 404 2274 "http://radicalbit.com/" "Mozilla/5.0 (Windows NT 10.0; Win64; x64) AppleWebKit/537.36 (KHTML, like Gecko) Chrome/64.0.3282.140 Safari/537.36 Edge/17.17134"
2a03:2880:31ff:d::face:b00c - - [03/Nov/2018:07:25:55 +0000] "GET /index_files/handlers.min.js.download HTTP/1.1" 404 2274 "http://radicalbit.com/" "Mozilla/5.0 (Windows NT 10.0; Win64; x64) AppleWebKit/537.36 (KHTML, like Gecko) Chrome/64.0.3282.140 Safari/537.36 Edge/17.17134"
2a03:2880:31ff:c::face:b00c - - [03/Nov/2018:07:25:55 +0000] "GET /index_files/jquery-ui-timepicker-addon.js.download HTTP/1.1" 404 2316 "http://radicalbit.com/" "Mozilla/5.0 (Windows NT 10.0; Win64; x64) AppleWebKit/537.36 (KHTML, like Gecko) Chrome/64.0.3282.140 Safari/537.36 Edge/17.17134"
2a03:2880:31ff:7::face:b00c - - [03/Nov/2018:07:25:55 +0000] "GET /index_files/sortable.min.js.download HTTP/1.1" 404 2274 "http://radicalbit.com/" "Mozilla/5.0 (Windows NT 10.0; Win64; x64) AppleWebKit/537.36 (KHTML, like Gecko) Chrome/64.0.3282.140 Safari/537.36 Edge/17.17134"
2a03:2880:31ff:a::face:b00c - - [03/Nov/2018:07:25:55 +0000] "GET /index_files/upload.js.download HTTP/1.1" 404 2256 "http://radicalbit.com/" "Mozilla/5.0 (Windows NT 10.0; Win64; x64) AppleWebKit/537.36 (KHTML, like Gecko) Chrome/64.0.3282.140 Safari/537.36 Edge/17.17134"
2a03:2880:31ff:a::face:b00c - - [03/Nov/2018:07:25:55 +0000] "GET /index_files/frontend-form.min.js.download HTTP/1.1" 404 2289 "http://radicalbit.com/" "Mozilla/5.0 (Windows NT 10.0; Win64; x64) AppleWebKit/537.36 (KHTML, like Gecko) Chrome/64.0.3282.140 Safari/537.36 Edge/17.17134"
2a03:2880:31ff:d::face:b00c - - [03/Nov/2018:07:25:55 +0000] "GET /index_files/sweetalert2.js.download HTTP/1.1" 404 2271 "http://radicalbit.com/" "Mozilla/5.0 (Windows NT 10.0; Win64; x64) AppleWebKit/537.36 (KHTML, like Gecko) Chrome/64.0.3282.140 Safari/537.36 Edge/17.17134"
2a03:2880:31ff:c::face:b00c - - [03/Nov/2018:07:25:55 +0000] "GET /index_files/jquery.barrating.min.js.download HTTP/1.1" 404 2298 "http://radicalbit.com/" "Mozilla/5.0 (Windows NT 10.0; Win64; x64) AppleWebKit/537.36 (KHTML, like Gecko) Chrome/64.0.3282.140 Safari/537.36 Edge/17.17134"
2a03:2880:31ff:7::face:b00c - - [03/Nov/2018:07:25:55 +0000] "GET /index_files/billing-address.js.download HTTP/1.1" 404 2283 "http://radicalbit.com/" "Mozilla/5.0 (Windows NT 10.0; Win64; x64) AppleWebKit/537.36 (KHTML, like Gecko) Chrome/64.0.3282.140 Safari/537.36 Edge/17.17134"
2a03:2880:31ff:4::face:b00c - - [03/Nov/2018:07:25:55 +0000] "GET /index_files/front.min.js.download HTTP/1.1" 404 2265 "http://radicalbit.com/" "Mozilla/5.0 (Windows NT 10.0; Win64; x64) AppleWebKit/537.36 (KHTML, like Gecko) Chrome/64.0.3282.140 Safari/537.36 Edge/17.17134"
2a03:2880:31ff:7::face:b00c - - [03/Nov/2018:07:25:55 +0000] "GET /index_files/mc-validate.js.download HTTP/1.1" 404 2271 "http://radicalbit.com/" "Mozilla/5.0 (Windows NT 10.0; Win64; x64) AppleWebKit/537.36 (KHTML, like Gecko) Chrome/64.0.3282.140 Safari/537.36 Edge/17.17134"
2a03:2880:31ff:7::face:b00c - - [03/Nov/2018:07:25:56 +0000] "GET /index_files/core.min.js.download HTTP/1.1" 404 2262 "http://radicalbit.com/" "Mozilla/5.0 (Windows NT 10.0; Win64; x64) AppleWebKit/537.36 (KHTML, like Gecko) Chrome/64.0.3282.140 Safari/537.36 Edge/17.17134"
2a03:2880:31ff:4::face:b00c - - [03/Nov/2018:07:25:56 +0000] "GET /index_files/llms.min.js.download HTTP/1.1" 404 2262 "http://radicalbit.com/" "Mozilla/5.0 (Windows NT 10.0; Win64; x64) AppleWebKit/537.36 (KHTML, like Gecko) Chrome/64.0.3282.140 Safari/537.36 Edge/17.17134"
2a03:2880:31ff:4::face:b00c - - [03/Nov/2018:07:25:56 +0000] "GET /index_files/widget.min.js.download HTTP/1.1" 404 2268 "http://radicalbit.com/" "Mozilla/5.0 (Windows NT 10.0; Win64; x64) AppleWebKit/537.36 (KHTML, like Gecko) Chrome/64.0.3282.140 Safari/537.36 Edge/17.17134"
2a03:2880:31ff:7::face:b00c - - [03/Nov/2018:07:25:56 +0000] "GET /index_files/scripts.js.download HTTP/1.1" 404 2259 "http://radicalbit.com/" "Mozilla/5.0 (Windows NT 10.0; Win64; x64) AppleWebKit/537.36 (KHTML, like Gecko) Chrome/64.0.3282.140 Safari/537.36 Edge/17.17134"
2a03:2880:31ff:4::face:b00c - - [03/Nov/2018:07:25:56 +0000] "GET /index_files/datepicker.min.js.download HTTP/1.1" 404 2280 "http://radicalbit.com/" "Mozilla/5.0 (Windows NT 10.0; Win64; x64) AppleWebKit/537.36 (KHTML, like Gecko) Chrome/64.0.3282.140 Safari/537.36 Edge/17.17134"
2a03:2880:31ff:7::face:b00c - - [03/Nov/2018:07:25:56 +0000] "GET /index_files/position.min.js.download HTTP/1.1" 404 2274 "http://radicalbit.com/" "Mozilla/5.0 (Windows NT 10.0; Win64; x64) AppleWebKit/537.36 (KHTML, like Gecko) Chrome/64.0.3282.140 Safari/537.36 Edge/17.17134"
2a03:2880:31ff:4::face:b00c - - [03/Nov/2018:07:25:56 +0000] "GET /index_files/mouse.min.js.download HTTP/1.1" 404 2265 "http://radicalbit.com/" "Mozilla/5.0 (Windows NT 10.0; Win64; x64) AppleWebKit/537.36 (KHTML, like Gecko) Chrome/64.0.3282.140 Safari/537.36 Edge/17.17134"
2a03:2880:31ff:7::face:b00c - - [03/Nov/2018:07:25:56 +0000] "GET /index_files/tooltip.min.js.download HTTP/1.1" 404 2271 "http://radicalbit.com/" "Mozilla/5.0 (Windows NT 10.0; Win64; x64) AppleWebKit/537.36 (KHTML, like Gecko) Chrome/64.0.3282.140 Safari/537.36 Edge/17.17134"
2a03:2880:31ff:4::face:b00c - - [03/Nov/2018:07:25:56 +0000] "GET /index_files/collapse.js.download HTTP/1.1" 404 2262 "http://radicalbit.com/" "Mozilla/5.0 (Windows NT 10.0; Win64; x64) AppleWebKit/537.36 (KHTML, like Gecko) Chrome/64.0.3282.140 Safari/537.36 Edge/17.17134"
2a03:2880:31ff:7::face:b00c - - [03/Nov/2018:07:25:56 +0000] "GET /index_files/slider.min.js.download HTTP/1.1" 404 2268 "http://radicalbit.com/" "Mozilla/5.0 (Windows NT 10.0; Win64; x64) AppleWebKit/537.36 (KHTML, like Gecko) Chrome/64.0.3282.140 Safari/537.36 Edge/17.17134"
2a03:2880:31ff:4::face:b00c - - [03/Nov/2018:07:25:56 +0000] "GET /index_files/transition.js.download HTTP/1.1" 404 2268 "http://radicalbit.com/" "Mozilla/5.0 (Windows NT 10.0; Win64; x64) AppleWebKit/537.36 (KHTML, like Gecko) Chrome/64.0.3282.140 Safari/537.36 Edge/17.17134"
2a03:2880:31ff:7::face:b00c - - [03/Nov/2018:07:25:56 +0000] "GET /index_files/jquery.webui-popover.min.js.download HTTP/1.1" 404 2310 "http://radicalbit.com/" "Mozilla/5.0 (Windows NT 10.0; Win64; x64) AppleWebKit/537.36 (KHTML, like Gecko) Chrome/64.0.3282.140 Safari/537.36 Edge/17.17134"
2a03:2880:31ff:4::face:b00c - - [03/Nov/2018:07:25:56 +0000] "GET /index_files/svg.min.js.download HTTP/1.1" 404 2259 "http://radicalbit.com/" "Mozilla/5.0 (Windows NT 10.0; Win64; x64) AppleWebKit/537.36 (KHTML, like Gecko) Chrome/64.0.3282.140 Safari/537.36 Edge/17.17134"
2a03:2880:31ff:7::face:b00c - - [03/Nov/2018:07:25:56 +0000] "GET /index_files/llms-ajax.min.js.download HTTP/1.1" 404 2277 "http://radicalbit.com/" "Mozilla/5.0 (Windows NT 10.0; Win64; x64) AppleWebKit/537.36 (KHTML, like Gecko) Chrome/64.0.3282.140 Safari/537.36 Edge/17.17134"
2a03:2880:31ff:4::face:b00c - - [03/Nov/2018:07:25:56 +0000] "GET /index_files/spectrum.min.js.download HTTP/1.1" 404 2274 "http://radicalbit.com/" "Mozilla/5.0 (Windows NT 10.0; Win64; x64) AppleWebKit/537.36 (KHTML, like Gecko) Chrome/64.0.3282.140 Safari/537.36 Edge/17.17134"
2a03:2880:31ff:7::face:b00c - - [03/Nov/2018:07:25:56 +0000] "GET /index_files/llms-form-checkout.min.js.download HTTP/1.1" 404 2304 "http://radicalbit.com/" "Mozilla/5.0 (Windows NT 10.0; Win64; x64) AppleWebKit/537.36 (KHTML, like Gecko) Chrome/64.0.3282.140 Safari/537.36 Edge/17.17134"
2a03:2880:31ff:7::face:b00c - - [03/Nov/2018:07:25:56 +0000] "GET /index_files/jquery.scrollbar.min.js.download HTTP/1.1" 404 2298 "http://radicalbit.com/" "Mozilla/5.0 (Windows NT 10.0; Win64; x64) AppleWebKit/537.36 (KHTML, like Gecko) Chrome/64.0.3282.140 Safari/537.36 Edge/17.17134"
2a03:2880:31ff:4::face:b00c - - [03/Nov/2018:07:25:56 +0000] "GET /index_files/menu.min.js.download HTTP/1.1" 404 2262 "http://radicalbit.com/" "Mozilla/5.0 (Windows NT 10.0; Win64; x64) AppleWebKit/537.36 (KHTML, like Gecko) Chrome/64.0.3282.140 Safari/537.36 Edge/17.17134"
2a03:2880:31ff:4::face:b00c - - [03/Nov/2018:07:25:56 +0000] "GET /index_files/rgbcolor.js.download HTTP/1.1" 404 2262 "http://radicalbit.com/" "Mozilla/5.0 (Windows NT 10.0; Win64; x64) AppleWebKit/537.36 (KHTML, like Gecko) Chrome/64.0.3282.140 Safari/537.36 Edge/17.17134"
2a03:2880:31ff:7::face:b00c - - [03/Nov/2018:07:25:56 +0000] "GET /index_files/wp-a11y.min.js.download HTTP/1.1" 404 2271 "http://radicalbit.com/" "Mozilla/5.0 (Windows NT 10.0; Win64; x64) AppleWebKit/537.36 (KHTML, like Gecko) Chrome/64.0.3282.140 Safari/537.36 Edge/17.17134"
2a03:2880:31ff:4::face:b00c - - [03/Nov/2018:07:25:56 +0000] "GET /index_files/StackBlur.js.download HTTP/1.1" 404 2265 "http://radicalbit.com/" "Mozilla/5.0 (Windows NT 10.0; Win64; x64) AppleWebKit/537.36 (KHTML, like Gecko) Chrome/64.0.3282.140 Safari/537.36 Edge/17.17134"
2a03:2880:31ff:7::face:b00c - - [03/Nov/2018:07:25:56 +0000] "GET /index_files/autocomplete.min.js.download HTTP/1.1" 404 2286 "http://radicalbit.com/" "Mozilla/5.0 (Windows NT 10.0; Win64; x64) AppleWebKit/537.36 (KHTML, like Gecko) Chrome/64.0.3282.140 Safari/537.36 Edge/17.17134"
2a03:2880:31ff:7::face:b00c - - [03/Nov/2018:07:25:56 +0000] "GET /index_files/canvg.js.download HTTP/1.1" 404 2253 "http://radicalbit.com/" "Mozilla/5.0 (Windows NT 10.0; Win64; x64) AppleWebKit/537.36 (KHTML, like Gecko) Chrome/64.0.3282.140 Safari/537.36 Edge/17.17134"
2a03:2880:31ff:4::face:b00c - - [03/Nov/2018:07:25:56 +0000] "GET /index_files/suggest.min.js.download HTTP/1.1" 404 2271 "http://radicalbit.com/" "Mozilla/5.0 (Windows NT 10.0; Win64; x64) AppleWebKit/537.36 (KHTML, like Gecko) Chrome/64.0.3282.140 Safari/537.36 Edge/17.17134"
2a03:2880:31ff:4::face:b00c - - [03/Nov/2018:07:25:56 +0000] "GET /index_files/svgavatars.result.min.js.download HTTP/1.1" 404 2301 "http://radicalbit.com/" "Mozilla/5.0 (Windows NT 10.0; Win64; x64) AppleWebKit/537.36 (KHTML, like Gecko) Chrome/64.0.3282.140 Safari/537.36 Edge/17.17134"
2a03:2880:31ff:7::face:b00c - - [03/Nov/2018:07:25:56 +0000] "GET /index_files/subscriptions.js.download HTTP/1.1" 404 2277 "http://radicalbit.com/" "Mozilla/5.0 (Windows NT 10.0; Win64; x64) AppleWebKit/537.36 (KHTML, like Gecko) Chrome/64.0.3282.140 Safari/537.36 Edge/17.17134"
2a03:2880:31ff:7::face:b00c - - [03/Nov/2018:07:25:56 +0000] "GET /index_files/moxie.min.js.download HTTP/1.1" 404 2265 "http://radicalbit.com/" "Mozilla/5.0 (Windows NT 10.0; Win64; x64) AppleWebKit/537.36 (KHTML, like Gecko) Chrome/64.0.3282.140 Safari/537.36 Edge/17.17134"
2a03:2880:31ff:4::face:b00c - - [03/Nov/2018:07:25:56 +0000] "GET /index_files/idle-timer.min.js.download HTTP/1.1" 404 2280 "http://radicalbit.com/" "Mozilla/5.0 (Windows NT 10.0; Win64; x64) AppleWebKit/537.36 (KHTML, like Gecko) Chrome/64.0.3282.140 Safari/537.36 Edge/17.17134"
2a03:2880:31ff:7::face:b00c - - [03/Nov/2018:07:25:56 +0000] "GET /index_files/custom.js.download HTTP/1.1" 404 2256 "http://radicalbit.com/" "Mozilla/5.0 (Windows NT 10.0; Win64; x64) AppleWebKit/537.36 (KHTML, like Gecko) Chrome/64.0.3282.140 Safari/537.36 Edge/17.17134"
2a03:2880:31ff:4::face:b00c - - [03/Nov/2018:07:25:56 +0000] "GET /index_files/plupload.min.js.download HTTP/1.1" 404 2274 "http://radicalbit.com/" "Mozilla/5.0 (Windows NT 10.0; Win64; x64) AppleWebKit/537.36 (KHTML, like Gecko) Chrome/64.0.3282.140 Safari/537.36 Edge/17.17134"
2a03:2880:31ff:7::face:b00c - - [03/Nov/2018:07:25:56 +0000] "GET /index_files/handlers.min.js.download HTTP/1.1" 404 2274 "http://radicalbit.com/" "Mozilla/5.0 (Windows NT 10.0; Win64; x64) AppleWebKit/537.36 (KHTML, like Gecko) Chrome/64.0.3282.140 Safari/537.36 Edge/17.17134"
2a03:2880:31ff:4::face:b00c - - [03/Nov/2018:07:25:56 +0000] "GET /index_files/conditional-logic.js.download HTTP/1.1" 404 2289 "http://radicalbit.com/" "Mozilla/5.0 (Windows NT 10.0; Win64; x64) AppleWebKit/537.36 (KHTML, like Gecko) Chrome/64.0.3282.140 Safari/537.36 Edge/17.17134"
2a03:2880:31ff:7::face:b00c - - [03/Nov/2018:07:25:56 +0000] "GET /index_files/jquery-ui-timepicker-addon.js.download HTTP/1.1" 404 2316 "http://radicalbit.com/" "Mozilla/5.0 (Windows NT 10.0; Win64; x64) AppleWebKit/537.36 (KHTML, like Gecko) Chrome/64.0.3282.140 Safari/537.36 Edge/17.17134"
2a03:2880:31ff:4::face:b00c - - [03/Nov/2018:07:25:56 +0000] "GET /index_files/masonry.min.js.download HTTP/1.1" 404 2271 "http://radicalbit.com/" "Mozilla/5.0 (Windows NT 10.0; Win64; x64) AppleWebKit/537.36 (KHTML, like Gecko) Chrome/64.0.3282.140 Safari/537.36 Edge/17.17134"
2a03:2880:31ff:7::face:b00c - - [03/Nov/2018:07:25:56 +0000] "GET /index_files/sortable.min.js.download HTTP/1.1" 404 2274 "http://radicalbit.com/" "Mozilla/5.0 (Windows NT 10.0; Win64; x64) AppleWebKit/537.36 (KHTML, like Gecko) Chrome/64.0.3282.140 Safari/537.36 Edge/17.17134"
2a03:2880:31ff:4::face:b00c - - [03/Nov/2018:07:25:56 +0000] "GET /index_files/scripts.min.js.download HTTP/1.1" 404 2271 "http://radicalbit.com/" "Mozilla/5.0 (Windows NT 10.0; Win64; x64) AppleWebKit/537.36 (KHTML, like Gecko) Chrome/64.0.3282.140 Safari/537.36 Edge/17.17134"
2a03:2880:31ff:7::face:b00c - - [03/Nov/2018:07:25:56 +0000] "GET /index_files/upload.js.download HTTP/1.1" 404 2256 "http://radicalbit.com/" "Mozilla/5.0 (Windows NT 10.0; Win64; x64) AppleWebKit/537.36 (KHTML, like Gecko) Chrome/64.0.3282.140 Safari/537.36 Edge/17.17134"
2a03:2880:31ff:4::face:b00c - - [03/Nov/2018:07:25:56 +0000] "GET /index_files/common.js.download HTTP/1.1" 404 2256 "http://radicalbit.com/" "Mozilla/5.0 (Windows NT 10.0; Win64; x64) AppleWebKit/537.36 (KHTML, like Gecko) Chrome/64.0.3282.140 Safari/537.36 Edge/17.17134"
2a03:2880:31ff:4::face:b00c - - [03/Nov/2018:07:25:56 +0000] "GET /index_files/frontend-form.min.js.download HTTP/1.1" 404 2289 "http://radicalbit.com/" "Mozilla/5.0 (Windows NT 10.0; Win64; x64) AppleWebKit/537.36 (KHTML, like Gecko) Chrome/64.0.3282.140 Safari/537.36 Edge/17.17134"
2a03:2880:31ff:7::face:b00c - - [03/Nov/2018:07:25:56 +0000] "GET /index_files/wp-embed.min.js.download HTTP/1.1" 404 2274 "http://radicalbit.com/" "Mozilla/5.0 (Windows NT 10.0; Win64; x64) AppleWebKit/537.36 (KHTML, like Gecko) Chrome/64.0.3282.140 Safari/537.36 Edge/17.17134"
2a03:2880:31ff:4::face:b00c - - [03/Nov/2018:07:25:57 +0000] "GET /index_files/mediaelement-and-player.min.js.download HTTP/1.1" 404 2319 "http://radicalbit.com/" "Mozilla/5.0 (Windows NT 10.0; Win64; x64) AppleWebKit/537.36 (KHTML, like Gecko) Chrome/64.0.3282.140 Safari/537.36 Edge/17.17134"
2a03:2880:31ff:7::face:b00c - - [03/Nov/2018:07:25:57 +0000] "GET /index_files/sweetalert2.js.download HTTP/1.1" 404 2271 "http://radicalbit.com/" "Mozilla/5.0 (Windows NT 10.0; Win64; x64) AppleWebKit/537.36 (KHTML, like Gecko) Chrome/64.0.3282.140 Safari/537.36 Edge/17.17134"
2a03:2880:31ff:4::face:b00c - - [03/Nov/2018:07:25:57 +0000] "GET /index_files/mediaelement-migrate.min.js.download HTTP/1.1" 404 2310 "http://radicalbit.com/" "Mozilla/5.0 (Windows NT 10.0; Win64; x64) AppleWebKit/537.36 (KHTML, like Gecko) Chrome/64.0.3282.140 Safari/537.36 Edge/17.17134"
2a03:2880:31ff:7::face:b00c - - [03/Nov/2018:07:25:57 +0000] "GET /index_files/jquery.barrating.min.js.download HTTP/1.1" 404 2298 "http://radicalbit.com/" "Mozilla/5.0 (Windows NT 10.0; Win64; x64) AppleWebKit/537.36 (KHTML, like Gecko) Chrome/64.0.3282.140 Safari/537.36 Edge/17.17134"
2a03:2880:31ff:4::face:b00c - - [03/Nov/2018:07:25:57 +0000] "GET /index_files/wp-mediaelement.min.js.download HTTP/1.1" 404 2295 "http://radicalbit.com/" "Mozilla/5.0 (Windows NT 10.0; Win64; x64) AppleWebKit/537.36 (KHTML, like Gecko) Chrome/64.0.3282.140 Safari/537.36 Edge/17.17134"
2a03:2880:31ff:4::face:b00c - - [03/Nov/2018:07:25:57 +0000] "GET /index_files/billing-address.js.download HTTP/1.1" 404 2283 "http://radicalbit.com/" "Mozilla/5.0 (Windows NT 10.0; Win64; x64) AppleWebKit/537.36 (KHTML, like Gecko) Chrome/64.0.3282.140 Safari/537.36 Edge/17.17134"
2a03:2880:31ff:7::face:b00c - - [03/Nov/2018:07:25:57 +0000] "GET /index_files/wp-emoji-release.min.js(1).download HTTP/1.1" 404 2307 "http://radicalbit.com/" "Mozilla/5.0 (Windows NT 10.0; Win64; x64) AppleWebKit/537.36 (KHTML, like Gecko) Chrome/64.0.3282.140 Safari/537.36 Edge/17.17134"
2a03:2880:31ff:4::face:b00c - - [03/Nov/2018:07:25:57 +0000] "GET /index_files/et-extra-customizer-global-15393515465325.min.css HTTP/1.1" 404 2349 "http://radicalbit.com/" "Mozilla/5.0 (Windows NT 10.0; Win64; x64) AppleWebKit/537.36 (KHTML, like Gecko) Chrome/64.0.3282.140 Safari/537.36 Edge/17.17134"
2a03:2880:31ff:7::face:b00c - - [03/Nov/2018:07:25:57 +0000] "GET /index_files/classic-10_7.css HTTP/1.1" 404 2250 "http://radicalbit.com/" "Mozilla/5.0 (Windows NT 10.0; Win64; x64) AppleWebKit/537.36 (KHTML, like Gecko) Chrome/64.0.3282.140 Safari/537.36 Edge/17.17134"
2a03:2880:31ff:c::face:b00c - - [03/Nov/2018:07:25:57 +0000] "GET /index_files/mc-validate.js.download HTTP/1.1" 404 2271 "http://radicalbit.com/" "Mozilla/5.0 (Windows NT 10.0; Win64; x64) AppleWebKit/537.36 (KHTML, like Gecko) Chrome/64.0.3282.140 Safari/537.36 Edge/17.17134"
2a03:2880:31ff:c::face:b00c - - [03/Nov/2018:07:25:57 +0000] "GET /index_files/NINJA_LOGO_WEB.png HTTP/1.1" 404 2256 "http://radicalbit.com/" "Mozilla/5.0 (Windows NT 10.0; Win64; x64) AppleWebKit/537.36 (KHTML, like Gecko) Chrome/64.0.3282.140 Safari/537.36 Edge/17.17134"
2a03:2880:31ff:7::face:b00c - - [03/Nov/2018:07:25:57 +0000] "GET /index_files/Home_watis01.png HTTP/1.1" 404 2250 "http://radicalbit.com/" "Mozilla/5.0 (Windows NT 10.0; Win64; x64) AppleWebKit/537.36 (KHTML, like Gecko) Chrome/64.0.3282.140 Safari/537.36 Edge/17.17134"
2a03:2880:31ff:a::face:b00c - - [03/Nov/2018:07:25:57 +0000] "GET /index_files/team2-1.jpg HTTP/1.1" 404 2235 "http://radicalbit.com/" "Mozilla/5.0 (Windows NT 10.0; Win64; x64) AppleWebKit/537.36 (KHTML, like Gecko) Chrome/64.0.3282.140 Safari/537.36 Edge/17.17134"
2a03:2880:31ff:d::face:b00c - - [03/Nov/2018:07:25:57 +0000] "GET /index_files/Beter-logo.png HTTP/1.1" 404 2244 "http://radicalbit.com/" "Mozilla/5.0 (Windows NT 10.0; Win64; x64) AppleWebKit/537.36 (KHTML, like Gecko) Chrome/64.0.3282.140 Safari/537.36 Edge/17.17134"
2a03:2880:31ff:4::face:b00c - - [03/Nov/2018:07:25:57 +0000] "GET /index_files/logo_volzin.png HTTP/1.1" 404 2247 "http://radicalbit.com/" "Mozilla/5.0 (Windows NT 10.0; Win64; x64) AppleWebKit/537.36 (KHTML, like Gecko) Chrome/64.0.3282.140 Safari/537.36 Edge/17.17134"
2a03:2880:31ff:a::face:b00c - - [03/Nov/2018:07:25:57 +0000] "GET /index_files/sands.jpg HTTP/1.1" 404 2229 "http://radicalbit.com/" "Mozilla/5.0 (Windows NT 10.0; Win64; x64) AppleWebKit/537.36 (KHTML, like Gecko) Chrome/64.0.3282.140 Safari/537.36 Edge/17.17134"
2a03:2880:31ff:c::face:b00c - - [03/Nov/2018:07:25:57 +0000] "GET /index_files/mediaelementplayer-legacy.min.css HTTP/1.1" 404 2301 "http://radicalbit.com/" "Mozilla/5.0 (Windows NT 10.0; Win64; x64) AppleWebKit/537.36 (KHTML, like Gecko) Chrome/64.0.3282.140 Safari/537.36 Edge/17.17134"
2a03:2880:31ff:7::face:b00c - - [03/Nov/2018:07:25:57 +0000] "GET /index_files/wp-mediaelement.min.css HTTP/1.1" 404 2271 "http://radicalbit.com/" "Mozilla/5.0 (Windows NT 10.0; Win64; x64) AppleWebKit/537.36 (KHTML, like Gecko) Chrome/64.0.3282.140 Safari/537.36 Edge/17.17134"
2a03:2880:31ff:a::face:b00c - - [03/Nov/2018:07:25:57 +0000] "GET /index_files/Ninja_esra.png HTTP/1.1" 404 2244 "http://radicalbit.com/" "Mozilla/5.0 (Windows NT 10.0; Win64; x64) AppleWebKit/537.36 (KHTML, like Gecko) Chrome/64.0.3282.140 Safari/537.36 Edge/17.17134"
2a03:2880:31ff:4::face:b00c - - [03/Nov/2018:07:25:57 +0000] "GET /index_files/Ninja_jose.png HTTP/1.1" 404 2244 "http://radicalbit.com/" "Mozilla/5.0 (Windows NT 10.0; Win64; x64) AppleWebKit/537.36 (KHTML, like Gecko) Chrome/64.0.3282.140 Safari/537.36 Edge/17.17134"
2a03:2880:31ff:d::face:b00c - - [03/Nov/2018:07:25:57 +0000] "GET /index_files/Ninja_manuel.png HTTP/1.1" 404 2250 "http://radicalbit.com/" "Mozilla/5.0 (Windows NT 10.0; Win64; x64) AppleWebKit/537.36 (KHTML, like Gecko) Chrome/64.0.3282.140 Safari/537.36 Edge/17.17134"
2a03:2880:31ff:a::face:b00c - - [03/Nov/2018:07:25:57 +0000] "GET /index_files/Ninja_elwyn.png HTTP/1.1" 404 2247 "http://radicalbit.com/" "Mozilla/5.0 (Windows NT 10.0; Win64; x64) AppleWebKit/537.36 (KHTML, like Gecko) Chrome/64.0.3282.140 Safari/537.36 Edge/17.17134"
2a03:2880:31ff:d::face:b00c - - [03/Nov/2018:07:25:57 +0000] "GET /index_files/logo_JAMIENEE.png HTTP/1.1" 404 2253 "http://radicalbit.com/" "Mozilla/5.0 (Windows NT 10.0; Win64; x64) AppleWebKit/537.36 (KHTML, like Gecko) Chrome/64.0.3282.140 Safari/537.36 Edge/17.17134"
2a03:2880:31ff:a::face:b00c - - [03/Nov/2018:07:25:57 +0000] "GET /index_files/llms.min.js.download HTTP/1.1" 404 2262 "http://radicalbit.com/" "Mozilla/5.0 (Windows NT 10.0; Win64; x64) AppleWebKit/537.36 (KHTML, like Gecko) Chrome/64.0.3282.140 Safari/537.36 Edge/17.17134"
2a03:2880:31ff:a::face:b00c - - [03/Nov/2018:07:25:57 +0000] "GET /index_files/scripts.js.download HTTP/1.1" 404 2259 "http://radicalbit.com/" "Mozilla/5.0 (Windows NT 10.0; Win64; x64) AppleWebKit/537.36 (KHTML, like Gecko) Chrome/64.0.3282.140 Safari/537.36 Edge/17.17134"
2a03:2880:31ff:a::face:b00c - - [03/Nov/2018:07:25:57 +0000] "GET /index_files/position.min.js.download HTTP/1.1" 404 2274 "http://radicalbit.com/" "Mozilla/5.0 (Windows NT 10.0; Win64; x64) AppleWebKit/537.36 (KHTML, like Gecko) Chrome/64.0.3282.140 Safari/537.36 Edge/17.17134"
2a03:2880:31ff:a::face:b00c - - [03/Nov/2018:07:25:57 +0000] "GET /index_files/tooltip.min.js.download HTTP/1.1" 404 2271 "http://radicalbit.com/" "Mozilla/5.0 (Windows NT 10.0; Win64; x64) AppleWebKit/537.36 (KHTML, like Gecko) Chrome/64.0.3282.140 Safari/537.36 Edge/17.17134"
2a03:2880:31ff:a::face:b00c - - [03/Nov/2018:07:25:57 +0000] "GET /index_files/slider.min.js.download HTTP/1.1" 404 2268 "http://radicalbit.com/" "Mozilla/5.0 (Windows NT 10.0; Win64; x64) AppleWebKit/537.36 (KHTML, like Gecko) Chrome/64.0.3282.140 Safari/537.36 Edge/17.17134"
2a03:2880:31ff:a::face:b00c - - [03/Nov/2018:07:25:57 +0000] "GET /index_files/jquery.webui-popover.min.js.download HTTP/1.1" 404 2310 "http://radicalbit.com/" "Mozilla/5.0 (Windows NT 10.0; Win64; x64) AppleWebKit/537.36 (KHTML, like Gecko) Chrome/64.0.3282.140 Safari/537.36 Edge/17.17134"
2a03:2880:31ff:a::face:b00c - - [03/Nov/2018:07:25:57 +0000] "GET /index_files/llms-ajax.min.js.download HTTP/1.1" 404 2277 "http://radicalbit.com/" "Mozilla/5.0 (Windows NT 10.0; Win64; x64) AppleWebKit/537.36 (KHTML, like Gecko) Chrome/64.0.3282.140 Safari/537.36 Edge/17.17134"
2a03:2880:31ff:a::face:b00c - - [03/Nov/2018:07:25:57 +0000] "GET /index_files/llms-form-checkout.min.js.download HTTP/1.1" 404 2304 "http://radicalbit.com/" "Mozilla/5.0 (Windows NT 10.0; Win64; x64) AppleWebKit/537.36 (KHTML, like Gecko) Chrome/64.0.3282.140 Safari/537.36 Edge/17.17134"
2a03:2880:31ff:a::face:b00c - - [03/Nov/2018:07:25:57 +0000] "GET /index_files/menu.min.js.download HTTP/1.1" 404 2262 "http://radicalbit.com/" "Mozilla/5.0 (Windows NT 10.0; Win64; x64) AppleWebKit/537.36 (KHTML, like Gecko) Chrome/64.0.3282.140 Safari/537.36 Edge/17.17134"
2a03:2880:31ff:a::face:b00c - - [03/Nov/2018:07:25:57 +0000] "GET /index_files/wp-a11y.min.js.download HTTP/1.1" 404 2271 "http://radicalbit.com/" "Mozilla/5.0 (Windows NT 10.0; Win64; x64) AppleWebKit/537.36 (KHTML, like Gecko) Chrome/64.0.3282.140 Safari/537.36 Edge/17.17134"
2a03:2880:31ff:a::face:b00c - - [03/Nov/2018:07:25:58 +0000] "GET /index_files/autocomplete.min.js.download HTTP/1.1" 404 2286 "http://radicalbit.com/" "Mozilla/5.0 (Windows NT 10.0; Win64; x64) AppleWebKit/537.36 (KHTML, like Gecko) Chrome/64.0.3282.140 Safari/537.36 Edge/17.17134"
2a03:2880:31ff:a::face:b00c - - [03/Nov/2018:07:25:58 +0000] "GET /index_files/suggest.min.js.download HTTP/1.1" 404 2271 "http://radicalbit.com/" "Mozilla/5.0 (Windows NT 10.0; Win64; x64) AppleWebKit/537.36 (KHTML, like Gecko) Chrome/64.0.3282.140 Safari/537.36 Edge/17.17134"
2a03:2880:31ff:a::face:b00c - - [03/Nov/2018:07:25:58 +0000] "GET /index_files/subscriptions.js.download HTTP/1.1" 404 2277 "http://radicalbit.com/" "Mozilla/5.0 (Windows NT 10.0; Win64; x64) AppleWebKit/537.36 (KHTML, like Gecko) Chrome/64.0.3282.140 Safari/537.36 Edge/17.17134"
2a03:2880:31ff:a::face:b00c - - [03/Nov/2018:07:25:58 +0000] "GET /index_files/idle-timer.min.js.download HTTP/1.1" 404 2280 "http://radicalbit.com/" "Mozilla/5.0 (Windows NT 10.0; Win64; x64) AppleWebKit/537.36 (KHTML, like Gecko) Chrome/64.0.3282.140 Safari/537.36 Edge/17.17134"
2a03:2880:31ff:a::face:b00c - - [03/Nov/2018:07:25:58 +0000] "GET /index_files/custom.js.download HTTP/1.1" 404 2256 "http://radicalbit.com/" "Mozilla/5.0 (Windows NT 10.0; Win64; x64) AppleWebKit/537.36 (KHTML, like Gecko) Chrome/64.0.3282.140 Safari/537.36 Edge/17.17134"
2a03:2880:31ff:a::face:b00c - - [03/Nov/2018:07:25:58 +0000] "GET /index_files/conditional-logic.js.download HTTP/1.1" 404 2289 "http://radicalbit.com/" "Mozilla/5.0 (Windows NT 10.0; Win64; x64) AppleWebKit/537.36 (KHTML, like Gecko) Chrome/64.0.3282.140 Safari/537.36 Edge/17.17134"
2a03:2880:31ff:a::face:b00c - - [03/Nov/2018:07:25:58 +0000] "GET /index_files/masonry.min.js.download HTTP/1.1" 404 2271 "http://radicalbit.com/" "Mozilla/5.0 (Windows NT 10.0; Win64; x64) AppleWebKit/537.36 (KHTML, like Gecko) Chrome/64.0.3282.140 Safari/537.36 Edge/17.17134"
2a03:2880:31ff:a::face:b00c - - [03/Nov/2018:07:25:58 +0000] "GET /index_files/scripts.min.js.download HTTP/1.1" 404 2271 "http://radicalbit.com/" "Mozilla/5.0 (Windows NT 10.0; Win64; x64) AppleWebKit/537.36 (KHTML, like Gecko) Chrome/64.0.3282.140 Safari/537.36 Edge/17.17134"
2a03:2880:31ff:a::face:b00c - - [03/Nov/2018:07:25:58 +0000] "GET /index_files/common.js.download HTTP/1.1" 404 2256 "http://radicalbit.com/" "Mozilla/5.0 (Windows NT 10.0; Win64; x64) AppleWebKit/537.36 (KHTML, like Gecko) Chrome/64.0.3282.140 Safari/537.36 Edge/17.17134"
2a03:2880:31ff:a::face:b00c - - [03/Nov/2018:07:25:58 +0000] "GET /index_files/wp-embed.min.js.download HTTP/1.1" 404 2274 "http://radicalbit.com/" "Mozilla/5.0 (Windows NT 10.0; Win64; x64) AppleWebKit/537.36 (KHTML, like Gecko) Chrome/64.0.3282.140 Safari/537.36 Edge/17.17134"
2a03:2880:31ff:a::face:b00c - - [03/Nov/2018:07:25:58 +0000] "GET /index_files/mediaelement-and-player.min.js.download HTTP/1.1" 404 2319 "http://radicalbit.com/" "Mozilla/5.0 (Windows NT 10.0; Win64; x64) AppleWebKit/537.36 (KHTML, like Gecko) Chrome/64.0.3282.140 Safari/537.36 Edge/17.17134"
2a03:2880:31ff:a::face:b00c - - [03/Nov/2018:07:25:58 +0000] "GET /index_files/mediaelement-migrate.min.js.download HTTP/1.1" 404 2310 "http://radicalbit.com/" "Mozilla/5.0 (Windows NT 10.0; Win64; x64) AppleWebKit/537.36 (KHTML, like Gecko) Chrome/64.0.3282.140 Safari/537.36 Edge/17.17134"
2a03:2880:31ff:a::face:b00c - - [03/Nov/2018:07:25:58 +0000] "GET /index_files/wp-mediaelement.min.js.download HTTP/1.1" 404 2295 "http://radicalbit.com/" "Mozilla/5.0 (Windows NT 10.0; Win64; x64) AppleWebKit/537.36 (KHTML, like Gecko) Chrome/64.0.3282.140 Safari/537.36 Edge/17.17134"
89.248.169.130 - - [03/Nov/2018:07:31:24 +0000] "POST /xmlrpc.php HTTP/1.1" 404 2197 "-" "Mozilla/5.0 (Macintosh; U; Intel Mac OS X 10.6; fr; rv:1.9.2.8) Gecko/20100722 Firefox/3.6.8"
89.248.169.130 - - [03/Nov/2018:07:31:24 +0000] "POST /xmlrpc.php HTTP/1.1" 404 2197 "-" "Mozilla/5.0 (Macintosh; U; Intel Mac OS X 10.6; fr; rv:1.9.2.8) Gecko/20100722 Firefox/3.6.8"
89.248.169.130 - - [03/Nov/2018:07:31:24 +0000] "POST /xmlrpc.php HTTP/1.1" 404 2197 "-" "Mozilla/5.0 (Macintosh; U; Intel Mac OS X 10.6; fr; rv:1.9.2.8) Gecko/20100722 Firefox/3.6.8"
89.248.169.130 - - [03/Nov/2018:07:31:24 +0000] "POST /xmlrpc.php HTTP/1.1" 404 2197 "-" "Mozilla/5.0 (Macintosh; U; Intel Mac OS X 10.6; fr; rv:1.9.2.8) Gecko/20100722 Firefox/3.6.8"
13.78.24.40 - - [03/Nov/2018:08:47:46 +0000] "GET /robots.txt HTTP/1.1" 404 2196 "-" "Mozilla/5.0 (Windows NT 10.0; Win64; x64; rv:50.0) Gecko/20100101 Firefox/50.0"
13.78.24.40 - - [03/Nov/2018:08:47:46 +0000] "GET /xmlrpc.php?rsd HTTP/1.1" 404 2200 "-" "Mozilla/5.0 (Windows NT 10.0; Win64; x64; rv:50.0) Gecko/20100101 Firefox/50.0"
13.78.24.40 - - [03/Nov/2018:08:47:47 +0000] "GET / HTTP/1.1" 200 114689 "-" "Mozilla/5.0 (Windows NT 10.0; Win64; x64; rv:50.0) Gecko/20100101 Firefox/50.0"
13.78.24.40 - - [03/Nov/2018:08:47:47 +0000] "GET /?author=1 HTTP/1.1" 200 114689 "-" "Mozilla/5.0 (Windows NT 10.0; Win64; x64; rv:50.0) Gecko/20100101 Firefox/50.0"
13.78.24.40 - - [03/Nov/2018:08:47:48 +0000] "GET /wp-json/wp/v2/users/ HTTP/1.1" 404 2226 "-" "Mozilla/5.0 (Windows NT 10.0; Win64; x64; rv:50.0) Gecko/20100101 Firefox/50.0"
13.78.24.40 - - [03/Nov/2018:08:47:49 +0000] "POST /xmlrpc.php HTTP/1.1" 404 2197 "-" "Mozilla/5.0 (Windows NT 10.0; Win64; x64; rv:50.0) Gecko/20100101 Firefox/50.0"
185.86.164.100 - - [03/Nov/2018:09:03:33 +0000] "GET /wp-login.php HTTP/1.1" 404 2202 "-" "Mozilla/5.0 (Windows NT 10.0; WOW64) AppleWebKit/537.36 (KHTML, like Gecko) Chrome/51.0.2704.103 Safari/537.36"
97.74.228.245 - - [03/Nov/2018:09:24:42 +0000] "POST /xmlrpc.php HTTP/1.1" 404 2197 "-" "Mozilla/5.0 (Macintosh; U; Intel Mac OS X 10.6; fr; rv:1.9.2.8) Gecko/20100722 Firefox/3.6.8"
185.86.164.109 - - [03/Nov/2018:09:53:44 +0000] "GET /wp-login.php HTTP/1.1" 404 2202 "-" "Mozilla/5.0 (Windows NT 10.0; WOW64) AppleWebKit/537.36 (KHTML, like Gecko) Chrome/51.0.2704.103 Safari/537.36"
95.174.15.228 - - [03/Nov/2018:10:25:51 +0000] "GET /wp-content/wp-caches.php HTTP/1.1" 404 2238 "http://site.ru" "Mozilla/5.0 (Windows; U; Windows NT 5.1; en-US) AppleWebKit/533.4 (KHTML, like Gecko) Chrome/5.0.375.99 Safari/533.4"
89.161.230.23 - - [03/Nov/2018:10:28:40 +0000] "GET /wp-content/plugins/html404/wso25.php HTTP/1.1" 404 2274 "http://site.ru" "Mozilla/5.0 (Windows; U; Windows NT 5.1; en-US) AppleWebKit/533.4 (KHTML, like Gecko) Chrome/5.0.375.99 Safari/533.4"
97.74.228.245 - - [03/Nov/2018:11:38:10 +0000] "POST /xmlrpc.php HTTP/1.1" 404 2197 "-" "Mozilla/5.0 (Macintosh; U; Intel Mac OS X 10.6; fr; rv:1.9.2.8) Gecko/20100722 Firefox/3.6.8"
110.83.60.224 - - [03/Nov/2018:12:01:00 +0000] "HEAD /wp-content/themes/twentyseventeen/comments.php HTTP/1.1" 404 0 "-" "-"
54.36.149.0 - - [03/Nov/2018:12:10:47 +0000] "GET /samen-visualiseren/feed/ HTTP/1.1" 404 2238 "-" "Mozilla/5.0 (compatible; AhrefsBot/5.2; +http://ahrefs.com/robot/)"
2604:6600:2000:2f:e0c8:4d87:1c68:9576 - - [03/Nov/2018:12:23:55 +0000] "GET / HTTP/1.1" 200 114689 "-" "python-requests/2.19.1"
2604:6600:2000:2f:e0c8:4d87:1c68:9576 - - [03/Nov/2018:12:23:58 +0000] "GET /wordpress/ HTTP/1.1" 404 2196 "-" "python-requests/2.19.1"
2604:6600:2000:2f:e0c8:4d87:1c68:9576 - - [03/Nov/2018:12:23:59 +0000] "GET /wp/ HTTP/1.1" 404 2175 "-" "python-requests/2.19.1"
2604:6600:2000:2f:e0c8:4d87:1c68:9576 - - [03/Nov/2018:12:24:01 +0000] "GET /blog/ HTTP/1.1" 404 2181 "-" "python-requests/2.19.1"
2604:6600:2000:2f:e0c8:4d87:1c68:9576 - - [03/Nov/2018:12:24:03 +0000] "GET /new/ HTTP/1.1" 404 2178 "-" "python-requests/2.19.1"
2604:6600:2000:2f:e0c8:4d87:1c68:9576 - - [03/Nov/2018:12:24:07 +0000] "GET /old/ HTTP/1.1" 404 2178 "-" "python-requests/2.19.1"
2604:6600:2000:2f:e0c8:4d87:1c68:9576 - - [03/Nov/2018:12:24:09 +0000] "GET /test/ HTTP/1.1" 404 2181 "-" "python-requests/2.19.1"
185.72.244.24 - - [03/Nov/2018:12:41:11 +0000] "GET / HTTP/1.1" 200 114689 "-" "Mozilla/5.0 (Windows NT 6.2; Win64; x64) AppleWebKit/537.36 (KHTML, like Gecko) Chrome/46.0.2486.0 Safari/537.36 Edge/13.10586"
180.76.15.141 - - [03/Nov/2018:13:07:42 +0000] "GET /index_files/styles.css HTTP/1.1" 404 2232 "-" "Mozilla/5.0 (compatible; Baiduspider/2.0; +http://www.baidu.com/search/spider.html)"
193.201.224.210 - - [03/Nov/2018:13:16:15 +0000] "GET /wp-content/plugins/team-admin/2.php HTTP/1.1" 404 2271 "http://radicalbit.com/wp-content/plugins/team-admin/2.php" "Mozilla/5.0 (Windows NT 6.1; WOW64) AppleWebKit/537.36 (KHTML, like Gecko) Chrome/42.0.2311.152 Safari/537.36"
193.201.224.210 - - [03/Nov/2018:13:16:22 +0000] "GET /jm-ajax/upload_file/ HTTP/1.1" 404 2226 "http://radicalbit.com/jm-ajax/upload_file/" "Mozilla/5.0 (Windows NT 6.1; WOW64) AppleWebKit/537.36 (KHTML, like Gecko) Chrome/42.0.2311.152 Safari/537.36"
193.201.224.210 - - [03/Nov/2018:13:16:34 +0000] "GET /wp-content/plugins/console_contact_form/upload_file.php?files HTTP/1.1" 404 2337 "http://radicalbit.com/wp-content/plugins/console_contact_form/upload_file.php?files" "Mozilla/5.0 (Windows NT 6.1; WOW64) AppleWebKit/537.36 (KHTML, like Gecko) Chrome/42.0.2311.152 Safari/537.36"
18.85.22.239 - - [03/Nov/2018:13:25:53 +0000] "GET / HTTP/1.1" 200 114689 "-" "Mozilla/5.0 (Macintosh; Intel Mac OS X 10_12_5) AppleWebKit/603.2.4 (KHTML, like Gecko) Version/10.1.1 Safari/603.2.4"
192.42.116.24 - - [03/Nov/2018:13:30:01 +0000] "GET / HTTP/1.1" 200 114689 "-" "Mozilla/5.0 (Windows NT 6.1; WOW64) AppleWebKit/537.36 (KHTML, like Gecko) Chrome/46.0.2490.80 Safari/537.36"
180.76.15.18 - - [03/Nov/2018:13:41:02 +0000] "GET /index_files/css HTTP/1.1" 404 2211 "-" "Mozilla/5.0 (compatible; Baiduspider/2.0; +http://www.baidu.com/search/spider.html)"
97.74.228.245 - - [03/Nov/2018:14:00:57 +0000] "POST /xmlrpc.php HTTP/1.1" 404 2197 "-" "Mozilla/5.0 (Macintosh; U; Intel Mac OS X 10.6; fr; rv:1.9.2.8) Gecko/20100722 Firefox/3.6.8"
180.76.15.22 - - [03/Nov/2018:14:14:22 +0000] "GET /wp-content/uploads/2016/05/JAM-Communicatietraining-Visueel-Denken_april-20161.pdf HTTP/1.1" 404 2412 "-" "Mozilla/5.0 (compatible; Baiduspider/2.0; +http://www.baidu.com/search/spider.html)"
193.201.224.210 - - [03/Nov/2018:15:40:50 +0000] "GET /?gf_page=upload HTTP/1.1" 200 114689 "http://radicalbit.com/?gf_page=upload" "Mozilla/5.0 (Windows NT 6.1; WOW64) AppleWebKit/537.36 (KHTML, like Gecko) Chrome/42.0.2311.152 Safari/537.36"
97.74.228.245 - - [03/Nov/2018:16:11:26 +0000] "POST /xmlrpc.php HTTP/1.1" 404 2197 "-" "Mozilla/5.0 (Macintosh; U; Intel Mac OS X 10.6; fr; rv:1.9.2.8) Gecko/20100722 Firefox/3.6.8"
89.248.169.130 - - [03/Nov/2018:16:12:26 +0000] "POST /xmlrpc.php HTTP/1.1" 404 2197 "-" "Mozilla/5.0 (Macintosh; U; Intel Mac OS X 10.6; fr; rv:1.9.2.8) Gecko/20100722 Firefox/3.6.8"
89.248.169.130 - - [03/Nov/2018:16:12:26 +0000] "POST /xmlrpc.php HTTP/1.1" 404 2197 "-" "Mozilla/5.0 (Macintosh; U; Intel Mac OS X 10.6; fr; rv:1.9.2.8) Gecko/20100722 Firefox/3.6.8"
89.248.169.130 - - [03/Nov/2018:16:12:26 +0000] "POST /xmlrpc.php HTTP/1.1" 404 2197 "-" "Mozilla/5.0 (Macintosh; U; Intel Mac OS X 10.6; fr; rv:1.9.2.8) Gecko/20100722 Firefox/3.6.8"
89.248.169.130 - - [03/Nov/2018:16:12:26 +0000] "POST /xmlrpc.php HTTP/1.1" 404 2197 "-" "Mozilla/5.0 (Macintosh; U; Intel Mac OS X 10.6; fr; rv:1.9.2.8) Gecko/20100722 Firefox/3.6.8"
147.135.4.70 - - [03/Nov/2018:16:43:28 +0000] "GET / HTTP/1.1" 200 114689 "-" "Scrapy/1.5.1 (+https://scrapy.org)"
92.112.24.105 - - [03/Nov/2018:16:47:16 +0000] "GET /wp-includes/Text/Tiff.php?postfile HTTP/1.0" 404 2250 "-" "Mozilla/5.0 (Windows NT 6.1; WOW64; rv:40.012; !en.support.wordpress.com; !support.wordpress.com; support.wordpress.com; en.support.wordpress.com) Gecko/20120121 Firefox/40.0"
54.36.148.237 - - [03/Nov/2018:17:27:24 +0000] "GET /methode-om-te-visualiseren-tijdens-een-gesprek/ HTTP/1.1" 404 2307 "-" "Mozilla/5.0 (compatible; AhrefsBot/5.2; +http://ahrefs.com/robot/)"
97.74.228.245 - - [03/Nov/2018:18:20:11 +0000] "POST /xmlrpc.php HTTP/1.1" 404 2197 "-" "Mozilla/5.0 (Macintosh; U; Intel Mac OS X 10.6; fr; rv:1.9.2.8) Gecko/20100722 Firefox/3.6.8"
51.38.69.128 - - [03/Nov/2018:18:30:15 +0000] "GET / HTTP/1.1" 200 114689 "-" "Mozilla/5.0 (Windows NT 10.0; Win64; x64) AppleWebKit/537.36 (KHTML, like Gecko) Chrome/64.0.3282.140 Safari/537.36 Edge/17.17134"
51.15.124.1 - - [03/Nov/2018:19:02:22 +0000] "GET / HTTP/1.1" 200 114689 "-" "Mozilla/5.0 (Windows NT 6.2; WOW64; rv:50.0) Gecko/20100101 Firefox/50.0"
185.220.102.7 - - [03/Nov/2018:19:18:22 +0000] "GET / HTTP/1.1" 200 114689 "-" "Mozilla/5.0 (Windows NT 6.1; WOW64) AppleWebKit/537.36 (KHTML, like Gecko) Chrome/46.0.2490.80 Safari/537.36"
123.57.254.142 - - [03/Nov/2018:19:32:37 +0000] "POST /xmlrpc.php HTTP/1.1" 404 2197 "-" "Mozilla/5.0 (Macintosh; U; Intel Mac OS X 10.6; fr; rv:1.9.2.8) Gecko/20100722 Firefox/3.6.8"
123.57.254.142 - - [03/Nov/2018:19:32:37 +0000] "POST /xmlrpc.php HTTP/1.1" 404 2197 "-" "Mozilla/5.0 (Macintosh; U; Intel Mac OS X 10.6; fr; rv:1.9.2.8) Gecko/20100722 Firefox/3.6.8"
185.220.101.30 - - [03/Nov/2018:19:39:59 +0000] "GET / HTTP/1.1" 200 114689 "-" "Mozilla/5.0 (Windows NT 10.0; Win64; x64) AppleWebKit/537.36 (KHTML, like Gecko) Chrome/55.0.2883.87 Safari/537.36"
178.175.139.122 - - [03/Nov/2018:19:52:11 +0000] "GET / HTTP/1.1" 200 114689 "-" "Mozilla/5.0 (Windows NT 6.2; WOW64; Trident/7.0; rv:11.0) like Gecko"
97.74.228.245 - - [03/Nov/2018:20:29:04 +0000] "POST /xmlrpc.php HTTP/1.1" 404 2197 "-" "Mozilla/5.0 (Macintosh; U; Intel Mac OS X 10.6; fr; rv:1.9.2.8) Gecko/20100722 Firefox/3.6.8"
185.220.101.1 - - [03/Nov/2018:20:47:39 +0000] "GET / HTTP/1.1" 200 114689 "-" "Mozilla/5.0 (Windows NT 6.1; WOW64) AppleWebKit/537.36 (KHTML, like Gecko) Chrome/51.0.2704.63 Safari/537.36"
195.176.3.20 - - [03/Nov/2018:20:51:54 +0000] "GET / HTTP/1.1" 200 114689 "-" "Mozilla/5.0 (Windows NT 10.0; Win64; x64) AppleWebKit/537.36 (KHTML, like Gecko) Chrome/58.0.3029.110 Safari/537.36"
208.67.16.29 - - [03/Nov/2018:21:25:25 +0000] "GET /xmlrpz.php HTTP/1.1" 404 2196 "http://site.ru" "Mozilla/5.0 (Windows; U; Windows NT 5.1; en-US) AppleWebKit/533.4 (KHTML, like Gecko) Chrome/5.0.375.99 Safari/533.4"
208.67.16.29 - - [03/Nov/2018:21:25:30 +0000] "GET /xmlrpz.php HTTP/1.1" 404 2196 "http://site.ru" "Mozilla/5.0 (Windows; U; Windows NT 5.1; en-US) AppleWebKit/533.4 (KHTML, like Gecko) Chrome/5.0.375.99 Safari/533.4"
199.249.230.65 - - [03/Nov/2018:21:37:11 +0000] "GET / HTTP/1.1" 200 114689 "-" "Mozilla/5.0 (Windows NT 6.0; Win64; x64) AppleWebKit/537.36 (KHTML, like Gecko) Chrome/60.0.3112.90 Safari/537.36"
166.70.207.2 - - [03/Nov/2018:21:41:22 +0000] "GET / HTTP/1.1" 200 114689 "-" "Mozilla/5.0 (Windows NT 6.2; Win64; x64) AppleWebKit/537.36 (KHTML, like Gecko) Chrome/52.0.2743.116 Safari/537.36 Edge/15.15063"
185.86.164.104 - - [03/Nov/2018:22:07:56 +0000] "GET /wp-login.php HTTP/1.1" 404 2202 "-" "Mozilla/5.0 (Windows NT 10.0; WOW64) AppleWebKit/537.36 (KHTML, like Gecko) Chrome/51.0.2704.103 Safari/537.36"
97.74.228.245 - - [03/Nov/2018:22:38:03 +0000] "POST /xmlrpc.php HTTP/1.1" 404 2197 "-" "Mozilla/5.0 (Macintosh; U; Intel Mac OS X 10.6; fr; rv:1.9.2.8) Gecko/20100722 Firefox/3.6.8"
110.83.60.116 - - [03/Nov/2018:23:57:43 +0000] "HEAD /wp-content/themes/twentysixteen/inc/customizer.php HTTP/1.1" 404 0 "-" "-"
97.74.228.245 - - [04/Nov/2018:00:46:48 +0000] "POST /xmlrpc.php HTTP/1.1" 404 2197 "-" "Mozilla/5.0 (Macintosh; U; Intel Mac OS X 10.6; fr; rv:1.9.2.8) Gecko/20100722 Firefox/3.6.8"
89.248.169.130 - - [04/Nov/2018:01:09:31 +0000] "POST /xmlrpc.php HTTP/1.1" 404 2197 "-" "Mozilla/5.0 (Macintosh; U; Intel Mac OS X 10.6; fr; rv:1.9.2.8) Gecko/20100722 Firefox/3.6.8"
89.248.169.130 - - [04/Nov/2018:01:09:32 +0000] "POST /xmlrpc.php HTTP/1.1" 404 2197 "-" "Mozilla/5.0 (Macintosh; U; Intel Mac OS X 10.6; fr; rv:1.9.2.8) Gecko/20100722 Firefox/3.6.8"
89.248.169.130 - - [04/Nov/2018:01:09:32 +0000] "POST /xmlrpc.php HTTP/1.1" 404 2197 "-" "Mozilla/5.0 (Macintosh; U; Intel Mac OS X 10.6; fr; rv:1.9.2.8) Gecko/20100722 Firefox/3.6.8"
89.248.169.130 - - [04/Nov/2018:01:09:32 +0000] "POST /xmlrpc.php HTTP/1.1" 404 2197 "-" "Mozilla/5.0 (Macintosh; U; Intel Mac OS X 10.6; fr; rv:1.9.2.8) Gecko/20100722 Firefox/3.6.8"
193.201.224.210 - - [04/Nov/2018:01:44:54 +0000] "GET /wp-content/plugins/reflex-gallery/admin/scripts/FileUploader/php.php HTTP/1.1" 404 2370 "http://radicalbit.com/wp-content/plugins/reflex-gallery/admin/scripts/FileUploader/php.php" "Mozilla/5.0 (Windows NT 6.1; WOW64) AppleWebKit/537.36 (KHTML, like Gecko) Chrome/42.0.2311.152 Safari/537.36"
66.249.66.76 - - [04/Nov/2018:01:46:49 +0000] "GET /robots.txt HTTP/1.1" 404 2200 "-" "Mozilla/5.0 (compatible; Googlebot/2.1; +http://www.google.com/bot.html)"
66.249.66.75 - - [04/Nov/2018:01:47:23 +0000] "GET / HTTP/1.1" 200 114689 "-" "Mozilla/5.0 (Linux; Android 6.0.1; Nexus 5X Build/MMB29P) AppleWebKit/537.36 (KHTML, like Gecko) Chrome/41.0.2272.96 Mobile Safari/537.36 (compatible; Googlebot/2.1; +http://www.google.com/bot.html)"
66.249.66.75 - - [04/Nov/2018:01:47:28 +0000] "GET /index_files/css(4) HTTP/1.1" 404 2224 "http://www.radicalbit.com/" "Mozilla/5.0 (Linux; Android 6.0.1; Nexus 5X Build/MMB29P) AppleWebKit/537.36 (KHTML, like Gecko) Chrome/41.0.2272.96 Mobile Safari/537.36 (compatible; Googlebot/2.1; +http://www.google.com/bot.html)"
66.249.66.74 - - [04/Nov/2018:01:47:29 +0000] "GET /index_files/collapse.js.download HTTP/1.1" 404 2266 "http://www.radicalbit.com/" "Mozilla/5.0 (Linux; Android 6.0.1; Nexus 5X Build/MMB29P) AppleWebKit/537.36 (KHTML, like Gecko) Chrome/41.0.2272.96 Mobile Safari/537.36 (compatible; Googlebot/2.1; +http://www.google.com/bot.html)"
66.249.66.74 - - [04/Nov/2018:01:47:30 +0000] "GET /index_files/wp-embed.min.js.download HTTP/1.1" 404 2278 "http://www.radicalbit.com/" "Mozilla/5.0 (Linux; Android 6.0.1; Nexus 5X Build/MMB29P) AppleWebKit/537.36 (KHTML, like Gecko) Chrome/41.0.2272.96 Mobile Safari/537.36 (compatible; Googlebot/2.1; +http://www.google.com/bot.html)"
66.249.66.74 - - [04/Nov/2018:01:47:31 +0000] "GET /index_files/front.min.js.download HTTP/1.1" 404 2269 "http://www.radicalbit.com/" "Mozilla/5.0 (Linux; Android 6.0.1; Nexus 5X Build/MMB29P) AppleWebKit/537.36 (KHTML, like Gecko) Chrome/41.0.2272.96 Mobile Safari/537.36 (compatible; Googlebot/2.1; +http://www.google.com/bot.html)"
66.249.66.74 - - [04/Nov/2018:01:47:32 +0000] "GET /index_files/css HTTP/1.1" 404 2215 "http://www.radicalbit.com/" "Mozilla/5.0 (Linux; Android 6.0.1; Nexus 5X Build/MMB29P) AppleWebKit/537.36 (KHTML, like Gecko) Chrome/41.0.2272.96 Mobile Safari/537.36 (compatible; Googlebot/2.1; +http://www.google.com/bot.html)"
54.36.150.80 - - [04/Nov/2018:02:10:25 +0000] "GET /robots.txt HTTP/1.1" 404 2196 "-" "Mozilla/5.0 (compatible; AhrefsBot/5.2; +http://ahrefs.com/robot/)"
54.36.149.3 - - [04/Nov/2018:02:10:25 +0000] "GET /jam/ HTTP/1.1" 404 2178 "-" "Mozilla/5.0 (compatible; AhrefsBot/5.2; +http://ahrefs.com/robot/)"
185.220.101.47 - - [04/Nov/2018:02:19:18 +0000] "GET / HTTP/1.1" 200 114689 "-" "Mozilla/5.0 (Windows NT 10.0; Win64; x64) AppleWebKit/537.36 (KHTML, like Gecko) Chrome/65.0.3325.181 Safari/537.36"
97.74.228.245 - - [04/Nov/2018:02:58:15 +0000] "POST /xmlrpc.php HTTP/1.1" 404 2197 "-" "Mozilla/5.0 (Macintosh; U; Intel Mac OS X 10.6; fr; rv:1.9.2.8) Gecko/20100722 Firefox/3.6.8"
