192.42.116.28 - - [01/Nov/2018:03:08:46 +0000] "GET / HTTP/1.1" 200 114689 "-" "Mozilla/5.0 (Windows NT 10.0; WOW64; rv:54.0) Gecko/20100101 Firefox/54.0"
97.74.228.245 - - [01/Nov/2018:03:21:56 +0000] "POST /xmlrpc.php HTTP/1.1" 404 2197 "-" "Mozilla/5.0 (Macintosh; U; Intel Mac OS X 10.6; fr; rv:1.9.2.8) Gecko/20100722 Firefox/3.6.8"
46.165.230.5 - - [01/Nov/2018:03:26:20 +0000] "GET / HTTP/1.1" 200 114689 "-" "Mozilla/5.0 (Windows NT 10.0; Win64; x64) AppleWebKit/537.36 (KHTML, like Gecko) Chrome/61.0.3163.100 Safari/537.36"
2001:4b98:dc0:41:216:3eff:fe35:9f93 - - [01/Nov/2018:04:59:30 +0000] "GET /index.php?sort=cHJpbnQgbWQ1KDIxMzEyMyk7 HTTP/1.1" 404 2223 "radicalbit.com" "Mozilla/5.0 (Windows NT 6.1; WOW64) AppleWebKit/537.36 (KHTML, like Gecko) Chrome/50.0.2661.75 Safari/537.36"
89.248.169.130 - - [01/Nov/2018:05:24:07 +0000] "POST /xmlrpc.php HTTP/1.1" 404 2197 "-" "Mozilla/5.0 (Macintosh; U; Intel Mac OS X 10.6; fr; rv:1.9.2.8) Gecko/20100722 Firefox/3.6.8"
89.248.169.130 - - [01/Nov/2018:05:24:07 +0000] "POST /xmlrpc.php HTTP/1.1" 404 2197 "-" "Mozilla/5.0 (Macintosh; U; Intel Mac OS X 10.6; fr; rv:1.9.2.8) Gecko/20100722 Firefox/3.6.8"
89.248.169.130 - - [01/Nov/2018:05:24:07 +0000] "POST /xmlrpc.php HTTP/1.1" 404 2197 "-" "Mozilla/5.0 (Macintosh; U; Intel Mac OS X 10.6; fr; rv:1.9.2.8) Gecko/20100722 Firefox/3.6.8"
89.248.169.130 - - [01/Nov/2018:05:24:07 +0000] "POST /xmlrpc.php HTTP/1.1" 404 2197 "-" "Mozilla/5.0 (Macintosh; U; Intel Mac OS X 10.6; fr; rv:1.9.2.8) Gecko/20100722 Firefox/3.6.8"
97.74.228.245 - - [01/Nov/2018:05:32:28 +0000] "POST /xmlrpc.php HTTP/1.1" 404 2197 "-" "Mozilla/5.0 (Macintosh; U; Intel Mac OS X 10.6; fr; rv:1.9.2.8) Gecko/20100722 Firefox/3.6.8"
139.81.196.41 - - [01/Nov/2018:05:46:07 +0000] "GET / HTTP/1.1" 200 114689 "-" "Mozilla/5.0 (Macintosh; Intel Mac OS X 10_12_5) AppleWebKit/537.36 (KHTML, like Gecko) Chrome/58.0.3029.110 Safari/537.36"
79.137.79.167 - - [01/Nov/2018:05:46:30 +0000] "GET / HTTP/1.1" 200 114689 "-" "Mozilla/5.0 (Windows NT 6.0; Win64; x64) AppleWebKit/537.36 (KHTML, like Gecko) Chrome/51.0.2704.79 Safari/537.36 Edge/14.14393"
180.76.15.18 - - [01/Nov/2018:06:06:24 +0000] "GET /wp-admin/admin-ajax.php?link=html-inline-1460632894883 HTTP/1.1" 404 2266 "-" "Mozilla/5.0 (compatible; Baiduspider/2.0; +http://www.baidu.com/search/spider.html)"
180.76.15.151 - - [01/Nov/2018:06:39:44 +0000] "GET /work-case-sample/ HTTP/1.1" 404 2217 "-" "Mozilla/5.0 (compatible; Baiduspider/2.0; +http://www.baidu.com/search/spider.html)"
185.104.120.2 - - [01/Nov/2018:07:35:28 +0000] "GET / HTTP/1.1" 200 114689 "-" "Mozilla/5.0 (Windows NT 10.0; WOW64; Trident/7.0; Touch; rv:11.0) like Gecko"
97.74.228.245 - - [01/Nov/2018:07:44:21 +0000] "POST /xmlrpc.php HTTP/1.1" 404 2197 "-" "Mozilla/5.0 (Macintosh; U; Intel Mac OS X 10.6; fr; rv:1.9.2.8) Gecko/20100722 Firefox/3.6.8"
193.169.145.194 - - [01/Nov/2018:09:28:54 +0000] "GET / HTTP/1.1" 200 114689 "-" "Mozilla/5.0 (Windows NT 6.1; WOW64) AppleWebKit/537.36 (KHTML, like Gecko) Chrome/51.0.2704.63 Safari/537.36"
123.57.254.142 - - [01/Nov/2018:09:32:39 +0000] "POST /xmlrpc.php HTTP/1.1" 404 2197 "-" "Mozilla/5.0 (Macintosh; U; Intel Mac OS X 10.6; fr; rv:1.9.2.8) Gecko/20100722 Firefox/3.6.8"
123.57.254.142 - - [01/Nov/2018:09:32:40 +0000] "POST /xmlrpc.php HTTP/1.1" 404 2197 "-" "Mozilla/5.0 (Macintosh; U; Intel Mac OS X 10.6; fr; rv:1.9.2.8) Gecko/20100722 Firefox/3.6.8"
97.74.228.245 - - [01/Nov/2018:09:58:07 +0000] "POST /xmlrpc.php HTTP/1.1" 404 2197 "-" "Mozilla/5.0 (Macintosh; U; Intel Mac OS X 10.6; fr; rv:1.9.2.8) Gecko/20100722 Firefox/3.6.8"
51.15.205.214 - - [01/Nov/2018:10:18:49 +0000] "GET / HTTP/1.1" 200 114689 "-" "Mozilla/5.0 (Windows NT 6.1; WOW64; rv:40.0) Gecko/20100101 Firefox/40.1"
66.249.69.84 - - [01/Nov/2018:10:28:39 +0000] "GET /robots.txt HTTP/1.1" 404 2196 "-" "Mozilla/5.0 (compatible; Googlebot/2.1; +http://www.google.com/bot.html)"
66.249.69.82 - - [01/Nov/2018:10:28:41 +0000] "GET /wp-content/themes/dikka-installable/style.css?ver=4.3.17 HTTP/1.1" 404 2312 "http://radicalbit.com/het-whiteboard-slim-gebruiken-met-dit-een-tweetje/" "Mozilla/5.0 AppleWebKit/537.36 (KHTML, like Gecko; compatible; Googlebot/2.1; +http://www.google.com/bot.html) Safari/537.36"
66.249.69.86 - - [01/Nov/2018:10:28:42 +0000] "GET /wp-content/themes/dikka-installable/assets/js/utils.js?ver=4.3.17 HTTP/1.1" 404 2339 "http://radicalbit.com/het-whiteboard-slim-gebruiken-met-dit-een-tweetje/" "Mozilla/5.0 AppleWebKit/537.36 (KHTML, like Gecko; compatible; Googlebot/2.1; +http://www.google.com/bot.html) Safari/537.36"
66.249.69.84 - - [01/Nov/2018:10:28:43 +0000] "GET /wp-content/themes/dikka-installable/assets/css/custom.css?ver=4.3.17 HTTP/1.1" 404 2348 "http://radicalbit.com/het-whiteboard-slim-gebruiken-met-dit-een-tweetje/" "Mozilla/5.0 AppleWebKit/537.36 (KHTML, like Gecko; compatible; Googlebot/2.1; +http://www.google.com/bot.html) Safari/537.36"
66.249.69.84 - - [01/Nov/2018:10:28:45 +0000] "GET /wp-content/themes/dikka-installable/assets/css/YTPlayer.css?ver=4.3.17 HTTP/1.1" 404 2354 "http://radicalbit.com/het-whiteboard-slim-gebruiken-met-dit-een-tweetje/" "Mozilla/5.0 AppleWebKit/537.36 (KHTML, like Gecko; compatible; Googlebot/2.1; +http://www.google.com/bot.html) Safari/537.36"
66.249.69.84 - - [01/Nov/2018:10:28:46 +0000] "GET /wp-content/themes/dikka-installable/assets/css/nivo_themes/default/default.css?ver=4.3.17 HTTP/1.1" 404 2411 "http://radicalbit.com/het-whiteboard-slim-gebruiken-met-dit-een-tweetje/" "Mozilla/5.0 AppleWebKit/537.36 (KHTML, like Gecko; compatible; Googlebot/2.1; +http://www.google.com/bot.html) Safari/537.36"
66.249.69.82 - - [01/Nov/2018:10:28:47 +0000] "GET /wp-content/themes/dikka-installable/assets/js/wow.js?ver=1 HTTP/1.1" 404 2328 "http://radicalbit.com/het-whiteboard-slim-gebruiken-met-dit-een-tweetje/" "Mozilla/5.0 AppleWebKit/537.36 (KHTML, like Gecko; compatible; Googlebot/2.1; +http://www.google.com/bot.html) Safari/537.36"
66.249.69.82 - - [01/Nov/2018:10:28:48 +0000] "GET /wp-content/plugins/revslider/public/assets/js/jquery.themepunch.revolution.min.js?ver=5.1.6 HTTP/1.1" 404 2419 "http://radicalbit.com/het-whiteboard-slim-gebruiken-met-dit-een-tweetje/" "Mozilla/5.0 AppleWebKit/537.36 (KHTML, like Gecko; compatible; Googlebot/2.1; +http://www.google.com/bot.html) Safari/537.36"
66.249.69.82 - - [01/Nov/2018:10:28:49 +0000] "GET /wp-content/themes/dikka-installable/assets/css/bootstrap.css?ver=4.3.17 HTTP/1.1" 404 2357 "http://radicalbit.com/het-whiteboard-slim-gebruiken-met-dit-een-tweetje/" "Mozilla/5.0 AppleWebKit/537.36 (KHTML, like Gecko; compatible; Googlebot/2.1; +http://www.google.com/bot.html) Safari/537.36"
192.160.102.170 - - [01/Nov/2018:10:30:17 +0000] "GET / HTTP/1.1" 200 114689 "-" "Mozilla/5.0 (Windows NT 6.1; Win64; x64) AppleWebKit/537.36 (KHTML, like Gecko) Chrome/54.0.2840.99 Safari/537.36"
216.218.222.14 - - [01/Nov/2018:10:31:43 +0000] "GET / HTTP/1.1" 200 114689 "-" "Mozilla/5.0 (Windows NT 6.1; WOW64) AppleWebKit/537.36 (KHTML, like Gecko) Chrome/46.0.2490.80 Safari/537.36"
120.35.38.212 - - [01/Nov/2018:11:01:03 +0000] "HEAD /wp-content/themes/twentyseventeen/sidebar.php HTTP/1.1" 404 0 "-" "-"
51.38.69.128 - - [01/Nov/2018:11:08:34 +0000] "GET / HTTP/1.1" 200 114689 "-" "Mozilla/5.0 (Windows NT 10.0; Win64; x64) AppleWebKit/537.36 (KHTML, like Gecko) Chrome/58.0.3029.110 Safari/537.36 Edge/16.16299"
199.249.230.68 - - [01/Nov/2018:11:12:24 +0000] "GET / HTTP/1.1" 200 114689 "-" "Mozilla/5.0 (X11; Linux x86_64; rv:45.0) Gecko/20100101 Thunderbird/45.3.0"
197.231.221.211 - - [01/Nov/2018:11:34:41 +0000] "GET / HTTP/1.1" 200 114689 "-" "Mozilla/5.0 (Unknown; Linux) AppleWebKit/538.1 (KHTML, like Gecko) Chrome/v1.0.0 Safari/538.1"
65.19.167.132 - - [01/Nov/2018:12:24:10 +0000] "GET / HTTP/1.1" 200 114689 "-" "Mozilla/5.0 (Windows NT 10.0; Win64; x64) AppleWebKit/537.36 (KHTML, like Gecko) Chrome/64.0.3282.186 Safari/537.36"
97.74.228.245 - - [01/Nov/2018:12:25:26 +0000] "POST /xmlrpc.php HTTP/1.1" 404 2197 "-" "Mozilla/5.0 (Macintosh; U; Intel Mac OS X 10.6; fr; rv:1.9.2.8) Gecko/20100722 Firefox/3.6.8"
204.85.191.31 - - [01/Nov/2018:12:26:37 +0000] "GET / HTTP/1.1" 200 114689 "-" "Mozilla/5.0 (Macintosh; Intel Mac OS X 10_12_6) AppleWebKit/603.3.8 (KHTML, like Gecko)"
37.187.129.166 - - [01/Nov/2018:12:32:36 +0000] "GET / HTTP/1.1" 200 114689 "-" "Mozilla/5.0 (Windows NT 6.1) AppleWebKit/537.36 (KHTML, like Gecko) Chrome/41.0.2272.104 Safari/537.36"
51.15.233.253 - - [01/Nov/2018:12:46:22 +0000] "GET / HTTP/1.1" 200 114689 "-" "Mozilla/5.0 (Windows NT 6.1; Win64; x64) AppleWebKit/537.36 (KHTML, like Gecko) Chrome/61.0.3163.100 Safari/537.36"
94.102.51.78 - - [01/Nov/2018:13:08:14 +0000] "GET / HTTP/1.1" 200 114689 "-" "Mozilla/5.0 (Windows NT 6.3; WOW64) AppleWebKit/537.36 (KHTML, like Gecko) Chrome/51.0.2704.106 Safari/537.36"
185.220.101.25 - - [01/Nov/2018:13:12:52 +0000] "GET / HTTP/1.1" 200 114689 "-" "Mozilla/5.0 (Windows NT 6.1) AppleWebKit/537.36 (KHTML, like Gecko) Chrome/41.0.2272.104 Safari/537.36"
51.15.224.0 - - [01/Nov/2018:13:27:10 +0000] "GET / HTTP/1.1" 200 114689 "-" "Mozilla/5.0 (Windows NT 10.0; Win64; x64) AppleWebKit/537.36 (KHTML, like Gecko) Chrome/66.0.3359.181 Safari/537.36"
192.42.116.16 - - [01/Nov/2018:13:29:33 +0000] "GET / HTTP/1.1" 200 114689 "-" "Mozilla/5.0 (Windows NT 10.0; Win64; x64) AppleWebKit/537.36 (KHTML, like Gecko) Chrome/54.0.2840.99 Safari/537.36"
89.248.169.130 - - [01/Nov/2018:13:49:18 +0000] "POST /xmlrpc.php HTTP/1.1" 404 2197 "-" "Mozilla/5.0 (Macintosh; U; Intel Mac OS X 10.6; fr; rv:1.9.2.8) Gecko/20100722 Firefox/3.6.8"
89.248.169.130 - - [01/Nov/2018:13:49:18 +0000] "POST /xmlrpc.php HTTP/1.1" 404 2197 "-" "Mozilla/5.0 (Macintosh; U; Intel Mac OS X 10.6; fr; rv:1.9.2.8) Gecko/20100722 Firefox/3.6.8"
89.248.169.130 - - [01/Nov/2018:13:49:18 +0000] "POST /xmlrpc.php HTTP/1.1" 404 2197 "-" "Mozilla/5.0 (Macintosh; U; Intel Mac OS X 10.6; fr; rv:1.9.2.8) Gecko/20100722 Firefox/3.6.8"
89.248.169.130 - - [01/Nov/2018:13:49:19 +0000] "POST /xmlrpc.php HTTP/1.1" 404 2197 "-" "Mozilla/5.0 (Macintosh; U; Intel Mac OS X 10.6; fr; rv:1.9.2.8) Gecko/20100722 Firefox/3.6.8"
78.109.23.2 - - [01/Nov/2018:13:54:39 +0000] "GET / HTTP/1.1" 200 114689 "-" "Mozilla/5.0 (Windows NT 6.3; Win64; x64) AppleWebKit/537.36 (KHTML, like Gecko) Chrome/46.0.2486.0 Safari/537.36 Edge/13.10586"
193.201.224.210 - - [01/Nov/2018:14:09:28 +0000] "GET /wp-content/plugins/wp-mailinglist/vendors/uploadify/upload.php HTTP/1.1" 404 2352 "http://radicalbit.com/wp-content/plugins/wp-mailinglist/vendors/uploadify/upload.php" "Mozilla/5.0 (Windows NT 6.1; WOW64) AppleWebKit/537.36 (KHTML, like Gecko) Chrome/42.0.2311.152 Safari/537.36"
185.86.164.106 - - [01/Nov/2018:14:10:22 +0000] "GET /wp-login.php HTTP/1.1" 404 2202 "-" "Mozilla/5.0 (Windows NT 10.0; WOW64) AppleWebKit/537.36 (KHTML, like Gecko) Chrome/51.0.2704.103 Safari/537.36"
185.220.101.3 - - [01/Nov/2018:14:12:30 +0000] "GET / HTTP/1.1" 200 114689 "-" "Mozilla/5.0 (Windows NT 10.0; Win64; x64) AppleWebKit/537.36 (KHTML, like Gecko) Chrome/61.0.3163.100 Safari/537.36"
97.74.228.245 - - [01/Nov/2018:14:49:41 +0000] "POST /xmlrpc.php HTTP/1.1" 404 2197 "-" "Mozilla/5.0 (Macintosh; U; Intel Mac OS X 10.6; fr; rv:1.9.2.8) Gecko/20100722 Firefox/3.6.8"
185.56.80.242 - - [01/Nov/2018:14:57:56 +0000] "GET / HTTP/1.1" 200 114689 "-" "Mozilla/5.0 (Windows NT 10.0; WOW64) AppleWebKit/537.36 (KHTML, like Gecko) Chrome/56.0.2924.87 Safari/537.36 OPR/43.0.2442.991"
193.201.224.210 - - [01/Nov/2018:15:05:39 +0000] "GET /wp-content/themes/RightNow/includes/uploadify/upload_settings_image.php HTTP/1.1" 404 2379 "http://radicalbit.com/wp-content/themes/RightNow/includes/uploadify/upload_settings_image.php" "Mozilla/5.0 (Windows NT 6.1; WOW64) AppleWebKit/537.36 (KHTML, like Gecko) Chrome/42.0.2311.152 Safari/537.36"
185.220.101.12 - - [01/Nov/2018:15:16:01 +0000] "GET / HTTP/1.1" 200 114689 "-" "Mozilla/5.0 (Macintosh; Intel Mac OS X 10_12_6) AppleWebKit/537.36 (KHTML, like Gecko) Chrome/61.0.3163.100 Safari/537.36"
216.218.222.12 - - [01/Nov/2018:15:19:16 +0000] "GET / HTTP/1.1" 200 114689 "-" "Mozilla/5.0 (Windows NT 5.1; rv:7.0.1) Gecko/20100101 Firefox/7.0.1"
176.31.208.193 - - [01/Nov/2018:15:47:29 +0000] "GET / HTTP/1.1" 200 114689 "-" "Mozilla/5.0 (Windows NT 10.0; Win64; x64) AppleWebKit/537.36 (KHTML, like Gecko) Chrome/52.0.2743.116 Safari/537.36 Edge/15.15063"
66.70.174.22 - - [01/Nov/2018:15:52:29 +0000] "GET / HTTP/1.1" 200 114689 "-" "Mozilla/5.0 (Windows NT 5.1) AppleWebKit/537.36 (KHTML, like Gecko) Chrome/49.0.2623.112 Safari/537.36"
197.231.221.211 - - [01/Nov/2018:16:27:33 +0000] "GET / HTTP/1.1" 200 114689 "-" "Mozilla/5.0 (Windows NT 10.0; WOW64; Trident/7.0; Touch; rv:11.0) like Gecko"
87.118.92.43 - - [01/Nov/2018:16:48:58 +0000] "GET / HTTP/1.1" 200 114689 "-" "Mozilla/5.0 (Windows NT 6.0; Win64; x64) AppleWebKit/537.36 (KHTML, like Gecko) Chrome/51.0.2704.79 Safari/537.36 Edge/14.14393"
197.231.221.211 - - [01/Nov/2018:16:54:07 +0000] "GET / HTTP/1.1" 200 114689 "-" "Mozilla/5.0 (Macintosh; Intel Mac OS X 10_12_6) AppleWebKit/537.36 (KHTML, like Gecko) Chrome/61.0.3163.100 Safari/537.36"
97.74.228.245 - - [01/Nov/2018:17:08:04 +0000] "POST /xmlrpc.php HTTP/1.1" 404 2197 "-" "Mozilla/5.0 (Macintosh; U; Intel Mac OS X 10.6; fr; rv:1.9.2.8) Gecko/20100722 Firefox/3.6.8"
62.210.129.246 - - [01/Nov/2018:17:13:06 +0000] "GET / HTTP/1.1" 200 114689 "-" "Mozilla/5.0 (Windows NT 6.0; Win64; x64) AppleWebKit/537.36 (KHTML, like Gecko) Chrome/46.0.2486.0 Safari/537.36 Edge/13.10586"
66.70.174.13 - - [01/Nov/2018:17:44:42 +0000] "GET / HTTP/1.1" 200 114689 "-" "Mozilla/5.0 (Macintosh; Intel Mac OS X 10_12_6) AppleWebKit/603.3.8 (KHTML, like Gecko) Version/10.1.2 Safari/603.3.8"
5.199.141.233 - - [01/Nov/2018:17:54:14 +0000] "GET / HTTP/1.1" 200 114689 "-" "Mozilla/5.0 (Windows NT 6.1; WOW64) AppleWebKit/537.21 (KHTML, like Gecko) Mwendo/1.1.5 Safari/537.21"
185.100.87.129 - - [01/Nov/2018:17:54:40 +0000] "GET / HTTP/1.1" 200 114689 "-" "Mozilla/5.0 (Windows NT 6.1; WOW64) AppleWebKit/537.36 (KHTML, like Gecko) Chrome/55.0.2883.87 Safari/537.36 OPR/42.0.2393.94"
144.217.60.211 - - [01/Nov/2018:17:56:50 +0000] "GET / HTTP/1.1" 200 114689 "-" "Mozilla/5.0 (Windows NT 10.0; Win64; x64) AppleWebKit/537.36 (KHTML, like Gecko) Chrome/60.0.3112.78 Safari/537.36 OPR/47.0.2631.39"
91.90.192.170 - - [01/Nov/2018:18:39:07 +0000] "GET / HTTP/1.1" 200 114689 "-" "Mozilla/5.0 (X11; Ubuntu; Linux x86_64; rv:42.0) Gecko/20100101 Firefox/42.0"
97.74.228.245 - - [01/Nov/2018:19:23:37 +0000] "POST /xmlrpc.php HTTP/1.1" 404 2197 "-" "Mozilla/5.0 (Macintosh; U; Intel Mac OS X 10.6; fr; rv:1.9.2.8) Gecko/20100722 Firefox/3.6.8"
212.129.6.199 - - [01/Nov/2018:19:55:42 +0000] "GET /wp-upload-class.php HTTP/1.1" 404 2223 "-" "Mozilla/5.0 (X11; Linux x86_64) AppleWebKit/537.36 (KHTML, like Gecko) Chrome/47.0.2526.35 Safari/537.36"
89.234.157.254 - - [01/Nov/2018:19:57:20 +0000] "GET / HTTP/1.1" 200 114689 "-" "Mozilla/5.0 (Macintosh; Intel Mac OS X 10_12_6) AppleWebKit/603.3.8 (KHTML, like Gecko) Version/10.1.2 Safari/603.3.8"
89.248.162.130 - - [01/Nov/2018:20:01:21 +0000] "GET / HTTP/1.1" 200 114689 "-" "Mozilla/5.0 (Windows NT 6.1; WOW64; rv:48.0) Gecko/20100101 Firefox/48.0"
54.36.150.80 - - [01/Nov/2018:20:07:15 +0000] "GET /robots.txt HTTP/1.1" 404 2196 "-" "Mozilla/5.0 (compatible; AhrefsBot/5.2; +http://ahrefs.com/robot/)"
54.36.148.160 - - [01/Nov/2018:20:07:15 +0000] "GET /learn/ HTTP/1.1" 404 2184 "-" "Mozilla/5.0 (compatible; AhrefsBot/5.2; +http://ahrefs.com/robot/)"
78.109.23.2 - - [01/Nov/2018:20:23:07 +0000] "GET / HTTP/1.1" 200 114689 "-" "Mozilla/5.0 (Windows NT 6.1; Trident/7.0; rv:11.0) like Gecko"
185.10.68.16 - - [01/Nov/2018:20:28:55 +0000] "GET / HTTP/1.1" 200 114689 "-" "Mozilla/5.0 (Windows NT 6.0; Win64; x64) AppleWebKit/537.36 (KHTML, like Gecko) Chrome/57.0.2987.133 Safari/537.36"
199.249.230.65 - - [01/Nov/2018:21:08:29 +0000] "GET / HTTP/1.1" 200 114689 "-" "Mozilla/5.0 (Windows NT 10.0; WOW64) AppleWebKit/537.36 (KHTML, like Gecko) Chrome/55.0.2883.87 Safari/537.36 OPR/42.0.2393.94"
185.129.62.63 - - [01/Nov/2018:21:12:01 +0000] "GET / HTTP/1.1" 200 114689 "-" "Mozilla/5.0 (Windows NT 6.1; WOW64) AppleWebKit/537.36 (KHTML, like Gecko) Chrome/51.0.2704.106 Safari/537.36"
194.99.106.147 - - [01/Nov/2018:21:21:52 +0000] "GET /wp-login.php HTTP/1.1" 404 2202 "-" "Mozilla/5.0 (Windows; U; Windows NT 2.0) Gecko/20091201 Firefox/3.5.6 GTB5"
194.99.106.147 - - [01/Nov/2018:21:21:52 +0000] "GET /wp-login.php HTTP/1.1" 404 2202 "-" "Mozilla/5.0 (Windows; U; Windows NT 2.0) Gecko/20091201 Firefox/3.5.6 GTB5"
2001:4b98:dc0:41:216:3eff:fe35:9f93 - - [01/Nov/2018:21:23:28 +0000] "GET /seomarket.php HTTP/1.1" 404 2205 "radicalbit.com" "Mozilla/5.0 (Windows NT 6.1; WOW64) AppleWebKit/537.36 (KHTML, like Gecko) Chrome/50.0.2661.75 Safari/537.36"
185.220.101.30 - - [01/Nov/2018:21:31:18 +0000] "GET / HTTP/1.1" 200 114689 "-" "Mozilla/5.0 (Windows NT 6.1; Win64; x64) AppleWebKit/537.36 (KHTML, like Gecko) Chrome/51.0.2704.79 Safari/537.36 Edge/14.14393"
97.74.228.245 - - [01/Nov/2018:21:36:14 +0000] "POST /xmlrpc.php HTTP/1.1" 404 2197 "-" "Mozilla/5.0 (Macintosh; U; Intel Mac OS X 10.6; fr; rv:1.9.2.8) Gecko/20100722 Firefox/3.6.8"
66.146.193.33 - - [01/Nov/2018:21:37:53 +0000] "GET / HTTP/1.1" 200 114689 "-" "Mozilla/5.0 (Windows NT 6.1; Win64; x64) AppleWebKit/537.36 (KHTML, like Gecko) Chrome/52.0.2743.116 Safari/537.36 Edge/15.15063"
109.70.100.20 - - [01/Nov/2018:21:43:46 +0000] "GET / HTTP/1.1" 200 114689 "-" "Mozilla/5.0 (Windows NT 6.2; Win64; x64) AppleWebKit/537.36 (KHTML, like Gecko) Chrome/57.0.2987.133 Safari/537.36"
51.15.235.211 - - [01/Nov/2018:21:50:53 +0000] "GET / HTTP/1.1" 200 114689 "-" "Mozilla/5.0 (Windows NT 10.0; Win64; x64) AppleWebKit/537.36 (KHTML, like Gecko) Chrome/63.0.3239.84 Safari/537.36"
13.78.24.40 - - [01/Nov/2018:21:53:15 +0000] "GET /robots.txt HTTP/1.1" 404 2196 "-" "Mozilla/5.0 (Windows NT 10.0; Win64; x64; rv:50.0) Gecko/20100101 Firefox/50.0"
13.78.24.40 - - [01/Nov/2018:21:53:15 +0000] "GET /xmlrpc.php?rsd HTTP/1.1" 404 2200 "-" "Mozilla/5.0 (Windows NT 10.0; Win64; x64; rv:50.0) Gecko/20100101 Firefox/50.0"
13.78.24.40 - - [01/Nov/2018:21:53:16 +0000] "GET / HTTP/1.1" 200 114689 "-" "Mozilla/5.0 (Windows NT 10.0; Win64; x64; rv:50.0) Gecko/20100101 Firefox/50.0"
13.78.24.40 - - [01/Nov/2018:21:53:17 +0000] "GET /?author=1 HTTP/1.1" 200 114689 "-" "Mozilla/5.0 (Windows NT 10.0; Win64; x64; rv:50.0) Gecko/20100101 Firefox/50.0"
13.78.24.40 - - [01/Nov/2018:21:53:17 +0000] "GET /wp-json/wp/v2/users/ HTTP/1.1" 404 2226 "-" "Mozilla/5.0 (Windows NT 10.0; Win64; x64; rv:50.0) Gecko/20100101 Firefox/50.0"
13.78.24.40 - - [01/Nov/2018:21:53:19 +0000] "POST /xmlrpc.php HTTP/1.1" 404 2197 "-" "Mozilla/5.0 (Windows NT 10.0; Win64; x64; rv:50.0) Gecko/20100101 Firefox/50.0"
89.248.169.130 - - [01/Nov/2018:22:12:10 +0000] "POST /xmlrpc.php HTTP/1.1" 404 2197 "-" "Mozilla/5.0 (Macintosh; U; Intel Mac OS X 10.6; fr; rv:1.9.2.8) Gecko/20100722 Firefox/3.6.8"
89.248.169.130 - - [01/Nov/2018:22:12:10 +0000] "POST /xmlrpc.php HTTP/1.1" 404 2197 "-" "Mozilla/5.0 (Macintosh; U; Intel Mac OS X 10.6; fr; rv:1.9.2.8) Gecko/20100722 Firefox/3.6.8"
89.248.169.130 - - [01/Nov/2018:22:12:10 +0000] "POST /xmlrpc.php HTTP/1.1" 404 2197 "-" "Mozilla/5.0 (Macintosh; U; Intel Mac OS X 10.6; fr; rv:1.9.2.8) Gecko/20100722 Firefox/3.6.8"
218.66.74.237 - - [01/Nov/2018:22:24:50 +0000] "HEAD /wp-content/themes/twentyseventeen/search.php HTTP/1.1" 404 0 "-" "-"
95.168.216.16 - - [01/Nov/2018:22:40:02 +0000] "GET / HTTP/1.1" 200 114689 "-" "Mozilla/5.0 (Windows NT 6.0; Win64; x64) AppleWebKit/537.36 (KHTML, like Gecko) Chrome/55.0.2883.87 Safari/537.36"
79.137.34.35 - - [01/Nov/2018:22:44:17 +0000] "GET /wp-main.php HTTP/1.1" 404 2199 "radicalbit.com" "Mozilla/5.0 (Windows NT 6.1; WOW64) AppleWebKit/537.36 (KHTML, like Gecko) Chrome/50.0.2661.75 Safari/537.36"
79.137.79.167 - - [01/Nov/2018:23:02:21 +0000] "GET / HTTP/1.1" 200 114689 "-" "Mozilla/5.0 (Macintosh; Intel Mac OS X 10_13_4) AppleWebKit/605.1.15 (KHTML, like Gecko) Version/11.1 Safari/605.1.15"
185.56.80.242 - - [01/Nov/2018:23:12:25 +0000] "GET / HTTP/1.1" 200 114689 "-" "Mozilla/5.0 (X11; Linux x86_64) AppleWebKit/537.36 (KHTML, like Gecko) Chrome/42.0.2311.135 Safari/537.36"
193.169.145.66 - - [01/Nov/2018:23:23:57 +0000] "GET / HTTP/1.1" 200 114689 "-" "Mozilla/5.0 (Windows NT 6.1; Win64; x64) AppleWebKit/537.36 (KHTML, like Gecko) Chrome/46.0.2486.0 Safari/537.36 Edge/13.10586"
66.70.174.23 - - [01/Nov/2018:23:25:19 +0000] "GET / HTTP/1.1" 200 114689 "-" "Mozilla/5.0 (Windows NT 6.1; WOW64) AppleWebKit/537.21 (KHTML, like Gecko) Mwendo/1.1.5 Safari/537.21"
123.57.254.142 - - [01/Nov/2018:23:33:44 +0000] "POST /xmlrpc.php HTTP/1.1" 404 2197 "-" "Mozilla/5.0 (Macintosh; U; Intel Mac OS X 10.6; fr; rv:1.9.2.8) Gecko/20100722 Firefox/3.6.8"
123.57.254.142 - - [01/Nov/2018:23:33:45 +0000] "POST /xmlrpc.php HTTP/1.1" 404 2197 "-" "Mozilla/5.0 (Macintosh; U; Intel Mac OS X 10.6; fr; rv:1.9.2.8) Gecko/20100722 Firefox/3.6.8"
97.74.228.245 - - [01/Nov/2018:23:45:13 +0000] "POST /xmlrpc.php HTTP/1.1" 404 2197 "-" "Mozilla/5.0 (Macintosh; U; Intel Mac OS X 10.6; fr; rv:1.9.2.8) Gecko/20100722 Firefox/3.6.8"
52.173.241.248 - - [01/Nov/2018:23:46:56 +0000] "GET / HTTP/1.1" 200 28612 "-" "Mozilla/5.0 (Windows NT 6.1; Win64; x64; rv:59.0) Gecko/20100101 Firefox/59.0"
185.220.101.8 - - [02/Nov/2018:00:14:32 +0000] "GET / HTTP/1.1" 200 114689 "-" "Mozilla/5.0 (Windows NT 10.0; Win64; x64) AppleWebKit/537.36 (KHTML, like Gecko) Chrome/63.0.3239.84 Safari/537.36"
158.174.122.218 - - [02/Nov/2018:00:21:13 +0000] "GET / HTTP/1.1" 200 114689 "-" "Mozilla/5.0 (Windows NT 5.1; Win64; x64) AppleWebKit/537.36 (KHTML, like Gecko) Chrome/57.0.2987.133 Safari/537.36"
198.211.122.191 - - [02/Nov/2018:00:39:41 +0000] "GET / HTTP/1.1" 200 114689 "-" "Mozilla/5.0 (Windows NT 10.0; WOW64) AppleWebKit/537.36 (KHTML, like Gecko) Chrome/55.0.2883.87 Safari/537.36 OPR/42.0.2393.94"
209.17.96.42 - - [02/Nov/2018:00:54:24 +0000] "GET / HTTP/1.1" 200 114689 "-" "Mozilla/5.0 (compatible; Nimbostratus-Bot/v1.3.2; http://cloudsystemnetworks.com)"
212.21.66.6 - - [02/Nov/2018:00:55:34 +0000] "GET / HTTP/1.1" 200 114689 "-" "Mozilla/5.0 (Windows NT 10.0; Win64; x64) AppleWebKit/537.36 (KHTML, like Gecko) Chrome/61.0.3163.79 Safari/537.36"
192.42.116.16 - - [02/Nov/2018:00:59:10 +0000] "GET / HTTP/1.1" 200 114689 "-" "Mozilla/5.0 (Windows NT 6.1; WOW64; rv:52.0) Gecko/20100101 Firefox/52.0"
193.107.85.62 - - [02/Nov/2018:01:16:33 +0000] "GET / HTTP/1.1" 200 114689 "-" "Mozilla/5.0 (Windows NT 6.1; WOW64) AppleWebKit/537.36 (KHTML, like Gecko) Chrome/51.0.2704.63 Safari/537.36"
97.74.228.245 - - [02/Nov/2018:01:56:05 +0000] "POST /xmlrpc.php HTTP/1.1" 404 2197 "-" "Mozilla/5.0 (Macintosh; U; Intel Mac OS X 10.6; fr; rv:1.9.2.8) Gecko/20100722 Firefox/3.6.8"
188.213.175.168 - - [02/Nov/2018:02:04:31 +0000] "GET /wp-clear.php HTTP/1.1" 404 2202 "radicalbit.com" "Mozilla/5.0 (Windows NT 6.1; WOW64) AppleWebKit/537.36 (KHTML, like Gecko) Chrome/50.0.2661.75 Safari/537.36"
13.58.250.246 - - [02/Nov/2018:02:55:27 +0000] "GET / HTTP/1.1" 200 114689 "-" "Mozilla/5.0 (Macintosh; Intel Mac OS X 10.14; rv:63.0) Gecko/20100101 Firefox/63.0"
185.86.167.4 - - [02/Nov/2018:02:57:58 +0000] "GET /wp-login.php HTTP/1.1" 404 2202 "-" "Mozilla/5.0 (Windows NT 10.0; WOW64) AppleWebKit/537.36 (KHTML, like Gecko) Chrome/51.0.2704.103 Safari/537.36"
