178.154.171.84 - - [03/Nov/2018:03:35:23 +0000] "GET /robots.txt HTTP/1.0" 404 208 "-" "Mozilla/5.0 (compatible; YandexBot/3.0; +http://yandex.com/bots)"
141.8.132.13 - - [03/Nov/2018:03:35:25 +0000] "GET /robots.txt HTTP/1.0" 404 208 "-" "Mozilla/5.0 (compatible; YandexBot/3.0; +http://yandex.com/bots)"
178.154.244.31 - - [03/Nov/2018:03:35:25 +0000] "GET /robots.txt HTTP/1.0" 404 208 "-" "Mozilla/5.0 (compatible; YandexBot/3.0; +http://yandex.com/bots)"
141.8.142.120 - - [03/Nov/2018:03:35:25 +0000] "GET /robots.txt HTTP/1.0" 404 208 "-" "Mozilla/5.0 (compatible; YandexBot/3.0; +http://yandex.com/bots)"
31.170.123.73 - - [03/Nov/2018:03:35:27 +0000] "POST /wp-cron.php?doing_wp_cron=1541216127.7028150558471679687500 HTTP/1.0" 200 - "http://xintanalegends.com/wp-cron.php?doing_wp_cron=1541216127.7028150558471679687500" "WordPress/4.9.8; http://xintanalegends.com"
141.8.132.4 - - [03/Nov/2018:03:35:27 +0000] "GET / HTTP/1.0" 301 - "-" "Mozilla/5.0 (compatible; YandexBot/3.0; +http://yandex.com/bots)"
178.154.200.6 - - [03/Nov/2018:03:35:29 +0000] "GET / HTTP/1.0" 200 59951 "-" "Mozilla/5.0 (compatible; YandexBot/3.0; +http://yandex.com/bots)"
37.9.113.40 - - [03/Nov/2018:03:35:29 +0000] "GET / HTTP/1.0" 200 59953 "-" "Mozilla/5.0 (compatible; YandexBot/3.0; +http://yandex.com/bots)"
141.8.142.11 - - [03/Nov/2018:03:35:29 +0000] "GET / HTTP/1.0" 200 59953 "-" "Mozilla/5.0 (compatible; YandexBot/3.0; +http://yandex.com/bots)"
3.16.29.228 - - [03/Nov/2018:04:11:27 +0000] "GET /wp-login.php HTTP/1.0" 200 2291 "https://www.google.com/url?bfc0f2567f4815a61fdeeee7235946bf" "Mozilla/5.0 (Windows NT 6.1; rv:31.0) Gecko/20100101 Firefox/31.0"
3.16.29.228 - - [03/Nov/2018:04:11:29 +0000] "POST /wp-login.php HTTP/1.0" 200 3290 "https://www.google.com/url?bfc0f2567f4815a61fdeeee7235946bf" "Mozilla/5.0 (Windows NT 6.1; rv:31.0) Gecko/20100101 Firefox/31.0"
31.170.123.73 - - [03/Nov/2018:04:11:27 +0000] "POST /wp-cron.php?doing_wp_cron=1541218287.8600521087646484375000 HTTP/1.0" 200 - "http://xintanalegends.com/wp-cron.php?doing_wp_cron=1541218287.8600521087646484375000" "WordPress/4.9.8; http://xintanalegends.com"
192.95.30.29 - - [03/Nov/2018:05:19:58 +0000] "GET /tbl_status.php HTTP/1.0" 404 212 "-" "Mozilla/5.0 (Windows NT 6.1; Trident/7.0; rv:11.0) like Gecko"
193.201.224.210 - - [03/Nov/2018:05:36:19 +0000] "GET /wp-content/plugins/team-admin/2.php HTTP/1.0" 404 233 "http://xintanalegends.com/wp-content/plugins/team-admin/2.php" "Mozilla/5.0 (Windows NT 6.1; WOW64) AppleWebKit/537.36 (KHTML, like Gecko) Chrome/42.0.2311.152 Safari/537.36"
193.201.224.210 - - [03/Nov/2018:05:36:20 +0000] "GET /wp-content/plugins/console_contact_form/upload_file.php?files HTTP/1.0" 404 253 "http://xintanalegends.com/wp-content/plugins/console_contact_form/upload_file.php?files" "Mozilla/5.0 (Windows NT 6.1; WOW64) AppleWebKit/537.36 (KHTML, like Gecko) Chrome/42.0.2311.152 Safari/537.36"
193.201.224.210 - - [03/Nov/2018:05:36:20 +0000] "GET /jm-ajax/upload_file/ HTTP/1.0" 404 218 "http://xintanalegends.com/jm-ajax/upload_file/" "Mozilla/5.0 (Windows NT 6.1; WOW64) AppleWebKit/537.36 (KHTML, like Gecko) Chrome/42.0.2311.152 Safari/537.36"
31.170.123.73 - - [03/Nov/2018:05:36:53 +0000] "POST /wp-cron.php?doing_wp_cron=1541223413.7049179077148437500000 HTTP/1.0" 200 - "http://xintanalegends.com/wp-cron.php?doing_wp_cron=1541223413.7049179077148437500000" "WordPress/4.9.8; http://xintanalegends.com"
193.201.224.210 - - [03/Nov/2018:05:36:53 +0000] "GET /?gf_page=upload HTTP/1.0" 200 59897 "http://xintanalegends.com/?gf_page=upload" "Mozilla/5.0 (Windows NT 6.1; WOW64) AppleWebKit/537.36 (KHTML, like Gecko) Chrome/42.0.2311.152 Safari/537.36"
180.76.15.28 - - [03/Nov/2018:05:44:44 +0000] "GET /?feed=rss2&page_id=453 HTTP/1.0" 200 724 "-" "Mozilla/5.0 (compatible; Baiduspider/2.0; +http://www.baidu.com/search/spider.html)"
52.42.115.130 - - [03/Nov/2018:05:46:59 +0000] "GET /wp-login.php HTTP/1.0" 200 2291 "https://www.google.com/url?643b51bb24d9057381ea7bbb069c88c5" "Mozilla/5.0 (Windows NT 5.1; rv:29.0) Gecko/20120101 Firefox/29.0"
123.57.254.142 - - [03/Nov/2018:05:47:15 +0000] "POST /xmlrpc.php HTTP/1.0" 200 403 "-" "Mozilla/5.0 (Macintosh; U; Intel Mac OS X 10.6; fr; rv:1.9.2.8) Gecko/20100722 Firefox/3.6.8"
123.57.254.142 - - [03/Nov/2018:05:47:15 +0000] "POST /xmlrpc.php HTTP/1.0" 200 403 "-" "Mozilla/5.0 (Macintosh; U; Intel Mac OS X 10.6; fr; rv:1.9.2.8) Gecko/20100722 Firefox/3.6.8"
52.42.115.130 - - [03/Nov/2018:05:47:20 +0000] "POST /wp-login.php HTTP/1.0" 200 3290 "https://www.google.com/url?643b51bb24d9057381ea7bbb069c88c5" "Mozilla/5.0 (Windows NT 5.1; rv:29.0) Gecko/20120101 Firefox/29.0"
31.170.123.73 - - [03/Nov/2018:07:37:32 +0000] "POST /wp-cron.php?doing_wp_cron=1541230652.3092169761657714843750 HTTP/1.0" 200 - "http://xintanalegends.com/wp-cron.php?doing_wp_cron=1541230652.3092169761657714843750" "WordPress/4.9.8; http://xintanalegends.com"
185.85.191.196 - - [03/Nov/2018:07:37:31 +0000] "GET /wp-login.php HTTP/1.0" 200 2291 "-" "Mozilla/5.0 (Windows NT 10.0; WOW64) AppleWebKit/537.36 (KHTML, like Gecko) Chrome/51.0.2704.103 Safari/537.36"
185.85.191.196 - - [03/Nov/2018:07:37:33 +0000] "POST /wp-login.php HTTP/1.0" 200 3239 "http://xintanalegends.com/wp-login.php" "Mozilla/5.0 (Windows NT 10.0; WOW64) AppleWebKit/537.36 (KHTML, like Gecko) Chrome/51.0.2704.103 Safari/537.36"
51.158.25.47 - - [03/Nov/2018:08:06:36 +0000] "GET /wp-content/uploads/2018/10/mod_config.php HTTP/1.0" 404 239 "-" "Mozilla/5.0 (Windows NT 6.1.7600; WOW64; rv:26.0) Gecko/20100101 Firefox/26.0"
31.170.123.73 - - [03/Nov/2018:08:30:21 +0000] "POST /wp-cron.php?doing_wp_cron=1541233821.8558220863342285156250 HTTP/1.0" 200 - "http://xintanalegends.com/wp-cron.php?doing_wp_cron=1541233821.8558220863342285156250" "WordPress/4.9.8; http://xintanalegends.com"
5.188.62.5 - - [03/Nov/2018:08:30:21 +0000] "GET / HTTP/1.0" 200 59953 "-" "Mozilla/5.0 (Windows NT 5.1) AppleWebKit/537.36 (KHTML, like Gecko) Chrome/41.0.2226.0 Safari/537.36"
5.188.62.5 - - [03/Nov/2018:08:30:22 +0000] "POST /xmlrpc.php HTTP/1.0" 200 403 "-" "Mozilla/5.0 (Windows NT 6.1) AppleWebKit/537.36 (KHTML, like Gecko) Chrome/41.0.2225.0 Safari/537.36"
5.188.62.5 - - [03/Nov/2018:08:30:23 +0000] "GET /?author=1 HTTP/1.0" 200 85221 "-" "Mozilla/5.0 (Windows NT 6.0) AppleWebKit/537.36 (KHTML, like Gecko) Chrome/41.0.2226.0 Safari/537.36"
5.188.62.5 - - [03/Nov/2018:08:30:24 +0000] "GET /?author=2 HTTP/1.0" 200 39623 "-" "Mozilla/5.0 (Windows NT 5.1) AppleWebKit/537.36 (KHTML, like Gecko) Chrome/41.0.2226.0 Safari/537.36"
5.188.62.5 - - [03/Nov/2018:08:30:25 +0000] "GET /?author=3 HTTP/1.0" 404 39441 "-" "Mozilla/5.0 (Windows NT 6.2; WOW64) AppleWebKit/537.36 (KHTML, like Gecko) Chrome/41.0.2224.3 Safari/537.36"
5.188.62.5 - - [03/Nov/2018:08:30:25 +0000] "GET /?author=4 HTTP/1.0" 404 39441 "-" "Mozilla/5.0 (Windows NT 6.2) AppleWebKit/537.36 (KHTML, like Gecko) Chrome/41.0.2225.0 Safari/537.36"
5.188.62.5 - - [03/Nov/2018:08:30:26 +0000] "GET /?author=5 HTTP/1.0" 404 39441 "-" "Mozilla/5.0 (Windows NT 6.1) AppleWebKit/537.36 (KHTML, like Gecko) Chrome/41.0.2226.0 Safari/537.36"
5.188.62.5 - - [03/Nov/2018:08:30:26 +0000] "GET /?author=6 HTTP/1.0" 404 39441 "-" "Mozilla/5.0 (Windows NT 5.1) AppleWebKit/537.36 (KHTML, like Gecko) Chrome/41.0.2224.3 Safari/537.36"
216.160.239.174 - - [03/Nov/2018:08:30:48 +0000] "GET /robots.txt HTTP/1.0" 404 208 "-" "Mozilla/5.0 (compatible; Gowikibot/1.0; +http://www.gowikibot.com)"
216.160.239.174 - - [03/Nov/2018:08:31:11 +0000] "GET /robots.txt HTTP/1.0" 404 208 "-" "Mozilla/5.0 (compatible; Gowikibot/1.0; +http://www.gowikibot.com)"
31.170.123.73 - - [03/Nov/2018:09:38:17 +0000] "POST /wp-cron.php?doing_wp_cron=1541237897.7967050075531005859375 HTTP/1.0" 200 - "http://xintanalegends.com/wp-cron.php?doing_wp_cron=1541237897.7967050075531005859375" "WordPress/4.9.8; http://xintanalegends.com"
185.85.191.201 - - [03/Nov/2018:09:38:17 +0000] "GET /wp-login.php HTTP/1.0" 200 2291 "-" "Mozilla/5.0 (Windows NT 10.0; WOW64) AppleWebKit/537.36 (KHTML, like Gecko) Chrome/51.0.2704.103 Safari/537.36"
185.85.191.201 - - [03/Nov/2018:09:38:18 +0000] "POST /wp-login.php HTTP/1.0" 200 3239 "http://xintanalegends.com/wp-login.php" "Mozilla/5.0 (Windows NT 10.0; WOW64) AppleWebKit/537.36 (KHTML, like Gecko) Chrome/51.0.2704.103 Safari/537.36"
180.76.15.29 - - [03/Nov/2018:09:41:18 +0000] "GET /wp-content/themes/dikka-installable/assets/css/bootstrap.css?ver=4.9.8 HTTP/1.0" 200 101695 "-" "Mozilla/5.0 (compatible; Baiduspider/2.0; +http://www.baidu.com/search/spider.html)"
178.154.244.10 - - [03/Nov/2018:09:59:49 +0000] "GET /robots.txt HTTP/1.0" 404 208 "-" "Mozilla/5.0 (compatible; YandexBot/3.0; +http://yandex.com/bots)"
178.154.244.10 - - [03/Nov/2018:09:59:52 +0000] "GET /xmlrpc.php?rsd HTTP/1.0" 200 856 "-" "Mozilla/5.0 (compatible; YandexBot/3.0; +http://yandex.com/bots)"
89.248.169.130 - - [03/Nov/2018:10:09:52 +0000] "POST /xmlrpc.php HTTP/1.0" 200 403 "-" "Mozilla/5.0 (Macintosh; U; Intel Mac OS X 10.6; fr; rv:1.9.2.8) Gecko/20100722 Firefox/3.6.8"
89.248.169.130 - - [03/Nov/2018:10:09:52 +0000] "POST /xmlrpc.php HTTP/1.0" 200 403 "-" "Mozilla/5.0 (Macintosh; U; Intel Mac OS X 10.6; fr; rv:1.9.2.8) Gecko/20100722 Firefox/3.6.8"
31.170.123.73 - - [03/Nov/2018:10:09:52 +0000] "POST /wp-cron.php?doing_wp_cron=1541239792.2029678821563720703125 HTTP/1.0" 200 - "http://xintanalegends.com/wp-cron.php?doing_wp_cron=1541239792.2029678821563720703125" "WordPress/4.9.8; http://xintanalegends.com"
89.248.169.130 - - [03/Nov/2018:10:09:51 +0000] "POST /xmlrpc.php HTTP/1.0" 200 403 "-" "Mozilla/5.0 (Macintosh; U; Intel Mac OS X 10.6; fr; rv:1.9.2.8) Gecko/20100722 Firefox/3.6.8"
89.248.169.130 - - [03/Nov/2018:10:09:53 +0000] "POST /xmlrpc.php HTTP/1.0" 200 403 "-" "Mozilla/5.0 (Macintosh; U; Intel Mac OS X 10.6; fr; rv:1.9.2.8) Gecko/20100722 Firefox/3.6.8"
18.206.244.9 - - [03/Nov/2018:10:10:08 +0000] "GET /wp-login.php HTTP/1.0" 200 2291 "https://www.google.com/url?bfc0f2567f4815a61fdeeee7235946bf" "Mozilla/5.0 (Windows NT 6.0; WOW64; rv:31.0) Gecko/20100101 Firefox/31.0"
18.206.244.9 - - [03/Nov/2018:10:10:09 +0000] "POST /wp-login.php HTTP/1.0" 200 3290 "https://www.google.com/url?bfc0f2567f4815a61fdeeee7235946bf" "Mozilla/5.0 (Windows NT 6.0; WOW64; rv:31.0) Gecko/20100101 Firefox/31.0"
193.201.224.210 - - [03/Nov/2018:10:26:15 +0000] "GET /wp-content/plugins/reflex-gallery/admin/scripts/FileUploader/php.php HTTP/1.0" 404 266 "http://xintanalegends.com/wp-content/plugins/reflex-gallery/admin/scripts/FileUploader/php.php" "Mozilla/5.0 (Windows NT 6.1; WOW64) AppleWebKit/537.36 (KHTML, like Gecko) Chrome/42.0.2311.152 Safari/537.36"
141.8.142.120 - - [03/Nov/2018:10:44:55 +0000] "GET / HTTP/1.0" 200 59951 "-" "Mozilla/5.0 (compatible; YandexBot/3.0; +http://yandex.com/bots)"
220.243.136.78 - - [03/Nov/2018:10:52:40 +0000] "GET / HTTP/1.0" 301 - "-" "Mozilla/5.0 (Linux; Android 6.0; Nexus 5 Build/MRA58N) AppleWebKit/537.36 (KHTML, like Gecko) Chrome/46.0.6525.51 Mobile Safari/537.36"
220.243.136.93 - - [03/Nov/2018:10:52:42 +0000] "GET / HTTP/1.0" 200 59951 "-" "Mozilla/5.0 (Linux; Android 6.0; Nexus 5 Build/MRA58N) AppleWebKit/537.36 (KHTML, like Gecko) Chrome/46.0.6525.51 Mobile Safari/537.36"
220.243.136.84 - - [03/Nov/2018:10:52:43 +0000] "GET /wp-content/plugins/contact-form-7/includes/css/styles.css?ver=5.0.1 HTTP/1.0" 200 1683 "http://xintanalegends.com/" "Mozilla/5.0 (Linux; Android 6.0; Nexus 5 Build/MRA58N) AppleWebKit/537.36 (KHTML, like Gecko) Chrome/46.0.6525.51 Mobile Safari/537.36"
220.243.136.84 - - [03/Nov/2018:10:52:43 +0000] "GET /wp-content/plugins/merobuilder/css/front.css?ver=1.5.3 HTTP/1.0" 200 1045 "http://xintanalegends.com/" "Mozilla/5.0 (Linux; Android 6.0; Nexus 5 Build/MRA58N) AppleWebKit/537.36 (KHTML, like Gecko) Chrome/46.0.6525.51 Mobile Safari/537.36"
220.243.136.84 - - [03/Nov/2018:10:52:43 +0000] "GET /wp-content/plugins/merobuilder/so-widgets-bundle/widgets/so-services-widget/css/style.css?ver=1.0.4 HTTP/1.0" 200 3823 "http://xintanalegends.com/" "Mozilla/5.0 (Linux; Android 6.0; Nexus 5 Build/MRA58N) AppleWebKit/537.36 (KHTML, like Gecko) Chrome/46.0.6525.51 Mobile Safari/537.36"
220.243.136.84 - - [03/Nov/2018:10:52:43 +0000] "GET /?action=origin_widgets_css&class=SiteOrigin_Panels_Widget_Spacer&style=simple&preset=blank&ver=1.5.3 HTTP/1.0" 200 101 "http://xintanalegends.com/" "Mozilla/5.0 (Linux; Android 6.0; Nexus 5 Build/MRA58N) AppleWebKit/537.36 (KHTML, like Gecko) Chrome/46.0.6525.51 Mobile Safari/537.36"
220.243.136.84 - - [03/Nov/2018:10:52:43 +0000] "GET /?action=origin_widgets_css&class=SiteOrigin_Panels_Widget_Title&style=simple&preset=simple&ver=1.5.3 HTTP/1.0" 200 688 "http://xintanalegends.com/" "Mozilla/5.0 (Linux; Android 6.0; Nexus 5 Build/MRA58N) AppleWebKit/537.36 (KHTML, like Gecko) Chrome/46.0.6525.51 Mobile Safari/537.36"
220.243.136.84 - - [03/Nov/2018:10:52:44 +0000] "GET /wp-content/plugins/revslider/rs-plugin/css/settings.css?rev=4.6.0&ver=4.9.8 HTTP/1.0" 200 56333 "http://xintanalegends.com/" "Mozilla/5.0 (Linux; Android 6.0; Nexus 5 Build/MRA58N) AppleWebKit/537.36 (KHTML, like Gecko) Chrome/46.0.6525.51 Mobile Safari/537.36"
220.243.136.84 - - [03/Nov/2018:10:52:44 +0000] "GET /wp-content/plugins/merobuilder/so-widgets-bundle/icons/elegantline/style.css?ver=4.9.8 HTTP/1.0" 200 675 "http://xintanalegends.com/" "Mozilla/5.0 (Linux; Android 6.0; Nexus 5 Build/MRA58N) AppleWebKit/537.36 (KHTML, like Gecko) Chrome/46.0.6525.51 Mobile Safari/537.36"
220.243.136.84 - - [03/Nov/2018:10:52:44 +0000] "GET /wp-content/themes/dikka-installable/assets/css/bootstrap.css?ver=4.9.8 HTTP/1.0" 200 101695 "http://xintanalegends.com/" "Mozilla/5.0 (Linux; Android 6.0; Nexus 5 Build/MRA58N) AppleWebKit/537.36 (KHTML, like Gecko) Chrome/46.0.6525.51 Mobile Safari/537.36"
220.243.136.84 - - [03/Nov/2018:10:52:44 +0000] "GET /wp-content/themes/dikka-installable/assets/libs/font-awesome/css/font-awesome.min.css?ver=4.9.8 HTTP/1.0" 200 22077 "http://xintanalegends.com/" "Mozilla/5.0 (Linux; Android 6.0; Nexus 5 Build/MRA58N) AppleWebKit/537.36 (KHTML, like Gecko) Chrome/46.0.6525.51 Mobile Safari/537.36"
220.243.136.84 - - [03/Nov/2018:10:52:44 +0000] "GET /wp-content/themes/dikka-installable/assets/css/YTPlayer.css?ver=4.9.8 HTTP/1.0" 200 9328 "http://xintanalegends.com/" "Mozilla/5.0 (Linux; Android 6.0; Nexus 5 Build/MRA58N) AppleWebKit/537.36 (KHTML, like Gecko) Chrome/46.0.6525.51 Mobile Safari/537.36"
220.243.136.89 - - [03/Nov/2018:10:52:44 +0000] "GET /wp-content/themes/dikka-installable/assets/css/woocommerce-ux.css?ver=4.9.8 HTTP/1.0" 200 92107 "http://xintanalegends.com/" "Mozilla/5.0 (Linux; Android 6.0; Nexus 5 Build/MRA58N) AppleWebKit/537.36 (KHTML, like Gecko) Chrome/46.0.6525.51 Mobile Safari/537.36"
220.243.136.89 - - [03/Nov/2018:10:52:44 +0000] "GET /wp-content/themes/dikka-installable/assets/css/woo-layout-ux.css?ver=4.9.8 HTTP/1.0" 200 16262 "http://xintanalegends.com/" "Mozilla/5.0 (Linux; Android 6.0; Nexus 5 Build/MRA58N) AppleWebKit/537.36 (KHTML, like Gecko) Chrome/46.0.6525.51 Mobile Safari/537.36"
220.243.136.89 - - [03/Nov/2018:10:52:44 +0000] "GET /wp-content/themes/dikka-installable/style.css?ver=4.9.8 HTTP/1.0" 200 137937 "http://xintanalegends.com/" "Mozilla/5.0 (Linux; Android 6.0; Nexus 5 Build/MRA58N) AppleWebKit/537.36 (KHTML, like Gecko) Chrome/46.0.6525.51 Mobile Safari/537.36"
220.243.136.89 - - [03/Nov/2018:10:52:44 +0000] "GET /wp-content/themes/dikka-installable/assets/css/resize.css?ver=4.9.8 HTTP/1.0" 200 54565 "http://xintanalegends.com/" "Mozilla/5.0 (Linux; Android 6.0; Nexus 5 Build/MRA58N) AppleWebKit/537.36 (KHTML, like Gecko) Chrome/46.0.6525.51 Mobile Safari/537.36"
220.243.136.89 - - [03/Nov/2018:10:52:45 +0000] "GET /wp-content/themes/dikka-installable/assets/css/retina.css?ver=4.9.8 HTTP/1.0" 200 12764 "http://xintanalegends.com/" "Mozilla/5.0 (Linux; Android 6.0; Nexus 5 Build/MRA58N) AppleWebKit/537.36 (KHTML, like Gecko) Chrome/46.0.6525.51 Mobile Safari/537.36"
220.243.136.89 - - [03/Nov/2018:10:52:45 +0000] "GET /wp-content/themes/dikka-installable/assets/css/nivo-lightbox.css?ver=4.9.8 HTTP/1.0" 200 5703 "http://xintanalegends.com/" "Mozilla/5.0 (Linux; Android 6.0; Nexus 5 Build/MRA58N) AppleWebKit/537.36 (KHTML, like Gecko) Chrome/46.0.6525.51 Mobile Safari/537.36"
220.243.136.89 - - [03/Nov/2018:10:52:45 +0000] "GET /wp-content/themes/dikka-installable/assets/css/nivo_themes/default/default.css?ver=4.9.8 HTTP/1.0" 200 2380 "http://xintanalegends.com/" "Mozilla/5.0 (Linux; Android 6.0; Nexus 5 Build/MRA58N) AppleWebKit/537.36 (KHTML, like Gecko) Chrome/46.0.6525.51 Mobile Safari/537.36"
220.243.136.89 - - [03/Nov/2018:10:52:45 +0000] "GET /wp-content/themes/dikka-installable/assets/css/owl.carousel.css?ver=4.9.8 HTTP/1.0" 200 6366 "http://xintanalegends.com/" "Mozilla/5.0 (Linux; Android 6.0; Nexus 5 Build/MRA58N) AppleWebKit/537.36 (KHTML, like Gecko) Chrome/46.0.6525.51 Mobile Safari/537.36"
220.243.136.98 - - [03/Nov/2018:10:52:45 +0000] "GET /wp-content/themes/dikka-installable/assets/css/animate.css?ver=4.9.8 HTTP/1.0" 200 58380 "http://xintanalegends.com/" "Mozilla/5.0 (Linux; Android 6.0; Nexus 5 Build/MRA58N) AppleWebKit/537.36 (KHTML, like Gecko) Chrome/46.0.6525.51 Mobile Safari/537.36"
220.243.136.98 - - [03/Nov/2018:10:52:45 +0000] "GET /wp-content/themes/dikka-installable/assets/css/color-variations/orange.css?ver=4.9.8 HTTP/1.0" 200 7428 "http://xintanalegends.com/" "Mozilla/5.0 (Linux; Android 6.0; Nexus 5 Build/MRA58N) AppleWebKit/537.36 (KHTML, like Gecko) Chrome/46.0.6525.51 Mobile Safari/537.36"
220.243.136.98 - - [03/Nov/2018:10:52:45 +0000] "GET /wp-content/plugins/cubeportfolio/public/css/main.min.css?ver=1.4.1 HTTP/1.0" 200 61452 "http://xintanalegends.com/" "Mozilla/5.0 (Linux; Android 6.0; Nexus 5 Build/MRA58N) AppleWebKit/537.36 (KHTML, like Gecko) Chrome/46.0.6525.51 Mobile Safari/537.36"
220.243.136.98 - - [03/Nov/2018:10:52:45 +0000] "GET /wp-content/plugins/mailchimp-for-wp/assets/css/form-basic.min.css?ver=4.2.1 HTTP/1.0" 200 2659 "http://xintanalegends.com/" "Mozilla/5.0 (Linux; Android 6.0; Nexus 5 Build/MRA58N) AppleWebKit/537.36 (KHTML, like Gecko) Chrome/46.0.6525.51 Mobile Safari/537.36"
220.243.136.98 - - [03/Nov/2018:10:52:45 +0000] "GET /wp-includes/js/jquery/jquery.js?ver=1.12.4 HTTP/1.0" 200 97184 "http://xintanalegends.com/" "Mozilla/5.0 (Linux; Android 6.0; Nexus 5 Build/MRA58N) AppleWebKit/537.36 (KHTML, like Gecko) Chrome/46.0.6525.51 Mobile Safari/537.36"
220.243.136.98 - - [03/Nov/2018:10:52:46 +0000] "GET /wp-includes/js/jquery/jquery-migrate.min.js?ver=1.4.1 HTTP/1.0" 200 10056 "http://xintanalegends.com/" "Mozilla/5.0 (Linux; Android 6.0; Nexus 5 Build/MRA58N) AppleWebKit/537.36 (KHTML, like Gecko) Chrome/46.0.6525.51 Mobile Safari/537.36"
220.243.136.84 - - [03/Nov/2018:10:52:45 +0000] "GET /?action=origin_widgets_css&class=SiteOrigin_Panels_Widget_Info&style=simple&preset=simple&ver=1.5.3 HTTP/1.0" 200 249 "http://xintanalegends.com/" "Mozilla/5.0 (Linux; Android 6.0; Nexus 5 Build/MRA58N) AppleWebKit/537.36 (KHTML, like Gecko) Chrome/46.0.6525.51 Mobile Safari/537.36"
220.243.136.106 - - [03/Nov/2018:10:52:46 +0000] "GET /wp-content/plugins/revslider/rs-plugin/js/jquery.themepunch.revolution.min.js?rev=4.6.0&ver=4.9.8 HTTP/1.0" 200 111127 "http://xintanalegends.com/" "Mozilla/5.0 (Linux; Android 6.0; Nexus 5 Build/MRA58N) AppleWebKit/537.36 (KHTML, like Gecko) Chrome/46.0.6525.51 Mobile Safari/537.36"
220.243.136.106 - - [03/Nov/2018:10:52:46 +0000] "GET /wp-content/plugins/cubeportfolio/public/js/main.min.js?ver=1.4.1 HTTP/1.0" 200 59355 "http://xintanalegends.com/" "Mozilla/5.0 (Linux; Android 6.0; Nexus 5 Build/MRA58N) AppleWebKit/537.36 (KHTML, like Gecko) Chrome/46.0.6525.51 Mobile Safari/537.36"
220.243.136.106 - - [03/Nov/2018:10:52:46 +0000] "GET /wp-content/plugins/contact-form-7/includes/js/scripts.js?ver=5.0.1 HTTP/1.0" 200 14551 "http://xintanalegends.com/" "Mozilla/5.0 (Linux; Android 6.0; Nexus 5 Build/MRA58N) AppleWebKit/537.36 (KHTML, like Gecko) Chrome/46.0.6525.51 Mobile Safari/537.36"
220.243.136.98 - - [03/Nov/2018:10:52:47 +0000] "GET /wp-content/plugins/revslider/rs-plugin/js/jquery.themepunch.tools.min.js?rev=4.6.0&ver=4.9.8 HTTP/1.0" 200 94880 "http://xintanalegends.com/" "Mozilla/5.0 (Linux; Android 6.0; Nexus 5 Build/MRA58N) AppleWebKit/537.36 (KHTML, like Gecko) Chrome/46.0.6525.51 Mobile Safari/537.36"
220.243.136.106 - - [03/Nov/2018:10:52:47 +0000] "GET /wp-content/themes/dikka-installable/assets/js/isotope-min.js?ver=4.9.8 HTTP/1.0" 200 15768 "http://xintanalegends.com/" "Mozilla/5.0 (Linux; Android 6.0; Nexus 5 Build/MRA58N) AppleWebKit/537.36 (KHTML, like Gecko) Chrome/46.0.6525.51 Mobile Safari/537.36"
220.243.136.97 - - [03/Nov/2018:10:52:47 +0000] "GET /wp-content/themes/dikka-installable/assets/js/retina.min.js?ver=4.9.8 HTTP/1.0" 200 2575 "http://xintanalegends.com/" "Mozilla/5.0 (Linux; Android 6.0; Nexus 5 Build/MRA58N) AppleWebKit/537.36 (KHTML, like Gecko) Chrome/46.0.6525.51 Mobile Safari/537.36"
220.243.136.97 - - [03/Nov/2018:10:52:47 +0000] "GET /wp-content/themes/dikka-installable/assets/js/queryloader.min.js?ver=4.9.8 HTTP/1.0" 200 11561 "http://xintanalegends.com/" "Mozilla/5.0 (Linux; Android 6.0; Nexus 5 Build/MRA58N) AppleWebKit/537.36 (KHTML, like Gecko) Chrome/46.0.6525.51 Mobile Safari/537.36"
220.243.136.97 - - [03/Nov/2018:10:52:48 +0000] "GET /wp-content/themes/dikka-installable/assets/js/bootstrap.min.js?ver=4.9.8 HTTP/1.0" 200 29110 "http://xintanalegends.com/" "Mozilla/5.0 (Linux; Android 6.0; Nexus 5 Build/MRA58N) AppleWebKit/537.36 (KHTML, like Gecko) Chrome/46.0.6525.51 Mobile Safari/537.36"
220.243.136.97 - - [03/Nov/2018:10:52:48 +0000] "GET /wp-content/themes/dikka-installable/assets/js/smartmenus.min.js?ver=4.9.8 HTTP/1.0" 200 23651 "http://xintanalegends.com/" "Mozilla/5.0 (Linux; Android 6.0; Nexus 5 Build/MRA58N) AppleWebKit/537.36 (KHTML, like Gecko) Chrome/46.0.6525.51 Mobile Safari/537.36"
220.243.136.97 - - [03/Nov/2018:10:52:48 +0000] "GET /wp-content/themes/dikka-installable/assets/js/ytplayer.js?ver=4.9.8 HTTP/1.0" 200 54838 "http://xintanalegends.com/" "Mozilla/5.0 (Linux; Android 6.0; Nexus 5 Build/MRA58N) AppleWebKit/537.36 (KHTML, like Gecko) Chrome/46.0.6525.51 Mobile Safari/537.36"
220.243.136.97 - - [03/Nov/2018:10:52:48 +0000] "GET /wp-content/themes/dikka-installable/assets/js/wow.js?ver=1 HTTP/1.0" 200 7057 "http://xintanalegends.com/" "Mozilla/5.0 (Linux; Android 6.0; Nexus 5 Build/MRA58N) AppleWebKit/537.36 (KHTML, like Gecko) Chrome/46.0.6525.51 Mobile Safari/537.36"
220.243.136.97 - - [03/Nov/2018:10:52:48 +0000] "GET /wp-content/themes/dikka-installable/assets/js/utils.js?ver=4.9.8 HTTP/1.0" 200 51090 "http://xintanalegends.com/" "Mozilla/5.0 (Linux; Android 6.0; Nexus 5 Build/MRA58N) AppleWebKit/537.36 (KHTML, like Gecko) Chrome/46.0.6525.51 Mobile Safari/537.36"
220.243.136.97 - - [03/Nov/2018:10:52:48 +0000] "GET /wp-content/themes/dikka-installable/assets/js/main.js?ver=4.9.8 HTTP/1.0" 200 24041 "http://xintanalegends.com/" "Mozilla/5.0 (Linux; Android 6.0; Nexus 5 Build/MRA58N) AppleWebKit/537.36 (KHTML, like Gecko) Chrome/46.0.6525.51 Mobile Safari/537.36"
220.243.136.113 - - [03/Nov/2018:10:52:48 +0000] "GET /wp-content/themes/dikka-installable/assets/js/SmoothScroll.js?ver=4.9.8 HTTP/1.0" 200 7394 "http://xintanalegends.com/" "Mozilla/5.0 (Linux; Android 6.0; Nexus 5 Build/MRA58N) AppleWebKit/537.36 (KHTML, like Gecko) Chrome/46.0.6525.51 Mobile Safari/537.36"
220.243.136.113 - - [03/Nov/2018:10:52:48 +0000] "GET /wp-content/plugins/merobuilder/so-widgets-bundle/icons/elegantline/font/elegantline.woff?map0iz HTTP/1.0" 200 39952 "http://xintanalegends.com/wp-content/plugins/merobuilder/so-widgets-bundle/icons/elegantline/style.css?ver=4.9.8" "Mozilla/5.0 (Linux; Android 6.0; Nexus 5 Build/MRA58N) AppleWebKit/537.36 (KHTML, like Gecko) Chrome/46.0.6525.51 Mobile Safari/537.36"
220.243.136.113 - - [03/Nov/2018:10:52:48 +0000] "GET /wp-content/themes/dikka-installable/assets/libs/font-awesome/font/fontawesome-webfont.woff?v=4.2.0 HTTP/1.0" 200 65452 "http://xintanalegends.com/wp-content/themes/dikka-installable/assets/libs/font-awesome/css/font-awesome.min.css?ver=4.9.8" "Mozilla/5.0 (Linux; Android 6.0; Nexus 5 Build/MRA58N) AppleWebKit/537.36 (KHTML, like Gecko) Chrome/46.0.6525.51 Mobile Safari/537.36"
220.243.136.113 - - [03/Nov/2018:10:52:48 +0000] "GET /wp-content/themes/dikka-installable/assets/js/owl.carousel.min.js?ver=4.9.8 HTTP/1.0" 200 14916 "http://xintanalegends.com/" "Mozilla/5.0 (Linux; Android 6.0; Nexus 5 Build/MRA58N) AppleWebKit/537.36 (KHTML, like Gecko) Chrome/46.0.6525.51 Mobile Safari/537.36"
220.243.136.113 - - [03/Nov/2018:10:52:49 +0000] "GET /wp-content/themes/dikka-installable/assets/js/nivo-lightbox.min.js?ver=4.9.8 HTTP/1.0" 200 7621 "http://xintanalegends.com/" "Mozilla/5.0 (Linux; Android 6.0; Nexus 5 Build/MRA58N) AppleWebKit/537.36 (KHTML, like Gecko) Chrome/46.0.6525.51 Mobile Safari/537.36"
220.243.136.113 - - [03/Nov/2018:10:52:49 +0000] "GET /wp-includes/js/wp-embed.min.js?ver=4.9.8 HTTP/1.0" 200 1398 "http://xintanalegends.com/" "Mozilla/5.0 (Linux; Android 6.0; Nexus 5 Build/MRA58N) AppleWebKit/537.36 (KHTML, like Gecko) Chrome/46.0.6525.51 Mobile Safari/537.36"
220.243.136.113 - - [03/Nov/2018:10:52:49 +0000] "GET /wp-includes/js/wp-emoji-release.min.js?ver=4.9.8 HTTP/1.0" 200 12026 "http://xintanalegends.com/" "Mozilla/5.0 (Linux; Android 6.0; Nexus 5 Build/MRA58N) AppleWebKit/537.36 (KHTML, like Gecko) Chrome/46.0.6525.51 Mobile Safari/537.36"
220.243.136.127 - - [03/Nov/2018:10:52:50 +0000] "GET / HTTP/1.0" 301 - "-" "Mozilla/5.0 (Linux; Android 8.0; Pixel 2 Build/OPD3.170816.012) AppleWebKit/537.36 (KHTML, like Gecko) Chrome/44.0.8287.889 Mobile Safari/537.36"
220.243.136.68 - - [03/Nov/2018:10:52:51 +0000] "GET / HTTP/1.0" 200 59951 "-" "Mozilla/5.0 (Linux; Android 8.0; Pixel 2 Build/OPD3.170816.012) AppleWebKit/537.36 (KHTML, like Gecko) Chrome/44.0.8287.889 Mobile Safari/537.36"
220.243.136.91 - - [03/Nov/2018:10:52:53 +0000] "GET /wp-content/plugins/contact-form-7/includes/css/styles.css?ver=5.0.1 HTTP/1.0" 200 1683 "http://xintanalegends.com/" "Mozilla/5.0 (Linux; Android 8.0; Pixel 2 Build/OPD3.170816.012) AppleWebKit/537.36 (KHTML, like Gecko) Chrome/44.0.8287.889 Mobile Safari/537.36"
220.243.136.91 - - [03/Nov/2018:10:52:53 +0000] "GET /wp-content/plugins/merobuilder/css/front.css?ver=1.5.3 HTTP/1.0" 200 1045 "http://xintanalegends.com/" "Mozilla/5.0 (Linux; Android 8.0; Pixel 2 Build/OPD3.170816.012) AppleWebKit/537.36 (KHTML, like Gecko) Chrome/44.0.8287.889 Mobile Safari/537.36"
220.243.136.91 - - [03/Nov/2018:10:52:53 +0000] "GET /wp-content/plugins/merobuilder/so-widgets-bundle/widgets/so-services-widget/css/style.css?ver=1.0.4 HTTP/1.0" 200 3823 "http://xintanalegends.com/" "Mozilla/5.0 (Linux; Android 8.0; Pixel 2 Build/OPD3.170816.012) AppleWebKit/537.36 (KHTML, like Gecko) Chrome/44.0.8287.889 Mobile Safari/537.36"
220.243.136.91 - - [03/Nov/2018:10:52:53 +0000] "GET /?action=origin_widgets_css&class=SiteOrigin_Panels_Widget_Info&style=simple&preset=simple&ver=1.5.3 HTTP/1.0" 200 225 "http://xintanalegends.com/" "Mozilla/5.0 (Linux; Android 8.0; Pixel 2 Build/OPD3.170816.012) AppleWebKit/537.36 (KHTML, like Gecko) Chrome/44.0.8287.889 Mobile Safari/537.36"
220.243.136.91 - - [03/Nov/2018:10:52:53 +0000] "GET /?action=origin_widgets_css&class=SiteOrigin_Panels_Widget_Spacer&style=simple&preset=blank&ver=1.5.3 HTTP/1.0" 200 101 "http://xintanalegends.com/" "Mozilla/5.0 (Linux; Android 8.0; Pixel 2 Build/OPD3.170816.012) AppleWebKit/537.36 (KHTML, like Gecko) Chrome/44.0.8287.889 Mobile Safari/537.36"
220.243.136.91 - - [03/Nov/2018:10:52:53 +0000] "GET /?action=origin_widgets_css&class=SiteOrigin_Panels_Widget_Title&style=simple&preset=simple&ver=1.5.3 HTTP/1.0" 200 664 "http://xintanalegends.com/" "Mozilla/5.0 (Linux; Android 8.0; Pixel 2 Build/OPD3.170816.012) AppleWebKit/537.36 (KHTML, like Gecko) Chrome/44.0.8287.889 Mobile Safari/537.36"
220.243.136.72 - - [03/Nov/2018:10:52:53 +0000] "GET /wp-content/plugins/merobuilder/so-widgets-bundle/icons/elegantline/style.css?ver=4.9.8 HTTP/1.0" 200 675 "http://xintanalegends.com/" "Mozilla/5.0 (Linux; Android 8.0; Pixel 2 Build/OPD3.170816.012) AppleWebKit/537.36 (KHTML, like Gecko) Chrome/44.0.8287.889 Mobile Safari/537.36"
220.243.136.72 - - [03/Nov/2018:10:52:53 +0000] "GET /wp-content/themes/dikka-installable/assets/css/bootstrap.css?ver=4.9.8 HTTP/1.0" 200 101695 "http://xintanalegends.com/" "Mozilla/5.0 (Linux; Android 8.0; Pixel 2 Build/OPD3.170816.012) AppleWebKit/537.36 (KHTML, like Gecko) Chrome/44.0.8287.889 Mobile Safari/537.36"
220.243.136.72 - - [03/Nov/2018:10:52:54 +0000] "GET /wp-content/themes/dikka-installable/assets/libs/font-awesome/css/font-awesome.min.css?ver=4.9.8 HTTP/1.0" 200 22077 "http://xintanalegends.com/" "Mozilla/5.0 (Linux; Android 8.0; Pixel 2 Build/OPD3.170816.012) AppleWebKit/537.36 (KHTML, like Gecko) Chrome/44.0.8287.889 Mobile Safari/537.36"
220.243.136.72 - - [03/Nov/2018:10:52:54 +0000] "GET /wp-content/themes/dikka-installable/assets/css/YTPlayer.css?ver=4.9.8 HTTP/1.0" 200 9328 "http://xintanalegends.com/" "Mozilla/5.0 (Linux; Android 8.0; Pixel 2 Build/OPD3.170816.012) AppleWebKit/537.36 (KHTML, like Gecko) Chrome/44.0.8287.889 Mobile Safari/537.36"
220.243.136.72 - - [03/Nov/2018:10:52:54 +0000] "GET /wp-content/themes/dikka-installable/assets/css/woocommerce-ux.css?ver=4.9.8 HTTP/1.0" 200 92107 "http://xintanalegends.com/" "Mozilla/5.0 (Linux; Android 8.0; Pixel 2 Build/OPD3.170816.012) AppleWebKit/537.36 (KHTML, like Gecko) Chrome/44.0.8287.889 Mobile Safari/537.36"
220.243.136.72 - - [03/Nov/2018:10:52:54 +0000] "GET /wp-content/themes/dikka-installable/assets/css/woo-layout-ux.css?ver=4.9.8 HTTP/1.0" 200 16262 "http://xintanalegends.com/" "Mozilla/5.0 (Linux; Android 8.0; Pixel 2 Build/OPD3.170816.012) AppleWebKit/537.36 (KHTML, like Gecko) Chrome/44.0.8287.889 Mobile Safari/537.36"
220.243.136.66 - - [03/Nov/2018:10:52:54 +0000] "GET /wp-content/themes/dikka-installable/style.css?ver=4.9.8 HTTP/1.0" 200 137937 "http://xintanalegends.com/" "Mozilla/5.0 (Linux; Android 8.0; Pixel 2 Build/OPD3.170816.012) AppleWebKit/537.36 (KHTML, like Gecko) Chrome/44.0.8287.889 Mobile Safari/537.36"
220.243.136.66 - - [03/Nov/2018:10:52:54 +0000] "GET /wp-content/themes/dikka-installable/assets/css/resize.css?ver=4.9.8 HTTP/1.0" 200 54565 "http://xintanalegends.com/" "Mozilla/5.0 (Linux; Android 8.0; Pixel 2 Build/OPD3.170816.012) AppleWebKit/537.36 (KHTML, like Gecko) Chrome/44.0.8287.889 Mobile Safari/537.36"
220.243.136.66 - - [03/Nov/2018:10:52:54 +0000] "GET /wp-content/themes/dikka-installable/assets/css/retina.css?ver=4.9.8 HTTP/1.0" 200 12764 "http://xintanalegends.com/" "Mozilla/5.0 (Linux; Android 8.0; Pixel 2 Build/OPD3.170816.012) AppleWebKit/537.36 (KHTML, like Gecko) Chrome/44.0.8287.889 Mobile Safari/537.36"
220.243.136.72 - - [03/Nov/2018:10:52:54 +0000] "GET /wp-content/plugins/revslider/rs-plugin/css/settings.css?rev=4.6.0&ver=4.9.8 HTTP/1.0" 200 56333 "http://xintanalegends.com/" "Mozilla/5.0 (Linux; Android 8.0; Pixel 2 Build/OPD3.170816.012) AppleWebKit/537.36 (KHTML, like Gecko) Chrome/44.0.8287.889 Mobile Safari/537.36"
220.243.136.66 - - [03/Nov/2018:10:52:54 +0000] "GET /wp-content/themes/dikka-installable/assets/css/nivo-lightbox.css?ver=4.9.8 HTTP/1.0" 200 5703 "http://xintanalegends.com/" "Mozilla/5.0 (Linux; Android 8.0; Pixel 2 Build/OPD3.170816.012) AppleWebKit/537.36 (KHTML, like Gecko) Chrome/44.0.8287.889 Mobile Safari/537.36"
220.243.136.66 - - [03/Nov/2018:10:52:55 +0000] "GET /wp-content/themes/dikka-installable/assets/css/nivo_themes/default/default.css?ver=4.9.8 HTTP/1.0" 200 2380 "http://xintanalegends.com/" "Mozilla/5.0 (Linux; Android 8.0; Pixel 2 Build/OPD3.170816.012) AppleWebKit/537.36 (KHTML, like Gecko) Chrome/44.0.8287.889 Mobile Safari/537.36"
220.243.136.66 - - [03/Nov/2018:10:52:55 +0000] "GET /wp-content/themes/dikka-installable/assets/css/owl.carousel.css?ver=4.9.8 HTTP/1.0" 200 6366 "http://xintanalegends.com/" "Mozilla/5.0 (Linux; Android 8.0; Pixel 2 Build/OPD3.170816.012) AppleWebKit/537.36 (KHTML, like Gecko) Chrome/44.0.8287.889 Mobile Safari/537.36"
220.243.136.66 - - [03/Nov/2018:10:52:55 +0000] "GET /wp-content/themes/dikka-installable/assets/css/animate.css?ver=4.9.8 HTTP/1.0" 200 58380 "http://xintanalegends.com/" "Mozilla/5.0 (Linux; Android 8.0; Pixel 2 Build/OPD3.170816.012) AppleWebKit/537.36 (KHTML, like Gecko) Chrome/44.0.8287.889 Mobile Safari/537.36"
220.243.136.66 - - [03/Nov/2018:10:52:55 +0000] "GET /wp-content/themes/dikka-installable/assets/css/color-variations/orange.css?ver=4.9.8 HTTP/1.0" 200 7428 "http://xintanalegends.com/" "Mozilla/5.0 (Linux; Android 8.0; Pixel 2 Build/OPD3.170816.012) AppleWebKit/537.36 (KHTML, like Gecko) Chrome/44.0.8287.889 Mobile Safari/537.36"
220.243.136.66 - - [03/Nov/2018:10:52:55 +0000] "GET /wp-content/plugins/cubeportfolio/public/css/main.min.css?ver=1.4.1 HTTP/1.0" 200 61452 "http://xintanalegends.com/" "Mozilla/5.0 (Linux; Android 8.0; Pixel 2 Build/OPD3.170816.012) AppleWebKit/537.36 (KHTML, like Gecko) Chrome/44.0.8287.889 Mobile Safari/537.36"
220.243.136.66 - - [03/Nov/2018:10:52:55 +0000] "GET /wp-content/plugins/mailchimp-for-wp/assets/css/form-basic.min.css?ver=4.2.1 HTTP/1.0" 200 2659 "http://xintanalegends.com/" "Mozilla/5.0 (Linux; Android 8.0; Pixel 2 Build/OPD3.170816.012) AppleWebKit/537.36 (KHTML, like Gecko) Chrome/44.0.8287.889 Mobile Safari/537.36"
220.243.136.114 - - [03/Nov/2018:10:52:55 +0000] "GET /wp-includes/js/jquery/jquery.js?ver=1.12.4 HTTP/1.0" 200 97184 "http://xintanalegends.com/" "Mozilla/5.0 (Linux; Android 8.0; Pixel 2 Build/OPD3.170816.012) AppleWebKit/537.36 (KHTML, like Gecko) Chrome/44.0.8287.889 Mobile Safari/537.36"
220.243.136.114 - - [03/Nov/2018:10:52:55 +0000] "GET /wp-includes/js/jquery/jquery-migrate.min.js?ver=1.4.1 HTTP/1.0" 200 10056 "http://xintanalegends.com/" "Mozilla/5.0 (Linux; Android 8.0; Pixel 2 Build/OPD3.170816.012) AppleWebKit/537.36 (KHTML, like Gecko) Chrome/44.0.8287.889 Mobile Safari/537.36"
220.243.136.114 - - [03/Nov/2018:10:52:55 +0000] "GET /wp-content/plugins/cubeportfolio/public/js/main.min.js?ver=1.4.1 HTTP/1.0" 200 59355 "http://xintanalegends.com/" "Mozilla/5.0 (Linux; Android 8.0; Pixel 2 Build/OPD3.170816.012) AppleWebKit/537.36 (KHTML, like Gecko) Chrome/44.0.8287.889 Mobile Safari/537.36"
220.243.136.114 - - [03/Nov/2018:10:52:55 +0000] "GET /wp-content/plugins/revslider/rs-plugin/js/jquery.themepunch.revolution.min.js?rev=4.6.0&ver=4.9.8 HTTP/1.0" 200 111127 "http://xintanalegends.com/" "Mozilla/5.0 (Linux; Android 8.0; Pixel 2 Build/OPD3.170816.012) AppleWebKit/537.36 (KHTML, like Gecko) Chrome/44.0.8287.889 Mobile Safari/537.36"
220.243.136.114 - - [03/Nov/2018:10:52:56 +0000] "GET /wp-content/themes/dikka-installable/assets/js/isotope-min.js?ver=4.9.8 HTTP/1.0" 200 15768 "http://xintanalegends.com/" "Mozilla/5.0 (Linux; Android 8.0; Pixel 2 Build/OPD3.170816.012) AppleWebKit/537.36 (KHTML, like Gecko) Chrome/44.0.8287.889 Mobile Safari/537.36"
220.243.136.114 - - [03/Nov/2018:10:52:56 +0000] "GET /wp-content/plugins/contact-form-7/includes/js/scripts.js?ver=5.0.1 HTTP/1.0" 200 14551 "http://xintanalegends.com/" "Mozilla/5.0 (Linux; Android 8.0; Pixel 2 Build/OPD3.170816.012) AppleWebKit/537.36 (KHTML, like Gecko) Chrome/44.0.8287.889 Mobile Safari/537.36"
220.243.136.114 - - [03/Nov/2018:10:52:56 +0000] "GET /wp-content/plugins/revslider/rs-plugin/js/jquery.themepunch.tools.min.js?rev=4.6.0&ver=4.9.8 HTTP/1.0" 200 94880 "http://xintanalegends.com/" "Mozilla/5.0 (Linux; Android 8.0; Pixel 2 Build/OPD3.170816.012) AppleWebKit/537.36 (KHTML, like Gecko) Chrome/44.0.8287.889 Mobile Safari/537.36"
220.243.136.127 - - [03/Nov/2018:10:52:56 +0000] "GET /wp-content/themes/dikka-installable/assets/js/retina.min.js?ver=4.9.8 HTTP/1.0" 200 2575 "http://xintanalegends.com/" "Mozilla/5.0 (Linux; Android 8.0; Pixel 2 Build/OPD3.170816.012) AppleWebKit/537.36 (KHTML, like Gecko) Chrome/44.0.8287.889 Mobile Safari/537.36"
220.243.136.127 - - [03/Nov/2018:10:52:56 +0000] "GET /wp-content/themes/dikka-installable/assets/js/queryloader.min.js?ver=4.9.8 HTTP/1.0" 200 11561 "http://xintanalegends.com/" "Mozilla/5.0 (Linux; Android 8.0; Pixel 2 Build/OPD3.170816.012) AppleWebKit/537.36 (KHTML, like Gecko) Chrome/44.0.8287.889 Mobile Safari/537.36"
220.243.136.127 - - [03/Nov/2018:10:52:56 +0000] "GET /wp-content/themes/dikka-installable/assets/js/bootstrap.min.js?ver=4.9.8 HTTP/1.0" 200 29110 "http://xintanalegends.com/" "Mozilla/5.0 (Linux; Android 8.0; Pixel 2 Build/OPD3.170816.012) AppleWebKit/537.36 (KHTML, like Gecko) Chrome/44.0.8287.889 Mobile Safari/537.36"
220.243.136.127 - - [03/Nov/2018:10:52:56 +0000] "GET /wp-content/themes/dikka-installable/assets/js/smartmenus.min.js?ver=4.9.8 HTTP/1.0" 200 23651 "http://xintanalegends.com/" "Mozilla/5.0 (Linux; Android 8.0; Pixel 2 Build/OPD3.170816.012) AppleWebKit/537.36 (KHTML, like Gecko) Chrome/44.0.8287.889 Mobile Safari/537.36"
220.243.136.127 - - [03/Nov/2018:10:52:57 +0000] "GET /wp-content/themes/dikka-installable/assets/js/ytplayer.js?ver=4.9.8 HTTP/1.0" 200 54838 "http://xintanalegends.com/" "Mozilla/5.0 (Linux; Android 8.0; Pixel 2 Build/OPD3.170816.012) AppleWebKit/537.36 (KHTML, like Gecko) Chrome/44.0.8287.889 Mobile Safari/537.36"
220.243.136.127 - - [03/Nov/2018:10:52:57 +0000] "GET /wp-content/themes/dikka-installable/assets/js/utils.js?ver=4.9.8 HTTP/1.0" 200 51090 "http://xintanalegends.com/" "Mozilla/5.0 (Linux; Android 8.0; Pixel 2 Build/OPD3.170816.012) AppleWebKit/537.36 (KHTML, like Gecko) Chrome/44.0.8287.889 Mobile Safari/537.36"
220.243.136.127 - - [03/Nov/2018:10:52:57 +0000] "GET /wp-content/themes/dikka-installable/assets/js/main.js?ver=4.9.8 HTTP/1.0" 200 24041 "http://xintanalegends.com/" "Mozilla/5.0 (Linux; Android 8.0; Pixel 2 Build/OPD3.170816.012) AppleWebKit/537.36 (KHTML, like Gecko) Chrome/44.0.8287.889 Mobile Safari/537.36"
220.243.136.127 - - [03/Nov/2018:10:52:57 +0000] "GET /wp-content/themes/dikka-installable/assets/js/wow.js?ver=1 HTTP/1.0" 200 7057 "http://xintanalegends.com/" "Mozilla/5.0 (Linux; Android 8.0; Pixel 2 Build/OPD3.170816.012) AppleWebKit/537.36 (KHTML, like Gecko) Chrome/44.0.8287.889 Mobile Safari/537.36"
220.243.136.68 - - [03/Nov/2018:10:52:57 +0000] "GET /wp-content/themes/dikka-installable/assets/js/SmoothScroll.js?ver=4.9.8 HTTP/1.0" 200 7394 "http://xintanalegends.com/" "Mozilla/5.0 (Linux; Android 8.0; Pixel 2 Build/OPD3.170816.012) AppleWebKit/537.36 (KHTML, like Gecko) Chrome/44.0.8287.889 Mobile Safari/537.36"
220.243.136.68 - - [03/Nov/2018:10:52:57 +0000] "GET /wp-content/themes/dikka-installable/assets/js/owl.carousel.min.js?ver=4.9.8 HTTP/1.0" 200 14916 "http://xintanalegends.com/" "Mozilla/5.0 (Linux; Android 8.0; Pixel 2 Build/OPD3.170816.012) AppleWebKit/537.36 (KHTML, like Gecko) Chrome/44.0.8287.889 Mobile Safari/537.36"
220.243.136.68 - - [03/Nov/2018:10:52:57 +0000] "GET /wp-content/themes/dikka-installable/assets/js/nivo-lightbox.min.js?ver=4.9.8 HTTP/1.0" 200 7621 "http://xintanalegends.com/" "Mozilla/5.0 (Linux; Android 8.0; Pixel 2 Build/OPD3.170816.012) AppleWebKit/537.36 (KHTML, like Gecko) Chrome/44.0.8287.889 Mobile Safari/537.36"
220.243.136.68 - - [03/Nov/2018:10:52:57 +0000] "GET /wp-includes/js/wp-embed.min.js?ver=4.9.8 HTTP/1.0" 200 1398 "http://xintanalegends.com/" "Mozilla/5.0 (Linux; Android 8.0; Pixel 2 Build/OPD3.170816.012) AppleWebKit/537.36 (KHTML, like Gecko) Chrome/44.0.8287.889 Mobile Safari/537.36"
220.243.136.68 - - [03/Nov/2018:10:52:58 +0000] "GET /wp-includes/js/wp-emoji-release.min.js?ver=4.9.8 HTTP/1.0" 200 12026 "http://xintanalegends.com/" "Mozilla/5.0 (Linux; Android 8.0; Pixel 2 Build/OPD3.170816.012) AppleWebKit/537.36 (KHTML, like Gecko) Chrome/44.0.8287.889 Mobile Safari/537.36"
220.243.136.68 - - [03/Nov/2018:10:52:58 +0000] "GET /wp-content/plugins/merobuilder/so-widgets-bundle/icons/elegantline/font/elegantline.woff?map0iz HTTP/1.0" 200 39952 "http://xintanalegends.com/wp-content/plugins/merobuilder/so-widgets-bundle/icons/elegantline/style.css?ver=4.9.8" "Mozilla/5.0 (Linux; Android 8.0; Pixel 2 Build/OPD3.170816.012) AppleWebKit/537.36 (KHTML, like Gecko) Chrome/44.0.8287.889 Mobile Safari/537.36"
220.243.136.68 - - [03/Nov/2018:10:52:58 +0000] "GET /wp-content/themes/dikka-installable/assets/libs/font-awesome/font/fontawesome-webfont.woff?v=4.2.0 HTTP/1.0" 200 65452 "http://xintanalegends.com/wp-content/themes/dikka-installable/assets/libs/font-awesome/css/font-awesome.min.css?ver=4.9.8" "Mozilla/5.0 (Linux; Android 8.0; Pixel 2 Build/OPD3.170816.012) AppleWebKit/537.36 (KHTML, like Gecko) Chrome/44.0.8287.889 Mobile Safari/537.36"
202.95.137.218 - - [03/Nov/2018:10:54:47 +0000] "GET /wp-config.php_old HTTP/1.0" 404 215 "http://xintana.com/wp-config.php_old" "Mozilla/4.0 (compatible; MSIE 6.0; Windows NT 5.1; SV1)"
192.138.189.105 - - [03/Nov/2018:10:56:00 +0000] "GET /wp-content/plugins/html404/wso25.php HTTP/1.0" 404 234 "http://site.ru" "Mozilla/5.0 (Windows; U; Windows NT 5.1; en-US) AppleWebKit/533.4 (KHTML, like Gecko) Chrome/5.0.375.99 Safari/533.4"
192.138.189.105 - - [03/Nov/2018:10:56:05 +0000] "GET /wp-content/plugins/html404/wso25.php HTTP/1.0" 404 234 "http://site.ru" "Mozilla/5.0 (Windows; U; Windows NT 5.1; en-US) AppleWebKit/533.4 (KHTML, like Gecko) Chrome/5.0.375.99 Safari/533.4"
180.76.15.149 - - [03/Nov/2018:11:22:07 +0000] "GET /wp-content/themes/dikka-installable/assets/js/wow.js HTTP/1.0" 200 7057 "-" "Mozilla/5.0 (compatible; Baiduspider/2.0; +http://www.baidu.com/search/spider.html)"
31.170.123.73 - - [03/Nov/2018:11:34:42 +0000] "POST /wp-cron.php?doing_wp_cron=1541244882.5277340412139892578125 HTTP/1.0" 200 - "http://xintanalegends.com/wp-cron.php?doing_wp_cron=1541244882.5277340412139892578125" "WordPress/4.9.8; http://xintanalegends.com"
18.236.136.2 - - [03/Nov/2018:11:34:42 +0000] "GET /wp-login.php HTTP/1.0" 200 2291 "https://www.google.com/url?643b51bb24d9057381ea7bbb069c88c5" "Mozilla/5.0 (Windows NT 6.0; rv:31.0) Gecko/20100101 Firefox/31.0"
18.236.136.2 - - [03/Nov/2018:11:35:02 +0000] "POST /wp-login.php HTTP/1.0" 200 3290 "https://www.google.com/url?643b51bb24d9057381ea7bbb069c88c5" "Mozilla/5.0 (Windows NT 6.0; rv:31.0) Gecko/20100101 Firefox/31.0"
31.170.123.73 - - [03/Nov/2018:12:09:07 +0000] "POST /wp-cron.php?doing_wp_cron=1541246947.6423280239105224609375 HTTP/1.0" 200 - "http://xintanalegends.com/wp-cron.php?doing_wp_cron=1541246947.6423280239105224609375" "WordPress/4.9.8; http://xintanalegends.com"
135.23.221.142 - - [03/Nov/2018:12:09:07 +0000] "HEAD / HTTP/1.0" 200 - "-" "Ver. 5.7 x64"
135.23.221.142 - - [03/Nov/2018:12:09:08 +0000] "GET / HTTP/1.0" 200 59951 "-" "Ver. 5.7 x64"
180.76.15.34 - - [03/Nov/2018:12:22:24 +0000] "GET / HTTP/1.0" 200 59953 "-" "Mozilla/5.0 (compatible; Baiduspider/2.0; +http://www.baidu.com/search/spider.html)"
178.255.215.82 - - [03/Nov/2018:12:27:42 +0000] "GET /robots.txt HTTP/1.0" 404 208 "-" "Mozilla/5.0 (compatible; Exabot/3.0; +http://www.exabot.com/go/robot)"
178.255.215.82 - - [03/Nov/2018:12:27:42 +0000] "GET /?p=1556 HTTP/1.0" 200 44896 "-" "Mozilla/5.0 (compatible; Exabot/3.0; +http://www.exabot.com/go/robot)"
178.255.215.82 - - [03/Nov/2018:12:31:25 +0000] "GET /?feed=comments-rss2 HTTP/1.0" 200 718 "-" "Mozilla/5.0 (compatible; Exabot/3.0; +http://www.exabot.com/go/robot)"
89.163.131.166 - - [03/Nov/2018:12:33:19 +0000] "HEAD / HTTP/1.0" 200 - "-" "Mozilla/5.0 (compatible; Uptimebot/1.0; +http://www.uptime.com/uptimebot)"
13.78.24.40 - - [03/Nov/2018:13:20:39 +0000] "GET /robots.txt HTTP/1.0" 404 208 "-" "Mozilla/5.0 (Windows NT 10.0; Win64; x64; rv:50.0) Gecko/20100101 Firefox/50.0"
31.170.123.73 - - [03/Nov/2018:13:20:39 +0000] "POST /wp-cron.php?doing_wp_cron=1541251239.7635719776153564453125 HTTP/1.0" 200 - "http://xintanalegends.com/wp-cron.php?doing_wp_cron=1541251239.7635719776153564453125" "WordPress/4.9.8; http://xintanalegends.com"
13.78.24.40 - - [03/Nov/2018:13:20:39 +0000] "GET /xmlrpc.php?rsd HTTP/1.0" 200 856 "-" "Mozilla/5.0 (Windows NT 10.0; Win64; x64; rv:50.0) Gecko/20100101 Firefox/50.0"
13.78.24.40 - - [03/Nov/2018:13:20:40 +0000] "GET /?author=1 HTTP/1.0" 200 85165 "-" "Mozilla/5.0 (Windows NT 10.0; Win64; x64; rv:50.0) Gecko/20100101 Firefox/50.0"
13.78.24.40 - - [03/Nov/2018:13:20:41 +0000] "GET /wp-json/wp/v2/users/ HTTP/1.0" 404 218 "-" "Mozilla/5.0 (Windows NT 10.0; Win64; x64; rv:50.0) Gecko/20100101 Firefox/50.0"
13.78.24.40 - - [03/Nov/2018:13:20:43 +0000] "POST /xmlrpc.php HTTP/1.0" 200 85787 "-" "Mozilla/5.0 (Windows NT 10.0; Win64; x64; rv:50.0) Gecko/20100101 Firefox/50.0"
13.78.24.40 - - [03/Nov/2018:13:20:44 +0000] "POST /xmlrpc.php HTTP/1.0" 200 85787 "-" "Mozilla/5.0 (Windows NT 10.0; Win64; x64; rv:50.0) Gecko/20100101 Firefox/50.0"
13.78.24.40 - - [03/Nov/2018:13:20:45 +0000] "POST /xmlrpc.php HTTP/1.0" 200 85787 "-" "Mozilla/5.0 (Windows NT 10.0; Win64; x64; rv:50.0) Gecko/20100101 Firefox/50.0"
13.78.24.40 - - [03/Nov/2018:13:20:46 +0000] "POST /xmlrpc.php HTTP/1.0" 200 85787 "-" "Mozilla/5.0 (Windows NT 10.0; Win64; x64; rv:50.0) Gecko/20100101 Firefox/50.0"
13.78.24.40 - - [03/Nov/2018:13:20:47 +0000] "POST /xmlrpc.php HTTP/1.0" 200 85787 "-" "Mozilla/5.0 (Windows NT 10.0; Win64; x64; rv:50.0) Gecko/20100101 Firefox/50.0"
13.78.24.40 - - [03/Nov/2018:13:20:48 +0000] "POST /xmlrpc.php HTTP/1.0" 200 85787 "-" "Mozilla/5.0 (Windows NT 10.0; Win64; x64; rv:50.0) Gecko/20100101 Firefox/50.0"
13.78.24.40 - - [03/Nov/2018:13:20:49 +0000] "POST /xmlrpc.php HTTP/1.0" 200 85787 "-" "Mozilla/5.0 (Windows NT 10.0; Win64; x64; rv:50.0) Gecko/20100101 Firefox/50.0"
54.36.150.98 - - [03/Nov/2018:13:22:13 +0000] "GET /robots.txt HTTP/1.0" 404 208 "-" "Mozilla/5.0 (compatible; AhrefsBot/5.2; +http://ahrefs.com/robot/)"
54.36.149.100 - - [03/Nov/2018:13:22:13 +0000] "GET /?tag=audio-2 HTTP/1.0" 200 44235 "-" "Mozilla/5.0 (compatible; AhrefsBot/5.2; +http://ahrefs.com/robot/)"
46.229.168.129 - - [03/Nov/2018:13:22:25 +0000] "GET /robots.txt HTTP/1.0" 404 208 "-" "Mozilla/5.0 (compatible; SemrushBot/2~bl; +http://www.semrush.com/bot.html)"
46.229.168.136 - - [03/Nov/2018:13:22:42 +0000] "GET / HTTP/1.0" 200 59951 "-" "Mozilla/5.0 (compatible; SemrushBot/2~bl; +http://www.semrush.com/bot.html)"
185.86.164.109 - - [03/Nov/2018:13:22:53 +0000] "GET /wp-login.php HTTP/1.0" 200 2291 "-" "Mozilla/5.0 (Windows NT 10.0; WOW64) AppleWebKit/537.36 (KHTML, like Gecko) Chrome/51.0.2704.103 Safari/537.36"
185.86.164.109 - - [03/Nov/2018:13:22:54 +0000] "POST /wp-login.php HTTP/1.0" 200 2559 "http://xintana.com/wp-login.php" "Mozilla/5.0 (Windows NT 10.0; WOW64) AppleWebKit/537.36 (KHTML, like Gecko) Chrome/51.0.2704.103 Safari/537.36"
185.86.164.109 - - [03/Nov/2018:13:22:54 +0000] "POST /wp-login.php HTTP/1.0" 200 3239 "http://xintana.com/wp-login.php" "Mozilla/5.0 (Windows NT 10.0; WOW64) AppleWebKit/537.36 (KHTML, like Gecko) Chrome/51.0.2704.103 Safari/537.36"
185.81.2.164 - - [03/Nov/2018:13:33:48 +0000] "GET /wp-includes/wp-caches.php HTTP/1.0" 404 223 "http://site.ru" "Mozilla/5.0 (Windows; U; Windows NT 5.1; en-US) AppleWebKit/533.4 (KHTML, like Gecko) Chrome/5.0.375.99 Safari/533.4"
157.55.39.28 - - [03/Nov/2018:14:01:18 +0000] "GET /robots.txt HTTP/1.0" 404 208 "-" "Mozilla/5.0 (compatible; bingbot/2.0; +http://www.bing.com/bingbot.htm)"
31.170.123.73 - - [03/Nov/2018:14:01:22 +0000] "POST /wp-cron.php?doing_wp_cron=1541253682.6814589500427246093750 HTTP/1.0" 200 - "http://xintanalegends.com/wp-cron.php?doing_wp_cron=1541253682.6814589500427246093750" "WordPress/4.9.8; http://xintanalegends.com"
40.77.167.164 - - [03/Nov/2018:14:01:22 +0000] "GET / HTTP/1.0" 200 59953 "-" "Mozilla/5.0 (compatible; bingbot/2.0; +http://www.bing.com/bingbot.htm)"
157.55.39.57 - - [03/Nov/2018:14:01:25 +0000] "GET /wp-content/plugins/contact-form-7/includes/css/styles.css?ver=5.0.1 HTTP/1.0" 200 1683 "-" "Mozilla/5.0 (compatible; bingbot/2.0; +http://www.bing.com/bingbot.htm)"
157.55.39.57 - - [03/Nov/2018:14:01:26 +0000] "GET /?action=origin_widgets_css&class=SiteOrigin_Panels_Widget_Title&style=simple&preset=simple&ver=1.5.3 HTTP/1.0" 200 664 "-" "Mozilla/5.0 (compatible; bingbot/2.0; +http://www.bing.com/bingbot.htm)"
157.55.39.57 - - [03/Nov/2018:14:01:26 +0000] "GET /?action=origin_widgets_css&class=SiteOrigin_Panels_Widget_Info&style=simple&preset=simple&ver=1.5.3 HTTP/1.0" 200 225 "-" "Mozilla/5.0 (compatible; bingbot/2.0; +http://www.bing.com/bingbot.htm)"
157.55.39.57 - - [03/Nov/2018:14:01:27 +0000] "GET /?action=origin_widgets_css&class=SiteOrigin_Panels_Widget_Spacer&style=simple&preset=blank&ver=1.5.3 HTTP/1.0" 200 101 "-" "Mozilla/5.0 (compatible; bingbot/2.0; +http://www.bing.com/bingbot.htm)"
157.55.39.57 - - [03/Nov/2018:14:01:27 +0000] "GET /wp-content/plugins/revslider/rs-plugin/css/settings.css?rev=4.6.0&ver=4.9.8 HTTP/1.0" 200 56333 "-" "Mozilla/5.0 (compatible; bingbot/2.0; +http://www.bing.com/bingbot.htm)"
157.55.39.214 - - [03/Nov/2018:14:01:30 +0000] "GET /robots.txt HTTP/1.0" 404 208 "-" "Mozilla/5.0 (compatible; bingbot/2.0; +http://www.bing.com/bingbot.htm)"
157.55.39.214 - - [03/Nov/2018:14:01:30 +0000] "GET /wp-content/plugins/merobuilder/css/front.css?ver=1.5.3 HTTP/1.0" 200 1045 "-" "Mozilla/5.0 (compatible; bingbot/2.0; +http://www.bing.com/bingbot.htm)"
157.55.39.214 - - [03/Nov/2018:14:01:30 +0000] "GET /wp-content/plugins/merobuilder/so-widgets-bundle/widgets/so-services-widget/css/style.css?ver=1.0.4 HTTP/1.0" 200 3823 "-" "Mozilla/5.0 (compatible; bingbot/2.0; +http://www.bing.com/bingbot.htm)"
157.55.39.214 - - [03/Nov/2018:14:01:31 +0000] "GET /wp-content/themes/dikka-installable/assets/css/bootstrap.css?ver=4.9.8 HTTP/1.0" 200 101695 "-" "Mozilla/5.0 (compatible; bingbot/2.0; +http://www.bing.com/bingbot.htm)"
157.55.39.214 - - [03/Nov/2018:14:01:31 +0000] "GET /wp-content/themes/dikka-installable/assets/css/YTPlayer.css?ver=4.9.8 HTTP/1.0" 200 9328 "-" "Mozilla/5.0 (compatible; bingbot/2.0; +http://www.bing.com/bingbot.htm)"
157.55.39.214 - - [03/Nov/2018:14:01:31 +0000] "GET /wp-content/themes/dikka-installable/assets/css/woocommerce-ux.css?ver=4.9.8 HTTP/1.0" 200 92107 "-" "Mozilla/5.0 (compatible; bingbot/2.0; +http://www.bing.com/bingbot.htm)"
157.55.39.214 - - [03/Nov/2018:14:01:31 +0000] "GET /wp-content/themes/dikka-installable/assets/css/woo-layout-ux.css?ver=4.9.8 HTTP/1.0" 200 16262 "-" "Mozilla/5.0 (compatible; bingbot/2.0; +http://www.bing.com/bingbot.htm)"
157.55.39.214 - - [03/Nov/2018:14:01:31 +0000] "GET /wp-content/themes/dikka-installable/style.css?ver=4.9.8 HTTP/1.0" 200 137937 "-" "Mozilla/5.0 (compatible; bingbot/2.0; +http://www.bing.com/bingbot.htm)"
157.55.39.214 - - [03/Nov/2018:14:01:32 +0000] "GET /wp-content/themes/dikka-installable/assets/css/resize.css?ver=4.9.8 HTTP/1.0" 200 54565 "-" "Mozilla/5.0 (compatible; bingbot/2.0; +http://www.bing.com/bingbot.htm)"
157.55.39.214 - - [03/Nov/2018:14:01:32 +0000] "GET /wp-content/themes/dikka-installable/assets/css/nivo-lightbox.css?ver=4.9.8 HTTP/1.0" 200 5703 "-" "Mozilla/5.0 (compatible; bingbot/2.0; +http://www.bing.com/bingbot.htm)"
157.55.39.214 - - [03/Nov/2018:14:01:32 +0000] "GET /wp-content/themes/dikka-installable/assets/css/owl.carousel.css?ver=4.9.8 HTTP/1.0" 200 6366 "-" "Mozilla/5.0 (compatible; bingbot/2.0; +http://www.bing.com/bingbot.htm)"
157.55.39.214 - - [03/Nov/2018:14:01:32 +0000] "GET /wp-content/themes/dikka-installable/assets/css/animate.css?ver=4.9.8 HTTP/1.0" 200 58380 "-" "Mozilla/5.0 (compatible; bingbot/2.0; +http://www.bing.com/bingbot.htm)"
157.55.39.214 - - [03/Nov/2018:14:01:32 +0000] "GET /wp-content/themes/dikka-installable/assets/css/color-variations/orange.css?ver=4.9.8 HTTP/1.0" 200 7428 "-" "Mozilla/5.0 (compatible; bingbot/2.0; +http://www.bing.com/bingbot.htm)"
157.55.39.214 - - [03/Nov/2018:14:01:33 +0000] "GET /wp-includes/js/jquery/jquery-migrate.min.js?ver=1.4.1 HTTP/1.0" 200 10056 "-" "Mozilla/5.0 (compatible; bingbot/2.0; +http://www.bing.com/bingbot.htm)"
157.55.39.214 - - [03/Nov/2018:14:01:33 +0000] "GET /wp-content/plugins/revslider/rs-plugin/js/jquery.themepunch.revolution.min.js?rev=4.6.0&ver=4.9.8 HTTP/1.0" 200 111127 "-" "Mozilla/5.0 (compatible; bingbot/2.0; +http://www.bing.com/bingbot.htm)"
157.55.39.214 - - [03/Nov/2018:14:01:33 +0000] "GET /wp-content/plugins/cubeportfolio/public/js/main.min.js?ver=1.4.1 HTTP/1.0" 200 59355 "-" "Mozilla/5.0 (compatible; bingbot/2.0; +http://www.bing.com/bingbot.htm)"
157.55.39.214 - - [03/Nov/2018:14:01:33 +0000] "GET /wp-content/themes/dikka-installable/assets/js/isotope-min.js?ver=4.9.8 HTTP/1.0" 200 15768 "-" "Mozilla/5.0 (compatible; bingbot/2.0; +http://www.bing.com/bingbot.htm)"
157.55.39.214 - - [03/Nov/2018:14:01:34 +0000] "GET /wp-content/themes/dikka-installable/assets/js/retina.min.js?ver=4.9.8 HTTP/1.0" 200 2575 "-" "Mozilla/5.0 (compatible; bingbot/2.0; +http://www.bing.com/bingbot.htm)"
157.55.39.214 - - [03/Nov/2018:14:01:34 +0000] "GET /wp-content/themes/dikka-installable/assets/js/queryloader.min.js?ver=4.9.8 HTTP/1.0" 200 11561 "-" "Mozilla/5.0 (compatible; bingbot/2.0; +http://www.bing.com/bingbot.htm)"
157.55.39.214 - - [03/Nov/2018:14:01:34 +0000] "GET /wp-content/themes/dikka-installable/assets/js/smartmenus.min.js?ver=4.9.8 HTTP/1.0" 200 23651 "-" "Mozilla/5.0 (compatible; bingbot/2.0; +http://www.bing.com/bingbot.htm)"
157.55.39.214 - - [03/Nov/2018:14:01:34 +0000] "GET /wp-content/themes/dikka-installable/assets/js/ytplayer.js?ver=4.9.8 HTTP/1.0" 200 54838 "-" "Mozilla/5.0 (compatible; bingbot/2.0; +http://www.bing.com/bingbot.htm)"
157.55.39.214 - - [03/Nov/2018:14:01:34 +0000] "GET /wp-content/themes/dikka-installable/assets/js/main.js?ver=4.9.8 HTTP/1.0" 200 24041 "-" "Mozilla/5.0 (compatible; bingbot/2.0; +http://www.bing.com/bingbot.htm)"
157.55.39.57 - - [03/Nov/2018:14:01:52 +0000] "GET /wp-content/plugins/revslider/rs-plugin/js/jquery.themepunch.tools.min.js?rev=4.6.0&ver=4.9.8 HTTP/1.0" 200 94880 "-" "Mozilla/5.0 (compatible; bingbot/2.0; +http://www.bing.com/bingbot.htm)"
157.55.39.57 - - [03/Nov/2018:14:01:52 +0000] "GET /wp-content/plugins/contact-form-7/includes/js/scripts.js?ver=5.0.1 HTTP/1.0" 200 14551 "-" "Mozilla/5.0 (compatible; bingbot/2.0; +http://www.bing.com/bingbot.htm)"
157.55.39.57 - - [03/Nov/2018:14:01:52 +0000] "GET /wp-content/themes/dikka-installable/assets/js/bootstrap.min.js?ver=4.9.8 HTTP/1.0" 200 29110 "-" "Mozilla/5.0 (compatible; bingbot/2.0; +http://www.bing.com/bingbot.htm)"
157.55.39.57 - - [03/Nov/2018:14:01:52 +0000] "GET /wp-content/themes/dikka-installable/assets/js/wow.js?ver=1 HTTP/1.0" 200 7057 "-" "Mozilla/5.0 (compatible; bingbot/2.0; +http://www.bing.com/bingbot.htm)"
157.55.39.57 - - [03/Nov/2018:14:01:52 +0000] "GET /wp-content/themes/dikka-installable/assets/js/utils.js?ver=4.9.8 HTTP/1.0" 200 51090 "-" "Mozilla/5.0 (compatible; bingbot/2.0; +http://www.bing.com/bingbot.htm)"
157.55.39.214 - - [03/Nov/2018:14:01:57 +0000] "GET /wp-content/themes/dikka-installable/assets/js/SmoothScroll.js?ver=4.9.8 HTTP/1.0" 200 7394 "-" "Mozilla/5.0 (compatible; bingbot/2.0; +http://www.bing.com/bingbot.htm)"
157.55.39.214 - - [03/Nov/2018:14:01:57 +0000] "GET /wp-content/themes/dikka-installable/assets/js/owl.carousel.min.js?ver=4.9.8 HTTP/1.0" 200 14916 "-" "Mozilla/5.0 (compatible; bingbot/2.0; +http://www.bing.com/bingbot.htm)"
157.55.39.214 - - [03/Nov/2018:14:01:57 +0000] "GET /wp-includes/js/wp-embed.min.js?ver=4.9.8 HTTP/1.0" 200 1398 "-" "Mozilla/5.0 (compatible; bingbot/2.0; +http://www.bing.com/bingbot.htm)"
207.46.13.199 - - [03/Nov/2018:14:02:06 +0000] "GET /wp-content/plugins/merobuilder/so-widgets-bundle/icons/elegantline/style.css?ver=4.9.8 HTTP/1.0" 200 675 "-" "Mozilla/5.0 (compatible; bingbot/2.0; +http://www.bing.com/bingbot.htm)"
207.46.13.199 - - [03/Nov/2018:14:02:06 +0000] "GET /wp-content/themes/dikka-installable/assets/libs/font-awesome/css/font-awesome.min.css?ver=4.9.8 HTTP/1.0" 200 22077 "-" "Mozilla/5.0 (compatible; bingbot/2.0; +http://www.bing.com/bingbot.htm)"
207.46.13.199 - - [03/Nov/2018:14:02:07 +0000] "GET /wp-content/themes/dikka-installable/assets/css/retina.css?ver=4.9.8 HTTP/1.0" 200 12764 "-" "Mozilla/5.0 (compatible; bingbot/2.0; +http://www.bing.com/bingbot.htm)"
207.46.13.199 - - [03/Nov/2018:14:02:07 +0000] "GET /wp-content/themes/dikka-installable/assets/css/nivo_themes/default/default.css?ver=4.9.8 HTTP/1.0" 200 2380 "-" "Mozilla/5.0 (compatible; bingbot/2.0; +http://www.bing.com/bingbot.htm)"
207.46.13.199 - - [03/Nov/2018:14:02:07 +0000] "GET /wp-content/plugins/cubeportfolio/public/css/main.min.css?ver=1.4.1 HTTP/1.0" 200 61452 "-" "Mozilla/5.0 (compatible; bingbot/2.0; +http://www.bing.com/bingbot.htm)"
207.46.13.199 - - [03/Nov/2018:14:02:08 +0000] "GET /wp-content/plugins/mailchimp-for-wp/assets/css/form-basic.min.css?ver=4.2.1 HTTP/1.0" 200 2659 "-" "Mozilla/5.0 (compatible; bingbot/2.0; +http://www.bing.com/bingbot.htm)"
207.46.13.199 - - [03/Nov/2018:14:02:08 +0000] "GET /wp-includes/js/jquery/jquery.js?ver=1.12.4 HTTP/1.0" 200 97184 "-" "Mozilla/5.0 (compatible; bingbot/2.0; +http://www.bing.com/bingbot.htm)"
207.46.13.199 - - [03/Nov/2018:14:02:09 +0000] "GET /wp-content/themes/dikka-installable/assets/js/nivo-lightbox.min.js?ver=4.9.8 HTTP/1.0" 200 7621 "-" "Mozilla/5.0 (compatible; bingbot/2.0; +http://www.bing.com/bingbot.htm)"
207.102.138.158 - - [03/Nov/2018:14:11:56 +0000] "GET / HTTP/1.0" 200 59951 "-" "Mozilla/5.0 (X11; Linux x86_64) AppleWebKit/537.36 (KHTML, like Gecko) Chrome/38.0.2125.101 Safari/537.36"
5.45.65.152 - - [03/Nov/2018:14:18:45 +0000] "GET //installer-backup.php HTTP/1.0" 404 218 "-" "Mozilla/5.0 (Windows; U; Windows NT 5.1; en-US; rv:1.9.1.6) Gecko/20091201 Firefox/3.5.6 (.NET CLR 2.0.50727; .NET CLR 3.0.4506.2152; .NET CLR 3.5.30729)"
5.45.65.152 - - [03/Nov/2018:14:18:46 +0000] "GET //installer-backup.php HTTP/1.0" 404 218 "-" "Mozilla/5.0 (Windows; U; Windows NT 5.1; en-US; rv:1.9.1.6) Gecko/20091201 Firefox/3.5.6 (.NET CLR 2.0.50727; .NET CLR 3.0.4506.2152; .NET CLR 3.5.30729)"
51.158.25.47 - - [03/Nov/2018:14:30:51 +0000] "GET /wp-content/uploads/2018/10/mod_config.php HTTP/1.0" 404 239 "-" "Mozilla/5.0 (Windows NT 6.1.7600; WOW64; rv:26.0) Gecko/20100101 Firefox/26.0"
34.230.14.97 - - [03/Nov/2018:14:49:12 +0000] "GET / HTTP/1.0" 200 59951 "http://slotron.com/" "Mozilla/5.0 (Windows NT 6.1) AppleWebKit/537.36 (KHTML, like Gecko) Chrome/62.0.3202.94 Safari/537.36"
178.255.215.82 - - [03/Nov/2018:14:56:40 +0000] "GET /?p=1395 HTTP/1.0" 200 47586 "-" "Mozilla/5.0 (compatible; Exabot/3.0; +http://www.exabot.com/go/robot)"
178.255.215.82 - - [03/Nov/2018:14:57:12 +0000] "GET /?feed=rss2 HTTP/1.0" 200 16915 "-" "Mozilla/5.0 (compatible; Exabot/3.0; +http://www.exabot.com/go/robot)"
178.255.215.82 - - [03/Nov/2018:14:57:15 +0000] "GET /?feed=comments-rss2 HTTP/1.0" 200 718 "-" "Mozilla/5.0 (compatible; Exabot/3.0; +http://www.exabot.com/go/robot)"
178.255.215.82 - - [03/Nov/2018:14:57:18 +0000] "GET /?feed=rss2&p=1395 HTTP/1.0" 200 725 "-" "Mozilla/5.0 (compatible; Exabot/3.0; +http://www.exabot.com/go/robot)"
207.46.13.199 - - [03/Nov/2018:15:02:42 +0000] "GET /wp-content/themes/dikka-installable/assets/images/sprite.png HTTP/1.0" 200 22448 "-" "Mozilla/5.0 (compatible; bingbot/2.0; +http://www.bing.com/bingbot.htm)"
207.46.13.199 - - [03/Nov/2018:15:02:42 +0000] "GET /wp-content/uploads/2015/08/xintana-idle-logo-e1440439753395.png HTTP/1.0" 200 4589 "-" "Mozilla/5.0 (compatible; bingbot/2.0; +http://www.bing.com/bingbot.htm)"
207.46.13.199 - - [03/Nov/2018:15:02:42 +0000] "GET /wp-content/uploads/2018/02/google-play-badge-e1518088613620.png HTTP/1.0" 200 16381 "-" "Mozilla/5.0 (compatible; bingbot/2.0; +http://www.bing.com/bingbot.htm)"
157.55.39.214 - - [03/Nov/2018:15:02:46 +0000] "GET /wp-content/plugins/cubeportfolio/public/img/cbp-loading.gif HTTP/1.0" 200 3208 "-" "Mozilla/5.0 (compatible; bingbot/2.0; +http://www.bing.com/bingbot.htm)"
157.55.39.214 - - [03/Nov/2018:15:02:46 +0000] "GET /wp-content/themes/dikka-installable/assets/libs/font-awesome/font/fontawesome-webfont.ttf?v=4.2.0 HTTP/1.0" 200 112160 "-" "Mozilla/5.0 (compatible; bingbot/2.0; +http://www.bing.com/bingbot.htm)"
157.55.39.214 - - [03/Nov/2018:15:02:47 +0000] "GET /wp-content/uploads/2018/02/logo_trans_XintanaLegendsGO_v2.png HTTP/1.0" 200 264243 "-" "Mozilla/5.0 (compatible; bingbot/2.0; +http://www.bing.com/bingbot.htm)"
157.55.39.214 - - [03/Nov/2018:15:02:48 +0000] "GET /wp-content/uploads/2018/02/apple_badge.png HTTP/1.0" 200 247962 "-" "Mozilla/5.0 (compatible; bingbot/2.0; +http://www.bing.com/bingbot.htm)"
157.55.39.214 - - [03/Nov/2018:15:02:48 +0000] "GET /wp-includes/js/wp-emoji-release.min.js?ver=4.9.8 HTTP/1.0" 200 12026 "-" "Mozilla/5.0 (compatible; bingbot/2.0; +http://www.bing.com/bingbot.htm)"
157.55.39.185 - - [03/Nov/2018:15:02:54 +0000] "GET /robots.txt HTTP/1.0" 404 208 "-" "Mozilla/5.0 (compatible; bingbot/2.0; +http://www.bing.com/bingbot.htm)"
31.170.123.73 - - [03/Nov/2018:15:33:47 +0000] "POST /wp-cron.php?doing_wp_cron=1541259227.4293580055236816406250 HTTP/1.0" 200 - "http://xintanalegends.com/wp-cron.php?doing_wp_cron=1541259227.4293580055236816406250" "WordPress/4.9.8; http://xintanalegends.com"
180.76.15.26 - - [03/Nov/2018:15:33:47 +0000] "GET / HTTP/1.0" 200 59953 "-" "Mozilla/5.0 (compatible; Baiduspider/2.0; +http://www.baidu.com/search/spider.html)"
149.56.251.139 - - [03/Nov/2018:16:04:59 +0000] "GET / HTTP/1.0" 200 59953 "-" "Mozilla/5.0 (Windows NT 10.0; Win64; x64) AppleWebKit/537.36 (KHTML, like Gecko) Chrome/61.0.3163.100 Safari/537.36"
149.56.251.139 - - [03/Nov/2018:16:05:01 +0000] "GET /wp-includes/wlwmanifest.xml HTTP/1.0" 200 1045 "-" "Mozilla/5.0 (Windows NT 10.0; Win64; x64) AppleWebKit/537.36 (KHTML, like Gecko) Chrome/61.0.3163.100 Safari/537.36"
149.56.251.139 - - [03/Nov/2018:16:05:01 +0000] "GET /?author=1 HTTP/1.0" 200 85221 "-" "Mozilla/5.0 (Windows NT 10.0; Win64; x64) AppleWebKit/537.36 (KHTML, like Gecko) Chrome/61.0.3163.100 Safari/537.36"
149.56.251.139 - - [03/Nov/2018:16:05:02 +0000] "GET /wp-json/wp/v2/users/ HTTP/1.0" 404 218 "-" "Mozilla/5.0 (Windows NT 10.0; Win64; x64) AppleWebKit/537.36 (KHTML, like Gecko) Chrome/61.0.3163.100 Safari/537.36"
31.170.123.73 - - [03/Nov/2018:16:05:00 +0000] "POST /wp-cron.php?doing_wp_cron=1541261100.0337569713592529296875 HTTP/1.0" 200 - "http://xintanalegends.com/wp-cron.php?doing_wp_cron=1541261100.0337569713592529296875" "WordPress/4.9.8; http://xintanalegends.com"
149.56.251.139 - - [03/Nov/2018:16:05:03 +0000] "POST /xmlrpc.php HTTP/1.0" 200 52617 "-" "Mozilla/5.0 (Windows NT 10.0; Win64; x64) AppleWebKit/537.36 (KHTML, like Gecko) Chrome/61.0.3163.100 Safari/537.36"
149.56.251.139 - - [03/Nov/2018:16:05:04 +0000] "POST /xmlrpc.php HTTP/1.0" 200 401 "-" "Mozilla/5.0 (Windows NT 10.0; Win64; x64) AppleWebKit/537.36 (KHTML, like Gecko) Chrome/61.0.3163.100 Safari/537.36"
149.56.251.139 - - [03/Nov/2018:16:05:04 +0000] "POST /xmlrpc.php HTTP/1.0" 200 401 "-" "Mozilla/5.0 (Windows NT 10.0; Win64; x64) AppleWebKit/537.36 (KHTML, like Gecko) Chrome/61.0.3163.100 Safari/537.36"
149.56.251.139 - - [03/Nov/2018:16:05:04 +0000] "POST /xmlrpc.php HTTP/1.0" 200 401 "-" "Mozilla/5.0 (Windows NT 10.0; Win64; x64) AppleWebKit/537.36 (KHTML, like Gecko) Chrome/61.0.3163.100 Safari/537.36"
149.56.251.139 - - [03/Nov/2018:16:05:05 +0000] "POST /xmlrpc.php HTTP/1.0" 200 401 "-" "Mozilla/5.0 (Windows NT 10.0; Win64; x64) AppleWebKit/537.36 (KHTML, like Gecko) Chrome/61.0.3163.100 Safari/537.36"
149.56.251.139 - - [03/Nov/2018:16:05:05 +0000] "POST /xmlrpc.php HTTP/1.0" 200 401 "-" "Mozilla/5.0 (Windows NT 10.0; Win64; x64) AppleWebKit/537.36 (KHTML, like Gecko) Chrome/61.0.3163.100 Safari/537.36"
149.56.251.139 - - [03/Nov/2018:16:05:06 +0000] "POST /xmlrpc.php HTTP/1.0" 200 401 "-" "Mozilla/5.0 (Windows NT 10.0; Win64; x64) AppleWebKit/537.36 (KHTML, like Gecko) Chrome/61.0.3163.100 Safari/537.36"
149.56.251.139 - - [03/Nov/2018:16:05:06 +0000] "POST /xmlrpc.php HTTP/1.0" 200 401 "-" "Mozilla/5.0 (Windows NT 10.0; Win64; x64) AppleWebKit/537.36 (KHTML, like Gecko) Chrome/61.0.3163.100 Safari/537.36"
149.56.251.139 - - [03/Nov/2018:16:05:07 +0000] "POST /xmlrpc.php HTTP/1.0" 200 401 "-" "Mozilla/5.0 (Windows NT 10.0; Win64; x64) AppleWebKit/537.36 (KHTML, like Gecko) Chrome/61.0.3163.100 Safari/537.36"
149.56.251.139 - - [03/Nov/2018:16:05:07 +0000] "POST /xmlrpc.php HTTP/1.0" 200 401 "-" "Mozilla/5.0 (Windows NT 10.0; Win64; x64) AppleWebKit/537.36 (KHTML, like Gecko) Chrome/61.0.3163.100 Safari/537.36"
149.56.251.139 - - [03/Nov/2018:16:05:08 +0000] "POST /xmlrpc.php HTTP/1.0" 200 401 "-" "Mozilla/5.0 (Windows NT 10.0; Win64; x64) AppleWebKit/537.36 (KHTML, like Gecko) Chrome/61.0.3163.100 Safari/537.36"
149.56.251.139 - - [03/Nov/2018:16:05:08 +0000] "POST /xmlrpc.php HTTP/1.0" 200 401 "-" "Mozilla/5.0 (Windows NT 10.0; Win64; x64) AppleWebKit/537.36 (KHTML, like Gecko) Chrome/61.0.3163.100 Safari/537.36"
149.56.251.139 - - [03/Nov/2018:16:05:09 +0000] "POST /xmlrpc.php HTTP/1.0" 200 401 "-" "Mozilla/5.0 (Windows NT 10.0; Win64; x64) AppleWebKit/537.36 (KHTML, like Gecko) Chrome/61.0.3163.100 Safari/537.36"
149.56.251.139 - - [03/Nov/2018:16:05:09 +0000] "POST /xmlrpc.php HTTP/1.0" 200 401 "-" "Mozilla/5.0 (Windows NT 10.0; Win64; x64) AppleWebKit/537.36 (KHTML, like Gecko) Chrome/61.0.3163.100 Safari/537.36"
149.56.251.139 - - [03/Nov/2018:16:05:10 +0000] "POST /xmlrpc.php HTTP/1.0" 200 401 "-" "Mozilla/5.0 (Windows NT 10.0; Win64; x64) AppleWebKit/537.36 (KHTML, like Gecko) Chrome/61.0.3163.100 Safari/537.36"
149.56.251.139 - - [03/Nov/2018:16:05:10 +0000] "POST /xmlrpc.php HTTP/1.0" 200 401 "-" "Mozilla/5.0 (Windows NT 10.0; Win64; x64) AppleWebKit/537.36 (KHTML, like Gecko) Chrome/61.0.3163.100 Safari/537.36"
149.56.251.139 - - [03/Nov/2018:16:05:11 +0000] "POST /xmlrpc.php HTTP/1.0" 200 401 "-" "Mozilla/5.0 (Windows NT 10.0; Win64; x64) AppleWebKit/537.36 (KHTML, like Gecko) Chrome/61.0.3163.100 Safari/537.36"
149.56.251.139 - - [03/Nov/2018:16:05:11 +0000] "POST /xmlrpc.php HTTP/1.0" 200 401 "-" "Mozilla/5.0 (Windows NT 10.0; Win64; x64) AppleWebKit/537.36 (KHTML, like Gecko) Chrome/61.0.3163.100 Safari/537.36"
149.56.251.139 - - [03/Nov/2018:16:05:12 +0000] "POST /xmlrpc.php HTTP/1.0" 200 401 "-" "Mozilla/5.0 (Windows NT 10.0; Win64; x64) AppleWebKit/537.36 (KHTML, like Gecko) Chrome/61.0.3163.100 Safari/537.36"
149.56.251.139 - - [03/Nov/2018:16:05:12 +0000] "POST /xmlrpc.php HTTP/1.0" 200 401 "-" "Mozilla/5.0 (Windows NT 10.0; Win64; x64) AppleWebKit/537.36 (KHTML, like Gecko) Chrome/61.0.3163.100 Safari/537.36"
149.56.251.139 - - [03/Nov/2018:16:05:13 +0000] "POST /xmlrpc.php HTTP/1.0" 403 212 "-" "Mozilla/5.0 (Windows NT 10.0; Win64; x64) AppleWebKit/537.36 (KHTML, like Gecko) Chrome/61.0.3163.100 Safari/537.36"
202.144.158.248 - - [03/Nov/2018:16:18:33 +0000] "POST /blog/xmlrpc.php HTTP/1.0" 404 213 "-" "Mozilla/5.0 (Macintosh; U; Intel Mac OS X 10.6; fr; rv:1.9.2.8) Gecko/20100722 Firefox/3.6.8"
202.144.158.248 - - [03/Nov/2018:16:18:33 +0000] "POST /blog/xmlrpc.php HTTP/1.0" 404 213 "-" "Mozilla/5.0 (Macintosh; U; Intel Mac OS X 10.6; fr; rv:1.9.2.8) Gecko/20100722 Firefox/3.6.8"
202.144.158.248 - - [03/Nov/2018:16:18:33 +0000] "POST /xmlrpc.php HTTP/1.0" 200 403 "-" "Mozilla/5.0 (Macintosh; U; Intel Mac OS X 10.6; fr; rv:1.9.2.8) Gecko/20100722 Firefox/3.6.8"
202.144.158.248 - - [03/Nov/2018:16:18:33 +0000] "POST /xmlrpc.php HTTP/1.0" 200 403 "-" "Mozilla/5.0 (Macintosh; U; Intel Mac OS X 10.6; fr; rv:1.9.2.8) Gecko/20100722 Firefox/3.6.8"
41.78.27.215 - - [03/Nov/2018:16:23:50 +0000] "GET /wp-content/plugins/Aviliate/user.php HTTP/1.0" 404 234 "http://site.ru" "Mozilla/5.0 (Windows; U; Windows NT 5.1; en-US) AppleWebKit/533.4 (KHTML, like Gecko) Chrome/5.0.375.99 Safari/533.4"
41.78.27.215 - - [03/Nov/2018:16:23:50 +0000] "GET /wp-content/plugins/Aviliate/user.php HTTP/1.0" 404 234 "http://site.ru" "Mozilla/5.0 (Windows; U; Windows NT 5.1; en-US) AppleWebKit/533.4 (KHTML, like Gecko) Chrome/5.0.375.99 Safari/533.4"
197.95.199.119 - - [03/Nov/2018:16:24:16 +0000] "GET /wp-login.php HTTP/1.0" 200 2291 "-" "Mozilla/5.0 (Windows NT 6.1; WOW64; rv:40.0) Gecko/20100101 Firefox/40.1"
197.95.199.119 - - [03/Nov/2018:16:24:17 +0000] "GET / HTTP/1.0" 301 - "-" "Mozilla/5.0 (Windows NT 6.1; WOW64; rv:40.0) Gecko/20100101 Firefox/40.1"
197.95.199.119 - - [03/Nov/2018:16:24:17 +0000] "GET / HTTP/1.0" 200 59951 "-" "Mozilla/5.0 (Windows NT 6.1; WOW64; rv:40.0) Gecko/20100101 Firefox/40.1"
89.40.124.123 - - [03/Nov/2018:16:45:06 +0000] "GET /user/register/ HTTP/1.0" 404 212 "-" "Mozilla/5.0 (Windows; U; Windows NT 5.1; de; rv:1.9) Gecko/2008052906 Firefox/3.0"
185.117.118.150 - - [03/Nov/2018:16:45:25 +0000] "HEAD / HTTP/1.0" 200 - "-" "Mozilla/5.0 (compatible; Uptimebot/1.0; +http://www.uptime.com/uptimebot)"
54.36.148.250 - - [03/Nov/2018:16:51:51 +0000] "GET /wp-content/uploads/2018/02/unity_edit.jpg HTTP/1.0" 200 407630 "-" "Mozilla/5.0 (compatible; AhrefsBot/5.2; +http://ahrefs.com/robot/)"
31.170.123.73 - - [03/Nov/2018:17:04:39 +0000] "POST /wp-cron.php?doing_wp_cron=1541264679.9477589130401611328125 HTTP/1.0" 200 - "http://xintanalegends.com/wp-cron.php?doing_wp_cron=1541264679.9477589130401611328125" "WordPress/4.9.8; http://xintanalegends.com"
18.207.203.70 - - [03/Nov/2018:17:04:39 +0000] "GET /wp-login.php HTTP/1.0" 200 2291 "https://www.google.com/url?bfc0f2567f4815a61fdeeee7235946bf" "Mozilla/5.0 (Windows NT 6.2; rv:36.0) Gecko/20100101 Firefox/36.0"
123.125.71.86 - - [03/Nov/2018:17:05:36 +0000] "GET /robots.txt HTTP/1.0" 404 208 "-" "Mozilla/5.0 (compatible; Baiduspider/2.0; +http://www.baidu.com/search/spider.html)"
54.36.150.98 - - [03/Nov/2018:17:30:06 +0000] "GET /robots.txt HTTP/1.0" 404 208 "-" "Mozilla/5.0 (compatible; AhrefsBot/5.2; +http://ahrefs.com/robot/)"
54.36.148.87 - - [03/Nov/2018:17:30:07 +0000] "GET / HTTP/1.0" 301 - "-" "Mozilla/5.0 (compatible; AhrefsBot/5.2; +http://ahrefs.com/robot/)"
123.125.67.157 - - [03/Nov/2018:17:54:44 +0000] "GET /robots.txt HTTP/1.0" 404 208 "-" "Mozilla/5.0 (Windows NT 10.0; WOW64) AppleWebKit/537.36 (KHTML, like Gecko) Chrome/45.0.2454.93 Safari/537.36"
31.170.123.73 - - [03/Nov/2018:18:04:49 +0000] "POST /wp-cron.php?doing_wp_cron=1541268289.1363830566406250000000 HTTP/1.0" 200 - "http://xintanalegends.com/wp-cron.php?doing_wp_cron=1541268289.1363830566406250000000" "WordPress/4.9.8; http://xintanalegends.com"
37.35.11.21 - - [03/Nov/2018:18:04:48 +0000] "GET /wp-login.php HTTP/1.0" 200 2291 "-" "Mozilla/5.0 (Windows NT 6.1; WOW64; rv:40.0) Gecko/20100101 Firefox/40.1"
37.35.11.21 - - [03/Nov/2018:18:04:49 +0000] "GET / HTTP/1.0" 301 - "-" "Mozilla/5.0 (Windows NT 6.1; WOW64; rv:40.0) Gecko/20100101 Firefox/40.1"
37.35.11.21 - - [03/Nov/2018:18:04:50 +0000] "GET / HTTP/1.0" 200 59951 "-" "Mozilla/5.0 (Windows NT 6.1; WOW64; rv:40.0) Gecko/20100101 Firefox/40.1"
37.35.11.21 - - [03/Nov/2018:18:04:50 +0000] "GET /wp-login.php HTTP/1.0" 200 2291 "-" "Mozilla/5.0 (Windows NT 6.1; WOW64; rv:40.0) Gecko/20100101 Firefox/40.1"
37.35.11.21 - - [03/Nov/2018:18:04:51 +0000] "GET / HTTP/1.0" 200 59951 "-" "Mozilla/5.0 (Windows NT 6.1; WOW64; rv:40.0) Gecko/20100101 Firefox/40.1"
185.86.164.99 - - [03/Nov/2018:18:09:56 +0000] "GET /wp-login.php HTTP/1.0" 200 2291 "-" "Mozilla/5.0 (Windows NT 10.0; WOW64) AppleWebKit/537.36 (KHTML, like Gecko) Chrome/51.0.2704.103 Safari/537.36"
185.86.164.99 - - [03/Nov/2018:18:09:57 +0000] "POST /wp-login.php HTTP/1.0" 200 2559 "http://xintana.com/wp-login.php" "Mozilla/5.0 (Windows NT 10.0; WOW64) AppleWebKit/537.36 (KHTML, like Gecko) Chrome/51.0.2704.103 Safari/537.36"
185.86.164.99 - - [03/Nov/2018:18:09:57 +0000] "POST /wp-login.php HTTP/1.0" 200 3239 "http://xintana.com/wp-login.php" "Mozilla/5.0 (Windows NT 10.0; WOW64) AppleWebKit/537.36 (KHTML, like Gecko) Chrome/51.0.2704.103 Safari/537.36"
51.68.112.111 - - [03/Nov/2018:18:12:42 +0000] "GET /robots.txt HTTP/1.0" 404 208 "-" "Mozilla/5.0 (Windows NT 10.0; WOW64) AppleWebKit/537.36 (KHTML, like Gecko) Chrome/49.0.2623.75 Safari/537.36 OPR/36.0.2130.32"
51.68.112.111 - - [03/Nov/2018:18:12:42 +0000] "GET / HTTP/1.0" 200 59951 "-" "Mozilla/5.0 (Windows NT 10.0; WOW64) AppleWebKit/537.36 (KHTML, like Gecko) Chrome/49.0.2623.75 Safari/537.36 OPR/36.0.2130.32"
51.68.112.111 - - [03/Nov/2018:18:12:42 +0000] "GET /wp-content/plugins/simple-ads-manager/js/slider/tmpl.js HTTP/1.0" 404 253 "-" "Mozilla/5.0 (Windows NT 10.0; WOW64) AppleWebKit/537.36 (KHTML, like Gecko) Chrome/49.0.2623.75 Safari/537.36 OPR/36.0.2130.32"
51.68.112.111 - - [03/Nov/2018:18:12:42 +0000] "GET /wp-content/plugins/wp-mobile-detector/resize.php?src=http://www.relationshiptips.club/cache/db.php HTTP/1.0" 404 246 "-" "Mozilla/5.0 (Windows NT 10.0; WOW64) AppleWebKit/537.36 (KHTML, like Gecko) Chrome/49.0.2623.75 Safari/537.36 OPR/36.0.2130.32"
51.68.112.111 - - [03/Nov/2018:18:12:42 +0000] "GET /wp-content/plugins/wp-mobile-detector/cache/db.php HTTP/1.0" 404 248 "-" "Mozilla/5.0 (Windows NT 10.0; WOW64) AppleWebKit/537.36 (KHTML, like Gecko) Chrome/49.0.2623.75 Safari/537.36 OPR/36.0.2130.32"
51.68.112.111 - - [03/Nov/2018:18:12:42 +0000] "GET /wp-content/plugins/formcraft/file-upload/server/php/upload.php HTTP/1.0" 404 260 "-" "Mozilla/5.0 (Windows NT 10.0; WOW64) AppleWebKit/537.36 (KHTML, like Gecko) Chrome/49.0.2623.75 Safari/537.36 OPR/36.0.2130.32"
51.68.112.111 - - [03/Nov/2018:18:12:42 +0000] "POST /wp-admin/admin-ajax.php HTTP/1.0" 200 43 "-" "Mozilla/5.0 (Windows NT 10.0; WOW64) AppleWebKit/537.36 (KHTML, like Gecko) Chrome/49.0.2623.75 Safari/537.36 OPR/36.0.2130.32"
51.68.112.111 - - [03/Nov/2018:18:12:43 +0000] "GET /wp-content/plugins/revslider/temp/update_extract/revslider/db.php HTTP/1.0" 404 263 "-" "Mozilla/5.0 (Windows NT 10.0; WOW64) AppleWebKit/537.36 (KHTML, like Gecko) Chrome/49.0.2623.75 Safari/537.36 OPR/36.0.2130.32"
51.68.112.111 - - [03/Nov/2018:18:12:43 +0000] "GET /wp-admin/admin-ajax.php?action=revslider_show_image&img=../wp-config.php HTTP/1.0" 500 15 "-" "Mozilla/5.0 (Windows NT 10.0; WOW64) AppleWebKit/537.36 (KHTML, like Gecko) Chrome/49.0.2623.75 Safari/537.36 OPR/36.0.2130.32"
51.68.112.111 - - [03/Nov/2018:18:12:43 +0000] "GET /wp-content/themes/mTheme-Unus/css/css.php?files=../../../../wp-config.php HTTP/1.0" 404 239 "-" "Mozilla/5.0 (Windows NT 10.0; WOW64) AppleWebKit/537.36 (KHTML, like Gecko) Chrome/49.0.2623.75 Safari/537.36 OPR/36.0.2130.32"
51.68.112.111 - - [03/Nov/2018:18:12:43 +0000] "GET /wp-content/plugins/recent-backups/download-file.php?file_link=/etc/passwd HTTP/1.0" 404 249 "-" "Mozilla/5.0 (Windows NT 10.0; WOW64) AppleWebKit/537.36 (KHTML, like Gecko) Chrome/49.0.2623.75 Safari/537.36 OPR/36.0.2130.32"
51.68.112.111 - - [03/Nov/2018:18:12:43 +0000] "GET /wp-content/plugins/wptf-image-gallery/lib-mbox/ajax_load.php?url=/etc/passwd HTTP/1.0" 404 258 "-" "Mozilla/5.0 (Windows NT 10.0; WOW64) AppleWebKit/537.36 (KHTML, like Gecko) Chrome/49.0.2623.75 Safari/537.36 OPR/36.0.2130.32"
51.68.112.111 - - [03/Nov/2018:18:12:43 +0000] "GET /wp-content/plugins/./simple-image-manipulator/controller/download.php?filepath=/etc/passwd HTTP/1.0" 404 265 "-" "Mozilla/5.0 (Windows NT 10.0; WOW64) AppleWebKit/537.36 (KHTML, like Gecko) Chrome/49.0.2623.75 Safari/537.36 OPR/36.0.2130.32"
51.68.112.111 - - [03/Nov/2018:18:12:43 +0000] "GET /wp-content/plugins/candidate-application-form/downloadpdffile.php?fileName=../../../../../../../../../../etc/passwd HTTP/1.0" 404 263 "-" "Mozilla/5.0 (Windows NT 10.0; WOW64) AppleWebKit/537.36 (KHTML, like Gecko) Chrome/49.0.2623.75 Safari/537.36 OPR/36.0.2130.32"
51.68.112.111 - - [03/Nov/2018:18:12:43 +0000] "GET /wp-content/plugins/wp-ecommerce-shop-styling/includes/download.php?filename=../../../../../../../../../etc/passwd HTTP/1.0" 404 264 "-" "Mozilla/5.0 (Windows NT 10.0; WOW64) AppleWebKit/537.36 (KHTML, like Gecko) Chrome/49.0.2623.75 Safari/537.36 OPR/36.0.2130.32"
51.68.112.111 - - [03/Nov/2018:18:12:44 +0000] "POST /wp-content/plugins/wp-symposium/server/php/index.php HTTP/1.0" 404 250 "-" "Mozilla/5.0 (Windows NT 10.0; WOW64) AppleWebKit/537.36 (KHTML, like Gecko) Chrome/49.0.2623.75 Safari/537.36 OPR/36.0.2130.32"
51.68.112.111 - - [03/Nov/2018:18:12:44 +0000] "GET /wp-content/plugins/wp-symposium/server/php/HQhOylmDGgcAby.php HTTP/1.0" 404 259 "-" "Mozilla/5.0 (Windows NT 10.0; WOW64) AppleWebKit/537.36 (KHTML, like Gecko) Chrome/49.0.2623.75 Safari/537.36 OPR/36.0.2130.32"
51.68.112.111 - - [03/Nov/2018:18:12:44 +0000] "POST / HTTP/1.0" 200 59951 "-" "Mozilla/5.0 (Windows NT 10.0; WOW64) AppleWebKit/537.36 (KHTML, like Gecko) Chrome/49.0.2623.75 Safari/537.36 OPR/36.0.2130.32"
51.68.112.111 - - [03/Nov/2018:18:12:44 +0000] "POST / HTTP/1.0" 200 59951 "-" "Mozilla/5.0 (Windows NT 10.0; WOW64) AppleWebKit/537.36 (KHTML, like Gecko) Chrome/49.0.2623.75 Safari/537.36 OPR/36.0.2130.32"
2001:41d0:a:6dde:: - - [03/Nov/2018:18:40:23 +0000] "GET /_.php HTTP/1.0" 404 203 "http://site.ru" "Mozilla/5.0 (Windows; U; Windows NT 5.1; en-US) AppleWebKit/533.4 (KHTML, like Gecko) Chrome/5.0.375.99 Safari/533.4"
2001:41d0:a:6dde:: - - [03/Nov/2018:18:40:25 +0000] "GET /_.php HTTP/1.0" 404 203 "http://site.ru" "Mozilla/5.0 (Windows; U; Windows NT 5.1; en-US) AppleWebKit/533.4 (KHTML, like Gecko) Chrome/5.0.375.99 Safari/533.4"
89.248.169.130 - - [03/Nov/2018:19:02:59 +0000] "POST /xmlrpc.php HTTP/1.0" 200 403 "-" "Mozilla/5.0 (Macintosh; U; Intel Mac OS X 10.6; fr; rv:1.9.2.8) Gecko/20100722 Firefox/3.6.8"
89.248.169.130 - - [03/Nov/2018:19:02:59 +0000] "POST /xmlrpc.php HTTP/1.0" 200 403 "-" "Mozilla/5.0 (Macintosh; U; Intel Mac OS X 10.6; fr; rv:1.9.2.8) Gecko/20100722 Firefox/3.6.8"
31.170.123.73 - - [03/Nov/2018:19:02:59 +0000] "POST /wp-cron.php?doing_wp_cron=1541271779.9896600246429443359375 HTTP/1.0" 200 - "http://xintanalegends.com/wp-cron.php?doing_wp_cron=1541271779.9896600246429443359375" "WordPress/4.9.8; http://xintanalegends.com"
89.248.169.130 - - [03/Nov/2018:19:02:59 +0000] "POST /xmlrpc.php HTTP/1.0" 200 403 "-" "Mozilla/5.0 (Macintosh; U; Intel Mac OS X 10.6; fr; rv:1.9.2.8) Gecko/20100722 Firefox/3.6.8"
89.248.169.130 - - [03/Nov/2018:19:03:00 +0000] "POST /xmlrpc.php HTTP/1.0" 200 403 "-" "Mozilla/5.0 (Macintosh; U; Intel Mac OS X 10.6; fr; rv:1.9.2.8) Gecko/20100722 Firefox/3.6.8"
52.53.201.78 - - [03/Nov/2018:19:12:16 +0000] "GET / HTTP/1.0" 301 - "-" "Mozilla/5.0 (Macintosh; Intel Mac OS X 10_12_6) AppleWebKit/537.36 (KHTML, like Gecko) Chrome/61.0.3163.100 Safari/537.36"
52.53.201.78 - - [03/Nov/2018:19:12:17 +0000] "GET / HTTP/1.0" 200 59951 "http://www.xintanalegends.com/" "Mozilla/5.0 (Macintosh; Intel Mac OS X 10_12_6) AppleWebKit/537.36 (KHTML, like Gecko) Chrome/61.0.3163.100 Safari/537.36"
176.115.93.220 - - [03/Nov/2018:19:55:21 +0000] "GET / HTTP/1.0" 200 59953 "http://xintana.com/" "Mozilla/4.0 (compatible; MSIE 6.0; Windows NT 5.1; SV1)"
120.35.38.212 - - [03/Nov/2018:20:03:26 +0000] "HEAD /wp-content/themes/twentysixteen/inc/customizer.php HTTP/1.0" 200 - "-" "-"
31.170.123.73 - - [03/Nov/2018:20:14:43 +0000] "POST /wp-cron.php?doing_wp_cron=1541276083.1516799926757812500000 HTTP/1.0" 200 - "http://xintanalegends.com/wp-cron.php?doing_wp_cron=1541276083.1516799926757812500000" "WordPress/4.9.8; http://xintanalegends.com"
83.21.210.223 - - [03/Nov/2018:20:14:42 +0000] "GET / HTTP/1.0" 200 59951 "http://xintanalegends.com/" "Mozilla/4.0 (compatible; MSIE 6.0; Windows NT 5.1; SV1)"
50.62.30.5 - - [03/Nov/2018:20:18:23 +0000] "GET /wp-content/plugins/wp-seo/wp-seo.php HTTP/1.0" 404 234 "http://site.ru" "Mozilla/5.0 (Windows; U; Windows NT 5.1; en-US) AppleWebKit/533.4 (KHTML, like Gecko) Chrome/5.0.375.99 Safari/533.4"
50.62.30.5 - - [03/Nov/2018:20:18:26 +0000] "GET /wp-content/plugins/wp-seo/wp-seo.php HTTP/1.0" 404 234 "http://site.ru" "Mozilla/5.0 (Windows; U; Windows NT 5.1; en-US) AppleWebKit/533.4 (KHTML, like Gecko) Chrome/5.0.375.99 Safari/533.4"
50.62.30.5 - - [03/Nov/2018:20:18:48 +0000] "GET /wp-content/plugins/wp-seo/wp-seo.php HTTP/1.0" 404 234 "http://site.ru" "Mozilla/5.0 (Windows; U; Windows NT 5.1; en-US) AppleWebKit/533.4 (KHTML, like Gecko) Chrome/5.0.375.99 Safari/533.4"
193.201.224.210 - - [03/Nov/2018:20:26:03 +0000] "GET /wp-content/plugins/team-admin/2.php HTTP/1.0" 404 233 "http://xintana.com/wp-content/plugins/team-admin/2.php" "Mozilla/5.0 (Windows NT 6.1; WOW64) AppleWebKit/537.36 (KHTML, like Gecko) Chrome/42.0.2311.152 Safari/537.36"
193.201.224.210 - - [03/Nov/2018:20:27:17 +0000] "GET /wp-content/plugins/console_contact_form/upload_file.php?files HTTP/1.0" 404 253 "http://xintana.com/wp-content/plugins/console_contact_form/upload_file.php?files" "Mozilla/5.0 (Windows NT 6.1; WOW64) AppleWebKit/537.36 (KHTML, like Gecko) Chrome/42.0.2311.152 Safari/537.36"
193.201.224.210 - - [03/Nov/2018:20:34:03 +0000] "GET /jm-ajax/upload_file/ HTTP/1.0" 404 218 "http://xintana.com/jm-ajax/upload_file/" "Mozilla/5.0 (Windows NT 6.1; WOW64) AppleWebKit/537.36 (KHTML, like Gecko) Chrome/42.0.2311.152 Safari/537.36"
52.37.108.40 - - [03/Nov/2018:20:57:09 +0000] "GET /wp-login.php HTTP/1.0" 200 2291 "https://www.google.com/url?643b51bb24d9057381ea7bbb069c88c5" "Mozilla/5.0 (Windows NT 6.2; rv:28.0) Gecko/20100101 Firefox/28.0"
52.37.108.40 - - [03/Nov/2018:20:57:31 +0000] "POST /wp-login.php HTTP/1.0" 200 3290 "https://www.google.com/url?643b51bb24d9057381ea7bbb069c88c5" "Mozilla/5.0 (Windows NT 6.2; rv:28.0) Gecko/20100101 Firefox/28.0"
123.57.254.142 - - [03/Nov/2018:21:00:40 +0000] "POST /xmlrpc.php HTTP/1.0" 200 403 "-" "Mozilla/5.0 (Macintosh; U; Intel Mac OS X 10.6; fr; rv:1.9.2.8) Gecko/20100722 Firefox/3.6.8"
123.57.254.142 - - [03/Nov/2018:21:00:40 +0000] "POST /xmlrpc.php HTTP/1.0" 200 403 "-" "Mozilla/5.0 (Macintosh; U; Intel Mac OS X 10.6; fr; rv:1.9.2.8) Gecko/20100722 Firefox/3.6.8"
31.170.123.73 - - [03/Nov/2018:22:01:54 +0000] "POST /wp-cron.php?doing_wp_cron=1541282514.2370200157165527343750 HTTP/1.0" 200 - "http://xintanalegends.com/wp-cron.php?doing_wp_cron=1541282514.2370200157165527343750" "WordPress/4.9.8; http://xintanalegends.com"
2620:101:2002:11a5:10:8:141:61 - - [03/Nov/2018:22:01:53 +0000] "GET / HTTP/1.0" 200 59953 "-" "Mozilla/5.0 (Windows NT 10.0; WOW64; rv:53.0) Gecko/20100101 Firefox/53.0"
91.86.112.189 - - [03/Nov/2018:22:13:53 +0000] "GET /wp-login.php HTTP/1.0" 200 2291 "-" "Mozilla/5.0 (Windows NT 6.1; WOW64; rv:40.0) Gecko/20100101 Firefox/40.1"
91.86.112.189 - - [03/Nov/2018:22:13:53 +0000] "GET / HTTP/1.0" 301 - "-" "Mozilla/5.0 (Windows NT 6.1; WOW64; rv:40.0) Gecko/20100101 Firefox/40.1"
91.86.112.189 - - [03/Nov/2018:22:13:54 +0000] "GET / HTTP/1.0" 200 59951 "-" "Mozilla/5.0 (Windows NT 6.1; WOW64; rv:40.0) Gecko/20100101 Firefox/40.1"
91.86.112.189 - - [03/Nov/2018:22:26:22 +0000] "GET /wp-login.php HTTP/1.0" 200 2291 "-" "Mozilla/5.0 (Windows NT 6.1; WOW64; rv:40.0) Gecko/20100101 Firefox/40.1"
91.86.112.189 - - [03/Nov/2018:22:26:23 +0000] "GET / HTTP/1.0" 200 59951 "-" "Mozilla/5.0 (Windows NT 6.1; WOW64; rv:40.0) Gecko/20100101 Firefox/40.1"
199.16.157.183 - - [03/Nov/2018:22:56:46 +0000] "GET /robots.txt HTTP/1.0" 404 208 "-" "Twitterbot/1.0"
199.16.157.183 - - [03/Nov/2018:22:56:46 +0000] "GET / HTTP/1.0" 200 59951 "-" "Twitterbot/1.0"
31.170.123.73 - - [03/Nov/2018:23:05:42 +0000] "POST /wp-cron.php?doing_wp_cron=1541286342.7645618915557861328125 HTTP/1.0" 200 - "http://xintanalegends.com/wp-cron.php?doing_wp_cron=1541286342.7645618915557861328125" "WordPress/4.9.8; http://xintanalegends.com"
185.117.118.149 - - [03/Nov/2018:23:05:42 +0000] "HEAD / HTTP/1.0" 200 - "-" "Mozilla/5.0 (compatible; Uptimebot/1.0; +http://www.uptime.com/uptimebot)"
69.16.236.56 - - [03/Nov/2018:23:10:13 +0000] "GET /wp-content/wp-caches.php HTTP/1.0" 404 222 "http://site.ru" "Mozilla/5.0 (Windows; U; Windows NT 5.1; en-US) AppleWebKit/533.4 (KHTML, like Gecko) Chrome/5.0.375.99 Safari/533.4"
69.16.236.56 - - [03/Nov/2018:23:10:19 +0000] "GET /wp-content/wp-caches.php HTTP/1.0" 404 222 "http://site.ru" "Mozilla/5.0 (Windows; U; Windows NT 5.1; en-US) AppleWebKit/533.4 (KHTML, like Gecko) Chrome/5.0.375.99 Safari/533.4"
77.232.66.11 - - [03/Nov/2018:23:10:46 +0000] "GET /sec.php HTTP/1.0" 404 205 "http://site.ru" "Mozilla/5.0 (Windows; U; Windows NT 5.1; en-US) AppleWebKit/533.4 (KHTML, like Gecko) Chrome/5.0.375.99 Safari/533.4"
180.76.15.135 - - [03/Nov/2018:23:16:13 +0000] "GET / HTTP/1.0" 200 59951 "-" "Mozilla/5.0 (compatible; Baiduspider/2.0; +http://www.baidu.com/search/spider.html)"
157.55.39.121 - - [03/Nov/2018:23:17:46 +0000] "GET /wp-content/uploads/2018/02/RadLogoVerticalRed-White.png HTTP/1.0" 200 1518775 "-" "Mozilla/5.0 (compatible; bingbot/2.0; +http://www.bing.com/bingbot.htm)"
54.36.148.40 - - [03/Nov/2018:23:18:45 +0000] "GET /?feed=rss2&cat=8 HTTP/1.0" 200 1590 "-" "Mozilla/5.0 (compatible; AhrefsBot/5.2; +http://ahrefs.com/robot/)"
185.220.101.12 - - [03/Nov/2018:23:57:01 +0000] "GET / HTTP/1.0" 200 59951 "-" "Mozilla/5.0 (Windows NT 6.1; WOW64) AppleWebKit/537.36 (KHTML, like Gecko) Chrome/46.0.2490.80 Safari/537.36"
185.220.101.12 - - [03/Nov/2018:23:57:02 +0000] "GET / HTTP/1.0" 200 59951 "-" "Mozilla/5.0 (Windows NT 6.1; WOW64) AppleWebKit/537.36 (KHTML, like Gecko) Chrome/46.0.2490.80 Safari/537.36"
185.220.101.12 - - [03/Nov/2018:23:57:04 +0000] "GET / HTTP/1.0" 200 59951 "-" "Mozilla/5.0 (Windows NT 6.1; WOW64) AppleWebKit/537.36 (KHTML, like Gecko) Chrome/46.0.2490.80 Safari/537.36"
185.220.101.12 - - [03/Nov/2018:23:57:05 +0000] "GET /wp-login.php?action=register HTTP/1.0" 302 - "-" "Mozilla/5.0 (Windows NT 6.1; WOW64) AppleWebKit/537.36 (KHTML, like Gecko) Chrome/46.0.2490.80 Safari/537.36"
185.220.101.12 - - [03/Nov/2018:23:57:06 +0000] "GET /wp-login.php?registration=disabled HTTP/1.0" 200 2433 "-" "Mozilla/5.0 (Windows NT 6.1; WOW64) AppleWebKit/537.36 (KHTML, like Gecko) Chrome/46.0.2490.80 Safari/537.36"
185.220.101.12 - - [03/Nov/2018:23:57:07 +0000] "GET / HTTP/1.0" 200 59951 "-" "Mozilla/5.0 (Windows NT 6.1; WOW64) AppleWebKit/537.36 (KHTML, like Gecko) Chrome/46.0.2490.80 Safari/537.36"
185.220.101.12 - - [03/Nov/2018:23:57:08 +0000] "GET /index.php?option=com_user&task=register HTTP/1.0" 301 - "-" "Mozilla/5.0 (Windows NT 6.1; WOW64) AppleWebKit/537.36 (KHTML, like Gecko) Chrome/46.0.2490.80 Safari/537.36"
185.220.101.12 - - [03/Nov/2018:23:57:09 +0000] "GET /?option=com_user&task=register HTTP/1.0" 200 59897 "-" "Mozilla/5.0 (Windows NT 6.1; WOW64) AppleWebKit/537.36 (KHTML, like Gecko) Chrome/46.0.2490.80 Safari/537.36"
176.10.99.200 - - [03/Nov/2018:23:57:10 +0000] "GET /user/register HTTP/1.0" 404 211 "-" "Mozilla/5.0 (Windows NT 6.1; WOW64) AppleWebKit/537.36 (KHTML, like Gecko) Chrome/46.0.2490.80 Safari/537.36"
31.170.123.73 - - [04/Nov/2018:00:14:43 +0000] "POST /wp-cron.php?doing_wp_cron=1541290483.5999290943145751953125 HTTP/1.0" 200 - "http://xintanalegends.com/wp-cron.php?doing_wp_cron=1541290483.5999290943145751953125" "WordPress/4.9.8; http://xintanalegends.com"
220.181.108.119 - - [04/Nov/2018:00:14:43 +0000] "GET /?action=origin_widgets_css&class=SiteOrigin_Panels_Widget_Title&style=simple&preset=simple&ver=1.5.3 HTTP/1.0" 200 664 "-" "Mozilla/5.0 (compatible; Baiduspider/2.0; +http://www.baidu.com/search/spider.html)"
54.36.149.35 - - [04/Nov/2018:00:27:40 +0000] "GET /wp-content/uploads/2018/02/unity_edit2.jpg HTTP/1.0" 200 344875 "-" "Mozilla/5.0 (compatible; AhrefsBot/5.2; +http://ahrefs.com/robot/)"
193.201.224.210 - - [04/Nov/2018:00:29:20 +0000] "GET /?gf_page=upload HTTP/1.0" 200 59953 "http://xintana.com/?gf_page=upload" "Mozilla/5.0 (Windows NT 6.1; WOW64) AppleWebKit/537.36 (KHTML, like Gecko) Chrome/42.0.2311.152 Safari/537.36"
120.35.38.212 - - [04/Nov/2018:01:22:48 +0000] "HEAD /wp-content/themes/twentysixteen/inc/customizer.php HTTP/1.0" 200 - "-" "-"
180.76.15.16 - - [04/Nov/2018:01:29:46 +0000] "GET /wp-includes/js/jquery/jquery.js HTTP/1.0" 304 - "-" "Mozilla/5.0 (compatible; Baiduspider/2.0; +http://www.baidu.com/search/spider.html)"
67.209.121.20 - - [04/Nov/2018:01:35:21 +0000] "GET /wp-includes/wp-caches.php HTTP/1.0" 404 223 "http://site.ru" "Mozilla/5.0 (Windows; U; Windows NT 5.1; en-US) AppleWebKit/533.4 (KHTML, like Gecko) Chrome/5.0.375.99 Safari/533.4"
67.209.121.20 - - [04/Nov/2018:01:35:26 +0000] "GET /wp-includes/wp-caches.php HTTP/1.0" 404 223 "http://site.ru" "Mozilla/5.0 (Windows; U; Windows NT 5.1; en-US) AppleWebKit/533.4 (KHTML, like Gecko) Chrome/5.0.375.99 Safari/533.4"
51.75.13.156 - - [04/Nov/2018:02:33:13 +0000] "GET /robots.txt HTTP/1.0" 404 208 "-" "Go-http-client/1.1"
31.170.123.73 - - [04/Nov/2018:02:33:14 +0000] "POST /wp-cron.php?doing_wp_cron=1541298794.1970710754394531250000 HTTP/1.0" 200 - "http://xintanalegends.com/wp-cron.php?doing_wp_cron=1541298794.1970710754394531250000" "WordPress/4.9.8; http://xintanalegends.com"
51.75.13.156 - - [04/Nov/2018:02:33:13 +0000] "GET / HTTP/1.0" 200 59951 "-" "VelenPublicWebCrawler (velen.io)"
188.166.116.151 - - [04/Nov/2018:02:59:27 +0000] "GET / HTTP/1.0" 200 59951 "-" "Mozilla/4.0 (compatible; MSIE 7.0; Windows NT 6.1; WOW64; Trident/6.0;)"
188.166.116.151 - - [04/Nov/2018:02:59:27 +0000] "GET / HTTP/1.0" 200 59953 "-" "Mozilla/4.0 (compatible; MSIE 7.0; Windows NT 6.1; WOW64; Trident/6.0;)"
