31.170.123.73 - - [04/Nov/2018:03:27:41 +0000] "POST /wp-cron.php?doing_wp_cron=1541302061.4321410655975341796875 HTTP/1.0" 200 - "http://xintanalegends.com/wp-cron.php?doing_wp_cron=1541302061.4321410655975341796875" "WordPress/4.9.8; http://xintanalegends.com"
67.231.16.203 - - [04/Nov/2018:03:27:41 +0000] "HEAD / HTTP/1.0" 200 - "-" "Mozilla/5.0 (compatible; Uptimebot/1.0; +http://www.uptime.com/uptimebot)"
220.181.108.113 - - [04/Nov/2018:03:51:02 +0000] "GET /?feed=rss2&page_id=453 HTTP/1.0" 200 724 "-" "Mozilla/5.0 (compatible; Baiduspider/2.0; +http://www.baidu.com/search/spider.html)"
31.170.123.73 - - [04/Nov/2018:03:51:02 +0000] "POST /wp-cron.php?doing_wp_cron=1541303462.9454360008239746093750 HTTP/1.0" 200 - "http://xintanalegends.com/wp-cron.php?doing_wp_cron=1541303462.9454360008239746093750" "WordPress/4.9.8; http://xintanalegends.com"
31.170.123.73 - - [04/Nov/2018:04:00:56 +0000] "POST /wp-cron.php?doing_wp_cron=1541304056.0913279056549072265625 HTTP/1.0" 200 - "http://xintanalegends.com/wp-cron.php?doing_wp_cron=1541304056.0913279056549072265625" "WordPress/4.9.8; http://xintanalegends.com"
89.248.169.130 - - [04/Nov/2018:04:00:56 +0000] "POST /xmlrpc.php HTTP/1.0" 200 403 "-" "Mozilla/5.0 (Macintosh; U; Intel Mac OS X 10.6; fr; rv:1.9.2.8) Gecko/20100722 Firefox/3.6.8"
89.248.169.130 - - [04/Nov/2018:04:00:55 +0000] "POST /xmlrpc.php HTTP/1.0" 200 403 "-" "Mozilla/5.0 (Macintosh; U; Intel Mac OS X 10.6; fr; rv:1.9.2.8) Gecko/20100722 Firefox/3.6.8"
89.248.169.130 - - [04/Nov/2018:04:00:56 +0000] "POST /xmlrpc.php HTTP/1.0" 200 403 "-" "Mozilla/5.0 (Macintosh; U; Intel Mac OS X 10.6; fr; rv:1.9.2.8) Gecko/20100722 Firefox/3.6.8"
89.248.169.130 - - [04/Nov/2018:04:00:57 +0000] "POST /xmlrpc.php HTTP/1.0" 200 403 "-" "Mozilla/5.0 (Macintosh; U; Intel Mac OS X 10.6; fr; rv:1.9.2.8) Gecko/20100722 Firefox/3.6.8"
51.68.112.111 - - [04/Nov/2018:04:20:44 +0000] "GET /robots.txt HTTP/1.0" 404 208 "-" "Mozilla/5.0 (Windows NT 10.0; Win64; x64; rv:48.0) Gecko/20100101 Firefox/48.0"
51.68.112.111 - - [04/Nov/2018:04:20:44 +0000] "GET /xmlrpc.php?rsd HTTP/1.0" 200 856 "-" "Mozilla/5.0 (Windows NT 10.0; Win64; x64; rv:48.0) Gecko/20100101 Firefox/48.0"
51.68.112.111 - - [04/Nov/2018:04:20:45 +0000] "GET /?author=1 HTTP/1.0" 200 85165 "-" "Mozilla/5.0 (Windows NT 10.0; Win64; x64; rv:48.0) Gecko/20100101 Firefox/48.0"
51.68.112.111 - - [04/Nov/2018:04:20:46 +0000] "POST /xmlrpc.php HTTP/1.0" 200 86001 "-" "Mozilla/5.0 (Windows NT 10.0; Win64; x64; rv:48.0) Gecko/20100101 Firefox/48.0"
51.68.112.111 - - [04/Nov/2018:04:20:47 +0000] "POST /xmlrpc.php HTTP/1.0" 200 86001 "-" "Mozilla/5.0 (Windows NT 10.0; Win64; x64; rv:48.0) Gecko/20100101 Firefox/48.0"
51.68.112.111 - - [04/Nov/2018:04:20:47 +0000] "POST /xmlrpc.php HTTP/1.0" 200 86001 "-" "Mozilla/5.0 (Windows NT 10.0; Win64; x64; rv:48.0) Gecko/20100101 Firefox/48.0"
51.68.112.111 - - [04/Nov/2018:04:20:48 +0000] "POST /xmlrpc.php HTTP/1.0" 200 86001 "-" "Mozilla/5.0 (Windows NT 10.0; Win64; x64; rv:48.0) Gecko/20100101 Firefox/48.0"
51.68.112.111 - - [04/Nov/2018:04:20:49 +0000] "POST /xmlrpc.php HTTP/1.0" 200 86001 "-" "Mozilla/5.0 (Windows NT 10.0; Win64; x64; rv:48.0) Gecko/20100101 Firefox/48.0"
51.68.112.111 - - [04/Nov/2018:04:20:50 +0000] "POST /xmlrpc.php HTTP/1.0" 200 86001 "-" "Mozilla/5.0 (Windows NT 10.0; Win64; x64; rv:48.0) Gecko/20100101 Firefox/48.0"
51.68.112.111 - - [04/Nov/2018:04:20:50 +0000] "POST /xmlrpc.php HTTP/1.0" 200 86001 "-" "Mozilla/5.0 (Windows NT 10.0; Win64; x64; rv:48.0) Gecko/20100101 Firefox/48.0"
13.59.33.181 - - [04/Nov/2018:04:55:06 +0000] "GET /wp-login.php HTTP/1.0" 200 2291 "https://www.google.com/url?bfc0f2567f4815a61fdeeee7235946bf" "Mozilla/5.0 (Windows NT 5.1; rv:29.0) Gecko/20120101 Firefox/29.0"
13.59.33.181 - - [04/Nov/2018:04:55:32 +0000] "POST /wp-login.php HTTP/1.0" 200 3290 "https://www.google.com/url?bfc0f2567f4815a61fdeeee7235946bf" "Mozilla/5.0 (Windows NT 5.1; rv:29.0) Gecko/20120101 Firefox/29.0"
93.94.226.59 - - [04/Nov/2018:05:05:52 +0000] "GET /wp-content/plugins/html404/wso25.php HTTP/1.0" 404 234 "http://site.ru" "Mozilla/5.0 (Windows; U; Windows NT 5.1; en-US) AppleWebKit/533.4 (KHTML, like Gecko) Chrome/5.0.375.99 Safari/533.4"
180.76.15.154 - - [04/Nov/2018:06:00:37 +0000] "GET /wp-content/plugins/contact-form-7/includes/css/styles.css?ver=5.0.1 HTTP/1.0" 200 1683 "-" "Mozilla/5.0 (compatible; Baiduspider/2.0; +http://www.baidu.com/search/spider.html)"
66.249.66.95 - - [04/Nov/2018:06:04:48 +0000] "GET /robots.txt HTTP/1.0" 404 208 "-" "Mozilla/5.0 (compatible; Googlebot/2.1; +http://www.google.com/bot.html)"
66.249.66.94 - - [04/Nov/2018:06:04:59 +0000] "GET /wp-content/themes/dikka-installable/assets/css/retina.css?ver=4.9.6 HTTP/1.0" 200 12764 "http://xintanalegends.com/?cat=5" "Mozilla/5.0 (Linux; Android 6.0.1; Nexus 5X Build/MMB29P) AppleWebKit/537.36 (KHTML, like Gecko) Chrome/41.0.2272.96 Mobile Safari/537.36 (compatible; Googlebot/2.1; +http://www.google.com/bot.html)"
193.201.224.210 - - [04/Nov/2018:06:05:06 +0000] "GET /wp-content/plugins/reflex-gallery/admin/scripts/FileUploader/php.php HTTP/1.0" 404 266 "http://xintana.com/wp-content/plugins/reflex-gallery/admin/scripts/FileUploader/php.php" "Mozilla/5.0 (Windows NT 6.1; WOW64) AppleWebKit/537.36 (KHTML, like Gecko) Chrome/42.0.2311.152 Safari/537.36"
31.170.123.73 - - [04/Nov/2018:06:11:15 +0000] "POST /wp-cron.php?doing_wp_cron=1541311875.0793950557708740234375 HTTP/1.0" 200 - "http://xintanalegends.com/wp-cron.php?doing_wp_cron=1541311875.0793950557708740234375" "WordPress/4.9.8; http://xintanalegends.com"
52.165.166.139 - - [04/Nov/2018:06:11:14 +0000] "GET / HTTP/1.0" 200 59953 "-" "Mozilla/5.0 (Windows NT 10.0; Win64; x64) AppleWebKit/537.36 (KHTML, like Gecko) Chrome/65.0.3325.181 Safari/537.36"
31.170.123.73 - - [04/Nov/2018:07:02:06 +0000] "POST /wp-cron.php?doing_wp_cron=1541314926.0580050945281982421875 HTTP/1.0" 200 - "http://xintanalegends.com/wp-cron.php?doing_wp_cron=1541314926.0580050945281982421875" "WordPress/4.9.8; http://xintanalegends.com"
66.249.66.93 - - [04/Nov/2018:07:02:05 +0000] "GET /?cat=5 HTTP/1.0" 200 44254 "-" "Mozilla/5.0 (Linux; Android 6.0.1; Nexus 5X Build/MMB29P) AppleWebKit/537.36 (KHTML, like Gecko) Chrome/41.0.2272.96 Mobile Safari/537.36 (compatible; Googlebot/2.1; +http://www.google.com/bot.html)"
66.249.66.93 - - [04/Nov/2018:07:02:26 +0000] "GET /wp-content/themes/dikka-installable/assets/libs/font-awesome/css/font-awesome.min.css?ver=4.9.8 HTTP/1.0" 200 22077 "http://xintanalegends.com/?cat=5" "Mozilla/5.0 (Linux; Android 6.0.1; Nexus 5X Build/MMB29P) AppleWebKit/537.36 (KHTML, like Gecko) Chrome/41.0.2272.96 Mobile Safari/537.36 (compatible; Googlebot/2.1; +http://www.google.com/bot.html)"
66.249.66.93 - - [04/Nov/2018:07:02:31 +0000] "GET /wp-content/plugins/mailchimp-for-wp/assets/css/form-basic.min.css?ver=4.2.1 HTTP/1.0" 200 2659 "http://xintanalegends.com/?cat=5" "Mozilla/5.0 (Linux; Android 6.0.1; Nexus 5X Build/MMB29P) AppleWebKit/537.36 (KHTML, like Gecko) Chrome/41.0.2272.96 Mobile Safari/537.36 (compatible; Googlebot/2.1; +http://www.google.com/bot.html)"
185.86.164.110 - - [04/Nov/2018:07:17:57 +0000] "GET /wp-login.php HTTP/1.0" 200 2291 "-" "Mozilla/5.0 (Windows NT 10.0; WOW64) AppleWebKit/537.36 (KHTML, like Gecko) Chrome/51.0.2704.103 Safari/537.36"
185.86.164.110 - - [04/Nov/2018:07:17:57 +0000] "POST /wp-login.php HTTP/1.0" 200 3239 "http://xintanalegends.com/wp-login.php" "Mozilla/5.0 (Windows NT 10.0; WOW64) AppleWebKit/537.36 (KHTML, like Gecko) Chrome/51.0.2704.103 Safari/537.36"
202.144.158.248 - - [04/Nov/2018:07:35:31 +0000] "POST /xmlrpc.php HTTP/1.0" 200 403 "-" "Mozilla/5.0 (Macintosh; U; Intel Mac OS X 10.6; fr; rv:1.9.2.8) Gecko/20100722 Firefox/3.6.8"
202.144.158.248 - - [04/Nov/2018:07:35:32 +0000] "POST /xmlrpc.php HTTP/1.0" 200 403 "-" "Mozilla/5.0 (Macintosh; U; Intel Mac OS X 10.6; fr; rv:1.9.2.8) Gecko/20100722 Firefox/3.6.8"
202.144.158.248 - - [04/Nov/2018:08:01:03 +0000] "POST /xmlrpc.php HTTP/1.0" 200 403 "-" "Mozilla/5.0 (Macintosh; U; Intel Mac OS X 10.6; fr; rv:1.9.2.8) Gecko/20100722 Firefox/3.6.8"
31.170.123.73 - - [04/Nov/2018:08:01:03 +0000] "POST /wp-cron.php?doing_wp_cron=1541318463.5604920387268066406250 HTTP/1.0" 200 - "http://xintanalegends.com/wp-cron.php?doing_wp_cron=1541318463.5604920387268066406250" "WordPress/4.9.8; http://xintanalegends.com"
202.144.158.248 - - [04/Nov/2018:08:01:03 +0000] "POST /xmlrpc.php HTTP/1.0" 200 403 "-" "Mozilla/5.0 (Macintosh; U; Intel Mac OS X 10.6; fr; rv:1.9.2.8) Gecko/20100722 Firefox/3.6.8"
220.181.108.187 - - [04/Nov/2018:08:09:45 +0000] "GET /?feed=rss2&page_id=453 HTTP/1.0" 200 724 "-" "Mozilla/5.0 (compatible; Baiduspider/2.0; +http://www.baidu.com/search/spider.html)"
202.144.158.248 - - [04/Nov/2018:09:08:39 +0000] "POST /xmlrpc.php HTTP/1.0" 200 403 "-" "Mozilla/5.0 (Macintosh; U; Intel Mac OS X 10.6; fr; rv:1.9.2.8) Gecko/20100722 Firefox/3.6.8"
31.170.123.73 - - [04/Nov/2018:09:08:40 +0000] "POST /wp-cron.php?doing_wp_cron=1541322519.8771369457244873046875 HTTP/1.0" 200 - "http://xintanalegends.com/wp-cron.php?doing_wp_cron=1541322519.8771369457244873046875" "WordPress/4.9.8; http://xintanalegends.com"
202.144.158.248 - - [04/Nov/2018:09:08:39 +0000] "POST /xmlrpc.php HTTP/1.0" 200 403 "-" "Mozilla/5.0 (Macintosh; U; Intel Mac OS X 10.6; fr; rv:1.9.2.8) Gecko/20100722 Firefox/3.6.8"
180.76.15.11 - - [04/Nov/2018:09:12:53 +0000] "GET /?feed=rss2&page_id=453 HTTP/1.0" 200 724 "-" "Mozilla/5.0 (compatible; Baiduspider/2.0; +http://www.baidu.com/search/spider.html)"
202.144.158.248 - - [04/Nov/2018:09:22:24 +0000] "POST /xmlrpc.php HTTP/1.0" 200 403 "-" "Mozilla/5.0 (Macintosh; U; Intel Mac OS X 10.6; fr; rv:1.9.2.8) Gecko/20100722 Firefox/3.6.8"
202.144.158.248 - - [04/Nov/2018:09:22:24 +0000] "POST /xmlrpc.php HTTP/1.0" 200 403 "-" "Mozilla/5.0 (Macintosh; U; Intel Mac OS X 10.6; fr; rv:1.9.2.8) Gecko/20100722 Firefox/3.6.8"
52.173.241.248 - - [04/Nov/2018:09:26:10 +0000] "GET / HTTP/1.0" 200 59953 "-" "Mozilla/5.0 (Windows NT 10.0; Win64; x64) AppleWebKit/537.36 (KHTML, like Gecko) Chrome/58.0.3029.110 Safari/537.36 Edge/16.16299"
202.144.158.248 - - [04/Nov/2018:09:34:54 +0000] "POST /xmlrpc.php HTTP/1.0" 200 403 "-" "Mozilla/5.0 (Macintosh; U; Intel Mac OS X 10.6; fr; rv:1.9.2.8) Gecko/20100722 Firefox/3.6.8"
202.144.158.248 - - [04/Nov/2018:09:34:55 +0000] "POST /xmlrpc.php HTTP/1.0" 200 403 "-" "Mozilla/5.0 (Macintosh; U; Intel Mac OS X 10.6; fr; rv:1.9.2.8) Gecko/20100722 Firefox/3.6.8"
52.53.201.78 - - [04/Nov/2018:09:44:41 +0000] "GET / HTTP/1.0" 200 59953 "-" "Mozilla/5.0 (Macintosh; Intel Mac OS X 10_12_6) AppleWebKit/537.36 (KHTML, like Gecko) Chrome/61.0.3163.100 Safari/537.36"
202.144.158.248 - - [04/Nov/2018:09:48:20 +0000] "POST /xmlrpc.php HTTP/1.0" 200 403 "-" "Mozilla/5.0 (Macintosh; U; Intel Mac OS X 10.6; fr; rv:1.9.2.8) Gecko/20100722 Firefox/3.6.8"
202.144.158.248 - - [04/Nov/2018:09:48:20 +0000] "POST /xmlrpc.php HTTP/1.0" 200 403 "-" "Mozilla/5.0 (Macintosh; U; Intel Mac OS X 10.6; fr; rv:1.9.2.8) Gecko/20100722 Firefox/3.6.8"
31.170.123.73 - - [04/Nov/2018:10:17:06 +0000] "POST /wp-cron.php?doing_wp_cron=1541326626.7093820571899414062500 HTTP/1.0" 200 - "http://xintanalegends.com/wp-cron.php?doing_wp_cron=1541326626.7093820571899414062500" "WordPress/4.9.8; http://xintanalegends.com"
202.144.158.248 - - [04/Nov/2018:10:17:06 +0000] "POST /xmlrpc.php HTTP/1.0" 200 403 "-" "Mozilla/5.0 (Macintosh; U; Intel Mac OS X 10.6; fr; rv:1.9.2.8) Gecko/20100722 Firefox/3.6.8"
123.125.71.100 - - [04/Nov/2018:10:18:23 +0000] "GET /index.php?rest_route=%2Foembed%2F1.0%2Fembed&url=http%3A%2F%2Fxintanalegends.com%2F&format=xml HTTP/1.0" 200 2314 "-" "Mozilla/5.0 (compatible; Baiduspider/2.0; +http://www.baidu.com/search/spider.html)"
202.144.158.248 - - [04/Nov/2018:10:33:35 +0000] "POST /xmlrpc.php HTTP/1.0" 200 403 "-" "Mozilla/5.0 (Macintosh; U; Intel Mac OS X 10.6; fr; rv:1.9.2.8) Gecko/20100722 Firefox/3.6.8"
202.144.158.248 - - [04/Nov/2018:10:33:35 +0000] "POST /xmlrpc.php HTTP/1.0" 200 403 "-" "Mozilla/5.0 (Macintosh; U; Intel Mac OS X 10.6; fr; rv:1.9.2.8) Gecko/20100722 Firefox/3.6.8"
66.249.66.50 - - [04/Nov/2018:10:42:45 +0000] "GET /robots.txt HTTP/1.0" 404 208 "-" "Mozilla/5.0 (compatible; Googlebot/2.1; +http://www.google.com/bot.html)"
66.249.66.48 - - [04/Nov/2018:10:43:15 +0000] "GET / HTTP/1.0" 200 59953 "-" "Mozilla/5.0 (Linux; Android 6.0.1; Nexus 5X Build/MMB29P) AppleWebKit/537.36 (KHTML, like Gecko) Chrome/41.0.2272.96 Mobile Safari/537.36 (compatible; Googlebot/2.1; +http://www.google.com/bot.html)"
202.144.158.248 - - [04/Nov/2018:10:47:10 +0000] "POST /xmlrpc.php HTTP/1.0" 200 403 "-" "Mozilla/5.0 (Macintosh; U; Intel Mac OS X 10.6; fr; rv:1.9.2.8) Gecko/20100722 Firefox/3.6.8"
202.144.158.248 - - [04/Nov/2018:10:47:10 +0000] "POST /xmlrpc.php HTTP/1.0" 200 403 "-" "Mozilla/5.0 (Macintosh; U; Intel Mac OS X 10.6; fr; rv:1.9.2.8) Gecko/20100722 Firefox/3.6.8"
202.144.158.248 - - [04/Nov/2018:11:04:23 +0000] "POST /xmlrpc.php HTTP/1.0" 200 403 "-" "Mozilla/5.0 (Macintosh; U; Intel Mac OS X 10.6; fr; rv:1.9.2.8) Gecko/20100722 Firefox/3.6.8"
31.170.123.73 - - [04/Nov/2018:11:04:24 +0000] "POST /wp-cron.php?doing_wp_cron=1541329464.1259820461273193359375 HTTP/1.0" 200 - "http://xintanalegends.com/wp-cron.php?doing_wp_cron=1541329464.1259820461273193359375" "WordPress/4.9.8; http://xintanalegends.com"
202.144.158.248 - - [04/Nov/2018:11:04:23 +0000] "POST /xmlrpc.php HTTP/1.0" 200 403 "-" "Mozilla/5.0 (Macintosh; U; Intel Mac OS X 10.6; fr; rv:1.9.2.8) Gecko/20100722 Firefox/3.6.8"
66.249.66.95 - - [04/Nov/2018:11:15:17 +0000] "GET /wp-content/themes/dikka-installable/assets/css/owl.carousel.css?ver=4.9.8 HTTP/1.0" 200 6366 "http://www.xintana.com/" "Mozilla/5.0 AppleWebKit/537.36 (KHTML, like Gecko; compatible; Googlebot/2.1; +http://www.google.com/bot.html) Safari/537.36"
66.249.66.93 - - [04/Nov/2018:11:15:18 +0000] "GET /wp-content/plugins/merobuilder/css/front.css?ver=1.5.3 HTTP/1.0" 200 1045 "http://www.xintana.com/" "Mozilla/5.0 AppleWebKit/537.36 (KHTML, like Gecko; compatible; Googlebot/2.1; +http://www.google.com/bot.html) Safari/537.36"
66.249.66.93 - - [04/Nov/2018:11:15:18 +0000] "GET /?action=origin_widgets_css&class=SiteOrigin_Panels_Widget_Info&style=simple&preset=simple&ver=1.5.3 HTTP/1.0" 200 249 "http://www.xintana.com/" "Mozilla/5.0 AppleWebKit/537.36 (KHTML, like Gecko; compatible; Googlebot/2.1; +http://www.google.com/bot.html) Safari/537.36"
66.249.66.95 - - [04/Nov/2018:11:15:20 +0000] "GET /wp-content/themes/dikka-installable/style.css?ver=4.9.8 HTTP/1.0" 200 137937 "http://www.xintana.com/" "Mozilla/5.0 AppleWebKit/537.36 (KHTML, like Gecko; compatible; Googlebot/2.1; +http://www.google.com/bot.html) Safari/537.36"
66.249.66.93 - - [04/Nov/2018:11:15:21 +0000] "GET /wp-content/themes/dikka-installable/assets/css/nivo-lightbox.css?ver=4.9.8 HTTP/1.0" 200 5703 "http://www.xintana.com/" "Mozilla/5.0 AppleWebKit/537.36 (KHTML, like Gecko; compatible; Googlebot/2.1; +http://www.google.com/bot.html) Safari/537.36"
66.249.66.93 - - [04/Nov/2018:11:15:22 +0000] "GET /wp-content/plugins/revslider/rs-plugin/css/settings.css?rev=4.6.0&ver=4.9.8 HTTP/1.0" 200 56333 "http://www.xintana.com/" "Mozilla/5.0 AppleWebKit/537.36 (KHTML, like Gecko; compatible; Googlebot/2.1; +http://www.google.com/bot.html) Safari/537.36"
66.249.66.93 - - [04/Nov/2018:11:15:24 +0000] "GET /wp-content/themes/dikka-installable/assets/js/nivo-lightbox.min.js?ver=4.9.8 HTTP/1.0" 200 7621 "http://www.xintana.com/" "Mozilla/5.0 AppleWebKit/537.36 (KHTML, like Gecko; compatible; Googlebot/2.1; +http://www.google.com/bot.html) Safari/537.36"
66.249.66.93 - - [04/Nov/2018:11:15:25 +0000] "GET /wp-content/plugins/revslider/rs-plugin/js/jquery.themepunch.revolution.min.js?rev=4.6.0&ver=4.9.8 HTTP/1.0" 200 111127 "http://www.xintana.com/" "Mozilla/5.0 AppleWebKit/537.36 (KHTML, like Gecko; compatible; Googlebot/2.1; +http://www.google.com/bot.html) Safari/537.36"
66.249.66.93 - - [04/Nov/2018:11:15:27 +0000] "GET /wp-content/plugins/mailchimp-for-wp/assets/css/form-basic.min.css?ver=4.2.1 HTTP/1.0" 200 2659 "http://www.xintana.com/" "Mozilla/5.0 AppleWebKit/537.36 (KHTML, like Gecko; compatible; Googlebot/2.1; +http://www.google.com/bot.html) Safari/537.36"
66.249.66.93 - - [04/Nov/2018:11:15:28 +0000] "GET /wp-content/themes/dikka-installable/assets/css/woo-layout-ux.css?ver=4.9.8 HTTP/1.0" 200 16262 "http://www.xintana.com/" "Mozilla/5.0 AppleWebKit/537.36 (KHTML, like Gecko; compatible; Googlebot/2.1; +http://www.google.com/bot.html) Safari/537.36"
66.249.66.93 - - [04/Nov/2018:11:15:28 +0000] "GET /wp-content/plugins/merobuilder/so-widgets-bundle/widgets/so-services-widget/css/style.css?ver=1.0.4 HTTP/1.0" 200 3823 "http://www.xintana.com/" "Mozilla/5.0 AppleWebKit/537.36 (KHTML, like Gecko; compatible; Googlebot/2.1; +http://www.google.com/bot.html) Safari/537.36"
180.76.15.141 - - [04/Nov/2018:11:27:06 +0000] "GET /wp-includes/js/jquery/jquery.js HTTP/1.0" 304 - "-" "Mozilla/5.0 (compatible; Baiduspider/2.0; +http://www.baidu.com/search/spider.html)"
147.135.4.71 - - [04/Nov/2018:11:30:34 +0000] "GET / HTTP/1.0" 200 59953 "-" "Scrapy/1.5.1 (+https://scrapy.org)"
202.144.158.248 - - [04/Nov/2018:11:36:04 +0000] "POST /xmlrpc.php HTTP/1.0" 200 403 "-" "Mozilla/5.0 (Macintosh; U; Intel Mac OS X 10.6; fr; rv:1.9.2.8) Gecko/20100722 Firefox/3.6.8"
202.144.158.248 - - [04/Nov/2018:11:36:04 +0000] "POST /xmlrpc.php HTTP/1.0" 200 403 "-" "Mozilla/5.0 (Macintosh; U; Intel Mac OS X 10.6; fr; rv:1.9.2.8) Gecko/20100722 Firefox/3.6.8"
220.181.108.184 - - [04/Nov/2018:11:58:21 +0000] "GET /?action=origin_widgets_css&class=SiteOrigin_Panels_Widget_Spacer&style=simple&preset=blank&ver=1.5.3 HTTP/1.0" 200 101 "-" "Mozilla/5.0 (compatible; Baiduspider/2.0; +http://www.baidu.com/search/spider.html)"
202.144.158.248 - - [04/Nov/2018:12:10:26 +0000] "POST /xmlrpc.php HTTP/1.0" 200 403 "-" "Mozilla/5.0 (Macintosh; U; Intel Mac OS X 10.6; fr; rv:1.9.2.8) Gecko/20100722 Firefox/3.6.8"
31.170.123.73 - - [04/Nov/2018:12:10:26 +0000] "POST /wp-cron.php?doing_wp_cron=1541333426.5032260417938232421875 HTTP/1.0" 200 - "http://xintanalegends.com/wp-cron.php?doing_wp_cron=1541333426.5032260417938232421875" "WordPress/4.9.8; http://xintanalegends.com"
202.144.158.248 - - [04/Nov/2018:12:10:26 +0000] "POST /xmlrpc.php HTTP/1.0" 200 403 "-" "Mozilla/5.0 (Macintosh; U; Intel Mac OS X 10.6; fr; rv:1.9.2.8) Gecko/20100722 Firefox/3.6.8"
93.141.165.240 - - [04/Nov/2018:12:10:58 +0000] "GET /wp-login.php HTTP/1.0" 200 2291 "-" "Mozilla/5.0 (Windows NT 6.1; WOW64; rv:40.0) Gecko/20100101 Firefox/40.1"
93.141.165.240 - - [04/Nov/2018:12:10:59 +0000] "GET / HTTP/1.0" 301 - "-" "Mozilla/5.0 (Windows NT 6.1; WOW64; rv:40.0) Gecko/20100101 Firefox/40.1"
93.141.165.240 - - [04/Nov/2018:12:10:59 +0000] "GET / HTTP/1.0" 200 59951 "-" "Mozilla/5.0 (Windows NT 6.1; WOW64; rv:40.0) Gecko/20100101 Firefox/40.1"
93.141.165.240 - - [04/Nov/2018:12:11:08 +0000] "GET /wp-login.php HTTP/1.0" 200 2291 "-" "Mozilla/5.0 (Windows NT 6.1; WOW64; rv:40.0) Gecko/20100101 Firefox/40.1"
93.141.165.240 - - [04/Nov/2018:12:11:09 +0000] "GET / HTTP/1.0" 200 59951 "-" "Mozilla/5.0 (Windows NT 6.1; WOW64; rv:40.0) Gecko/20100101 Firefox/40.1"
123.57.254.142 - - [04/Nov/2018:12:20:06 +0000] "POST /xmlrpc.php HTTP/1.0" 200 403 "-" "Mozilla/5.0 (Macintosh; U; Intel Mac OS X 10.6; fr; rv:1.9.2.8) Gecko/20100722 Firefox/3.6.8"
123.57.254.142 - - [04/Nov/2018:12:20:07 +0000] "POST /xmlrpc.php HTTP/1.0" 200 403 "-" "Mozilla/5.0 (Macintosh; U; Intel Mac OS X 10.6; fr; rv:1.9.2.8) Gecko/20100722 Firefox/3.6.8"
202.144.158.248 - - [04/Nov/2018:12:32:51 +0000] "POST /xmlrpc.php HTTP/1.0" 200 403 "-" "Mozilla/5.0 (Macintosh; U; Intel Mac OS X 10.6; fr; rv:1.9.2.8) Gecko/20100722 Firefox/3.6.8"
202.144.158.248 - - [04/Nov/2018:12:32:51 +0000] "POST /xmlrpc.php HTTP/1.0" 200 403 "-" "Mozilla/5.0 (Macintosh; U; Intel Mac OS X 10.6; fr; rv:1.9.2.8) Gecko/20100722 Firefox/3.6.8"
31.170.123.73 - - [04/Nov/2018:13:22:17 +0000] "POST /wp-cron.php?doing_wp_cron=1541337737.1792759895324707031250 HTTP/1.0" 200 - "http://xintanalegends.com/wp-cron.php?doing_wp_cron=1541337737.1792759895324707031250" "WordPress/4.9.8; http://xintanalegends.com"
67.231.16.204 - - [04/Nov/2018:13:22:16 +0000] "HEAD / HTTP/1.0" 200 - "-" "Mozilla/5.0 (compatible; Uptimebot/1.0; +http://www.uptime.com/uptimebot)"
89.248.169.130 - - [04/Nov/2018:13:22:57 +0000] "POST /xmlrpc.php HTTP/1.0" 200 403 "-" "Mozilla/5.0 (Macintosh; U; Intel Mac OS X 10.6; fr; rv:1.9.2.8) Gecko/20100722 Firefox/3.6.8"
89.248.169.130 - - [04/Nov/2018:13:22:57 +0000] "POST /xmlrpc.php HTTP/1.0" 200 403 "-" "Mozilla/5.0 (Macintosh; U; Intel Mac OS X 10.6; fr; rv:1.9.2.8) Gecko/20100722 Firefox/3.6.8"
89.248.169.130 - - [04/Nov/2018:13:22:58 +0000] "POST /xmlrpc.php HTTP/1.0" 200 403 "-" "Mozilla/5.0 (Macintosh; U; Intel Mac OS X 10.6; fr; rv:1.9.2.8) Gecko/20100722 Firefox/3.6.8"
89.248.169.130 - - [04/Nov/2018:13:23:00 +0000] "POST /xmlrpc.php HTTP/1.0" 200 403 "-" "Mozilla/5.0 (Macintosh; U; Intel Mac OS X 10.6; fr; rv:1.9.2.8) Gecko/20100722 Firefox/3.6.8"
202.144.158.248 - - [04/Nov/2018:13:27:46 +0000] "POST /xmlrpc.php HTTP/1.0" 200 403 "-" "Mozilla/5.0 (Macintosh; U; Intel Mac OS X 10.6; fr; rv:1.9.2.8) Gecko/20100722 Firefox/3.6.8"
202.144.158.248 - - [04/Nov/2018:13:27:47 +0000] "POST /xmlrpc.php HTTP/1.0" 200 403 "-" "Mozilla/5.0 (Macintosh; U; Intel Mac OS X 10.6; fr; rv:1.9.2.8) Gecko/20100722 Firefox/3.6.8"
202.144.158.248 - - [04/Nov/2018:13:42:25 +0000] "POST /xmlrpc.php HTTP/1.0" 200 403 "-" "Mozilla/5.0 (Macintosh; U; Intel Mac OS X 10.6; fr; rv:1.9.2.8) Gecko/20100722 Firefox/3.6.8"
31.170.123.73 - - [04/Nov/2018:13:42:25 +0000] "POST /wp-cron.php?doing_wp_cron=1541338945.8007550239562988281250 HTTP/1.0" 200 - "http://xintanalegends.com/wp-cron.php?doing_wp_cron=1541338945.8007550239562988281250" "WordPress/4.9.8; http://xintanalegends.com"
202.144.158.248 - - [04/Nov/2018:13:42:25 +0000] "POST /xmlrpc.php HTTP/1.0" 200 403 "-" "Mozilla/5.0 (Macintosh; U; Intel Mac OS X 10.6; fr; rv:1.9.2.8) Gecko/20100722 Firefox/3.6.8"
31.170.123.73 - - [04/Nov/2018:14:16:26 +0000] "POST /wp-cron.php?doing_wp_cron=1541340986.3340249061584472656250 HTTP/1.0" 200 - "http://xintanalegends.com/wp-cron.php?doing_wp_cron=1541340986.3340249061584472656250" "WordPress/4.9.8; http://xintanalegends.com"
202.144.158.248 - - [04/Nov/2018:14:16:25 +0000] "POST /xmlrpc.php HTTP/1.0" 200 403 "-" "Mozilla/5.0 (Macintosh; U; Intel Mac OS X 10.6; fr; rv:1.9.2.8) Gecko/20100722 Firefox/3.6.8"
213.131.112.183 - - [04/Nov/2018:14:24:12 +0000] "GET /installer.php HTTP/1.0" 404 211 "-" "Mozilla/5.0 (Windows NT 6.1; WOW64; rv:40.0) Gecko/20100101 Firefox/38.1"
202.144.158.248 - - [04/Nov/2018:14:53:45 +0000] "POST /xmlrpc.php HTTP/1.0" 200 403 "-" "Mozilla/5.0 (Macintosh; U; Intel Mac OS X 10.6; fr; rv:1.9.2.8) Gecko/20100722 Firefox/3.6.8"
202.144.158.248 - - [04/Nov/2018:14:53:45 +0000] "POST /xmlrpc.php HTTP/1.0" 200 403 "-" "Mozilla/5.0 (Macintosh; U; Intel Mac OS X 10.6; fr; rv:1.9.2.8) Gecko/20100722 Firefox/3.6.8"
202.144.158.248 - - [04/Nov/2018:15:06:47 +0000] "POST /xmlrpc.php HTTP/1.0" 200 403 "-" "Mozilla/5.0 (Macintosh; U; Intel Mac OS X 10.6; fr; rv:1.9.2.8) Gecko/20100722 Firefox/3.6.8"
31.170.123.73 - - [04/Nov/2018:15:06:47 +0000] "POST /wp-cron.php?doing_wp_cron=1541344007.3165650367736816406250 HTTP/1.0" 200 - "http://xintanalegends.com/wp-cron.php?doing_wp_cron=1541344007.3165650367736816406250" "WordPress/4.9.8; http://xintanalegends.com"
202.144.158.248 - - [04/Nov/2018:15:06:47 +0000] "POST /xmlrpc.php HTTP/1.0" 200 403 "-" "Mozilla/5.0 (Macintosh; U; Intel Mac OS X 10.6; fr; rv:1.9.2.8) Gecko/20100722 Firefox/3.6.8"
202.144.158.248 - - [04/Nov/2018:15:18:01 +0000] "POST /xmlrpc.php HTTP/1.0" 200 403 "-" "Mozilla/5.0 (Macintosh; U; Intel Mac OS X 10.6; fr; rv:1.9.2.8) Gecko/20100722 Firefox/3.6.8"
202.144.158.248 - - [04/Nov/2018:15:18:01 +0000] "POST /xmlrpc.php HTTP/1.0" 200 403 "-" "Mozilla/5.0 (Macintosh; U; Intel Mac OS X 10.6; fr; rv:1.9.2.8) Gecko/20100722 Firefox/3.6.8"
54.36.150.98 - - [04/Nov/2018:15:25:14 +0000] "GET /robots.txt HTTP/1.0" 404 208 "-" "Mozilla/5.0 (compatible; AhrefsBot/5.2; +http://ahrefs.com/robot/)"
54.36.148.12 - - [04/Nov/2018:15:25:15 +0000] "GET /wp-content/uploads/2015/08/screenshot-01.jpg HTTP/1.0" 200 512966 "-" "Mozilla/5.0 (compatible; AhrefsBot/5.2; +http://ahrefs.com/robot/)"
202.144.158.248 - - [04/Nov/2018:15:29:23 +0000] "POST /xmlrpc.php HTTP/1.0" 200 403 "-" "Mozilla/5.0 (Macintosh; U; Intel Mac OS X 10.6; fr; rv:1.9.2.8) Gecko/20100722 Firefox/3.6.8"
202.144.158.248 - - [04/Nov/2018:15:29:23 +0000] "POST /xmlrpc.php HTTP/1.0" 200 403 "-" "Mozilla/5.0 (Macintosh; U; Intel Mac OS X 10.6; fr; rv:1.9.2.8) Gecko/20100722 Firefox/3.6.8"
141.8.132.14 - - [04/Nov/2018:15:40:36 +0000] "GET /robots.txt HTTP/1.0" 404 208 "-" "Mozilla/5.0 (compatible; YandexBot/3.0; +http://yandex.com/bots)"
37.9.113.88 - - [04/Nov/2018:15:40:40 +0000] "GET / HTTP/1.0" 200 59951 "-" "Mozilla/5.0 (compatible; YandexBot/3.0; +http://yandex.com/bots)"
202.144.158.248 - - [04/Nov/2018:15:41:39 +0000] "POST /xmlrpc.php HTTP/1.0" 200 403 "-" "Mozilla/5.0 (Macintosh; U; Intel Mac OS X 10.6; fr; rv:1.9.2.8) Gecko/20100722 Firefox/3.6.8"
202.144.158.248 - - [04/Nov/2018:15:41:39 +0000] "POST /xmlrpc.php HTTP/1.0" 200 403 "-" "Mozilla/5.0 (Macintosh; U; Intel Mac OS X 10.6; fr; rv:1.9.2.8) Gecko/20100722 Firefox/3.6.8"
31.170.123.73 - - [04/Nov/2018:15:41:40 +0000] "POST /wp-cron.php?doing_wp_cron=1541346100.1958808898925781250000 HTTP/1.0" 200 - "http://xintanalegends.com/wp-cron.php?doing_wp_cron=1541346100.1958808898925781250000" "WordPress/4.9.8; http://xintanalegends.com"
180.76.15.34 - - [04/Nov/2018:16:13:40 +0000] "GET /wp-includes/wlwmanifest.xml HTTP/1.0" 200 1045 "-" "Mozilla/5.0 (compatible; Baiduspider/2.0; +http://www.baidu.com/search/spider.html)"
51.68.112.111 - - [04/Nov/2018:16:41:14 +0000] "GET /robots.txt HTTP/1.0" 404 208 "-" "Mozilla/5.0 (Windows NT 10.0; Win64; x64; rv:48.0) Gecko/20100101 Firefox/48.0"
51.68.112.111 - - [04/Nov/2018:16:41:14 +0000] "GET /xmlrpc.php?rsd HTTP/1.0" 200 856 "-" "Mozilla/5.0 (Windows NT 10.0; Win64; x64; rv:48.0) Gecko/20100101 Firefox/48.0"
31.170.123.73 - - [04/Nov/2018:16:41:15 +0000] "POST /wp-cron.php?doing_wp_cron=1541349675.2799429893493652343750 HTTP/1.0" 200 481 "http://xintanalegends.com/wp-cron.php?doing_wp_cron=1541349675.2799429893493652343750" "WordPress/4.9.8; http://xintanalegends.com"
51.68.112.111 - - [04/Nov/2018:16:41:16 +0000] "GET /?author=1 HTTP/1.0" 200 85165 "-" "Mozilla/5.0 (Windows NT 10.0; Win64; x64; rv:48.0) Gecko/20100101 Firefox/48.0"
51.68.112.111 - - [04/Nov/2018:16:41:17 +0000] "POST /xmlrpc.php HTTP/1.0" 200 85787 "-" "Mozilla/5.0 (Windows NT 10.0; Win64; x64; rv:48.0) Gecko/20100101 Firefox/48.0"
51.68.112.111 - - [04/Nov/2018:16:41:18 +0000] "POST /xmlrpc.php HTTP/1.0" 200 85787 "-" "Mozilla/5.0 (Windows NT 10.0; Win64; x64; rv:48.0) Gecko/20100101 Firefox/48.0"
51.68.112.111 - - [04/Nov/2018:16:41:18 +0000] "POST /xmlrpc.php HTTP/1.0" 200 85787 "-" "Mozilla/5.0 (Windows NT 10.0; Win64; x64; rv:48.0) Gecko/20100101 Firefox/48.0"
51.68.112.111 - - [04/Nov/2018:16:41:19 +0000] "POST /xmlrpc.php HTTP/1.0" 200 85787 "-" "Mozilla/5.0 (Windows NT 10.0; Win64; x64; rv:48.0) Gecko/20100101 Firefox/48.0"
51.68.112.111 - - [04/Nov/2018:16:41:20 +0000] "POST /xmlrpc.php HTTP/1.0" 200 85787 "-" "Mozilla/5.0 (Windows NT 10.0; Win64; x64; rv:48.0) Gecko/20100101 Firefox/48.0"
51.68.112.111 - - [04/Nov/2018:16:41:20 +0000] "POST /xmlrpc.php HTTP/1.0" 200 85787 "-" "Mozilla/5.0 (Windows NT 10.0; Win64; x64; rv:48.0) Gecko/20100101 Firefox/48.0"
51.68.112.111 - - [04/Nov/2018:16:41:21 +0000] "POST /xmlrpc.php HTTP/1.0" 200 85787 "-" "Mozilla/5.0 (Windows NT 10.0; Win64; x64; rv:48.0) Gecko/20100101 Firefox/48.0"
123.125.71.28 - - [04/Nov/2018:17:07:14 +0000] "GET /robots.txt HTTP/1.0" 404 208 "-" "Mozilla/5.0 (compatible; Baiduspider/2.0; +http://www.baidu.com/search/spider.html)"
31.170.123.73 - - [04/Nov/2018:17:18:15 +0000] "POST /wp-cron.php?doing_wp_cron=1541351895.3834240436553955078125 HTTP/1.0" 200 - "http://xintanalegends.com/wp-cron.php?doing_wp_cron=1541351895.3834240436553955078125" "WordPress/4.9.8; http://xintanalegends.com"
220.181.108.105 - - [04/Nov/2018:17:18:15 +0000] "GET /?action=origin_widgets_css&class=SiteOrigin_Panels_Widget_Info&style=simple&preset=simple&ver=1.5.3 HTTP/1.0" 200 225 "-" "Mozilla/5.0 (compatible; Baiduspider/2.0; +http://www.baidu.com/search/spider.html)"
180.76.15.6 - - [04/Nov/2018:17:20:20 +0000] "GET /wp-content/plugins/revslider/rs-plugin/js/jquery.themepunch.tools.min.js HTTP/1.0" 200 94880 "-" "Mozilla/5.0 (compatible; Baiduspider/2.0; +http://www.baidu.com/search/spider.html)"
95.108.181.61 - - [04/Nov/2018:17:27:19 +0000] "GET /robots.txt HTTP/1.0" 404 208 "-" "Mozilla/5.0 (compatible; YandexBot/3.0; +http://yandex.com/bots)"
178.154.171.84 - - [04/Nov/2018:17:27:19 +0000] "GET /robots.txt HTTP/1.0" 404 208 "-" "Mozilla/5.0 (compatible; YandexBot/3.0; +http://yandex.com/bots)"
95.108.181.49 - - [04/Nov/2018:17:27:19 +0000] "GET /robots.txt HTTP/1.0" 404 208 "-" "Mozilla/5.0 (compatible; YandexBot/3.0; +http://yandex.com/bots)"
37.9.113.168 - - [04/Nov/2018:17:27:23 +0000] "GET / HTTP/1.0" 301 - "-" "Mozilla/5.0 (compatible; YandexBot/3.0; +http://yandex.com/bots)"
213.180.203.23 - - [04/Nov/2018:17:27:23 +0000] "GET / HTTP/1.0" 200 59953 "-" "Mozilla/5.0 (compatible; YandexBot/3.0; +http://yandex.com/bots)"
141.8.132.4 - - [04/Nov/2018:17:27:23 +0000] "GET / HTTP/1.0" 200 59953 "-" "Mozilla/5.0 (compatible; YandexBot/3.0; +http://yandex.com/bots)"
95.108.181.61 - - [04/Nov/2018:17:27:24 +0000] "GET / HTTP/1.0" 200 59951 "-" "Mozilla/5.0 (compatible; YandexBot/3.0; +http://yandex.com/bots)"
5.188.62.5 - - [04/Nov/2018:17:48:03 +0000] "POST /xmlrpc.php HTTP/1.0" 200 403 "-" "Mozilla/5.0 (Windows NT 6.2) AppleWebKit/537.36 (KHTML, like Gecko) Chrome/41.0.2228.0 Safari/537.36"
123.125.67.165 - - [04/Nov/2018:17:56:27 +0000] "GET /robots.txt HTTP/1.0" 404 208 "-" "Mozilla/5.0 (Windows NT 10.0; WOW64) AppleWebKit/537.36 (KHTML, like Gecko) Chrome/45.0.2454.93 Safari/537.36"
31.170.123.73 - - [04/Nov/2018:19:10:07 +0000] "POST /wp-cron.php?doing_wp_cron=1541358606.8830189704895019531250 HTTP/1.0" 200 - "http://xintanalegends.com/wp-cron.php?doing_wp_cron=1541358606.8830189704895019531250" "WordPress/4.9.8; http://xintanalegends.com"
185.86.164.98 - - [04/Nov/2018:19:10:06 +0000] "GET /wp-login.php HTTP/1.0" 200 2291 "-" "Mozilla/5.0 (Windows NT 10.0; WOW64) AppleWebKit/537.36 (KHTML, like Gecko) Chrome/51.0.2704.103 Safari/537.36"
185.86.164.98 - - [04/Nov/2018:19:10:08 +0000] "POST /wp-login.php HTTP/1.0" 200 2559 "http://xintana.com/wp-login.php" "Mozilla/5.0 (Windows NT 10.0; WOW64) AppleWebKit/537.36 (KHTML, like Gecko) Chrome/51.0.2704.103 Safari/537.36"
185.86.164.98 - - [04/Nov/2018:19:10:08 +0000] "POST /wp-login.php HTTP/1.0" 200 3239 "http://xintana.com/wp-login.php" "Mozilla/5.0 (Windows NT 10.0; WOW64) AppleWebKit/537.36 (KHTML, like Gecko) Chrome/51.0.2704.103 Safari/537.36"
185.24.218.174 - - [04/Nov/2018:19:19:51 +0000] "GET /js/tools.js HTTP/1.0" 404 209 "-" "Mozilla/5.0 (Windows NT 6.1; WOW64; rv:53.0) Gecko/20100101 Firefox/53.0"
193.201.224.210 - - [04/Nov/2018:19:23:46 +0000] "GET /wp-content/themes/ThisWay/includes/uploadify/upload_settings_image.php HTTP/1.0" 404 268 "http://xintanalegends.com/wp-content/themes/ThisWay/includes/uploadify/upload_settings_image.php" "Mozilla/5.0 (Windows NT 6.1; WOW64) AppleWebKit/537.36 (KHTML, like Gecko) Chrome/42.0.2311.152 Safari/537.36"
69.12.66.220 - - [04/Nov/2018:19:35:51 +0000] "GET /wp-content/plugins/vcrm/x.php?xi HTTP/1.0" 404 227 "http://www.xintana.com/wp-content/plugins/vcrm/x.php?xi" "Mozilla/5.0 (Windows NT 6.1; WOW64) AppleWebKit/537.36 (KHTML, like Gecko) Chrome/42.0.2311.152 Safari/537.36"
37.187.26.42 - - [04/Nov/2018:19:56:33 +0000] "GET / HTTP/1.0" 200 59953 "-" "Mozilla/5.0 (compatible; Googlebot/2.1; +http://www.google.com/bot.html)"
69.12.66.241 - - [04/Nov/2018:20:25:20 +0000] "GET /wp-content/plugins/vcrm/x.php?xi HTTP/1.0" 404 227 "http://xintanalegends.com/wp-content/plugins/vcrm/x.php?xi" "Mozilla/5.0 (Windows NT 6.1; WOW64) AppleWebKit/537.36 (KHTML, like Gecko) Chrome/42.0.2311.152 Safari/537.36"
31.170.123.73 - - [04/Nov/2018:20:28:21 +0000] "POST /wp-cron.php?doing_wp_cron=1541363301.7741050720214843750000 HTTP/1.0" 200 - "http://xintanalegends.com/wp-cron.php?doing_wp_cron=1541363301.7741050720214843750000" "WordPress/4.9.8; http://xintanalegends.com"
180.76.15.15 - - [04/Nov/2018:20:28:21 +0000] "GET / HTTP/1.0" 200 59953 "-" "Mozilla/5.0 (compatible; Baiduspider/2.0; +http://www.baidu.com/search/spider.html)"
31.170.123.73 - - [04/Nov/2018:21:55:26 +0000] "POST /wp-cron.php?doing_wp_cron=1541368526.1622190475463867187500 HTTP/1.0" 200 - "http://xintanalegends.com/wp-cron.php?doing_wp_cron=1541368526.1622190475463867187500" "WordPress/4.9.8; http://xintanalegends.com"
91.148.99.78 - - [04/Nov/2018:21:55:25 +0000] "GET /wp-login.php HTTP/1.0" 200 2291 "-" "Mozilla/5.0 (Windows NT 6.1; WOW64; rv:40.0) Gecko/20100101 Firefox/40.1"
91.148.99.78 - - [04/Nov/2018:21:55:26 +0000] "GET / HTTP/1.0" 301 - "-" "Mozilla/5.0 (Windows NT 6.1; WOW64; rv:40.0) Gecko/20100101 Firefox/40.1"
91.148.99.78 - - [04/Nov/2018:21:55:27 +0000] "GET / HTTP/1.0" 200 59951 "-" "Mozilla/5.0 (Windows NT 6.1; WOW64; rv:40.0) Gecko/20100101 Firefox/40.1"
198.23.202.38 - - [04/Nov/2018:22:30:04 +0000] "GET /robots.txt HTTP/1.0" 404 208 "-" "Mozilla/5.0 (Windows NT 10.0; Win64; x64; rv:50.0) Gecko/20100101 Firefox/50.0"
31.170.123.73 - - [04/Nov/2018:22:30:04 +0000] "POST /wp-cron.php?doing_wp_cron=1541370604.3904869556427001953125 HTTP/1.0" 200 - "http://xintanalegends.com/wp-cron.php?doing_wp_cron=1541370604.3904869556427001953125" "WordPress/4.9.8; http://xintanalegends.com"
198.23.202.38 - - [04/Nov/2018:22:30:04 +0000] "GET /xmlrpc.php?rsd HTTP/1.0" 200 856 "-" "Mozilla/5.0 (Windows NT 10.0; Win64; x64; rv:50.0) Gecko/20100101 Firefox/50.0"
198.23.202.38 - - [04/Nov/2018:22:30:04 +0000] "GET /?author=1 HTTP/1.0" 200 85221 "-" "Mozilla/5.0 (Windows NT 10.0; Win64; x64; rv:50.0) Gecko/20100101 Firefox/50.0"
198.23.202.38 - - [04/Nov/2018:22:30:06 +0000] "GET /wp-json/wp/v2/users/ HTTP/1.0" 404 218 "-" "Mozilla/5.0 (Windows NT 10.0; Win64; x64; rv:50.0) Gecko/20100101 Firefox/50.0"
198.23.202.38 - - [04/Nov/2018:22:30:06 +0000] "POST /xmlrpc.php HTTP/1.0" 200 85787 "-" "Mozilla/5.0 (Windows NT 10.0; Win64; x64; rv:50.0) Gecko/20100101 Firefox/50.0"
198.23.202.38 - - [04/Nov/2018:22:30:07 +0000] "POST /xmlrpc.php HTTP/1.0" 200 85787 "-" "Mozilla/5.0 (Windows NT 10.0; Win64; x64; rv:50.0) Gecko/20100101 Firefox/50.0"
89.248.169.130 - - [04/Nov/2018:22:34:22 +0000] "POST /xmlrpc.php HTTP/1.0" 200 403 "-" "Mozilla/5.0 (Macintosh; U; Intel Mac OS X 10.6; fr; rv:1.9.2.8) Gecko/20100722 Firefox/3.6.8"
89.248.169.130 - - [04/Nov/2018:22:34:22 +0000] "POST /xmlrpc.php HTTP/1.0" 200 403 "-" "Mozilla/5.0 (Macintosh; U; Intel Mac OS X 10.6; fr; rv:1.9.2.8) Gecko/20100722 Firefox/3.6.8"
89.248.169.130 - - [04/Nov/2018:22:34:23 +0000] "POST /xmlrpc.php HTTP/1.0" 200 403 "-" "Mozilla/5.0 (Macintosh; U; Intel Mac OS X 10.6; fr; rv:1.9.2.8) Gecko/20100722 Firefox/3.6.8"
89.248.169.130 - - [04/Nov/2018:22:34:23 +0000] "POST /xmlrpc.php HTTP/1.0" 200 403 "-" "Mozilla/5.0 (Macintosh; U; Intel Mac OS X 10.6; fr; rv:1.9.2.8) Gecko/20100722 Firefox/3.6.8"
61.132.233.195 - - [04/Nov/2018:22:50:49 +0000] "GET /?author=1 HTTP/1.0" 200 85165 "-" "Mozilla/5.0 (Windows NT 6.1; rv:52.0) Gecko/20100101 Firefox/52.0"
211.138.182.198 - - [04/Nov/2018:22:51:19 +0000] "GET /?author=1 HTTP/1.0" 200 85165 "-" "Mozilla/5.0 (Windows NT 6.1; rv:52.0) Gecko/20100101 Firefox/52.0"
211.138.182.198 - - [04/Nov/2018:22:51:22 +0000] "GET /?author=2 HTTP/1.0" 200 39567 "-" "Mozilla/5.0 (Windows NT 6.1; rv:52.0) Gecko/20100101 Firefox/52.0"
211.138.182.198 - - [04/Nov/2018:22:51:24 +0000] "GET /?author=3 HTTP/1.0" 404 39385 "-" "Mozilla/5.0 (Windows NT 6.1; rv:52.0) Gecko/20100101 Firefox/52.0"
211.138.182.198 - - [04/Nov/2018:22:51:26 +0000] "GET /?author=4 HTTP/1.0" 404 39385 "-" "Mozilla/5.0 (Windows NT 6.1; rv:52.0) Gecko/20100101 Firefox/52.0"
211.138.182.198 - - [04/Nov/2018:22:51:28 +0000] "GET /?author=5 HTTP/1.0" 404 39385 "-" "Mozilla/5.0 (Windows NT 6.1; rv:52.0) Gecko/20100101 Firefox/52.0"
211.138.182.198 - - [04/Nov/2018:22:51:30 +0000] "GET /?author=6 HTTP/1.0" 404 39385 "-" "Mozilla/5.0 (Windows NT 6.1; rv:52.0) Gecko/20100101 Firefox/52.0"
211.138.182.198 - - [04/Nov/2018:22:51:31 +0000] "GET /?author=7 HTTP/1.0" 404 39385 "-" "Mozilla/5.0 (Windows NT 6.1; rv:52.0) Gecko/20100101 Firefox/52.0"
211.138.182.198 - - [04/Nov/2018:22:51:33 +0000] "GET /?author=8 HTTP/1.0" 404 39385 "-" "Mozilla/5.0 (Windows NT 6.1; rv:52.0) Gecko/20100101 Firefox/52.0"
211.138.182.198 - - [04/Nov/2018:22:51:35 +0000] "GET /?author=9 HTTP/1.0" 404 39385 "-" "Mozilla/5.0 (Windows NT 6.1; rv:52.0) Gecko/20100101 Firefox/52.0"
211.138.182.198 - - [04/Nov/2018:22:51:37 +0000] "GET /?author=10 HTTP/1.0" 404 39385 "-" "Mozilla/5.0 (Windows NT 6.1; rv:52.0) Gecko/20100101 Firefox/52.0"
211.138.182.198 - - [04/Nov/2018:22:51:39 +0000] "GET /?author=11 HTTP/1.0" 404 39385 "-" "Mozilla/5.0 (Windows NT 6.1; rv:52.0) Gecko/20100101 Firefox/52.0"
211.138.182.198 - - [04/Nov/2018:22:51:41 +0000] "GET /?author=12 HTTP/1.0" 404 39385 "-" "Mozilla/5.0 (Windows NT 6.1; rv:52.0) Gecko/20100101 Firefox/52.0"
211.138.182.198 - - [04/Nov/2018:22:51:42 +0000] "GET /?author=13 HTTP/1.0" 404 39385 "-" "Mozilla/5.0 (Windows NT 6.1; rv:52.0) Gecko/20100101 Firefox/52.0"
211.138.182.198 - - [04/Nov/2018:22:51:45 +0000] "GET /?author=14 HTTP/1.0" 404 39385 "-" "Mozilla/5.0 (Windows NT 6.1; rv:52.0) Gecko/20100101 Firefox/52.0"
211.138.182.198 - - [04/Nov/2018:22:51:46 +0000] "GET /?author=15 HTTP/1.0" 404 39385 "-" "Mozilla/5.0 (Windows NT 6.1; rv:52.0) Gecko/20100101 Firefox/52.0"
211.138.182.198 - - [04/Nov/2018:22:51:48 +0000] "GET /?author=16 HTTP/1.0" 404 39385 "-" "Mozilla/5.0 (Windows NT 6.1; rv:52.0) Gecko/20100101 Firefox/52.0"
211.138.182.198 - - [04/Nov/2018:22:51:50 +0000] "GET /?author=17 HTTP/1.0" 404 39385 "-" "Mozilla/5.0 (Windows NT 6.1; rv:52.0) Gecko/20100101 Firefox/52.0"
211.138.182.198 - - [04/Nov/2018:22:51:52 +0000] "GET /?author=18 HTTP/1.0" 404 39385 "-" "Mozilla/5.0 (Windows NT 6.1; rv:52.0) Gecko/20100101 Firefox/52.0"
211.138.182.198 - - [04/Nov/2018:22:51:54 +0000] "GET /?author=19 HTTP/1.0" 404 39385 "-" "Mozilla/5.0 (Windows NT 6.1; rv:52.0) Gecko/20100101 Firefox/52.0"
211.138.182.198 - - [04/Nov/2018:22:51:56 +0000] "GET /?author=20 HTTP/1.0" 404 39385 "-" "Mozilla/5.0 (Windows NT 6.1; rv:52.0) Gecko/20100101 Firefox/52.0"
211.138.182.198 - - [04/Nov/2018:22:51:58 +0000] "GET /?author=21 HTTP/1.0" 404 39385 "-" "Mozilla/5.0 (Windows NT 6.1; rv:52.0) Gecko/20100101 Firefox/52.0"
211.138.182.198 - - [04/Nov/2018:22:52:00 +0000] "GET /?author=22 HTTP/1.0" 404 39385 "-" "Mozilla/5.0 (Windows NT 6.1; rv:52.0) Gecko/20100101 Firefox/52.0"
211.138.182.198 - - [04/Nov/2018:22:52:02 +0000] "GET /?author=23 HTTP/1.0" 404 39385 "-" "Mozilla/5.0 (Windows NT 6.1; rv:52.0) Gecko/20100101 Firefox/52.0"
211.138.182.198 - - [04/Nov/2018:22:52:04 +0000] "GET /?author=24 HTTP/1.0" 404 39385 "-" "Mozilla/5.0 (Windows NT 6.1; rv:52.0) Gecko/20100101 Firefox/52.0"
211.138.182.198 - - [04/Nov/2018:22:52:06 +0000] "GET /?author=25 HTTP/1.0" 404 39385 "-" "Mozilla/5.0 (Windows NT 6.1; rv:52.0) Gecko/20100101 Firefox/52.0"
211.138.182.198 - - [04/Nov/2018:22:52:09 +0000] "GET /?author=26 HTTP/1.0" 404 39385 "-" "Mozilla/5.0 (Windows NT 6.1; rv:52.0) Gecko/20100101 Firefox/52.0"
211.138.182.198 - - [04/Nov/2018:22:52:11 +0000] "GET /?author=27 HTTP/1.0" 404 39385 "-" "Mozilla/5.0 (Windows NT 6.1; rv:52.0) Gecko/20100101 Firefox/52.0"
211.138.182.198 - - [04/Nov/2018:22:52:13 +0000] "GET /?author=28 HTTP/1.0" 404 39385 "-" "Mozilla/5.0 (Windows NT 6.1; rv:52.0) Gecko/20100101 Firefox/52.0"
211.138.182.198 - - [04/Nov/2018:22:52:15 +0000] "GET /?author=29 HTTP/1.0" 404 39385 "-" "Mozilla/5.0 (Windows NT 6.1; rv:52.0) Gecko/20100101 Firefox/52.0"
211.138.182.198 - - [04/Nov/2018:22:52:17 +0000] "GET /?author=30 HTTP/1.0" 404 39385 "-" "Mozilla/5.0 (Windows NT 6.1; rv:52.0) Gecko/20100101 Firefox/52.0"
211.138.182.198 - - [04/Nov/2018:22:52:20 +0000] "GET /?author=31 HTTP/1.0" 404 39385 "-" "Mozilla/5.0 (Windows NT 6.1; rv:52.0) Gecko/20100101 Firefox/52.0"
211.138.182.198 - - [04/Nov/2018:22:52:23 +0000] "GET /?author=32 HTTP/1.0" 404 39385 "-" "Mozilla/5.0 (Windows NT 6.1; rv:52.0) Gecko/20100101 Firefox/52.0"
211.138.182.198 - - [04/Nov/2018:22:52:25 +0000] "GET /?author=33 HTTP/1.0" 404 39385 "-" "Mozilla/5.0 (Windows NT 6.1; rv:52.0) Gecko/20100101 Firefox/52.0"
211.138.182.198 - - [04/Nov/2018:22:52:28 +0000] "GET /?author=34 HTTP/1.0" 404 39385 "-" "Mozilla/5.0 (Windows NT 6.1; rv:52.0) Gecko/20100101 Firefox/52.0"
211.138.182.198 - - [04/Nov/2018:22:52:30 +0000] "GET /?author=35 HTTP/1.0" 404 39385 "-" "Mozilla/5.0 (Windows NT 6.1; rv:52.0) Gecko/20100101 Firefox/52.0"
211.138.182.198 - - [04/Nov/2018:22:52:32 +0000] "GET /?author=36 HTTP/1.0" 404 39385 "-" "Mozilla/5.0 (Windows NT 6.1; rv:52.0) Gecko/20100101 Firefox/52.0"
211.138.182.198 - - [04/Nov/2018:22:52:35 +0000] "GET /?author=37 HTTP/1.0" 404 39385 "-" "Mozilla/5.0 (Windows NT 6.1; rv:52.0) Gecko/20100101 Firefox/52.0"
211.138.182.198 - - [04/Nov/2018:22:52:37 +0000] "GET /?author=38 HTTP/1.0" 404 39385 "-" "Mozilla/5.0 (Windows NT 6.1; rv:52.0) Gecko/20100101 Firefox/52.0"
211.138.182.198 - - [04/Nov/2018:22:52:39 +0000] "GET /?author=39 HTTP/1.0" 404 39385 "-" "Mozilla/5.0 (Windows NT 6.1; rv:52.0) Gecko/20100101 Firefox/52.0"
211.138.182.198 - - [04/Nov/2018:22:52:41 +0000] "GET /?author=40 HTTP/1.0" 404 39385 "-" "Mozilla/5.0 (Windows NT 6.1; rv:52.0) Gecko/20100101 Firefox/52.0"
211.138.182.198 - - [04/Nov/2018:22:52:44 +0000] "GET /?author=41 HTTP/1.0" 404 39385 "-" "Mozilla/5.0 (Windows NT 6.1; rv:52.0) Gecko/20100101 Firefox/52.0"
211.138.182.198 - - [04/Nov/2018:22:52:46 +0000] "GET /?author=42 HTTP/1.0" 404 39385 "-" "Mozilla/5.0 (Windows NT 6.1; rv:52.0) Gecko/20100101 Firefox/52.0"
211.138.182.198 - - [04/Nov/2018:22:52:48 +0000] "GET /?author=43 HTTP/1.0" 404 39385 "-" "Mozilla/5.0 (Windows NT 6.1; rv:52.0) Gecko/20100101 Firefox/52.0"
211.138.182.198 - - [04/Nov/2018:22:52:50 +0000] "GET /?author=44 HTTP/1.0" 404 39385 "-" "Mozilla/5.0 (Windows NT 6.1; rv:52.0) Gecko/20100101 Firefox/52.0"
211.138.182.198 - - [04/Nov/2018:22:52:52 +0000] "GET /?author=45 HTTP/1.0" 404 39385 "-" "Mozilla/5.0 (Windows NT 6.1; rv:52.0) Gecko/20100101 Firefox/52.0"
211.138.182.198 - - [04/Nov/2018:22:52:54 +0000] "GET /?author=46 HTTP/1.0" 404 39385 "-" "Mozilla/5.0 (Windows NT 6.1; rv:52.0) Gecko/20100101 Firefox/52.0"
211.138.182.198 - - [04/Nov/2018:22:52:56 +0000] "GET /?author=47 HTTP/1.0" 404 39385 "-" "Mozilla/5.0 (Windows NT 6.1; rv:52.0) Gecko/20100101 Firefox/52.0"
211.138.182.198 - - [04/Nov/2018:22:52:58 +0000] "GET /?author=48 HTTP/1.0" 404 39385 "-" "Mozilla/5.0 (Windows NT 6.1; rv:52.0) Gecko/20100101 Firefox/52.0"
211.138.182.198 - - [04/Nov/2018:22:53:00 +0000] "GET /?author=49 HTTP/1.0" 404 39385 "-" "Mozilla/5.0 (Windows NT 6.1; rv:52.0) Gecko/20100101 Firefox/52.0"
211.138.182.198 - - [04/Nov/2018:22:53:02 +0000] "GET /?author=50 HTTP/1.0" 404 39385 "-" "Mozilla/5.0 (Windows NT 6.1; rv:52.0) Gecko/20100101 Firefox/52.0"
211.138.182.198 - - [04/Nov/2018:22:53:04 +0000] "POST /wp-login.php HTTP/1.0" 403 214 "-" "Mozilla/5.0 (Windows NT 6.1; rv:52.0) Gecko/20100101 Firefox/52.0"
116.228.50.194 - - [04/Nov/2018:22:53:37 +0000] "POST /wp-login.php HTTP/1.0" 200 3290 "-" "Mozilla/5.0 (Windows NT 6.1; rv:52.0) Gecko/20100101 Firefox/52.0"
116.228.50.194 - - [04/Nov/2018:22:53:38 +0000] "POST /wp-login.php HTTP/1.0" 200 3290 "-" "Mozilla/5.0 (Windows NT 6.1; rv:52.0) Gecko/20100101 Firefox/52.0"
116.228.50.194 - - [04/Nov/2018:22:53:39 +0000] "POST /wp-login.php HTTP/1.0" 200 3290 "-" "Mozilla/5.0 (Windows NT 6.1; rv:52.0) Gecko/20100101 Firefox/52.0"
116.228.50.194 - - [04/Nov/2018:22:53:40 +0000] "POST /wp-login.php HTTP/1.0" 200 3290 "-" "Mozilla/5.0 (Windows NT 6.1; rv:52.0) Gecko/20100101 Firefox/52.0"
116.228.50.194 - - [04/Nov/2018:22:53:42 +0000] "POST /wp-login.php HTTP/1.0" 200 3290 "-" "Mozilla/5.0 (Windows NT 6.1; rv:52.0) Gecko/20100101 Firefox/52.0"
116.228.50.194 - - [04/Nov/2018:22:53:43 +0000] "POST /wp-login.php HTTP/1.0" 200 3290 "-" "Mozilla/5.0 (Windows NT 6.1; rv:52.0) Gecko/20100101 Firefox/52.0"
116.228.50.194 - - [04/Nov/2018:22:53:45 +0000] "POST /wp-login.php HTTP/1.0" 200 3290 "-" "Mozilla/5.0 (Windows NT 6.1; rv:52.0) Gecko/20100101 Firefox/52.0"
116.228.50.194 - - [04/Nov/2018:22:53:46 +0000] "POST /wp-login.php HTTP/1.0" 200 3290 "-" "Mozilla/5.0 (Windows NT 6.1; rv:52.0) Gecko/20100101 Firefox/52.0"
116.228.50.194 - - [04/Nov/2018:22:53:48 +0000] "POST /wp-login.php HTTP/1.0" 200 3290 "-" "Mozilla/5.0 (Windows NT 6.1; rv:52.0) Gecko/20100101 Firefox/52.0"
116.228.50.194 - - [04/Nov/2018:22:53:49 +0000] "POST /wp-login.php HTTP/1.0" 200 3290 "-" "Mozilla/5.0 (Windows NT 6.1; rv:52.0) Gecko/20100101 Firefox/52.0"
116.228.50.194 - - [04/Nov/2018:22:53:50 +0000] "POST /wp-login.php HTTP/1.0" 200 3290 "-" "Mozilla/5.0 (Windows NT 6.1; rv:52.0) Gecko/20100101 Firefox/52.0"
116.228.50.194 - - [04/Nov/2018:22:53:52 +0000] "POST /wp-login.php HTTP/1.0" 200 3290 "-" "Mozilla/5.0 (Windows NT 6.1; rv:52.0) Gecko/20100101 Firefox/52.0"
116.228.50.194 - - [04/Nov/2018:22:53:54 +0000] "POST /wp-login.php HTTP/1.0" 200 3290 "-" "Mozilla/5.0 (Windows NT 6.1; rv:52.0) Gecko/20100101 Firefox/52.0"
116.228.50.194 - - [04/Nov/2018:22:53:55 +0000] "POST /wp-login.php HTTP/1.0" 200 3290 "-" "Mozilla/5.0 (Windows NT 6.1; rv:52.0) Gecko/20100101 Firefox/52.0"
116.228.50.194 - - [04/Nov/2018:22:53:57 +0000] "POST /wp-login.php HTTP/1.0" 200 3290 "-" "Mozilla/5.0 (Windows NT 6.1; rv:52.0) Gecko/20100101 Firefox/52.0"
116.228.50.194 - - [04/Nov/2018:22:53:58 +0000] "POST /wp-login.php HTTP/1.0" 200 3290 "-" "Mozilla/5.0 (Windows NT 6.1; rv:52.0) Gecko/20100101 Firefox/52.0"
116.228.50.194 - - [04/Nov/2018:22:54:00 +0000] "POST /wp-login.php HTTP/1.0" 200 3290 "-" "Mozilla/5.0 (Windows NT 6.1; rv:52.0) Gecko/20100101 Firefox/52.0"
116.228.50.194 - - [04/Nov/2018:22:54:01 +0000] "POST /wp-login.php HTTP/1.0" 200 3290 "-" "Mozilla/5.0 (Windows NT 6.1; rv:52.0) Gecko/20100101 Firefox/52.0"
116.228.50.194 - - [04/Nov/2018:22:54:03 +0000] "POST /wp-login.php HTTP/1.0" 200 3290 "-" "Mozilla/5.0 (Windows NT 6.1; rv:52.0) Gecko/20100101 Firefox/52.0"
116.228.50.194 - - [04/Nov/2018:22:54:04 +0000] "POST /wp-login.php HTTP/1.0" 200 3290 "-" "Mozilla/5.0 (Windows NT 6.1; rv:52.0) Gecko/20100101 Firefox/52.0"
116.228.50.194 - - [04/Nov/2018:22:54:06 +0000] "POST /wp-login.php HTTP/1.0" 403 214 "-" "Mozilla/5.0 (Windows NT 6.1; rv:52.0) Gecko/20100101 Firefox/52.0"
58.244.173.130 - - [04/Nov/2018:22:54:18 +0000] "POST /wp-login.php HTTP/1.0" 403 214 "-" "Mozilla/5.0 (Windows NT 6.1; rv:52.0) Gecko/20100101 Firefox/52.0"
114.119.10.171 - - [04/Nov/2018:22:54:20 +0000] "POST /wp-login.php HTTP/1.0" 200 3290 "-" "Mozilla/5.0 (Windows NT 6.1; rv:52.0) Gecko/20100101 Firefox/52.0"
114.119.10.171 - - [04/Nov/2018:22:54:22 +0000] "POST /wp-login.php HTTP/1.0" 200 3290 "-" "Mozilla/5.0 (Windows NT 6.1; rv:52.0) Gecko/20100101 Firefox/52.0"
114.119.10.171 - - [04/Nov/2018:22:54:23 +0000] "POST /wp-login.php HTTP/1.0" 200 3290 "-" "Mozilla/5.0 (Windows NT 6.1; rv:52.0) Gecko/20100101 Firefox/52.0"
114.119.10.171 - - [04/Nov/2018:22:54:24 +0000] "POST /wp-login.php HTTP/1.0" 200 3290 "-" "Mozilla/5.0 (Windows NT 6.1; rv:52.0) Gecko/20100101 Firefox/52.0"
114.119.10.171 - - [04/Nov/2018:22:54:26 +0000] "POST /wp-login.php HTTP/1.0" 200 3290 "-" "Mozilla/5.0 (Windows NT 6.1; rv:52.0) Gecko/20100101 Firefox/52.0"
114.119.10.171 - - [04/Nov/2018:22:54:27 +0000] "POST /wp-login.php HTTP/1.0" 200 3290 "-" "Mozilla/5.0 (Windows NT 6.1; rv:52.0) Gecko/20100101 Firefox/52.0"
114.119.10.171 - - [04/Nov/2018:22:54:28 +0000] "POST /wp-login.php HTTP/1.0" 200 3290 "-" "Mozilla/5.0 (Windows NT 6.1; rv:52.0) Gecko/20100101 Firefox/52.0"
114.119.10.171 - - [04/Nov/2018:22:54:29 +0000] "POST /wp-login.php HTTP/1.0" 200 3290 "-" "Mozilla/5.0 (Windows NT 6.1; rv:52.0) Gecko/20100101 Firefox/52.0"
114.119.10.171 - - [04/Nov/2018:22:54:31 +0000] "POST /wp-login.php HTTP/1.0" 200 3290 "-" "Mozilla/5.0 (Windows NT 6.1; rv:52.0) Gecko/20100101 Firefox/52.0"
114.119.10.171 - - [04/Nov/2018:22:54:32 +0000] "POST /wp-login.php HTTP/1.0" 200 3290 "-" "Mozilla/5.0 (Windows NT 6.1; rv:52.0) Gecko/20100101 Firefox/52.0"
114.119.10.171 - - [04/Nov/2018:22:54:33 +0000] "POST /wp-login.php HTTP/1.0" 200 3290 "-" "Mozilla/5.0 (Windows NT 6.1; rv:52.0) Gecko/20100101 Firefox/52.0"
114.119.10.171 - - [04/Nov/2018:22:54:34 +0000] "POST /wp-login.php HTTP/1.0" 200 3290 "-" "Mozilla/5.0 (Windows NT 6.1; rv:52.0) Gecko/20100101 Firefox/52.0"
114.119.10.171 - - [04/Nov/2018:22:54:35 +0000] "POST /wp-login.php HTTP/1.0" 200 3290 "-" "Mozilla/5.0 (Windows NT 6.1; rv:52.0) Gecko/20100101 Firefox/52.0"
114.119.10.171 - - [04/Nov/2018:22:54:37 +0000] "POST /wp-login.php HTTP/1.0" 200 3290 "-" "Mozilla/5.0 (Windows NT 6.1; rv:52.0) Gecko/20100101 Firefox/52.0"
114.119.10.171 - - [04/Nov/2018:22:54:38 +0000] "POST /wp-login.php HTTP/1.0" 200 3290 "-" "Mozilla/5.0 (Windows NT 6.1; rv:52.0) Gecko/20100101 Firefox/52.0"
114.119.10.171 - - [04/Nov/2018:22:54:39 +0000] "POST /wp-login.php HTTP/1.0" 200 3290 "-" "Mozilla/5.0 (Windows NT 6.1; rv:52.0) Gecko/20100101 Firefox/52.0"
114.119.10.171 - - [04/Nov/2018:22:54:40 +0000] "POST /wp-login.php HTTP/1.0" 200 3290 "-" "Mozilla/5.0 (Windows NT 6.1; rv:52.0) Gecko/20100101 Firefox/52.0"
114.119.10.171 - - [04/Nov/2018:22:54:42 +0000] "POST /wp-login.php HTTP/1.0" 200 3290 "-" "Mozilla/5.0 (Windows NT 6.1; rv:52.0) Gecko/20100101 Firefox/52.0"
114.119.10.171 - - [04/Nov/2018:22:54:43 +0000] "POST /wp-login.php HTTP/1.0" 200 3290 "-" "Mozilla/5.0 (Windows NT 6.1; rv:52.0) Gecko/20100101 Firefox/52.0"
114.119.10.171 - - [04/Nov/2018:22:54:44 +0000] "POST /wp-login.php HTTP/1.0" 200 3290 "-" "Mozilla/5.0 (Windows NT 6.1; rv:52.0) Gecko/20100101 Firefox/52.0"
114.119.10.171 - - [04/Nov/2018:22:54:46 +0000] "POST /wp-login.php HTTP/1.0" 403 214 "-" "Mozilla/5.0 (Windows NT 6.1; rv:52.0) Gecko/20100101 Firefox/52.0"
60.173.79.120 - - [04/Nov/2018:22:54:57 +0000] "POST /wp-login.php HTTP/1.0" 403 214 "-" "Mozilla/5.0 (Windows NT 6.1; rv:52.0) Gecko/20100101 Firefox/52.0"
189.204.6.157 - - [04/Nov/2018:22:55:20 +0000] "POST /wp-login.php HTTP/1.0" 200 3290 "-" "Mozilla/5.0 (Windows NT 6.1; rv:52.0) Gecko/20100101 Firefox/52.0"
189.204.6.157 - - [04/Nov/2018:22:55:21 +0000] "POST /wp-login.php HTTP/1.0" 200 3290 "-" "Mozilla/5.0 (Windows NT 6.1; rv:52.0) Gecko/20100101 Firefox/52.0"
189.204.6.157 - - [04/Nov/2018:22:55:22 +0000] "POST /wp-login.php HTTP/1.0" 200 3290 "-" "Mozilla/5.0 (Windows NT 6.1; rv:52.0) Gecko/20100101 Firefox/52.0"
189.204.6.157 - - [04/Nov/2018:22:55:23 +0000] "POST /wp-login.php HTTP/1.0" 200 3290 "-" "Mozilla/5.0 (Windows NT 6.1; rv:52.0) Gecko/20100101 Firefox/52.0"
189.204.6.157 - - [04/Nov/2018:22:55:24 +0000] "POST /wp-login.php HTTP/1.0" 200 3290 "-" "Mozilla/5.0 (Windows NT 6.1; rv:52.0) Gecko/20100101 Firefox/52.0"
189.204.6.157 - - [04/Nov/2018:22:55:25 +0000] "POST /wp-login.php HTTP/1.0" 200 3290 "-" "Mozilla/5.0 (Windows NT 6.1; rv:52.0) Gecko/20100101 Firefox/52.0"
189.204.6.157 - - [04/Nov/2018:22:55:26 +0000] "POST /wp-login.php HTTP/1.0" 200 3290 "-" "Mozilla/5.0 (Windows NT 6.1; rv:52.0) Gecko/20100101 Firefox/52.0"
189.204.6.157 - - [04/Nov/2018:22:55:27 +0000] "POST /wp-login.php HTTP/1.0" 200 3290 "-" "Mozilla/5.0 (Windows NT 6.1; rv:52.0) Gecko/20100101 Firefox/52.0"
189.204.6.157 - - [04/Nov/2018:22:55:28 +0000] "POST /wp-login.php HTTP/1.0" 200 3290 "-" "Mozilla/5.0 (Windows NT 6.1; rv:52.0) Gecko/20100101 Firefox/52.0"
189.204.6.157 - - [04/Nov/2018:22:55:29 +0000] "POST /wp-login.php HTTP/1.0" 200 3290 "-" "Mozilla/5.0 (Windows NT 6.1; rv:52.0) Gecko/20100101 Firefox/52.0"
189.204.6.157 - - [04/Nov/2018:22:55:31 +0000] "POST /wp-login.php HTTP/1.0" 200 3290 "-" "Mozilla/5.0 (Windows NT 6.1; rv:52.0) Gecko/20100101 Firefox/52.0"
189.204.6.157 - - [04/Nov/2018:22:55:32 +0000] "POST /wp-login.php HTTP/1.0" 200 3290 "-" "Mozilla/5.0 (Windows NT 6.1; rv:52.0) Gecko/20100101 Firefox/52.0"
189.204.6.157 - - [04/Nov/2018:22:55:33 +0000] "POST /wp-login.php HTTP/1.0" 200 3290 "-" "Mozilla/5.0 (Windows NT 6.1; rv:52.0) Gecko/20100101 Firefox/52.0"
189.204.6.157 - - [04/Nov/2018:22:55:34 +0000] "POST /wp-login.php HTTP/1.0" 200 3290 "-" "Mozilla/5.0 (Windows NT 6.1; rv:52.0) Gecko/20100101 Firefox/52.0"
189.204.6.157 - - [04/Nov/2018:22:55:36 +0000] "POST /wp-login.php HTTP/1.0" 200 3290 "-" "Mozilla/5.0 (Windows NT 6.1; rv:52.0) Gecko/20100101 Firefox/52.0"
189.204.6.157 - - [04/Nov/2018:22:55:37 +0000] "POST /wp-login.php HTTP/1.0" 200 3290 "-" "Mozilla/5.0 (Windows NT 6.1; rv:52.0) Gecko/20100101 Firefox/52.0"
189.204.6.157 - - [04/Nov/2018:22:55:38 +0000] "POST /wp-login.php HTTP/1.0" 200 3290 "-" "Mozilla/5.0 (Windows NT 6.1; rv:52.0) Gecko/20100101 Firefox/52.0"
189.204.6.157 - - [04/Nov/2018:22:55:39 +0000] "POST /wp-login.php HTTP/1.0" 200 3290 "-" "Mozilla/5.0 (Windows NT 6.1; rv:52.0) Gecko/20100101 Firefox/52.0"
189.204.6.157 - - [04/Nov/2018:22:55:40 +0000] "POST /wp-login.php HTTP/1.0" 200 3290 "-" "Mozilla/5.0 (Windows NT 6.1; rv:52.0) Gecko/20100101 Firefox/52.0"
189.204.6.157 - - [04/Nov/2018:22:55:41 +0000] "POST /wp-login.php HTTP/1.0" 200 3290 "-" "Mozilla/5.0 (Windows NT 6.1; rv:52.0) Gecko/20100101 Firefox/52.0"
189.204.6.157 - - [04/Nov/2018:22:55:42 +0000] "POST /wp-login.php HTTP/1.0" 403 214 "-" "Mozilla/5.0 (Windows NT 6.1; rv:52.0) Gecko/20100101 Firefox/52.0"
61.178.74.27 - - [04/Nov/2018:22:56:14 +0000] "POST /wp-login.php HTTP/1.0" 403 214 "-" "Mozilla/5.0 (Windows NT 6.1; rv:52.0) Gecko/20100101 Firefox/52.0"
220.164.2.99 - - [04/Nov/2018:22:56:26 +0000] "POST /wp-login.php HTTP/1.0" 200 3290 "-" "Mozilla/5.0 (Windows NT 6.1; rv:52.0) Gecko/20100101 Firefox/52.0"
220.164.2.99 - - [04/Nov/2018:22:56:28 +0000] "POST /wp-login.php HTTP/1.0" 200 3290 "-" "Mozilla/5.0 (Windows NT 6.1; rv:52.0) Gecko/20100101 Firefox/52.0"
220.164.2.99 - - [04/Nov/2018:22:56:29 +0000] "POST /wp-login.php HTTP/1.0" 200 3290 "-" "Mozilla/5.0 (Windows NT 6.1; rv:52.0) Gecko/20100101 Firefox/52.0"
220.164.2.99 - - [04/Nov/2018:22:56:31 +0000] "POST /wp-login.php HTTP/1.0" 200 3290 "-" "Mozilla/5.0 (Windows NT 6.1; rv:52.0) Gecko/20100101 Firefox/52.0"
220.164.2.99 - - [04/Nov/2018:22:56:32 +0000] "POST /wp-login.php HTTP/1.0" 200 3290 "-" "Mozilla/5.0 (Windows NT 6.1; rv:52.0) Gecko/20100101 Firefox/52.0"
220.164.2.99 - - [04/Nov/2018:22:56:33 +0000] "POST /wp-login.php HTTP/1.0" 200 3290 "-" "Mozilla/5.0 (Windows NT 6.1; rv:52.0) Gecko/20100101 Firefox/52.0"
220.164.2.99 - - [04/Nov/2018:22:56:35 +0000] "POST /wp-login.php HTTP/1.0" 200 3290 "-" "Mozilla/5.0 (Windows NT 6.1; rv:52.0) Gecko/20100101 Firefox/52.0"
220.164.2.99 - - [04/Nov/2018:22:56:36 +0000] "POST /wp-login.php HTTP/1.0" 200 3290 "-" "Mozilla/5.0 (Windows NT 6.1; rv:52.0) Gecko/20100101 Firefox/52.0"
220.164.2.99 - - [04/Nov/2018:22:56:37 +0000] "POST /wp-login.php HTTP/1.0" 200 3290 "-" "Mozilla/5.0 (Windows NT 6.1; rv:52.0) Gecko/20100101 Firefox/52.0"
220.164.2.99 - - [04/Nov/2018:22:56:39 +0000] "POST /wp-login.php HTTP/1.0" 200 3290 "-" "Mozilla/5.0 (Windows NT 6.1; rv:52.0) Gecko/20100101 Firefox/52.0"
220.164.2.99 - - [04/Nov/2018:22:56:40 +0000] "POST /wp-login.php HTTP/1.0" 200 3290 "-" "Mozilla/5.0 (Windows NT 6.1; rv:52.0) Gecko/20100101 Firefox/52.0"
220.164.2.99 - - [04/Nov/2018:22:56:42 +0000] "POST /wp-login.php HTTP/1.0" 200 3290 "-" "Mozilla/5.0 (Windows NT 6.1; rv:52.0) Gecko/20100101 Firefox/52.0"
220.164.2.99 - - [04/Nov/2018:22:56:43 +0000] "POST /wp-login.php HTTP/1.0" 200 3290 "-" "Mozilla/5.0 (Windows NT 6.1; rv:52.0) Gecko/20100101 Firefox/52.0"
220.164.2.99 - - [04/Nov/2018:22:56:44 +0000] "POST /wp-login.php HTTP/1.0" 200 3290 "-" "Mozilla/5.0 (Windows NT 6.1; rv:52.0) Gecko/20100101 Firefox/52.0"
220.164.2.99 - - [04/Nov/2018:22:56:46 +0000] "POST /wp-login.php HTTP/1.0" 200 3290 "-" "Mozilla/5.0 (Windows NT 6.1; rv:52.0) Gecko/20100101 Firefox/52.0"
220.164.2.99 - - [04/Nov/2018:22:56:47 +0000] "POST /wp-login.php HTTP/1.0" 200 3290 "-" "Mozilla/5.0 (Windows NT 6.1; rv:52.0) Gecko/20100101 Firefox/52.0"
220.164.2.99 - - [04/Nov/2018:22:56:49 +0000] "POST /wp-login.php HTTP/1.0" 200 3290 "-" "Mozilla/5.0 (Windows NT 6.1; rv:52.0) Gecko/20100101 Firefox/52.0"
220.164.2.99 - - [04/Nov/2018:22:56:50 +0000] "POST /wp-login.php HTTP/1.0" 200 3290 "-" "Mozilla/5.0 (Windows NT 6.1; rv:52.0) Gecko/20100101 Firefox/52.0"
220.164.2.99 - - [04/Nov/2018:22:56:52 +0000] "POST /wp-login.php HTTP/1.0" 200 3290 "-" "Mozilla/5.0 (Windows NT 6.1; rv:52.0) Gecko/20100101 Firefox/52.0"
220.164.2.99 - - [04/Nov/2018:22:56:53 +0000] "POST /wp-login.php HTTP/1.0" 200 3290 "-" "Mozilla/5.0 (Windows NT 6.1; rv:52.0) Gecko/20100101 Firefox/52.0"
220.164.2.99 - - [04/Nov/2018:22:56:55 +0000] "POST /wp-login.php HTTP/1.0" 403 214 "-" "Mozilla/5.0 (Windows NT 6.1; rv:52.0) Gecko/20100101 Firefox/52.0"
220.178.2.114 - - [04/Nov/2018:22:57:48 +0000] "POST /wp-login.php HTTP/1.0" 200 3290 "-" "Mozilla/5.0 (Windows NT 6.1; rv:52.0) Gecko/20100101 Firefox/52.0"
220.178.2.114 - - [04/Nov/2018:22:57:49 +0000] "POST /wp-login.php HTTP/1.0" 200 3290 "-" "Mozilla/5.0 (Windows NT 6.1; rv:52.0) Gecko/20100101 Firefox/52.0"
220.178.2.114 - - [04/Nov/2018:22:57:51 +0000] "POST /wp-login.php HTTP/1.0" 200 3290 "-" "Mozilla/5.0 (Windows NT 6.1; rv:52.0) Gecko/20100101 Firefox/52.0"
220.178.2.114 - - [04/Nov/2018:22:57:52 +0000] "POST /wp-login.php HTTP/1.0" 200 3290 "-" "Mozilla/5.0 (Windows NT 6.1; rv:52.0) Gecko/20100101 Firefox/52.0"
220.178.2.114 - - [04/Nov/2018:22:57:54 +0000] "POST /wp-login.php HTTP/1.0" 200 3290 "-" "Mozilla/5.0 (Windows NT 6.1; rv:52.0) Gecko/20100101 Firefox/52.0"
220.178.2.114 - - [04/Nov/2018:22:57:55 +0000] "POST /wp-login.php HTTP/1.0" 200 3290 "-" "Mozilla/5.0 (Windows NT 6.1; rv:52.0) Gecko/20100101 Firefox/52.0"
220.178.2.114 - - [04/Nov/2018:22:57:56 +0000] "POST /wp-login.php HTTP/1.0" 200 3290 "-" "Mozilla/5.0 (Windows NT 6.1; rv:52.0) Gecko/20100101 Firefox/52.0"
220.178.2.114 - - [04/Nov/2018:22:57:58 +0000] "POST /wp-login.php HTTP/1.0" 200 3290 "-" "Mozilla/5.0 (Windows NT 6.1; rv:52.0) Gecko/20100101 Firefox/52.0"
220.178.2.114 - - [04/Nov/2018:22:57:59 +0000] "POST /wp-login.php HTTP/1.0" 200 3290 "-" "Mozilla/5.0 (Windows NT 6.1; rv:52.0) Gecko/20100101 Firefox/52.0"
220.178.2.114 - - [04/Nov/2018:22:58:01 +0000] "POST /wp-login.php HTTP/1.0" 200 3290 "-" "Mozilla/5.0 (Windows NT 6.1; rv:52.0) Gecko/20100101 Firefox/52.0"
220.178.2.114 - - [04/Nov/2018:22:58:02 +0000] "POST /wp-login.php HTTP/1.0" 200 3290 "-" "Mozilla/5.0 (Windows NT 6.1; rv:52.0) Gecko/20100101 Firefox/52.0"
220.178.2.114 - - [04/Nov/2018:22:58:04 +0000] "POST /wp-login.php HTTP/1.0" 200 3290 "-" "Mozilla/5.0 (Windows NT 6.1; rv:52.0) Gecko/20100101 Firefox/52.0"
220.178.2.114 - - [04/Nov/2018:22:58:05 +0000] "POST /wp-login.php HTTP/1.0" 200 3290 "-" "Mozilla/5.0 (Windows NT 6.1; rv:52.0) Gecko/20100101 Firefox/52.0"
220.178.2.114 - - [04/Nov/2018:22:58:07 +0000] "POST /wp-login.php HTTP/1.0" 200 3290 "-" "Mozilla/5.0 (Windows NT 6.1; rv:52.0) Gecko/20100101 Firefox/52.0"
220.178.2.114 - - [04/Nov/2018:22:58:08 +0000] "POST /wp-login.php HTTP/1.0" 200 3290 "-" "Mozilla/5.0 (Windows NT 6.1; rv:52.0) Gecko/20100101 Firefox/52.0"
220.178.2.114 - - [04/Nov/2018:22:58:10 +0000] "POST /wp-login.php HTTP/1.0" 200 3290 "-" "Mozilla/5.0 (Windows NT 6.1; rv:52.0) Gecko/20100101 Firefox/52.0"
220.178.2.114 - - [04/Nov/2018:22:58:11 +0000] "POST /wp-login.php HTTP/1.0" 200 3290 "-" "Mozilla/5.0 (Windows NT 6.1; rv:52.0) Gecko/20100101 Firefox/52.0"
220.178.2.114 - - [04/Nov/2018:22:58:13 +0000] "POST /wp-login.php HTTP/1.0" 200 3290 "-" "Mozilla/5.0 (Windows NT 6.1; rv:52.0) Gecko/20100101 Firefox/52.0"
220.178.2.114 - - [04/Nov/2018:22:58:14 +0000] "POST /wp-login.php HTTP/1.0" 200 3290 "-" "Mozilla/5.0 (Windows NT 6.1; rv:52.0) Gecko/20100101 Firefox/52.0"
220.178.2.114 - - [04/Nov/2018:22:58:16 +0000] "POST /wp-login.php HTTP/1.0" 200 3290 "-" "Mozilla/5.0 (Windows NT 6.1; rv:52.0) Gecko/20100101 Firefox/52.0"
220.178.2.114 - - [04/Nov/2018:22:58:17 +0000] "POST /wp-login.php HTTP/1.0" 403 214 "-" "Mozilla/5.0 (Windows NT 6.1; rv:52.0) Gecko/20100101 Firefox/52.0"
218.64.165.194 - - [04/Nov/2018:22:58:39 +0000] "POST /wp-login.php HTTP/1.0" 200 3290 "-" "Mozilla/5.0 (Windows NT 6.1; rv:52.0) Gecko/20100101 Firefox/52.0"
218.64.165.194 - - [04/Nov/2018:22:58:41 +0000] "POST /wp-login.php HTTP/1.0" 200 3290 "-" "Mozilla/5.0 (Windows NT 6.1; rv:52.0) Gecko/20100101 Firefox/52.0"
218.64.165.194 - - [04/Nov/2018:22:58:42 +0000] "POST /wp-login.php HTTP/1.0" 200 3290 "-" "Mozilla/5.0 (Windows NT 6.1; rv:52.0) Gecko/20100101 Firefox/52.0"
218.64.165.194 - - [04/Nov/2018:22:58:44 +0000] "POST /wp-login.php HTTP/1.0" 200 3290 "-" "Mozilla/5.0 (Windows NT 6.1; rv:52.0) Gecko/20100101 Firefox/52.0"
218.64.165.194 - - [04/Nov/2018:22:58:47 +0000] "POST /wp-login.php HTTP/1.0" 200 3290 "-" "Mozilla/5.0 (Windows NT 6.1; rv:52.0) Gecko/20100101 Firefox/52.0"
218.64.165.194 - - [04/Nov/2018:22:58:48 +0000] "POST /wp-login.php HTTP/1.0" 200 3290 "-" "Mozilla/5.0 (Windows NT 6.1; rv:52.0) Gecko/20100101 Firefox/52.0"
218.64.165.194 - - [04/Nov/2018:22:58:51 +0000] "POST /wp-login.php HTTP/1.0" 200 3290 "-" "Mozilla/5.0 (Windows NT 6.1; rv:52.0) Gecko/20100101 Firefox/52.0"
218.64.165.194 - - [04/Nov/2018:22:58:53 +0000] "POST /wp-login.php HTTP/1.0" 200 3290 "-" "Mozilla/5.0 (Windows NT 6.1; rv:52.0) Gecko/20100101 Firefox/52.0"
218.28.76.99 - - [04/Nov/2018:22:59:08 +0000] "POST /wp-login.php HTTP/1.0" 200 3290 "-" "Mozilla/5.0 (Windows NT 6.1; rv:52.0) Gecko/20100101 Firefox/52.0"
218.28.76.99 - - [04/Nov/2018:22:59:10 +0000] "POST /wp-login.php HTTP/1.0" 200 3290 "-" "Mozilla/5.0 (Windows NT 6.1; rv:52.0) Gecko/20100101 Firefox/52.0"
218.28.76.99 - - [04/Nov/2018:22:59:12 +0000] "POST /wp-login.php HTTP/1.0" 200 3290 "-" "Mozilla/5.0 (Windows NT 6.1; rv:52.0) Gecko/20100101 Firefox/52.0"
218.28.76.99 - - [04/Nov/2018:22:59:14 +0000] "POST /wp-login.php HTTP/1.0" 200 3290 "-" "Mozilla/5.0 (Windows NT 6.1; rv:52.0) Gecko/20100101 Firefox/52.0"
218.28.76.99 - - [04/Nov/2018:22:59:15 +0000] "POST /wp-login.php HTTP/1.0" 200 3290 "-" "Mozilla/5.0 (Windows NT 6.1; rv:52.0) Gecko/20100101 Firefox/52.0"
218.28.76.99 - - [04/Nov/2018:22:59:17 +0000] "POST /wp-login.php HTTP/1.0" 200 3290 "-" "Mozilla/5.0 (Windows NT 6.1; rv:52.0) Gecko/20100101 Firefox/52.0"
218.28.76.99 - - [04/Nov/2018:22:59:19 +0000] "POST /wp-login.php HTTP/1.0" 200 3290 "-" "Mozilla/5.0 (Windows NT 6.1; rv:52.0) Gecko/20100101 Firefox/52.0"
218.28.76.99 - - [04/Nov/2018:22:59:20 +0000] "POST /wp-login.php HTTP/1.0" 200 3290 "-" "Mozilla/5.0 (Windows NT 6.1; rv:52.0) Gecko/20100101 Firefox/52.0"
218.28.76.99 - - [04/Nov/2018:22:59:22 +0000] "POST /wp-login.php HTTP/1.0" 200 3290 "-" "Mozilla/5.0 (Windows NT 6.1; rv:52.0) Gecko/20100101 Firefox/52.0"
218.28.76.99 - - [04/Nov/2018:22:59:23 +0000] "POST /wp-login.php HTTP/1.0" 200 3290 "-" "Mozilla/5.0 (Windows NT 6.1; rv:52.0) Gecko/20100101 Firefox/52.0"
218.28.76.99 - - [04/Nov/2018:22:59:25 +0000] "POST /wp-login.php HTTP/1.0" 200 3290 "-" "Mozilla/5.0 (Windows NT 6.1; rv:52.0) Gecko/20100101 Firefox/52.0"
218.28.76.99 - - [04/Nov/2018:22:59:27 +0000] "POST /wp-login.php HTTP/1.0" 200 3290 "-" "Mozilla/5.0 (Windows NT 6.1; rv:52.0) Gecko/20100101 Firefox/52.0"
218.28.76.99 - - [04/Nov/2018:22:59:28 +0000] "POST /wp-login.php HTTP/1.0" 200 3290 "-" "Mozilla/5.0 (Windows NT 6.1; rv:52.0) Gecko/20100101 Firefox/52.0"
218.28.76.99 - - [04/Nov/2018:22:59:30 +0000] "POST /wp-login.php HTTP/1.0" 200 3290 "-" "Mozilla/5.0 (Windows NT 6.1; rv:52.0) Gecko/20100101 Firefox/52.0"
218.28.76.99 - - [04/Nov/2018:22:59:32 +0000] "POST /wp-login.php HTTP/1.0" 200 3290 "-" "Mozilla/5.0 (Windows NT 6.1; rv:52.0) Gecko/20100101 Firefox/52.0"
218.28.76.99 - - [04/Nov/2018:22:59:34 +0000] "POST /wp-login.php HTTP/1.0" 200 3290 "-" "Mozilla/5.0 (Windows NT 6.1; rv:52.0) Gecko/20100101 Firefox/52.0"
218.28.76.99 - - [04/Nov/2018:22:59:36 +0000] "POST /wp-login.php HTTP/1.0" 200 3290 "-" "Mozilla/5.0 (Windows NT 6.1; rv:52.0) Gecko/20100101 Firefox/52.0"
218.28.76.99 - - [04/Nov/2018:22:59:37 +0000] "POST /wp-login.php HTTP/1.0" 200 3290 "-" "Mozilla/5.0 (Windows NT 6.1; rv:52.0) Gecko/20100101 Firefox/52.0"
218.28.76.99 - - [04/Nov/2018:22:59:39 +0000] "POST /wp-login.php HTTP/1.0" 200 3290 "-" "Mozilla/5.0 (Windows NT 6.1; rv:52.0) Gecko/20100101 Firefox/52.0"
218.28.76.99 - - [04/Nov/2018:22:59:41 +0000] "POST /wp-login.php HTTP/1.0" 200 3290 "-" "Mozilla/5.0 (Windows NT 6.1; rv:52.0) Gecko/20100101 Firefox/52.0"
218.28.76.99 - - [04/Nov/2018:22:59:42 +0000] "POST /wp-login.php HTTP/1.0" 403 214 "-" "Mozilla/5.0 (Windows NT 6.1; rv:52.0) Gecko/20100101 Firefox/52.0"
31.170.123.73 - - [04/Nov/2018:23:35:36 +0000] "POST /wp-cron.php?doing_wp_cron=1541374536.9290950298309326171875 HTTP/1.0" 200 - "http://xintanalegends.com/wp-cron.php?doing_wp_cron=1541374536.9290950298309326171875" "WordPress/4.9.8; http://xintanalegends.com"
54.36.148.247 - - [04/Nov/2018:23:35:36 +0000] "GET /?feed=rss2&p=656 HTTP/1.0" 200 717 "-" "Mozilla/5.0 (compatible; AhrefsBot/5.2; +http://ahrefs.com/robot/)"
66.160.140.181 - - [05/Nov/2018:00:05:24 +0000] "GET /robots.txt HTTP/1.0" 404 208 "-" "The Knowledge AI"
31.170.123.73 - - [05/Nov/2018:00:05:24 +0000] "POST /wp-cron.php?doing_wp_cron=1541376324.6903359889984130859375 HTTP/1.0" 200 - "http://xintanalegends.com/wp-cron.php?doing_wp_cron=1541376324.6903359889984130859375" "WordPress/4.9.8; http://xintanalegends.com"
66.160.140.181 - - [05/Nov/2018:00:05:24 +0000] "GET / HTTP/1.0" 200 59951 "-" "The Knowledge AI"
180.76.15.11 - - [05/Nov/2018:00:36:06 +0000] "GET / HTTP/1.0" 200 59951 "-" "Mozilla/5.0 (compatible; Baiduspider/2.0; +http://www.baidu.com/search/spider.html)"
31.170.123.73 - - [05/Nov/2018:02:49:49 +0000] "POST /wp-cron.php?doing_wp_cron=1541386189.4892079830169677734375 HTTP/1.0" 200 - "http://xintanalegends.com/wp-cron.php?doing_wp_cron=1541386189.4892079830169677734375" "WordPress/4.9.8; http://xintanalegends.com"
52.165.166.139 - - [05/Nov/2018:02:49:49 +0000] "GET / HTTP/1.0" 200 59951 "-" "Mozilla/5.0 (Windows NT 6.1; Win64; x64) AppleWebKit/537.36 (KHTML, like Gecko) Chrome/65.0.3325.181 Safari/537.36"
