34.222.224.38 - - [01/Nov/2018:03:19:08 +0000] "GET / HTTP/1.0" 302 20 "-" "Mozilla/5.0 (Windows NT 10.0; Win64; x64) AppleWebKit/537.36 (KHTML, like Gecko) Chrome/66.0.3359.181 Safari/537.36"
34.222.224.38 - - [01/Nov/2018:03:19:09 +0000] "GET /login_page.php HTTP/1.0" 200 1375 "-" "Mozilla/5.0 (Windows NT 10.0; Win64; x64) AppleWebKit/537.36 (KHTML, like Gecko) Chrome/66.0.3359.181 Safari/537.36"
18.188.177.91 - - [01/Nov/2018:03:19:24 +0000] "GET /login_page.php HTTP/1.0" 200 1375 "-" "Mozilla/5.0 (Macintosh; Intel Mac OS X x.y; rv:42.0) AppleWebKit/537.36 (KHTML, like Gecko) Chrome/67.0.3396.79 Safari/537.36"
178.154.244.10 - - [01/Nov/2018:03:39:42 +0000] "GET /robots.txt HTTP/1.0" 404 208 "-" "Mozilla/5.0 (compatible; YandexBot/3.0; +http://yandex.com/bots)"
178.154.244.10 - - [01/Nov/2018:03:39:45 +0000] "GET /browser_search_plugin.php?type=id HTTP/1.0" 200 367 "-" "Mozilla/5.0 (compatible; YandexBot/3.0; +http://yandex.com/bots)"
141.8.142.120 - - [01/Nov/2018:03:39:59 +0000] "GET /robots.txt HTTP/1.0" 404 208 "-" "Mozilla/5.0 (compatible; YandexBot/3.0; +http://yandex.com/bots)"
178.154.244.10 - - [01/Nov/2018:03:40:04 +0000] "GET /browser_search_plugin.php?type=id HTTP/1.0" 200 366 "-" "Mozilla/5.0 (compatible; YandexBot/3.0; +http://yandex.com/bots)"
18.222.207.230 - - [01/Nov/2018:03:49:12 +0000] "GET /login_page.php HTTP/1.0" 200 1375 "-" "Mozilla/5.0 (X11; Linux x86_64) Gecko/20100101 Chrome/51.0.2704.106 Safari/537.36 OPR/38.0.2220.41"
66.249.69.219 - - [01/Nov/2018:04:05:24 +0000] "GET /robots.txt HTTP/1.0" 404 208 "-" "Mozilla/5.0 (compatible; Googlebot/2.1; +http://www.google.com/bot.html)"
66.249.69.219 - - [01/Nov/2018:04:05:24 +0000] "GET /javascript_config.php HTTP/1.0" 200 107 "http://orangepotion.com/login_page.php" "Mozilla/5.0 AppleWebKit/537.36 (KHTML, like Gecko; compatible; Googlebot/2.1; +http://www.google.com/bot.html) Safari/537.36"
66.249.69.215 - - [01/Nov/2018:04:05:25 +0000] "GET /js/list-1.4.1.min.js HTTP/1.0" 200 15689 "http://orangepotion.com/login_page.php" "Mozilla/5.0 AppleWebKit/537.36 (KHTML, like Gecko; compatible; Googlebot/2.1; +http://www.google.com/bot.html) Safari/537.36"
66.249.69.215 - - [01/Nov/2018:04:05:27 +0000] "GET /css/status_config.php HTTP/1.0" 200 20 "http://orangepotion.com/login_page.php" "Mozilla/5.0 AppleWebKit/537.36 (KHTML, like Gecko; compatible; Googlebot/2.1; +http://www.google.com/bot.html) Safari/537.36"
66.249.69.217 - - [01/Nov/2018:04:05:28 +0000] "GET /js/moment-with-locales-2.15.2.min.js HTTP/1.0" 200 232806 "http://orangepotion.com/login_page.php" "Mozilla/5.0 AppleWebKit/537.36 (KHTML, like Gecko; compatible; Googlebot/2.1; +http://www.google.com/bot.html) Safari/537.36"
66.249.69.217 - - [01/Nov/2018:04:05:31 +0000] "GET /css/dropzone-4.3.0.min.css HTTP/1.0" 200 9716 "http://orangepotion.com/login_page.php" "Mozilla/5.0 AppleWebKit/537.36 (KHTML, like Gecko; compatible; Googlebot/2.1; +http://www.google.com/bot.html) Safari/537.36"
66.249.69.217 - - [01/Nov/2018:04:05:32 +0000] "GET /css/bootstrap-datetimepicker-4.17.47.min.css HTTP/1.0" 200 7785 "http://orangepotion.com/login_page.php" "Mozilla/5.0 AppleWebKit/537.36 (KHTML, like Gecko; compatible; Googlebot/2.1; +http://www.google.com/bot.html) Safari/537.36"
66.249.69.215 - - [01/Nov/2018:04:05:33 +0000] "GET /js/ace.min.js HTTP/1.0" 200 41178 "http://orangepotion.com/login_page.php" "Mozilla/5.0 AppleWebKit/537.36 (KHTML, like Gecko; compatible; Googlebot/2.1; +http://www.google.com/bot.html) Safari/537.36"
66.249.69.215 - - [01/Nov/2018:04:05:35 +0000] "GET /css/open-sans.css HTTP/1.0" 200 1175 "http://orangepotion.com/login_page.php" "Mozilla/5.0 AppleWebKit/537.36 (KHTML, like Gecko; compatible; Googlebot/2.1; +http://www.google.com/bot.html) Safari/537.36"
66.249.69.219 - - [01/Nov/2018:04:06:04 +0000] "GET /favicon.ico HTTP/1.0" 404 209 "-" "Googlebot-Image/1.0"
18.191.154.160 - - [01/Nov/2018:04:19:21 +0000] "GET /login_page.php HTTP/1.0" 200 1375 "-" "Mozilla/5.0 (Windows NT 6.1; Win64; x64; rv:47.0) AppleWebKit/537.36 (KHTML, like Gecko) Chrome/67.0.3396.79 Safari/537.36"
18.221.249.123 - - [01/Nov/2018:04:49:12 +0000] "GET /login_page.php HTTP/1.0" 200 1375 "-" "Mozilla/5.0 (X11; Linux x86_64) Trident/5.0 Safari/602.1"
18.220.65.247 - - [01/Nov/2018:05:19:14 +0000] "GET /login_page.php HTTP/1.0" 200 1375 "-" "Mozilla/5.0 (Windows NT 6.1; Win64; x64; rv:47.0) Gecko/20100101 Chrome/51.0.2704.106 Safari/537.36 OPR/38.0.2220.41"
18.223.195.193 - - [01/Nov/2018:05:49:06 +0000] "GET /login_page.php HTTP/1.0" 200 1375 "-" "Mozilla/5.0 (X11; Linux x86_64) Trident/5.0 Chrome/67.0.3396.79 Safari/537.36"
66.249.69.219 - - [01/Nov/2018:05:51:38 +0000] "GET /favicon.ico HTTP/1.0" 404 209 "-" "Googlebot-Image/1.0"
13.58.214.240 - - [01/Nov/2018:06:19:12 +0000] "GET /login_page.php HTTP/1.0" 200 1375 "-" "Mozilla/5.0 (Windows NT 6.1; Win64; x64; rv:47.0) Trident/5.0 Chrome/67.0.3396.79 Safari/537.36"
18.191.114.91 - - [01/Nov/2018:06:49:09 +0000] "GET /login_page.php HTTP/1.0" 200 1375 "-" "Mozilla/5.0 (X11; Linux x86_64) Trident/5.0 Chrome/67.0.3396.79 Safari/537.36"
123.125.67.162 - - [01/Nov/2018:07:01:17 +0000] "GET /robots.txt HTTP/1.0" 404 208 "-" "Mozilla/5.0 (Windows NT 10.0; WOW64) AppleWebKit/537.36 (KHTML, like Gecko) Chrome/45.0.2454.93 Safari/537.36"
18.188.113.117 - - [01/Nov/2018:07:18:58 +0000] "GET /login_page.php HTTP/1.0" 200 1375 "-" "Mozilla/5.0 (Macintosh; Intel Mac OS X x.y; rv:42.0) AppleWebKit/537.36 (KHTML, like Gecko) Chrome/67.0.3396.79 Safari/537.36"
18.223.185.60 - - [01/Nov/2018:07:49:29 +0000] "GET /login_page.php HTTP/1.0" 200 1375 "-" "Mozilla/5.0 (Macintosh; Intel Mac OS X x.y; rv:42.0) Gecko/20100101 Firefox/42.0"
18.224.135.194 - - [01/Nov/2018:08:19:05 +0000] "GET /login_page.php HTTP/1.0" 200 1375 "-" "Mozilla/5.0 (Windows NT 6.1; Win64; x64; rv:47.0) Trident/5.0 Firefox/42.0"
184.174.51.254 - - [01/Nov/2018:08:23:00 +0000] "GET / HTTP/1.0" 302 20 "-" "Mozilla/5.0 (Macintosh; Intel Mac OS X 10_12_5) AppleWebKit/537.36 (KHTML, like Gecko) Chrome/58.0.3029.110 Safari/537.36"
184.174.51.254 - - [01/Nov/2018:08:23:00 +0000] "GET /login_page.php HTTP/1.0" 200 1375 "-" "Mozilla/5.0 (Macintosh; Intel Mac OS X 10_12_5) AppleWebKit/537.36 (KHTML, like Gecko) Chrome/58.0.3029.110 Safari/537.36"
18.222.207.230 - - [01/Nov/2018:08:48:40 +0000] "GET /login_page.php HTTP/1.0" 200 1375 "-" "Mozilla/5.0 (Macintosh; Intel Mac OS X x.y; rv:42.0) Trident/5.0 Firefox/42.0"
18.218.156.196 - - [01/Nov/2018:09:19:12 +0000] "GET /login_page.php HTTP/1.0" 200 1375 "-" "Mozilla/5.0 (X11; Linux x86_64) Gecko/20100101 Chrome/67.0.3396.79 Safari/537.36"
3.16.46.187 - - [01/Nov/2018:09:49:18 +0000] "GET /login_page.php HTTP/1.0" 200 1375 "-" "Mozilla/5.0 (Windows NT 6.1; Win64; x64; rv:47.0) AppleWebKit/537.36 (KHTML, like Gecko) Firefox/42.0"
18.217.24.3 - - [01/Nov/2018:10:19:09 +0000] "GET /login_page.php HTTP/1.0" 200 1375 "-" "Mozilla/5.0 (X11; Linux x86_64) AppleWebKit/537.36 (KHTML, like Gecko) Chrome/51.0.2704.106 Safari/537.36 OPR/38.0.2220.41"
18.191.154.160 - - [01/Nov/2018:10:49:36 +0000] "GET /login_page.php HTTP/1.0" 200 1375 "-" "Mozilla/5.0 (X11; Linux x86_64) AppleWebKit/537.36 (KHTML, like Gecko) Firefox/42.0"
18.222.69.217 - - [01/Nov/2018:11:17:43 +0000] "GET /login_page.php HTTP/1.0" 200 1375 "-" "Mozilla/5.0 (Macintosh; Intel Mac OS X x.y; rv:42.0) Trident/5.0 Chrome/51.0.2704.106 Safari/537.36 OPR/38.0.2220.41"
18.217.89.105 - - [01/Nov/2018:11:46:23 +0000] "GET /login_page.php HTTP/1.0" 200 1375 "-" "Mozilla/5.0 (Windows NT 6.1; Win64; x64; rv:47.0) Trident/5.0 Firefox/42.0"
141.8.142.120 - - [01/Nov/2018:12:09:32 +0000] "GET /robots.txt HTTP/1.0" 404 208 "-" "Mozilla/5.0 (compatible; YandexBot/3.0; +http://yandex.com/bots)"
178.154.244.10 - - [01/Nov/2018:12:09:36 +0000] "GET /browser_search_plugin.php?type=text HTTP/1.0" 200 403 "-" "Mozilla/5.0 (compatible; YandexBot/3.0; +http://yandex.com/bots)"
18.217.89.105 - - [01/Nov/2018:12:18:02 +0000] "GET /login_page.php HTTP/1.0" 200 1375 "-" "Mozilla/5.0 (Macintosh; Intel Mac OS X x.y; rv:42.0) AppleWebKit/537.36 (KHTML, like Gecko) Safari/602.1"
178.154.200.6 - - [01/Nov/2018:12:20:17 +0000] "GET / HTTP/1.0" 302 20 "-" "Mozilla/5.0 (compatible; YandexBot/3.0; +http://yandex.com/bots)"
141.8.142.120 - - [01/Nov/2018:12:20:17 +0000] "GET /robots.txt HTTP/1.0" 404 208 "-" "Mozilla/5.0 (compatible; YandexBot/3.0; +http://yandex.com/bots)"
37.9.113.40 - - [01/Nov/2018:12:20:21 +0000] "GET /login_page.php HTTP/1.0" 200 1465 "-" "Mozilla/5.0 (compatible; YandexBot/3.0; +http://yandex.com/bots)"
141.8.142.120 - - [01/Nov/2018:12:20:21 +0000] "GET / HTTP/1.0" 302 20 "-" "Mozilla/5.0 (compatible; YandexBot/3.0; +http://yandex.com/bots)"
178.154.244.10 - - [01/Nov/2018:12:20:25 +0000] "GET /login_page.php HTTP/1.0" 200 1467 "-" "Mozilla/5.0 (compatible; YandexBot/3.0; +http://yandex.com/bots)"
18.224.18.240 - - [01/Nov/2018:12:47:39 +0000] "GET /login_page.php HTTP/1.0" 200 1375 "-" "Mozilla/5.0 (Macintosh; Intel Mac OS X x.y; rv:42.0) Trident/5.0 Chrome/51.0.2704.106 Safari/537.36 OPR/38.0.2220.41"
18.222.69.217 - - [01/Nov/2018:13:17:49 +0000] "GET /login_page.php HTTP/1.0" 200 1375 "-" "Mozilla/5.0 (Windows NT 6.1; Win64; x64; rv:47.0) Trident/5.0 Chrome/51.0.2704.106 Safari/537.36 OPR/38.0.2220.41"
66.249.69.217 - - [01/Nov/2018:13:33:27 +0000] "GET /login_page.php HTTP/1.0" 200 1375 "-" "Mozilla/5.0 (compatible; Googlebot/2.1; +http://www.google.com/bot.html)"
66.249.69.217 - - [01/Nov/2018:13:33:31 +0000] "GET /css/login.css HTTP/1.0" 200 827 "http://orangepotion.com/login_page.php" "Mozilla/5.0 AppleWebKit/537.36 (KHTML, like Gecko; compatible; Googlebot/2.1; +http://www.google.com/bot.html) Safari/537.36"
66.249.69.215 - - [01/Nov/2018:13:33:45 +0000] "GET /favicon.ico HTTP/1.0" 404 209 "-" "Googlebot-Image/1.0"
18.217.24.3 - - [01/Nov/2018:13:37:07 +0000] "GET /login_page.php HTTP/1.0" 200 1375 "-" "Mozilla/5.0 (Macintosh; Intel Mac OS X x.y; rv:42.0) Gecko/20100101 Safari/602.1"
52.14.98.62 - - [01/Nov/2018:14:07:12 +0000] "GET /login_page.php HTTP/1.0" 200 1375 "-" "Mozilla/5.0 (Macintosh; Intel Mac OS X x.y; rv:42.0) Gecko/20100101 Safari/602.1"
18.191.154.160 - - [01/Nov/2018:14:37:22 +0000] "GET /login_page.php HTTP/1.0" 200 1375 "-" "Mozilla/5.0 (Windows NT 6.1; Win64; x64; rv:47.0) Trident/5.0 Safari/602.1"
18.217.89.105 - - [01/Nov/2018:15:06:59 +0000] "GET /login_page.php HTTP/1.0" 200 1375 "-" "Mozilla/5.0 (Windows NT 6.1; Win64; x64; rv:47.0) AppleWebKit/537.36 (KHTML, like Gecko) Chrome/51.0.2704.106 Safari/537.36 OPR/38.0.2220.41"
18.188.113.117 - - [01/Nov/2018:15:44:54 +0000] "GET /login_page.php HTTP/1.0" 200 1375 "-" "Mozilla/5.0 (X11; Linux x86_64) Trident/5.0 Safari/602.1"
18.223.247.156 - - [01/Nov/2018:16:18:40 +0000] "GET /login_page.php HTTP/1.0" 200 1375 "-" "Mozilla/5.0 (X11; Linux x86_64) Gecko/20100101 Chrome/51.0.2704.106 Safari/537.36 OPR/38.0.2220.41"
192.30.253.29 - - [01/Nov/2018:16:27:49 +0000] "POST /plugin.php?api_key=e21bd63cb678b35975b4758d&page=Source%2Fcheckin HTTP/1.0" 200 247 "-" "GitHub-Hookshot/c48e715"
18.222.69.217 - - [01/Nov/2018:16:48:05 +0000] "GET /login_page.php HTTP/1.0" 200 1375 "-" "Mozilla/5.0 (Windows NT 6.1; Win64; x64; rv:47.0) Trident/5.0 Chrome/67.0.3396.79 Safari/537.36"
18.188.208.82 - - [01/Nov/2018:17:19:52 +0000] "GET /login_page.php HTTP/1.0" 200 1375 "-" "Mozilla/5.0 (X11; Linux x86_64) Gecko/20100101 Chrome/51.0.2704.106 Safari/537.36 OPR/38.0.2220.41"
220.181.108.163 - - [01/Nov/2018:17:31:56 +0000] "GET /login_page.php?return=%2Fview_all_bug_page.php HTTP/1.0" 200 1431 "-" "Mozilla/5.0 (compatible; Baiduspider/2.0; +http://www.baidu.com/search/spider.html)"
111.206.198.11 - - [01/Nov/2018:17:31:58 +0000] "GET /js/jquery-2.2.4.min.js HTTP/1.0" 200 85578 "http://orangepotion.com/login_page.php?return=%2Fview_all_bug_page.php" "Mozilla/5.0 (iPhone; CPU iPhone OS 9_1 like Mac OS X) AppleWebKit/601.1.46 (KHTML, like Gecko) Version/9.0 Mobile/13B143 Safari/601.1 (compatible; Baiduspider-render/2.0; +http://www.baidu.com/search/spider.html)"
111.206.198.53 - - [01/Nov/2018:17:31:57 +0000] "GET /css/status_config.php HTTP/1.0" 200 - "http://orangepotion.com/login_page.php?return=%2Fview_all_bug_page.php" "Mozilla/5.0 (iPhone; CPU iPhone OS 9_1 like Mac OS X) AppleWebKit/601.1.46 (KHTML, like Gecko) Version/9.0 Mobile/13B143 Safari/601.1 (compatible; Baiduspider-render/2.0; +http://www.baidu.com/search/spider.html)"
111.206.198.95 - - [01/Nov/2018:17:31:57 +0000] "GET /javascript_config.php HTTP/1.0" 200 106 "http://orangepotion.com/login_page.php?return=%2Fview_all_bug_page.php" "Mozilla/5.0 (iPhone; CPU iPhone OS 9_1 like Mac OS X) AppleWebKit/601.1.46 (KHTML, like Gecko) Version/9.0 Mobile/13B143 Safari/601.1 (compatible; Baiduspider-render/2.0; +http://www.baidu.com/search/spider.html)"
111.206.198.119 - - [01/Nov/2018:17:31:57 +0000] "GET /plugin_file.php?file=MantisGraph/chart-2.1.6.min.js HTTP/1.0" 200 139378 "http://orangepotion.com/login_page.php?return=%2Fview_all_bug_page.php" "Mozilla/5.0 (iPhone; CPU iPhone OS 9_1 like Mac OS X) AppleWebKit/601.1.46 (KHTML, like Gecko) Version/9.0 Mobile/13B143 Safari/601.1 (compatible; Baiduspider-render/2.0; +http://www.baidu.com/search/spider.html)"
111.206.221.9 - - [01/Nov/2018:17:31:58 +0000] "GET /javascript_translations.php HTTP/1.0" 200 192 "http://orangepotion.com/login_page.php?return=%2Fview_all_bug_page.php" "Mozilla/5.0 (iPhone; CPU iPhone OS 9_1 like Mac OS X) AppleWebKit/601.1.46 (KHTML, like Gecko) Version/9.0 Mobile/13B143 Safari/601.1 (compatible; Baiduspider-render/2.0; +http://www.baidu.com/search/spider.html)"
111.206.198.49 - - [01/Nov/2018:17:31:58 +0000] "GET /plugin_file.php?file=MantisGraph/chart.bundle-2.1.6.min.js HTTP/1.0" 200 185873 "http://orangepotion.com/login_page.php?return=%2Fview_all_bug_page.php" "Mozilla/5.0 (iPhone; CPU iPhone OS 9_1 like Mac OS X) AppleWebKit/601.1.46 (KHTML, like Gecko) Version/9.0 Mobile/13B143 Safari/601.1 (compatible; Baiduspider-render/2.0; +http://www.baidu.com/search/spider.html)"
111.206.198.94 - - [01/Nov/2018:17:31:58 +0000] "GET /plugin_file.php?file=MantisGraph/MantisGraph.js HTTP/1.0" 200 2541 "http://orangepotion.com/login_page.php?return=%2Fview_all_bug_page.php" "Mozilla/5.0 (iPhone; CPU iPhone OS 9_1 like Mac OS X) AppleWebKit/601.1.46 (KHTML, like Gecko) Version/9.0 Mobile/13B143 Safari/601.1 (compatible; Baiduspider-render/2.0; +http://www.baidu.com/search/spider.html)"
111.206.198.26 - - [01/Nov/2018:17:31:59 +0000] "GET /js/bootstrap-3.3.6.min.js HTTP/1.0" 200 36868 "http://orangepotion.com/login_page.php?return=%2Fview_all_bug_page.php" "Mozilla/5.0 (iPhone; CPU iPhone OS 9_1 like Mac OS X) AppleWebKit/601.1.46 (KHTML, like Gecko) Version/9.0 Mobile/13B143 Safari/601.1 (compatible; Baiduspider-render/2.0; +http://www.baidu.com/search/spider.html)"
111.206.198.28 - - [01/Nov/2018:17:32:00 +0000] "GET /js/moment-with-locales-2.15.2.min.js HTTP/1.0" 200 232806 "http://orangepotion.com/login_page.php?return=%2Fview_all_bug_page.php" "Mozilla/5.0 (iPhone; CPU iPhone OS 9_1 like Mac OS X) AppleWebKit/601.1.46 (KHTML, like Gecko) Version/9.0 Mobile/13B143 Safari/601.1 (compatible; Baiduspider-render/2.0; +http://www.baidu.com/search/spider.html)"
111.206.221.3 - - [01/Nov/2018:17:32:00 +0000] "GET /js/bootstrap-datetimepicker-4.17.47.min.js HTTP/1.0" 200 38510 "http://orangepotion.com/login_page.php?return=%2Fview_all_bug_page.php" "Mozilla/5.0 (iPhone; CPU iPhone OS 9_1 like Mac OS X) AppleWebKit/601.1.46 (KHTML, like Gecko) Version/9.0 Mobile/13B143 Safari/601.1 (compatible; Baiduspider-render/2.0; +http://www.baidu.com/search/spider.html)"
111.206.221.26 - - [01/Nov/2018:17:32:00 +0000] "GET /images/mantis_logo.png HTTP/1.0" 200 77114 "http://orangepotion.com/login_page.php?return=%2Fview_all_bug_page.php" "Mozilla/5.0 (iPhone; CPU iPhone OS 9_1 like Mac OS X) AppleWebKit/601.1.46 (KHTML, like Gecko) Version/9.0 Mobile/13B143 Safari/601.1 (compatible; Baiduspider-render/2.0; +http://www.baidu.com/search/spider.html)"
111.206.221.42 - - [01/Nov/2018:17:32:00 +0000] "GET /js/ace.min.js HTTP/1.0" 200 41178 "http://orangepotion.com/login_page.php?return=%2Fview_all_bug_page.php" "Mozilla/5.0 (iPhone; CPU iPhone OS 9_1 like Mac OS X) AppleWebKit/601.1.46 (KHTML, like Gecko) Version/9.0 Mobile/13B143 Safari/601.1 (compatible; Baiduspider-render/2.0; +http://www.baidu.com/search/spider.html)"
111.206.221.88 - - [01/Nov/2018:17:32:00 +0000] "GET /js/typeahead.jquery-1.1.1.min.js HTTP/1.0" 200 31010 "http://orangepotion.com/login_page.php?return=%2Fview_all_bug_page.php" "Mozilla/5.0 (iPhone; CPU iPhone OS 9_1 like Mac OS X) AppleWebKit/601.1.46 (KHTML, like Gecko) Version/9.0 Mobile/13B143 Safari/601.1 (compatible; Baiduspider-render/2.0; +http://www.baidu.com/search/spider.html)"
111.206.198.27 - - [01/Nov/2018:17:32:01 +0000] "GET /fonts/fontawesome-webfont.woff2?v=4.6.3 HTTP/1.0" 200 71896 "http://orangepotion.com/css/font-awesome-4.6.3.min.css" "Mozilla/5.0 (iPhone; CPU iPhone OS 9_1 like Mac OS X) AppleWebKit/601.1.46 (KHTML, like Gecko) Version/9.0 Mobile/13B143 Safari/601.1 (compatible; Baiduspider-render/2.0; +http://www.baidu.com/search/spider.html)"
111.206.198.80 - - [01/Nov/2018:17:32:01 +0000] "GET /fonts/DXI1ORHCpsQm3Vp6mXoaTXhCUOGz7vYGh680lGh-uXM.woff HTTP/1.0" 200 22656 "http://orangepotion.com/css/open-sans.css" "Mozilla/5.0 (iPhone; CPU iPhone OS 9_1 like Mac OS X) AppleWebKit/601.1.46 (KHTML, like Gecko) Version/9.0 Mobile/13B143 Safari/601.1 (compatible; Baiduspider-render/2.0; +http://www.baidu.com/search/spider.html)"
111.206.221.96 - - [01/Nov/2018:17:32:01 +0000] "GET /js/list-1.4.1.min.js HTTP/1.0" 200 15689 "http://orangepotion.com/login_page.php?return=%2Fview_all_bug_page.php" "Mozilla/5.0 (iPhone; CPU iPhone OS 9_1 like Mac OS X) AppleWebKit/601.1.46 (KHTML, like Gecko) Version/9.0 Mobile/13B143 Safari/601.1 (compatible; Baiduspider-render/2.0; +http://www.baidu.com/search/spider.html)"
111.206.221.25 - - [01/Nov/2018:17:32:02 +0000] "GET /fonts/cJZKeOuBrn4kERxqtaUH3T8E0i7KZn-EPnyo3HZu7kw.woff HTTP/1.0" 200 21956 "http://orangepotion.com/css/open-sans.css" "Mozilla/5.0 (iPhone; CPU iPhone OS 9_1 like Mac OS X) AppleWebKit/601.1.46 (KHTML, like Gecko) Version/9.0 Mobile/13B143 Safari/601.1 (compatible; Baiduspider-render/2.0; +http://www.baidu.com/search/spider.html)"
18.221.174.210 - - [01/Nov/2018:17:49:18 +0000] "GET /login_page.php HTTP/1.0" 200 1375 "-" "Mozilla/5.0 (Macintosh; Intel Mac OS X x.y; rv:42.0) Gecko/20100101 Chrome/51.0.2704.106 Safari/537.36 OPR/38.0.2220.41"
123.125.71.47 - - [01/Nov/2018:18:05:16 +0000] "GET /javascript_config.php HTTP/1.0" 200 107 "-" "Mozilla/5.0 (compatible; Baiduspider/2.0; +http://www.baidu.com/search/spider.html)"
18.191.84.64 - - [01/Nov/2018:18:18:29 +0000] "GET /login_page.php HTTP/1.0" 200 1375 "-" "Mozilla/5.0 (X11; Linux x86_64) Trident/5.0 Safari/602.1"
18.191.84.64 - - [01/Nov/2018:18:49:56 +0000] "GET /login_page.php HTTP/1.0" 200 1375 "-" "Mozilla/5.0 (X11; Linux x86_64) Gecko/20100101 Chrome/67.0.3396.79 Safari/537.36"
220.181.108.162 - - [01/Nov/2018:19:11:56 +0000] "GET /javascript_config.php HTTP/1.0" 200 107 "-" "Mozilla/5.0 (compatible; Baiduspider/2.0; +http://www.baidu.com/search/spider.html)"
18.218.10.23 - - [01/Nov/2018:19:19:46 +0000] "GET /login_page.php HTTP/1.0" 200 1375 "-" "Mozilla/5.0 (Windows NT 6.1; Win64; x64; rv:47.0) Gecko/20100101 Chrome/51.0.2704.106 Safari/537.36 OPR/38.0.2220.41"
18.216.20.127 - - [01/Nov/2018:19:49:40 +0000] "GET /login_page.php HTTP/1.0" 200 1375 "-" "Mozilla/5.0 (Windows NT 6.1; Win64; x64; rv:47.0) AppleWebKit/537.36 (KHTML, like Gecko) Chrome/67.0.3396.79 Safari/537.36"
18.220.61.112 - - [01/Nov/2018:20:18:59 +0000] "GET /login_page.php HTTP/1.0" 200 1375 "-" "Mozilla/5.0 (X11; Linux x86_64) Trident/5.0 Chrome/51.0.2704.106 Safari/537.36 OPR/38.0.2220.41"
18.222.143.109 - - [01/Nov/2018:20:49:24 +0000] "GET /login_page.php HTTP/1.0" 200 1375 "-" "Mozilla/5.0 (X11; Linux x86_64) Trident/5.0 Safari/602.1"
67.217.35.167 - - [01/Nov/2018:20:49:48 +0000] "GET / HTTP/1.0" 302 20 "-" "Mozilla/5.0 (Unknown; Linux x86_64) AppleWebKit/538.1 (KHTML, like Gecko) PhantomJS/2.0.1-development Safari/538.1"
67.217.35.167 - - [01/Nov/2018:20:49:49 +0000] "GET /login_page.php HTTP/1.0" 200 1378 "-" "Mozilla/5.0 (Unknown; Linux x86_64) AppleWebKit/538.1 (KHTML, like Gecko) PhantomJS/2.0.1-development Safari/538.1"
67.217.35.167 - - [01/Nov/2018:20:49:49 +0000] "GET /css/default.css HTTP/1.0" 200 2084 "http://www.orangepotion.com/login_page.php" "Mozilla/5.0 (Unknown; Linux x86_64) AppleWebKit/538.1 (KHTML, like Gecko) PhantomJS/2.0.1-development Safari/538.1"
67.217.35.167 - - [01/Nov/2018:20:49:49 +0000] "GET /css/login.css HTTP/1.0" 200 827 "http://www.orangepotion.com/login_page.php" "Mozilla/5.0 (Unknown; Linux x86_64) AppleWebKit/538.1 (KHTML, like Gecko) PhantomJS/2.0.1-development Safari/538.1"
67.217.35.167 - - [01/Nov/2018:20:49:49 +0000] "GET /css/dropzone-4.3.0.min.css HTTP/1.0" 200 9716 "http://www.orangepotion.com/login_page.php" "Mozilla/5.0 (Unknown; Linux x86_64) AppleWebKit/538.1 (KHTML, like Gecko) PhantomJS/2.0.1-development Safari/538.1"
67.217.35.167 - - [01/Nov/2018:20:49:49 +0000] "GET /css/bootstrap-3.3.6.min.css HTTP/1.0" 200 115813 "http://www.orangepotion.com/login_page.php" "Mozilla/5.0 (Unknown; Linux x86_64) AppleWebKit/538.1 (KHTML, like Gecko) PhantomJS/2.0.1-development Safari/538.1"
67.217.35.167 - - [01/Nov/2018:20:49:49 +0000] "GET /css/font-awesome-4.6.3.min.css HTTP/1.0" 200 29063 "http://www.orangepotion.com/login_page.php" "Mozilla/5.0 (Unknown; Linux x86_64) AppleWebKit/538.1 (KHTML, like Gecko) PhantomJS/2.0.1-development Safari/538.1"
67.217.35.167 - - [01/Nov/2018:20:49:49 +0000] "GET /css/bootstrap-datetimepicker-4.17.47.min.css HTTP/1.0" 200 7785 "http://www.orangepotion.com/login_page.php" "Mozilla/5.0 (Unknown; Linux x86_64) AppleWebKit/538.1 (KHTML, like Gecko) PhantomJS/2.0.1-development Safari/538.1"
67.217.35.167 - - [01/Nov/2018:20:49:49 +0000] "GET /css/open-sans.css HTTP/1.0" 200 1175 "http://www.orangepotion.com/login_page.php" "Mozilla/5.0 (Unknown; Linux x86_64) AppleWebKit/538.1 (KHTML, like Gecko) PhantomJS/2.0.1-development Safari/538.1"
67.217.35.167 - - [01/Nov/2018:20:49:49 +0000] "GET /css/ace.min.css HTTP/1.0" 200 298300 "http://www.orangepotion.com/login_page.php" "Mozilla/5.0 (Unknown; Linux x86_64) AppleWebKit/538.1 (KHTML, like Gecko) PhantomJS/2.0.1-development Safari/538.1"
67.217.35.167 - - [01/Nov/2018:20:49:49 +0000] "GET /css/common_config.php HTTP/1.0" 200 140 "http://www.orangepotion.com/login_page.php" "Mozilla/5.0 (Unknown; Linux x86_64) AppleWebKit/538.1 (KHTML, like Gecko) PhantomJS/2.0.1-development Safari/538.1"
67.217.35.167 - - [01/Nov/2018:20:49:49 +0000] "GET /css/status_config.php HTTP/1.0" 200 20 "http://www.orangepotion.com/login_page.php" "Mozilla/5.0 (Unknown; Linux x86_64) AppleWebKit/538.1 (KHTML, like Gecko) PhantomJS/2.0.1-development Safari/538.1"
67.217.35.167 - - [01/Nov/2018:20:49:49 +0000] "GET /css/ace-mantis.css HTTP/1.0" 200 12793 "http://www.orangepotion.com/login_page.php" "Mozilla/5.0 (Unknown; Linux x86_64) AppleWebKit/538.1 (KHTML, like Gecko) PhantomJS/2.0.1-development Safari/538.1"
67.217.35.167 - - [01/Nov/2018:20:49:49 +0000] "GET /css/ace-skins.min.css HTTP/1.0" 200 14106 "http://www.orangepotion.com/login_page.php" "Mozilla/5.0 (Unknown; Linux x86_64) AppleWebKit/538.1 (KHTML, like Gecko) PhantomJS/2.0.1-development Safari/538.1"
67.217.35.167 - - [01/Nov/2018:20:49:49 +0000] "GET /js/jquery-2.2.4.min.js HTTP/1.0" 200 85578 "http://www.orangepotion.com/login_page.php" "Mozilla/5.0 (Unknown; Linux x86_64) AppleWebKit/538.1 (KHTML, like Gecko) PhantomJS/2.0.1-development Safari/538.1"
67.217.35.167 - - [01/Nov/2018:20:49:49 +0000] "GET /js/dropzone-4.3.0.min.js HTTP/1.0" 200 33588 "http://www.orangepotion.com/login_page.php" "Mozilla/5.0 (Unknown; Linux x86_64) AppleWebKit/538.1 (KHTML, like Gecko) PhantomJS/2.0.1-development Safari/538.1"
67.217.35.167 - - [01/Nov/2018:20:49:49 +0000] "GET /js/common.js HTTP/1.0" 200 17147 "http://www.orangepotion.com/login_page.php" "Mozilla/5.0 (Unknown; Linux x86_64) AppleWebKit/538.1 (KHTML, like Gecko) PhantomJS/2.0.1-development Safari/538.1"
67.217.35.167 - - [01/Nov/2018:20:49:49 +0000] "GET /javascript_translations.php HTTP/1.0" 200 116 "http://www.orangepotion.com/login_page.php" "Mozilla/5.0 (Unknown; Linux x86_64) AppleWebKit/538.1 (KHTML, like Gecko) PhantomJS/2.0.1-development Safari/538.1"
67.217.35.167 - - [01/Nov/2018:20:49:49 +0000] "GET /javascript_config.php HTTP/1.0" 200 107 "http://www.orangepotion.com/login_page.php" "Mozilla/5.0 (Unknown; Linux x86_64) AppleWebKit/538.1 (KHTML, like Gecko) PhantomJS/2.0.1-development Safari/538.1"
67.217.35.167 - - [01/Nov/2018:20:49:49 +0000] "GET /js/bootstrap-3.3.6.min.js HTTP/1.0" 200 36868 "http://www.orangepotion.com/login_page.php" "Mozilla/5.0 (Unknown; Linux x86_64) AppleWebKit/538.1 (KHTML, like Gecko) PhantomJS/2.0.1-development Safari/538.1"
67.217.35.167 - - [01/Nov/2018:20:49:49 +0000] "GET /js/moment-with-locales-2.15.2.min.js HTTP/1.0" 200 232806 "http://www.orangepotion.com/login_page.php" "Mozilla/5.0 (Unknown; Linux x86_64) AppleWebKit/538.1 (KHTML, like Gecko) PhantomJS/2.0.1-development Safari/538.1"
67.217.35.167 - - [01/Nov/2018:20:49:49 +0000] "GET /js/bootstrap-datetimepicker-4.17.47.min.js HTTP/1.0" 200 38510 "http://www.orangepotion.com/login_page.php" "Mozilla/5.0 (Unknown; Linux x86_64) AppleWebKit/538.1 (KHTML, like Gecko) PhantomJS/2.0.1-development Safari/538.1"
67.217.35.167 - - [01/Nov/2018:20:49:49 +0000] "GET /plugin_file.php?file=MantisGraph/MantisGraph.js HTTP/1.0" 200 496 "http://www.orangepotion.com/login_page.php" "Mozilla/5.0 (Unknown; Linux x86_64) AppleWebKit/538.1 (KHTML, like Gecko) PhantomJS/2.0.1-development Safari/538.1"
67.217.35.167 - - [01/Nov/2018:20:49:49 +0000] "GET /plugin_file.php?file=Source/style.css HTTP/1.0" 200 1539 "http://www.orangepotion.com/login_page.php" "Mozilla/5.0 (Unknown; Linux x86_64) AppleWebKit/538.1 (KHTML, like Gecko) PhantomJS/2.0.1-development Safari/538.1"
67.217.35.167 - - [01/Nov/2018:20:49:49 +0000] "GET /js/typeahead.jquery-1.1.1.min.js HTTP/1.0" 200 31010 "http://www.orangepotion.com/login_page.php" "Mozilla/5.0 (Unknown; Linux x86_64) AppleWebKit/538.1 (KHTML, like Gecko) PhantomJS/2.0.1-development Safari/538.1"
67.217.35.167 - - [01/Nov/2018:20:49:49 +0000] "GET /js/list-1.4.1.min.js HTTP/1.0" 200 15689 "http://www.orangepotion.com/login_page.php" "Mozilla/5.0 (Unknown; Linux x86_64) AppleWebKit/538.1 (KHTML, like Gecko) PhantomJS/2.0.1-development Safari/538.1"
67.217.35.167 - - [01/Nov/2018:20:49:49 +0000] "GET /plugin_file.php?file=MantisGraph/chart.bundle-2.1.6.min.js HTTP/1.0" 200 52126 "http://www.orangepotion.com/login_page.php" "Mozilla/5.0 (Unknown; Linux x86_64) AppleWebKit/538.1 (KHTML, like Gecko) PhantomJS/2.0.1-development Safari/538.1"
67.217.35.167 - - [01/Nov/2018:20:49:50 +0000] "GET /js/ace.min.js HTTP/1.0" 200 41178 "http://www.orangepotion.com/login_page.php" "Mozilla/5.0 (Unknown; Linux x86_64) AppleWebKit/538.1 (KHTML, like Gecko) PhantomJS/2.0.1-development Safari/538.1"
67.217.35.167 - - [01/Nov/2018:20:49:49 +0000] "GET /plugin_file.php?file=MantisGraph/chart-2.1.6.min.js HTTP/1.0" 200 37186 "http://www.orangepotion.com/login_page.php" "Mozilla/5.0 (Unknown; Linux x86_64) AppleWebKit/538.1 (KHTML, like Gecko) PhantomJS/2.0.1-development Safari/538.1"
67.217.35.167 - - [01/Nov/2018:20:49:50 +0000] "GET /images/mantis_logo.png HTTP/1.0" 200 77114 "http://www.orangepotion.com/login_page.php" "Mozilla/5.0 (Unknown; Linux x86_64) AppleWebKit/538.1 (KHTML, like Gecko) PhantomJS/2.0.1-development Safari/538.1"
67.217.35.167 - - [01/Nov/2018:20:49:50 +0000] "GET /fonts/fontawesome-webfont.ttf?v=4.6.3 HTTP/1.0" 200 152796 "http://www.orangepotion.com/login_page.php" "Mozilla/5.0 (Unknown; Linux x86_64) AppleWebKit/538.1 (KHTML, like Gecko) PhantomJS/2.0.1-development Safari/538.1"
18.223.156.199 - - [01/Nov/2018:21:19:51 +0000] "GET /login_page.php HTTP/1.0" 200 1375 "-" "Mozilla/5.0 (Windows NT 6.1; Win64; x64; rv:47.0) AppleWebKit/537.36 (KHTML, like Gecko) Safari/602.1"
18.216.20.127 - - [01/Nov/2018:21:50:54 +0000] "GET /login_page.php HTTP/1.0" 200 1375 "-" "Mozilla/5.0 (Macintosh; Intel Mac OS X x.y; rv:42.0) AppleWebKit/537.36 (KHTML, like Gecko) Safari/602.1"
18.222.207.230 - - [01/Nov/2018:22:20:36 +0000] "GET /login_page.php HTTP/1.0" 200 1375 "-" "Mozilla/5.0 (Windows NT 6.1; Win64; x64; rv:47.0) Gecko/20100101 Firefox/42.0"
18.220.61.112 - - [01/Nov/2018:23:21:55 +0000] "GET /login_page.php HTTP/1.0" 200 1375 "-" "Mozilla/5.0 (Windows NT 6.1; Win64; x64; rv:47.0) AppleWebKit/537.36 (KHTML, like Gecko) Chrome/51.0.2704.106 Safari/537.36 OPR/38.0.2220.41"
37.1.205.52 - - [01/Nov/2018:23:50:12 +0000] "GET / HTTP/1.0" 302 20 "-" "Mozilla/4.0 (compatible; MSIE 6.0; Windows NT 5.1; SV1)"
37.1.205.52 - - [01/Nov/2018:23:50:12 +0000] "GET /login_page.php HTTP/1.0" 200 1375 "-" "Mozilla/4.0 (compatible; MSIE 6.0; Windows NT 5.1; SV1)"
18.216.19.83 - - [02/Nov/2018:00:21:39 +0000] "GET /login_page.php HTTP/1.0" 200 1375 "-" "Mozilla/5.0 (Windows NT 6.1; Win64; x64; rv:47.0) AppleWebKit/537.36 (KHTML, like Gecko) Safari/602.1"
52.14.98.62 - - [02/Nov/2018:00:51:44 +0000] "GET /login_page.php HTTP/1.0" 200 1375 "-" "Mozilla/5.0 (Macintosh; Intel Mac OS X x.y; rv:42.0) Gecko/20100101 Firefox/42.0"
178.154.244.10 - - [02/Nov/2018:01:14:55 +0000] "GET /robots.txt HTTP/1.0" 404 208 "-" "Mozilla/5.0 (compatible; YandexBot/3.0; +http://yandex.com/bots)"
178.154.244.10 - - [02/Nov/2018:01:14:59 +0000] "GET /browser_search_plugin.php?type=text HTTP/1.0" 200 404 "-" "Mozilla/5.0 (compatible; YandexBot/3.0; +http://yandex.com/bots)"
18.191.244.114 - - [02/Nov/2018:01:21:44 +0000] "GET /login_page.php HTTP/1.0" 200 1375 "-" "Mozilla/5.0 (Windows NT 6.1; Win64; x64; rv:47.0) Trident/5.0 Firefox/42.0"
18.223.239.51 - - [02/Nov/2018:01:51:10 +0000] "GET /login_page.php HTTP/1.0" 200 1375 "-" "Mozilla/5.0 (Macintosh; Intel Mac OS X x.y; rv:42.0) AppleWebKit/537.36 (KHTML, like Gecko) Chrome/51.0.2704.106 Safari/537.36 OPR/38.0.2220.41"
18.217.24.3 - - [02/Nov/2018:02:21:24 +0000] "GET /login_page.php HTTP/1.0" 200 1375 "-" "Mozilla/5.0 (Macintosh; Intel Mac OS X x.y; rv:42.0) AppleWebKit/537.36 (KHTML, like Gecko) Chrome/51.0.2704.106 Safari/537.36 OPR/38.0.2220.41"
18.191.84.64 - - [02/Nov/2018:02:49:40 +0000] "GET /login_page.php HTTP/1.0" 200 1375 "-" "Mozilla/5.0 (X11; Linux x86_64) Gecko/20100101 Chrome/51.0.2704.106 Safari/537.36 OPR/38.0.2220.41"
