52.204.19.178 - - [03/Nov/2018:04:37:59 +0000] "GET /wp-login.php HTTP/1.1" 200 1477 "https://www.google.com/url?f56203b63b529ba33edb8360c0052b8c" "Mozilla/5.0 (Windows NT 5.1; rv:36.0) Gecko/20100101 Firefox/36.0"
52.204.19.178 - - [03/Nov/2018:04:38:18 +0000] "POST /wp-login.php HTTP/1.1" 200 1890 "https://www.google.com/url?f56203b63b529ba33edb8360c0052b8c" "Mozilla/5.0 (Windows NT 5.1; rv:36.0) Gecko/20100101 Firefox/36.0"
52.165.166.139 - - [03/Nov/2018:05:50:08 +0000] "GET / HTTP/1.1" 200 690 "-" "Mozilla/5.0 (Macintosh; Intel Mac OS X 10_13_3) AppleWebKit/537.36 (KHTML, like Gecko) Chrome/65.0.3325.181 Safari/537.36"
180.76.15.156 - - [03/Nov/2018:05:57:36 +0000] "GET / HTTP/1.1" 200 19706 "-" "Mozilla/5.0 (compatible; Baiduspider/2.0; +http://www.baidu.com/search/spider.html)"
42.236.99.51 - - [03/Nov/2018:06:05:49 +0000] "GET / HTTP/1.1" 301 5 "http://www.supermonkeystar.com/" "Mozilla/5.0 (Windows NT 6.1; WOW64) AppleWebKit/537.36 (KHTML, like Gecko) Chrome/50.0.2661.102 Safari/537.36; 360Spider"
42.236.99.51 - - [03/Nov/2018:06:05:50 +0000] "GET / HTTP/1.1" 200 19235 "http://supermonkeystar.com/" "Mozilla/5.0 (Windows NT 6.1; WOW64) AppleWebKit/537.36 (KHTML, like Gecko) Chrome/50.0.2661.102 Safari/537.36; 360Spider"
42.236.99.242 - - [03/Nov/2018:06:06:04 +0000] "GET / HTTP/1.1" 200 19421 "http://supermonkeystar.com/" "Mozilla/5.0 (Windows NT 6.1; WOW64) AppleWebKit/537.36 (KHTML, like Gecko) Chrome/50.0.2661.102 Safari/537.36; 360Spider"
5.188.62.5 - - [03/Nov/2018:06:26:15 +0000] "GET / HTTP/1.1" 200 19631 "-" "Mozilla/5.0 (Windows NT 6.0) AppleWebKit/537.36 (KHTML, like Gecko) Chrome/41.0.2224.3 Safari/537.36"
5.188.62.5 - - [03/Nov/2018:06:26:16 +0000] "POST /xmlrpc.php HTTP/1.1" 200 234 "-" "Mozilla/5.0 (Windows NT 6.1) AppleWebKit/537.36 (KHTML, like Gecko) Chrome/41.0.2226.0 Safari/537.36"
5.188.62.5 - - [03/Nov/2018:06:26:16 +0000] "GET /?author=1 HTTP/1.1" 301 5 "-" "Mozilla/5.0 (Windows NT 6.2) AppleWebKit/537.36 (KHTML, like Gecko) Chrome/41.0.2228.0 Safari/537.36"
5.188.62.5 - - [03/Nov/2018:06:26:17 +0000] "GET / HTTP/1.1" 200 690 "-" "Mozilla/5.0 (Windows NT 6.2) AppleWebKit/537.36 (KHTML, like Gecko) Chrome/41.0.2228.0 Safari/537.36"
5.188.62.5 - - [03/Nov/2018:06:26:17 +0000] "GET /?author=2 HTTP/1.1" 404 10323 "-" "Mozilla/5.0 (Windows NT 6.2) AppleWebKit/537.36 (KHTML, like Gecko) Chrome/41.0.2225.0 Safari/537.36"
5.188.62.5 - - [03/Nov/2018:06:26:18 +0000] "GET /?author=3 HTTP/1.1" 404 10181 "-" "Mozilla/5.0 (Windows NT 6.2) AppleWebKit/537.36 (KHTML, like Gecko) Chrome/41.0.2224.3 Safari/537.36"
5.188.62.5 - - [03/Nov/2018:06:26:18 +0000] "GET /?author=4 HTTP/1.1" 404 10079 "-" "Mozilla/5.0 (Windows NT 6.1) AppleWebKit/537.36 (KHTML, like Gecko) Chrome/41.0.2225.0 Safari/537.36"
5.188.62.5 - - [03/Nov/2018:06:26:19 +0000] "GET /?author=5 HTTP/1.1" 404 10045 "-" "Mozilla/5.0 (Windows NT 6.0) AppleWebKit/537.36 (KHTML, like Gecko) Chrome/41.0.2227.1 Safari/537.36"
5.188.62.5 - - [03/Nov/2018:06:26:19 +0000] "GET /?author=6 HTTP/1.1" 404 10486 "-" "Mozilla/5.0 (Windows NT 6.0; WOW64) AppleWebKit/537.36 (KHTML, like Gecko) Chrome/41.0.2225.0 Safari/537.36"
54.36.149.60 - - [03/Nov/2018:06:27:12 +0000] "GET /img/superIntro.jpg HTTP/1.1" 301 5 "-" "Mozilla/5.0 (compatible; AhrefsBot/5.2; +http://ahrefs.com/robot/)"
87.118.92.43 - - [03/Nov/2018:06:36:51 +0000] "GET / HTTP/1.1" 200 19673 "-" "Mozilla/5.0 (Macintosh; Intel Mac OS X 10_13_4) AppleWebKit/605.1.15 (KHTML, like Gecko) Version/11.1 Safari/605.1.15"
185.100.87.206 - - [03/Nov/2018:06:36:53 +0000] "POST / HTTP/1.1" 200 20399 "http://supermonkeystar.com/" "Mozilla/5.0 (Macintosh; Intel Mac OS X 10_13_4) AppleWebKit/605.1.15 (KHTML, like Gecko) Version/11.1 Safari/605.1.15"
185.56.80.242 - - [03/Nov/2018:06:48:52 +0000] "GET / HTTP/1.1" 200 19815 "-" "Mozilla/5.0 (Windows NT 10.0; Win64; x64) AppleWebKit/537.36 (KHTML, like Gecko) Chrome/57.0.2987.133 Safari/537.36"
185.56.80.242 - - [03/Nov/2018:06:48:53 +0000] "POST / HTTP/1.1" 200 20153 "http://supermonkeystar.com/" "Mozilla/5.0 (Windows NT 10.0; Win64; x64) AppleWebKit/537.36 (KHTML, like Gecko) Chrome/57.0.2987.133 Safari/537.36"
134.249.54.255 - - [03/Nov/2018:06:57:50 +0000] "GET / HTTP/1.1" 200 77467 "http://kinostar.online/" "Mozilla/4.0 (compatible; MSIE 6.0; Windows NT 5.1; ru) Opera 8.01"
178.154.244.10 - - [03/Nov/2018:06:59:46 +0000] "GET /robots.txt HTTP/1.1" 200 78 "-" "Mozilla/5.0 (compatible; YandexBot/3.0; +http://yandex.com/bots)"
178.154.244.10 - - [03/Nov/2018:06:59:50 +0000] "GET /category/standard/ HTTP/1.1" 200 11790 "-" "Mozilla/5.0 (compatible; YandexBot/3.0; +http://yandex.com/bots)"
178.154.244.10 - - [03/Nov/2018:07:12:26 +0000] "GET /xmlrpc.php?rsd HTTP/1.1" 200 377 "-" "Mozilla/5.0 (compatible; YandexBot/3.0; +http://yandex.com/bots)"
2607:ff10:c5:509a::1 - - [03/Nov/2018:07:41:01 +0000] "GET / HTTP/1.1" 200 1085 "-" "Mozilla/5.0 (Windows NT 6.1) AppleWebKit/537.36 (KHTML, like Gecko) Chrome/41.0.2228.0 Safari/537.36"
185.117.118.152 - - [03/Nov/2018:07:56:31 +0000] "HEAD / HTTP/1.1" 200 0 "-" "Mozilla/5.0 (compatible; Uptimebot/1.0; +http://www.uptime.com/uptimebot)"
194.99.106.147 - - [03/Nov/2018:08:17:48 +0000] "GET /wp-login.php HTTP/1.1" 200 2885 "-" "Mozilla/5.0 (Windows; U; Windows NT 2.0) Gecko/20091201 Firefox/3.5.6 GTB5"
207.46.13.196 - - [03/Nov/2018:08:25:17 +0000] "GET /category/mp3/feed/ HTTP/1.1" 200 2709 "-" "Mozilla/5.0 (compatible; bingbot/2.0; +http://www.bing.com/bingbot.htm)"
34.229.107.219 - - [03/Nov/2018:08:41:41 +0000] "GET /feed/ HTTP/1.1" 304 0 "https://www.google.com/" "Mozilla/5.0 (Windows NT 6.2; WOW64; rv:15.0) Gecko/20120910144328 Firefox/15.0.2"
89.163.131.167 - - [03/Nov/2018:09:00:37 +0000] "HEAD / HTTP/1.1" 200 0 "-" "Mozilla/5.0 (compatible; Uptimebot/1.0; +http://www.uptime.com/uptimebot)"
195.149.196.11 - - [03/Nov/2018:09:24:47 +0000] "GET / HTTP/1.1" 200 19713 "http://supermonkeystar.com/" "Mozilla/4.0 (compatible; MSIE 6.0; Windows NT 5.1; SV1)"
178.154.244.10 - - [03/Nov/2018:09:33:40 +0000] "GET / HTTP/1.1" 200 19540 "-" "Mozilla/5.0 (compatible; YandexBot/3.0; +http://yandex.com/bots)"
203.162.120.32 - - [03/Nov/2018:09:56:30 +0000] "GET /wp-content/wp-caches.php HTTP/1.1" 404 30721 "http://site.ru" "Mozilla/5.0 (Windows; U; Windows NT 5.1; en-US) AppleWebKit/533.4 (KHTML, like Gecko) Chrome/5.0.375.99 Safari/533.4"
67.231.16.204 - - [03/Nov/2018:10:00:45 +0000] "HEAD / HTTP/1.1" 200 0 "-" "Mozilla/5.0 (compatible; Uptimebot/1.0; +http://www.uptime.com/uptimebot)"
52.35.79.237 - - [03/Nov/2018:10:25:04 +0000] "GET /wp-login.php HTTP/1.1" 200 1709 "https://www.google.com/url?f56203b63b529ba33edb8360c0052b8c" "Mozilla/5.0 (Windows NT 6.0; rv:31.0) Gecko/20100101 Firefox/31.0"
138.197.10.226 - - [03/Nov/2018:10:32:40 +0000] "GET /wp-content/plugins/html404/wso25.php HTTP/1.1" 404 78899 "http://site.ru" "Mozilla/5.0 (Windows; U; Windows NT 5.1; en-US) AppleWebKit/533.4 (KHTML, like Gecko) Chrome/5.0.375.99 Safari/533.4"
138.197.10.226 - - [03/Nov/2018:10:32:44 +0000] "GET /wp-content/plugins/html404/wso25.php HTTP/1.1" 404 78682 "http://site.ru" "Mozilla/5.0 (Windows; U; Windows NT 5.1; en-US) AppleWebKit/533.4 (KHTML, like Gecko) Chrome/5.0.375.99 Safari/533.4"
138.197.10.226 - - [03/Nov/2018:10:33:12 +0000] "GET /wp-content/plugins/html404/wso25.php HTTP/1.1" 404 78107 "http://site.ru" "Mozilla/5.0 (Windows; U; Windows NT 5.1; en-US) AppleWebKit/533.4 (KHTML, like Gecko) Chrome/5.0.375.99 Safari/533.4"
188.166.114.112 - - [03/Nov/2018:10:35:10 +0000] "GET / HTTP/1.1" 200 20024 "-" "Mozilla/4.0 (compatible; MSIE 7.0; Windows NT 6.1; WOW64; Trident/6.0;)"
176.8.88.12 - - [03/Nov/2018:11:25:10 +0000] "GET / HTTP/1.1" 200 1073 "https://gcup.ru/" "Mozilla/4.0 (compatible; MSIE 6.0; Windows NT 5.1; SV1; FunWebProducts; MRA 4.6 (build 01425); .NET CLR 1.1.4322; .NET CLR 2.0.50727)"
176.8.88.12 - - [03/Nov/2018:11:25:11 +0000] "GET / HTTP/1.1" 200 1074 "https://gcup.ru/" "Mozilla/4.0 (compatible; MSIE 6.0; Windows NT 5.1; SV1; FunWebProducts; MRA 4.6 (build 01425); .NET CLR 1.1.4322; .NET CLR 2.0.50727)"
176.8.88.12 - - [03/Nov/2018:11:25:12 +0000] "GET / HTTP/1.1" 200 1074 "https://gcup.ru/" "Mozilla/4.0 (compatible; MSIE 6.0; Windows NT 5.1; SV1; FunWebProducts; MRA 4.6 (build 01425); .NET CLR 1.1.4322; .NET CLR 2.0.50727)"
176.10.99.200 - - [03/Nov/2018:11:59:51 +0000] "GET / HTTP/1.1" 200 19957 "-" "Mozilla/5.0 (Windows NT 6.0; Win64; x64) AppleWebKit/537.36 (KHTML, like Gecko) Chrome/57.0.2987.133 Safari/537.36"
185.104.120.7 - - [03/Nov/2018:11:59:55 +0000] "POST / HTTP/1.1" 200 19473 "http://supermonkeystar.com/" "Mozilla/5.0 (Windows NT 6.0; Win64; x64) AppleWebKit/537.36 (KHTML, like Gecko) Chrome/57.0.2987.133 Safari/537.36"
31.170.123.73 - - [03/Nov/2018:13:21:34 +0000] "POST /wp-cron.php?doing_wp_cron=1541251293.9499180316925048828125 HTTP/1.1" 499 0 "http://supermonkeystar.com/wp-cron.php?doing_wp_cron=1541251293.9499180316925048828125" "WordPress/4.7.11; http://supermonkeystar.com"
138.197.6.74 - - [03/Nov/2018:13:21:34 +0000] "GET / HTTP/1.1" 301 5 "-" "Mozilla/5.0 (X11; Datanyze; Linux x86_64) AppleWebKit/537.36 (KHTML, like Gecko) Chrome/65.0.3325.181 Safari/537.36"
138.197.6.74 - - [03/Nov/2018:13:21:35 +0000] "GET /wp-includes/js/jquery.magnific-popup.min.js HTTP/1.1" 200 8291 "http://supermonkeystar.com/" "Mozilla/5.0 (X11; Datanyze; Linux x86_64) AppleWebKit/537.36 (KHTML, like Gecko) Chrome/65.0.3325.181 Safari/537.36"
138.197.6.74 - - [03/Nov/2018:13:21:35 +0000] "GET / HTTP/1.1" 200 20192 "-" "Mozilla/5.0 (X11; Datanyze; Linux x86_64) AppleWebKit/537.36 (KHTML, like Gecko) Chrome/65.0.3325.181 Safari/537.36"
138.197.6.74 - - [03/Nov/2018:13:21:37 +0000] "GET /wp-includes/js/jquery/jquery-migrate.min.js?ver=1.4.1 HTTP/1.1" 200 4330 "http://supermonkeystar.com/" "Mozilla/5.0 (X11; Datanyze; Linux x86_64) AppleWebKit/537.36 (KHTML, like Gecko) Chrome/65.0.3325.181 Safari/537.36"
138.197.6.74 - - [03/Nov/2018:13:21:37 +0000] "GET /wp-content/plugins/revslider/public/assets/js/jquery.themepunch.tools.min.js?ver=5.2.6 HTTP/1.1" 200 42630 "http://supermonkeystar.com/" "Mozilla/5.0 (X11; Datanyze; Linux x86_64) AppleWebKit/537.36 (KHTML, like Gecko) Chrome/65.0.3325.181 Safari/537.36"
138.197.6.74 - - [03/Nov/2018:13:21:37 +0000] "GET /wp-includes/js/jquery/jquery.js?ver=1.12.4 HTTP/1.1" 200 39436 "http://supermonkeystar.com/" "Mozilla/5.0 (X11; Datanyze; Linux x86_64) AppleWebKit/537.36 (KHTML, like Gecko) Chrome/65.0.3325.181 Safari/537.36"
138.197.6.74 - - [03/Nov/2018:13:21:37 +0000] "GET /?action=origin_widgets_css&class=SiteOrigin_Panels_Widget_Spacer&style=simple&preset=blank&ver=1.5.3 HTTP/1.1" 200 161 "http://supermonkeystar.com/" "Mozilla/5.0 (X11; Datanyze; Linux x86_64) AppleWebKit/537.36 (KHTML, like Gecko) Chrome/65.0.3325.181 Safari/537.36"
138.197.6.74 - - [03/Nov/2018:13:21:37 +0000] "GET /?action=origin_widgets_css&class=SiteOrigin_Panels_Widget_Title&style=simple&preset=simple&ver=1.5.3 HTTP/1.1" 200 233 "http://supermonkeystar.com/" "Mozilla/5.0 (X11; Datanyze; Linux x86_64) AppleWebKit/537.36 (KHTML, like Gecko) Chrome/65.0.3325.181 Safari/537.36"
138.197.6.74 - - [03/Nov/2018:13:21:37 +0000] "GET /wp-content/plugins/revslider/public/assets/js/jquery.themepunch.revolution.min.js?ver=5.2.6 HTTP/1.1" 200 18465 "http://supermonkeystar.com/" "Mozilla/5.0 (X11; Datanyze; Linux x86_64) AppleWebKit/537.36 (KHTML, like Gecko) Chrome/65.0.3325.181 Safari/537.36"
138.197.6.74 - - [03/Nov/2018:13:21:37 +0000] "GET /wp-admin/admin-ajax.php?action=siteorigin_panels_post_css&post=1546&layout=32891747&ver=1.5.3 HTTP/1.1" 200 391 "http://supermonkeystar.com/" "Mozilla/5.0 (X11; Datanyze; Linux x86_64) AppleWebKit/537.36 (KHTML, like Gecko) Chrome/65.0.3325.181 Safari/537.36"
138.197.6.74 - - [03/Nov/2018:13:21:37 +0000] "GET /wp-content/plugins/youtube-embed-plus/scripts/ytprefs.min.js?ver=4.7.11 HTTP/1.1" 200 2771 "http://supermonkeystar.com/" "Mozilla/5.0 (X11; Datanyze; Linux x86_64) AppleWebKit/537.36 (KHTML, like Gecko) Chrome/65.0.3325.181 Safari/537.36"
138.197.6.74 - - [03/Nov/2018:13:21:37 +0000] "GET /wp-content/plugins/contact-form-7/includes/js/scripts.js?ver=4.8 HTTP/1.1" 200 4384 "http://supermonkeystar.com/" "Mozilla/5.0 (X11; Datanyze; Linux x86_64) AppleWebKit/537.36 (KHTML, like Gecko) Chrome/65.0.3325.181 Safari/537.36"
138.197.6.74 - - [03/Nov/2018:13:21:37 +0000] "GET /wp-content/themes/dikka-installable/assets/js/isotope-min.js?ver=4.7.11 HTTP/1.1" 200 5606 "http://supermonkeystar.com/" "Mozilla/5.0 (X11; Datanyze; Linux x86_64) AppleWebKit/537.36 (KHTML, like Gecko) Chrome/65.0.3325.181 Safari/537.36"
138.197.6.74 - - [03/Nov/2018:13:21:37 +0000] "GET /wp-content/themes/dikka-installable/assets/js/retina.min.js?ver=4.7.11 HTTP/1.1" 200 1293 "http://supermonkeystar.com/" "Mozilla/5.0 (X11; Datanyze; Linux x86_64) AppleWebKit/537.36 (KHTML, like Gecko) Chrome/65.0.3325.181 Safari/537.36"
138.197.6.74 - - [03/Nov/2018:13:21:37 +0000] "GET /wp-content/themes/dikka-installable/assets/js/queryloader.min.js?ver=4.7.11 HTTP/1.1" 200 3702 "http://supermonkeystar.com/" "Mozilla/5.0 (X11; Datanyze; Linux x86_64) AppleWebKit/537.36 (KHTML, like Gecko) Chrome/65.0.3325.181 Safari/537.36"
138.197.6.74 - - [03/Nov/2018:13:21:38 +0000] "GET /wp-content/themes/dikka-installable/assets/js/bootstrap.min.js?ver=4.7.11 HTTP/1.1" 200 9224 "http://supermonkeystar.com/" "Mozilla/5.0 (X11; Datanyze; Linux x86_64) AppleWebKit/537.36 (KHTML, like Gecko) Chrome/65.0.3325.181 Safari/537.36"
138.197.6.74 - - [03/Nov/2018:13:21:38 +0000] "GET /wp-content/themes/dikka-installable/assets/js/smartmenus.min.js?ver=4.7.11 HTTP/1.1" 200 7595 "http://supermonkeystar.com/" "Mozilla/5.0 (X11; Datanyze; Linux x86_64) AppleWebKit/537.36 (KHTML, like Gecko) Chrome/65.0.3325.181 Safari/537.36"
138.197.6.74 - - [03/Nov/2018:13:21:38 +0000] "GET /wp-content/themes/dikka-installable/assets/js/ytplayer.js?ver=4.7.11 HTTP/1.1" 200 12601 "http://supermonkeystar.com/" "Mozilla/5.0 (X11; Datanyze; Linux x86_64) AppleWebKit/537.36 (KHTML, like Gecko) Chrome/65.0.3325.181 Safari/537.36"
138.197.6.74 - - [03/Nov/2018:13:21:38 +0000] "GET /wp-content/themes/dikka-installable/assets/js/wow.js?ver=1 HTTP/1.1" 200 2704 "http://supermonkeystar.com/" "Mozilla/5.0 (X11; Datanyze; Linux x86_64) AppleWebKit/537.36 (KHTML, like Gecko) Chrome/65.0.3325.181 Safari/537.36"
138.197.6.74 - - [03/Nov/2018:13:21:38 +0000] "GET /wp-content/themes/dikka-installable/assets/js/utils.js?ver=4.7.11 HTTP/1.1" 200 14827 "http://supermonkeystar.com/" "Mozilla/5.0 (X11; Datanyze; Linux x86_64) AppleWebKit/537.36 (KHTML, like Gecko) Chrome/65.0.3325.181 Safari/537.36"
138.197.6.74 - - [03/Nov/2018:13:21:38 +0000] "GET /wp-content/themes/dikka-installable/assets/js/main.js?ver=4.7.11 HTTP/1.1" 200 7432 "http://supermonkeystar.com/" "Mozilla/5.0 (X11; Datanyze; Linux x86_64) AppleWebKit/537.36 (KHTML, like Gecko) Chrome/65.0.3325.181 Safari/537.36"
138.197.6.74 - - [03/Nov/2018:13:21:38 +0000] "GET /wp-content/themes/dikka-installable/assets/js/SmoothScroll.js?ver=4.7.11 HTTP/1.1" 200 2600 "http://supermonkeystar.com/" "Mozilla/5.0 (X11; Datanyze; Linux x86_64) AppleWebKit/537.36 (KHTML, like Gecko) Chrome/65.0.3325.181 Safari/537.36"
138.197.6.74 - - [03/Nov/2018:13:21:38 +0000] "GET /wp-content/themes/dikka-installable/assets/js/nivo-lightbox.min.js?ver=4.7.11 HTTP/1.1" 200 2449 "http://supermonkeystar.com/" "Mozilla/5.0 (X11; Datanyze; Linux x86_64) AppleWebKit/537.36 (KHTML, like Gecko) Chrome/65.0.3325.181 Safari/537.36"
138.197.6.74 - - [03/Nov/2018:13:21:38 +0000] "GET /wp-content/themes/dikka-installable/assets/js/modernizr.custom.js?ver=4.7.11 HTTP/1.1" 200 5651 "http://supermonkeystar.com/" "Mozilla/5.0 (X11; Datanyze; Linux x86_64) AppleWebKit/537.36 (KHTML, like Gecko) Chrome/65.0.3325.181 Safari/537.36"
138.197.6.74 - - [03/Nov/2018:13:21:38 +0000] "GET /wp-content/themes/dikka-installable/assets/js/owl.carousel.min.js?ver=4.7.11 HTTP/1.1" 200 12815 "http://supermonkeystar.com/" "Mozilla/5.0 (X11; Datanyze; Linux x86_64) AppleWebKit/537.36 (KHTML, like Gecko) Chrome/65.0.3325.181 Safari/537.36"
138.197.6.74 - - [03/Nov/2018:13:21:39 +0000] "GET /wp-includes/js/comment-reply.min.js?ver=4.7.11 HTTP/1.1" 200 621 "http://supermonkeystar.com/" "Mozilla/5.0 (X11; Datanyze; Linux x86_64) AppleWebKit/537.36 (KHTML, like Gecko) Chrome/65.0.3325.181 Safari/537.36"
138.197.6.74 - - [03/Nov/2018:13:21:39 +0000] "GET /wp-content/plugins/youtube-embed-plus/scripts/fitvids.min.js?ver=4.7.11 HTTP/1.1" 200 877 "http://supermonkeystar.com/" "Mozilla/5.0 (X11; Datanyze; Linux x86_64) AppleWebKit/537.36 (KHTML, like Gecko) Chrome/65.0.3325.181 Safari/537.36"
138.197.6.74 - - [03/Nov/2018:13:21:39 +0000] "GET /wp-content/plugins/cubeportfolio/public/js/main.min-1.14.5.js?ver=1.14.5 HTTP/1.1" 200 33631 "http://supermonkeystar.com/" "Mozilla/5.0 (X11; Datanyze; Linux x86_64) AppleWebKit/537.36 (KHTML, like Gecko) Chrome/65.0.3325.181 Safari/537.36"
138.197.6.74 - - [03/Nov/2018:13:21:39 +0000] "GET /wp-includes/js/wp-embed.min.js?ver=4.7.11 HTTP/1.1" 200 788 "http://supermonkeystar.com/" "Mozilla/5.0 (X11; Datanyze; Linux x86_64) AppleWebKit/537.36 (KHTML, like Gecko) Chrome/65.0.3325.181 Safari/537.36"
138.197.6.74 - - [03/Nov/2018:13:21:39 +0000] "GET /wp-content/plugins/mailchimp-for-wp/assets/js/forms-api.min.js?ver=4.1.15 HTTP/1.1" 200 7211 "http://supermonkeystar.com/" "Mozilla/5.0 (X11; Datanyze; Linux x86_64) AppleWebKit/537.36 (KHTML, like Gecko) Chrome/65.0.3325.181 Safari/537.36"
138.197.6.74 - - [03/Nov/2018:13:21:39 +0000] "GET /wp-includes/js/wp-emoji-release.min.js?ver=4.7.11 HTTP/1.1" 200 4736 "http://supermonkeystar.com/" "Mozilla/5.0 (X11; Datanyze; Linux x86_64) AppleWebKit/537.36 (KHTML, like Gecko) Chrome/65.0.3325.181 Safari/537.36"
138.197.6.74 - - [03/Nov/2018:13:21:43 +0000] "GET /wp-content/plugins/revslider/public/assets/js/extensions/revolution.extension.video.min.js HTTP/1.1" 200 7003 "http://supermonkeystar.com/" "Mozilla/5.0 (X11; Datanyze; Linux x86_64) AppleWebKit/537.36 (KHTML, like Gecko) Chrome/65.0.3325.181 Safari/537.36"
138.197.6.74 - - [03/Nov/2018:13:21:43 +0000] "GET /wp-content/plugins/revslider/public/assets/js/extensions/revolution.extension.slideanims.min.js HTTP/1.1" 200 7746 "http://supermonkeystar.com/" "Mozilla/5.0 (X11; Datanyze; Linux x86_64) AppleWebKit/537.36 (KHTML, like Gecko) Chrome/65.0.3325.181 Safari/537.36"
138.197.6.74 - - [03/Nov/2018:13:21:43 +0000] "GET /wp-content/plugins/revslider/public/assets/js/extensions/revolution.extension.actions.min.js HTTP/1.1" 200 2539 "http://supermonkeystar.com/" "Mozilla/5.0 (X11; Datanyze; Linux x86_64) AppleWebKit/537.36 (KHTML, like Gecko) Chrome/65.0.3325.181 Safari/537.36"
138.197.6.74 - - [03/Nov/2018:13:21:43 +0000] "GET /wp-content/plugins/revslider/public/assets/js/extensions/revolution.extension.layeranimation.min.js HTTP/1.1" 200 10510 "http://supermonkeystar.com/" "Mozilla/5.0 (X11; Datanyze; Linux x86_64) AppleWebKit/537.36 (KHTML, like Gecko) Chrome/65.0.3325.181 Safari/537.36"
138.197.6.74 - - [03/Nov/2018:13:22:10 +0000] "GET / HTTP/1.1" 301 5 "-" "Mozilla/5.0 (Macintosh; Intel Mac OS X 10_9_3) AppleWebKit/537.36 (KHTML, like Gecko) Chrome/35.0.1916.114 Safari/537.36"
138.197.6.74 - - [03/Nov/2018:13:22:11 +0000] "GET / HTTP/1.1" 200 19341 "http://www.supermonkeystar.com/" "Mozilla/5.0 (Macintosh; Intel Mac OS X 10_9_3) AppleWebKit/537.36 (KHTML, like Gecko) Chrome/35.0.1916.114 Safari/537.36"
151.80.218.210 - - [03/Nov/2018:13:23:36 +0000] "GET /wp-includes/wp-caches.php HTTP/1.1" 404 30678 "http://site.ru" "Mozilla/5.0 (Windows; U; Windows NT 5.1; en-US) AppleWebKit/533.4 (KHTML, like Gecko) Chrome/5.0.375.99 Safari/533.4"
120.35.38.212 - - [03/Nov/2018:13:31:50 +0000] "HEAD /wp-content/themes/twentyseventeen/comments.php HTTP/1.1" 200 0 "-" "-"
78.142.19.43 - - [03/Nov/2018:13:42:41 +0000] "GET / HTTP/1.1" 200 19476 "-" "Mozilla/5.0 (Windows NT 6.3; WOW64) AppleWebKit/537.36 (KHTML, like Gecko) Chrome/51.0.2704.106 Safari/537.36"
78.142.19.43 - - [03/Nov/2018:13:42:43 +0000] "POST / HTTP/1.1" 200 19467 "http://supermonkeystar.com/" "Mozilla/5.0 (Windows NT 6.3; WOW64) AppleWebKit/537.36 (KHTML, like Gecko) Chrome/51.0.2704.106 Safari/537.36"
91.118.154.82 - - [03/Nov/2018:13:51:38 +0000] "GET /wp-content/plugins/wp-seo/wp-seo.php HTTP/1.1" 404 78802 "http://site.ru" "Mozilla/5.0 (Windows; U; Windows NT 5.1; en-US) AppleWebKit/533.4 (KHTML, like Gecko) Chrome/5.0.375.99 Safari/533.4"
91.118.154.82 - - [03/Nov/2018:13:51:42 +0000] "GET /wp-content/plugins/wp-seo/wp-seo.php HTTP/1.1" 404 78812 "http://site.ru" "Mozilla/5.0 (Windows; U; Windows NT 5.1; en-US) AppleWebKit/533.4 (KHTML, like Gecko) Chrome/5.0.375.99 Safari/533.4"
52.165.166.139 - - [03/Nov/2018:14:15:03 +0000] "GET / HTTP/1.1" 200 709 "-" "Mozilla/5.0 (Windows NT 10.0; Win64; x64) AppleWebKit/537.36 (KHTML, like Gecko) Chrome/58.0.3029.110 Safari/537.36 Edge/16.16299"
180.76.15.137 - - [03/Nov/2018:14:19:02 +0000] "GET / HTTP/1.1" 301 5 "-" "Mozilla/5.0 (compatible; Baiduspider/2.0; +http://www.baidu.com/search/spider.html)"
180.76.15.137 - - [03/Nov/2018:14:19:03 +0000] "GET /robots.txt HTTP/1.1" 200 92 "-" "Mozilla/5.0 (Windows NT 5.1; rv:6.0.2) Gecko/20100101 Firefox/6.0.2"
180.76.15.27 - - [03/Nov/2018:14:19:03 +0000] "GET / HTTP/1.1" 200 19114 "-" "Mozilla/5.0 (compatible; Baiduspider/2.0; +http://www.baidu.com/search/spider.html)"
35.204.87.31 - - [03/Nov/2018:14:26:41 +0000] "GET /wp-content/themes/dikka-installable/assets/images/icons/credit-cards/jcb.png HTTP/1.1" 404 16682 "-" "Mozilla/5.0 (compatible; tracemyfile/1.0)"
2a01:4f8:200:3123::2 - - [03/Nov/2018:14:38:47 +0000] "GET /wp-admin/wp-caches.php HTTP/1.1" 404 30512 "http://site.ru" "Mozilla/5.0 (Windows; U; Windows NT 5.1; en-US) AppleWebKit/533.4 (KHTML, like Gecko) Chrome/5.0.375.99 Safari/533.4"
2a01:4f8:200:3123::2 - - [03/Nov/2018:14:38:54 +0000] "GET /wp-admin/wp-caches.php HTTP/1.1" 404 30635 "http://site.ru" "Mozilla/5.0 (Windows; U; Windows NT 5.1; en-US) AppleWebKit/533.4 (KHTML, like Gecko) Chrome/5.0.375.99 Safari/533.4"
178.137.165.225 - - [03/Nov/2018:16:02:24 +0000] "GET / HTTP/1.1" 200 77490 "http://www.tsatu.edu.ua/" "Mozilla/4.0 (compatible; MSIE 6.0; Windows NT 5.1; ru) Opera 8.01"
220.181.125.138 - - [03/Nov/2018:16:11:48 +0000] "GET /robots.txt HTTP/1.1" 200 78 "-" "Sogou web spider/4.0(+http://www.sogou.com/docs/help/webmasters.htm#07)"
220.181.125.138 - - [03/Nov/2018:16:11:57 +0000] "GET / HTTP/1.1" 200 19356 "-" "Sogou web spider/4.0(+http://www.sogou.com/docs/help/webmasters.htm#07)"
197.95.199.119 - - [03/Nov/2018:16:16:41 +0000] "GET /wp-login.php HTTP/1.1" 200 2861 "-" "Mozilla/5.0 (Windows NT 6.1; WOW64; rv:40.0) Gecko/20100101 Firefox/40.1"
197.95.199.119 - - [03/Nov/2018:16:16:41 +0000] "GET / HTTP/1.1" 301 5 "-" "Mozilla/5.0 (Windows NT 6.1; WOW64; rv:40.0) Gecko/20100101 Firefox/40.1"
197.95.199.119 - - [03/Nov/2018:16:16:43 +0000] "GET / HTTP/1.1" 200 77165 "-" "Mozilla/5.0 (Windows NT 6.1; WOW64; rv:40.0) Gecko/20100101 Firefox/40.1"
178.154.244.60 - - [03/Nov/2018:16:21:48 +0000] "GET /robots.txt HTTP/1.1" 200 78 "-" "Mozilla/5.0 (compatible; YandexBot/3.0; +http://yandex.com/bots)"
141.8.132.13 - - [03/Nov/2018:16:21:52 +0000] "GET /2014/09/ HTTP/1.1" 200 12428 "-" "Mozilla/5.0 (compatible; YandexBot/3.0; +http://yandex.com/bots)"
209.141.61.45 - - [03/Nov/2018:16:35:48 +0000] "GET / HTTP/1.1" 200 18986 "-" "Mozilla/5.0 (Windows NT 6.1; Win64; x64) AppleWebKit/537.36 (KHTML, like Gecko) Chrome/42.0.2311.135 Safari/537.36 Edge/12.10240"
209.141.61.45 - - [03/Nov/2018:16:35:51 +0000] "POST / HTTP/1.1" 200 20020 "http://supermonkeystar.com/" "Mozilla/5.0 (Windows NT 6.1; Win64; x64) AppleWebKit/537.36 (KHTML, like Gecko) Chrome/42.0.2311.135 Safari/537.36 Edge/12.10240"
197.95.199.119 - - [03/Nov/2018:17:17:21 +0000] "GET /wp-login.php HTTP/1.1" 200 2868 "-" "Mozilla/5.0 (Windows NT 6.1; WOW64; rv:40.0) Gecko/20100101 Firefox/40.1"
197.95.199.119 - - [03/Nov/2018:17:17:22 +0000] "GET / HTTP/1.1" 200 77162 "-" "Mozilla/5.0 (Windows NT 6.1; WOW64; rv:40.0) Gecko/20100101 Firefox/40.1"
192.145.239.32 - - [03/Nov/2018:17:17:40 +0000] "GET /wp-content/wp-caches.php HTTP/1.1" 404 30454 "http://site.ru" "Mozilla/5.0 (Windows; U; Windows NT 5.1; en-US) AppleWebKit/533.4 (KHTML, like Gecko) Chrome/5.0.375.99 Safari/533.4"
123.125.67.218 - - [03/Nov/2018:17:25:18 +0000] "GET /robots.txt HTTP/1.1" 200 92 "-" "Mozilla/5.0 (Windows NT 10.0; WOW64) AppleWebKit/537.36 (KHTML, like Gecko) Chrome/45.0.2454.93 Safari/537.36"
18.219.54.52 - - [03/Nov/2018:17:25:23 +0000] "GET /wp-login.php HTTP/1.1" 200 1457 "https://www.google.com/url?f56203b63b529ba33edb8360c0052b8c" "Mozilla/5.0 (Windows NT 6.0; rv:36.0) Gecko/20100101 Firefox/36.0"
18.219.54.52 - - [03/Nov/2018:17:25:26 +0000] "POST /wp-login.php HTTP/1.1" 200 1928 "https://www.google.com/url?f56203b63b529ba33edb8360c0052b8c" "Mozilla/5.0 (Windows NT 6.0; rv:36.0) Gecko/20100101 Firefox/36.0"
123.125.67.165 - - [03/Nov/2018:17:45:40 +0000] "GET /robots.txt HTTP/1.1" 200 92 "-" "Mozilla/5.0 (Windows NT 10.0; WOW64) AppleWebKit/537.36 (KHTML, like Gecko) Chrome/45.0.2454.93 Safari/537.36"
66.249.66.140 - - [03/Nov/2018:17:48:23 +0000] "GET /robots.txt HTTP/1.1" 200 92 "-" "Mozilla/5.0 (compatible; Googlebot/2.1; +http://www.google.com/bot.html)"
66.249.66.142 - - [03/Nov/2018:17:48:26 +0000] "GET /wp-content/themes/dikka-installable/assets/css/bootstrap.css?ver=4.7.11 HTTP/1.1" 200 20578 "http://supermonkeystar.com/?utm_content=bufferc6221&utm_medium=social&utm_source=twitter.com&utm_campaign=buffer" "Mozilla/5.0 (Linux; Android 6.0.1; Nexus 5X Build/MMB29P) AppleWebKit/537.36 (KHTML, like Gecko) Chrome/41.0.2272.96 Mobile Safari/537.36 (compatible; Googlebot/2.1; +http://www.google.com/bot.html)"
66.249.66.138 - - [03/Nov/2018:17:48:28 +0000] "GET /wp-admin/admin-ajax.php?action=siteorigin_panels_post_css&post=1546&layout=32891747&ver=1.5.3 HTTP/1.1" 200 391 "http://supermonkeystar.com/?utm_content=bufferc6221&utm_medium=social&utm_source=twitter.com&utm_campaign=buffer" "Mozilla/5.0 (Linux; Android 6.0.1; Nexus 5X Build/MMB29P) AppleWebKit/537.36 (KHTML, like Gecko) Chrome/41.0.2272.96 Mobile Safari/537.36 (compatible; Googlebot/2.1; +http://www.google.com/bot.html)"
66.249.66.138 - - [03/Nov/2018:17:48:32 +0000] "GET /wp-includes/js/jquery/jquery-migrate.min.js?ver=1.4.1 HTTP/1.1" 200 4330 "http://supermonkeystar.com/?utm_content=bufferc6221&utm_medium=social&utm_source=twitter.com&utm_campaign=buffer" "Mozilla/5.0 (Linux; Android 6.0.1; Nexus 5X Build/MMB29P) AppleWebKit/537.36 (KHTML, like Gecko) Chrome/41.0.2272.96 Mobile Safari/537.36 (compatible; Googlebot/2.1; +http://www.google.com/bot.html)"
66.249.66.138 - - [03/Nov/2018:17:48:33 +0000] "GET /?action=origin_widgets_css&class=SiteOrigin_Panels_Widget_Title&style=simple&preset=simple&ver=1.5.3 HTTP/1.1" 200 198 "http://supermonkeystar.com/?utm_content=bufferc6221&utm_medium=social&utm_source=twitter.com&utm_campaign=buffer" "Mozilla/5.0 (Linux; Android 6.0.1; Nexus 5X Build/MMB29P) AppleWebKit/537.36 (KHTML, like Gecko) Chrome/41.0.2272.96 Mobile Safari/537.36 (compatible; Googlebot/2.1; +http://www.google.com/bot.html)"
66.249.66.138 - - [03/Nov/2018:17:48:35 +0000] "GET /wp-includes/js/wp-emoji-release.min.js?ver=4.7.11 HTTP/1.1" 200 4736 "http://supermonkeystar.com/?utm_content=bufferc6221&utm_medium=social&utm_source=twitter.com&utm_campaign=buffer" "Mozilla/5.0 (Linux; Android 6.0.1; Nexus 5X Build/MMB29P) AppleWebKit/537.36 (KHTML, like Gecko) Chrome/41.0.2272.96 Mobile Safari/537.36 (compatible; Googlebot/2.1; +http://www.google.com/bot.html)"
66.249.66.142 - - [03/Nov/2018:18:00:32 +0000] "GET / HTTP/1.1" 200 19945 "-" "Mozilla/5.0 (Linux; Android 6.0.1; Nexus 5X Build/MMB29P) AppleWebKit/537.36 (KHTML, like Gecko) Chrome/41.0.2272.96 Mobile Safari/537.36 (compatible; Googlebot/2.1; +http://www.google.com/bot.html)"
66.249.66.30 - - [03/Nov/2018:18:00:41 +0000] "GET /robots.txt HTTP/1.1" 200 92 "-" "Mozilla/5.0 (compatible; Googlebot/2.1; +http://www.google.com/bot.html)"
66.249.66.29 - - [03/Nov/2018:18:01:25 +0000] "GET / HTTP/1.1" 301 5 "-" "Mozilla/5.0 (Linux; Android 6.0.1; Nexus 5X Build/MMB29P) AppleWebKit/537.36 (KHTML, like Gecko) Chrome/41.0.2272.96 Mobile Safari/537.36 (compatible; Googlebot/2.1; +http://www.google.com/bot.html)"
66.249.66.140 - - [03/Nov/2018:18:01:27 +0000] "GET /wp-content/themes/dikka-installable/assets/css/owl.carousel.css?ver=4.7.11 HTTP/1.1" 200 1909 "http://supermonkeystar.com/" "Mozilla/5.0 (Linux; Android 6.0.1; Nexus 5X Build/MMB29P) AppleWebKit/537.36 (KHTML, like Gecko) Chrome/41.0.2272.96 Mobile Safari/537.36 (compatible; Googlebot/2.1; +http://www.google.com/bot.html)"
66.249.66.140 - - [03/Nov/2018:18:01:29 +0000] "GET /wp-includes/js/comment-reply.min.js?ver=4.7.11 HTTP/1.1" 200 621 "http://supermonkeystar.com/" "Mozilla/5.0 (Linux; Android 6.0.1; Nexus 5X Build/MMB29P) AppleWebKit/537.36 (KHTML, like Gecko) Chrome/41.0.2272.96 Mobile Safari/537.36 (compatible; Googlebot/2.1; +http://www.google.com/bot.html)"
66.249.66.138 - - [03/Nov/2018:18:01:35 +0000] "GET /wp-content/themes/dikka-installable/assets/css/retina.css?ver=4.7.11 HTTP/1.1" 200 1388 "http://supermonkeystar.com/" "Mozilla/5.0 (Linux; Android 6.0.1; Nexus 5X Build/MMB29P) AppleWebKit/537.36 (KHTML, like Gecko) Chrome/41.0.2272.96 Mobile Safari/537.36 (compatible; Googlebot/2.1; +http://www.google.com/bot.html)"
66.249.66.138 - - [03/Nov/2018:18:01:36 +0000] "GET /wp-content/themes/dikka-installable/assets/css/woocommerce-ux.css?ver=4.7.11 HTTP/1.1" 200 15961 "http://supermonkeystar.com/" "Mozilla/5.0 (Linux; Android 6.0.1; Nexus 5X Build/MMB29P) AppleWebKit/537.36 (KHTML, like Gecko) Chrome/41.0.2272.96 Mobile Safari/537.36 (compatible; Googlebot/2.1; +http://www.google.com/bot.html)"
37.35.11.21 - - [03/Nov/2018:18:04:22 +0000] "GET /wp-login.php HTTP/1.1" 200 2862 "-" "Mozilla/5.0 (Windows NT 6.1; WOW64; rv:40.0) Gecko/20100101 Firefox/40.1"
37.35.11.21 - - [03/Nov/2018:18:04:23 +0000] "GET / HTTP/1.1" 301 5 "-" "Mozilla/5.0 (Windows NT 6.1; WOW64; rv:40.0) Gecko/20100101 Firefox/40.1"
37.35.11.21 - - [03/Nov/2018:18:04:23 +0000] "GET / HTTP/1.1" 200 77120 "-" "Mozilla/5.0 (Windows NT 6.1; WOW64; rv:40.0) Gecko/20100101 Firefox/40.1"
37.35.11.21 - - [03/Nov/2018:18:04:28 +0000] "GET /wp-login.php HTTP/1.1" 200 2867 "-" "Mozilla/5.0 (Windows NT 6.1; WOW64; rv:40.0) Gecko/20100101 Firefox/40.1"
37.35.11.21 - - [03/Nov/2018:18:04:29 +0000] "GET / HTTP/1.1" 200 77167 "-" "Mozilla/5.0 (Windows NT 6.1; WOW64; rv:40.0) Gecko/20100101 Firefox/40.1"
35.204.147.217 - - [03/Nov/2018:18:23:36 +0000] "GET /wp-content/themes/dikka-installable/assets/img/shopping-bag.png HTTP/1.1" 404 17193 "-" "Mozilla/5.0 (compatible; tracemyfile/1.0)"
17.58.99.161 - - [03/Nov/2018:18:28:23 +0000] "GET /robots.txt HTTP/1.1" 200 92 "-" "Mozilla/5.0 (Macintosh; Intel Mac OS X 10_10_1) AppleWebKit/600.2.5 (KHTML, like Gecko) Version/8.0.2 Safari/600.2.5 (Applebot/0.1; +http://www.apple.com/go/applebot)"
17.58.99.161 - - [03/Nov/2018:18:28:23 +0000] "GET /robots.txt HTTP/1.1" 200 92 "-" "Mozilla/5.0 (Macintosh; Intel Mac OS X 10_10_1) AppleWebKit/600.2.5 (KHTML, like Gecko) Version/8.0.2 Safari/600.2.5 (Applebot/0.1; +http://www.apple.com/go/applebot)"
17.58.99.161 - - [03/Nov/2018:18:28:24 +0000] "GET / HTTP/1.1" 200 19408 "-" "Mozilla/5.0 (Macintosh; Intel Mac OS X 10_10_1) AppleWebKit/600.2.5 (KHTML, like Gecko) Version/8.0.2 Safari/600.2.5 (Applebot/0.1; +http://www.apple.com/go/applebot)"
17.58.99.161 - - [03/Nov/2018:18:28:24 +0000] "GET / HTTP/1.1" 200 19280 "-" "Mozilla/5.0 (Macintosh; Intel Mac OS X 10_10_1) AppleWebKit/600.2.5 (KHTML, like Gecko) Version/8.0.2 Safari/600.2.5 (Applebot/0.1; +http://www.apple.com/go/applebot)"
17.58.99.161 - - [03/Nov/2018:18:28:24 +0000] "GET /wp-content/uploads/2017/03/logo-e1489424223615.png HTTP/1.1" 200 18065 "-" "Mozilla/5.0 (Macintosh; Intel Mac OS X 10_10_1) AppleWebKit/600.2.5 (KHTML, like Gecko) Version/8.0.2 Safari/600.2.5 (Applebot/0.1; +http://www.apple.com/go/applebot)"
17.58.99.161 - - [03/Nov/2018:18:28:24 +0000] "GET /wp-content/uploads/2017/03/cropped-logo-1-180x180.png HTTP/1.1" 200 47623 "-" "Mozilla/5.0 (Macintosh; Intel Mac OS X 10_10_1) AppleWebKit/600.2.5 (KHTML, like Gecko) Version/8.0.2 Safari/600.2.5 (Applebot/0.1; +http://www.apple.com/go/applebot)"
185.165.168.229 - - [03/Nov/2018:18:36:26 +0000] "GET / HTTP/1.1" 200 19145 "-" "Mozilla/4.0 (compatible; MSIE 9.0; Windows NT 6.1)"
185.165.168.229 - - [03/Nov/2018:18:36:29 +0000] "POST / HTTP/1.1" 200 20379 "http://supermonkeystar.com/" "Mozilla/4.0 (compatible; MSIE 9.0; Windows NT 6.1)"
193.169.145.194 - - [03/Nov/2018:18:38:31 +0000] "GET / HTTP/1.1" 200 19909 "-" "Mozilla/5.0 (Windows NT 5.1; Win64; x64) AppleWebKit/537.36 (KHTML, like Gecko) Chrome/51.0.2704.79 Safari/537.36 Edge/14.14393"
185.193.125.115 - - [03/Nov/2018:18:38:34 +0000] "GET / HTTP/1.1" 200 19765 "-" "Mozilla/5.0 (Windows NT 5.1; Win64; x64) AppleWebKit/537.36 (KHTML, like Gecko) Chrome/51.0.2704.79 Safari/537.36 Edge/14.14393"
37.187.26.42 - - [03/Nov/2018:18:48:37 +0000] "GET / HTTP/1.1" 200 77448 "-" "Mozilla/5.0 (compatible; Googlebot/2.1; +http://www.google.com/bot.html)"
95.163.255.117 - - [03/Nov/2018:19:05:28 +0000] "GET /robots.txt HTTP/1.1" 200 92 "-" "Mozilla/5.0 (compatible; Linux x86_64; Mail.RU_Bot/2.0; +http://go.mail.ru/help/robots)"
95.163.255.103 - - [03/Nov/2018:19:05:29 +0000] "GET /post_tag-sitemap.xml HTTP/1.1" 200 463 "-" "Mozilla/5.0 (compatible; Linux x86_64; Mail.RU_Bot/2.0; +http://go.mail.ru/help/robots)"
209.97.151.101 - - [03/Nov/2018:19:53:13 +0000] "GET / HTTP/1.1" 301 5 "http://www.supermonkeystar.com" "Mozilla/5.0 (X11; Datanyze; Linux x86_64) AppleWebKit/537.36 (KHTML, like Gecko) Chrome/65.0.3325.181 Safari/537.36"
209.97.151.101 - - [03/Nov/2018:19:53:14 +0000] "GET / HTTP/1.1" 200 19847 "http://www.supermonkeystar.com/" "Mozilla/5.0 (X11; Datanyze; Linux x86_64) AppleWebKit/537.36 (KHTML, like Gecko) Chrome/65.0.3325.181 Safari/537.36"
138.197.111.90 - - [03/Nov/2018:19:55:44 +0000] "GET / HTTP/1.1" 301 5 "-" "Mozilla/5.0 (X11; Datanyze; Linux x86_64) AppleWebKit/537.36 (KHTML, like Gecko) Chrome/65.0.3325.181 Safari/537.36"
138.197.111.90 - - [03/Nov/2018:19:55:45 +0000] "GET / HTTP/1.1" 200 19658 "-" "Mozilla/5.0 (X11; Datanyze; Linux x86_64) AppleWebKit/537.36 (KHTML, like Gecko) Chrome/65.0.3325.181 Safari/537.36"
138.197.111.90 - - [03/Nov/2018:19:55:45 +0000] "GET /wp-includes/js/jquery.magnific-popup.min.js HTTP/1.1" 200 8291 "http://supermonkeystar.com/" "Mozilla/5.0 (X11; Datanyze; Linux x86_64) AppleWebKit/537.36 (KHTML, like Gecko) Chrome/65.0.3325.181 Safari/537.36"
138.197.111.90 - - [03/Nov/2018:19:55:46 +0000] "GET /wp-admin/admin-ajax.php?action=siteorigin_panels_post_css&post=1546&layout=32891747&ver=1.5.3 HTTP/1.1" 200 391 "http://supermonkeystar.com/" "Mozilla/5.0 (X11; Datanyze; Linux x86_64) AppleWebKit/537.36 (KHTML, like Gecko) Chrome/65.0.3325.181 Safari/537.36"
138.197.111.90 - - [03/Nov/2018:19:55:46 +0000] "GET /wp-includes/js/jquery/jquery.js?ver=1.12.4 HTTP/1.1" 200 39436 "http://supermonkeystar.com/" "Mozilla/5.0 (X11; Datanyze; Linux x86_64) AppleWebKit/537.36 (KHTML, like Gecko) Chrome/65.0.3325.181 Safari/537.36"
138.197.111.90 - - [03/Nov/2018:19:55:46 +0000] "GET /wp-includes/js/jquery/jquery-migrate.min.js?ver=1.4.1 HTTP/1.1" 200 4330 "http://supermonkeystar.com/" "Mozilla/5.0 (X11; Datanyze; Linux x86_64) AppleWebKit/537.36 (KHTML, like Gecko) Chrome/65.0.3325.181 Safari/537.36"
138.197.111.90 - - [03/Nov/2018:19:55:46 +0000] "GET /wp-content/plugins/revslider/public/assets/js/jquery.themepunch.tools.min.js?ver=5.2.6 HTTP/1.1" 200 42630 "http://supermonkeystar.com/" "Mozilla/5.0 (X11; Datanyze; Linux x86_64) AppleWebKit/537.36 (KHTML, like Gecko) Chrome/65.0.3325.181 Safari/537.36"
138.197.111.90 - - [03/Nov/2018:19:55:46 +0000] "GET /?action=origin_widgets_css&class=SiteOrigin_Panels_Widget_Spacer&style=simple&preset=blank&ver=1.5.3 HTTP/1.1" 200 126 "http://supermonkeystar.com/" "Mozilla/5.0 (X11; Datanyze; Linux x86_64) AppleWebKit/537.36 (KHTML, like Gecko) Chrome/65.0.3325.181 Safari/537.36"
138.197.111.90 - - [03/Nov/2018:19:55:46 +0000] "GET /?action=origin_widgets_css&class=SiteOrigin_Panels_Widget_Title&style=simple&preset=simple&ver=1.5.3 HTTP/1.1" 200 198 "http://supermonkeystar.com/" "Mozilla/5.0 (X11; Datanyze; Linux x86_64) AppleWebKit/537.36 (KHTML, like Gecko) Chrome/65.0.3325.181 Safari/537.36"
138.197.111.90 - - [03/Nov/2018:19:55:46 +0000] "GET /wp-content/plugins/revslider/public/assets/js/jquery.themepunch.revolution.min.js?ver=5.2.6 HTTP/1.1" 200 18465 "http://supermonkeystar.com/" "Mozilla/5.0 (X11; Datanyze; Linux x86_64) AppleWebKit/537.36 (KHTML, like Gecko) Chrome/65.0.3325.181 Safari/537.36"
138.197.111.90 - - [03/Nov/2018:19:55:47 +0000] "GET /wp-content/plugins/youtube-embed-plus/scripts/ytprefs.min.js?ver=4.7.11 HTTP/1.1" 200 2771 "http://supermonkeystar.com/" "Mozilla/5.0 (X11; Datanyze; Linux x86_64) AppleWebKit/537.36 (KHTML, like Gecko) Chrome/65.0.3325.181 Safari/537.36"
138.197.111.90 - - [03/Nov/2018:19:55:48 +0000] "GET /wp-content/plugins/contact-form-7/includes/js/scripts.js?ver=4.8 HTTP/1.1" 200 4384 "http://supermonkeystar.com/" "Mozilla/5.0 (X11; Datanyze; Linux x86_64) AppleWebKit/537.36 (KHTML, like Gecko) Chrome/65.0.3325.181 Safari/537.36"
138.197.111.90 - - [03/Nov/2018:19:55:49 +0000] "GET /wp-content/themes/dikka-installable/assets/js/isotope-min.js?ver=4.7.11 HTTP/1.1" 200 5606 "http://supermonkeystar.com/" "Mozilla/5.0 (X11; Datanyze; Linux x86_64) AppleWebKit/537.36 (KHTML, like Gecko) Chrome/65.0.3325.181 Safari/537.36"
138.197.111.90 - - [03/Nov/2018:19:55:49 +0000] "GET /wp-content/themes/dikka-installable/assets/js/retina.min.js?ver=4.7.11 HTTP/1.1" 200 1293 "http://supermonkeystar.com/" "Mozilla/5.0 (X11; Datanyze; Linux x86_64) AppleWebKit/537.36 (KHTML, like Gecko) Chrome/65.0.3325.181 Safari/537.36"
138.197.111.90 - - [03/Nov/2018:19:55:49 +0000] "GET /wp-content/themes/dikka-installable/assets/js/queryloader.min.js?ver=4.7.11 HTTP/1.1" 200 3702 "http://supermonkeystar.com/" "Mozilla/5.0 (X11; Datanyze; Linux x86_64) AppleWebKit/537.36 (KHTML, like Gecko) Chrome/65.0.3325.181 Safari/537.36"
138.197.111.90 - - [03/Nov/2018:19:55:49 +0000] "GET /wp-content/themes/dikka-installable/assets/js/bootstrap.min.js?ver=4.7.11 HTTP/1.1" 200 9191 "http://supermonkeystar.com/" "Mozilla/5.0 (X11; Datanyze; Linux x86_64) AppleWebKit/537.36 (KHTML, like Gecko) Chrome/65.0.3325.181 Safari/537.36"
138.197.111.90 - - [03/Nov/2018:19:55:49 +0000] "GET /wp-content/themes/dikka-installable/assets/js/smartmenus.min.js?ver=4.7.11 HTTP/1.1" 200 7556 "http://supermonkeystar.com/" "Mozilla/5.0 (X11; Datanyze; Linux x86_64) AppleWebKit/537.36 (KHTML, like Gecko) Chrome/65.0.3325.181 Safari/537.36"
138.197.111.90 - - [03/Nov/2018:19:55:50 +0000] "GET /wp-content/themes/dikka-installable/assets/js/ytplayer.js?ver=4.7.11 HTTP/1.1" 200 12601 "http://supermonkeystar.com/" "Mozilla/5.0 (X11; Datanyze; Linux x86_64) AppleWebKit/537.36 (KHTML, like Gecko) Chrome/65.0.3325.181 Safari/537.36"
138.197.111.90 - - [03/Nov/2018:19:55:50 +0000] "GET /wp-content/themes/dikka-installable/assets/js/wow.js?ver=1 HTTP/1.1" 200 2704 "http://supermonkeystar.com/" "Mozilla/5.0 (X11; Datanyze; Linux x86_64) AppleWebKit/537.36 (KHTML, like Gecko) Chrome/65.0.3325.181 Safari/537.36"
138.197.111.90 - - [03/Nov/2018:19:55:50 +0000] "GET /wp-content/themes/dikka-installable/assets/js/utils.js?ver=4.7.11 HTTP/1.1" 200 14775 "http://supermonkeystar.com/" "Mozilla/5.0 (X11; Datanyze; Linux x86_64) AppleWebKit/537.36 (KHTML, like Gecko) Chrome/65.0.3325.181 Safari/537.36"
138.197.111.90 - - [03/Nov/2018:19:55:50 +0000] "GET /wp-content/themes/dikka-installable/assets/js/main.js?ver=4.7.11 HTTP/1.1" 200 7387 "http://supermonkeystar.com/" "Mozilla/5.0 (X11; Datanyze; Linux x86_64) AppleWebKit/537.36 (KHTML, like Gecko) Chrome/65.0.3325.181 Safari/537.36"
138.197.111.90 - - [03/Nov/2018:19:55:50 +0000] "GET /wp-content/themes/dikka-installable/assets/js/SmoothScroll.js?ver=4.7.11 HTTP/1.1" 200 2600 "http://supermonkeystar.com/" "Mozilla/5.0 (X11; Datanyze; Linux x86_64) AppleWebKit/537.36 (KHTML, like Gecko) Chrome/65.0.3325.181 Safari/537.36"
138.197.111.90 - - [03/Nov/2018:19:55:50 +0000] "GET /wp-content/themes/dikka-installable/assets/js/nivo-lightbox.min.js?ver=4.7.11 HTTP/1.1" 200 2449 "http://supermonkeystar.com/" "Mozilla/5.0 (X11; Datanyze; Linux x86_64) AppleWebKit/537.36 (KHTML, like Gecko) Chrome/65.0.3325.181 Safari/537.36"
138.197.111.90 - - [03/Nov/2018:19:55:50 +0000] "GET /wp-content/themes/dikka-installable/assets/js/owl.carousel.min.js?ver=4.7.11 HTTP/1.1" 200 12815 "http://supermonkeystar.com/" "Mozilla/5.0 (X11; Datanyze; Linux x86_64) AppleWebKit/537.36 (KHTML, like Gecko) Chrome/65.0.3325.181 Safari/537.36"
138.197.111.90 - - [03/Nov/2018:19:55:50 +0000] "GET /wp-content/themes/dikka-installable/assets/js/modernizr.custom.js?ver=4.7.11 HTTP/1.1" 200 5651 "http://supermonkeystar.com/" "Mozilla/5.0 (X11; Datanyze; Linux x86_64) AppleWebKit/537.36 (KHTML, like Gecko) Chrome/65.0.3325.181 Safari/537.36"
138.197.111.90 - - [03/Nov/2018:19:55:50 +0000] "GET /wp-includes/js/comment-reply.min.js?ver=4.7.11 HTTP/1.1" 200 621 "http://supermonkeystar.com/" "Mozilla/5.0 (X11; Datanyze; Linux x86_64) AppleWebKit/537.36 (KHTML, like Gecko) Chrome/65.0.3325.181 Safari/537.36"
138.197.111.90 - - [03/Nov/2018:19:55:50 +0000] "GET /wp-content/plugins/youtube-embed-plus/scripts/fitvids.min.js?ver=4.7.11 HTTP/1.1" 200 877 "http://supermonkeystar.com/" "Mozilla/5.0 (X11; Datanyze; Linux x86_64) AppleWebKit/537.36 (KHTML, like Gecko) Chrome/65.0.3325.181 Safari/537.36"
138.197.111.90 - - [03/Nov/2018:19:55:50 +0000] "GET /wp-includes/js/wp-embed.min.js?ver=4.7.11 HTTP/1.1" 200 788 "http://supermonkeystar.com/" "Mozilla/5.0 (X11; Datanyze; Linux x86_64) AppleWebKit/537.36 (KHTML, like Gecko) Chrome/65.0.3325.181 Safari/537.36"
138.197.111.90 - - [03/Nov/2018:19:55:50 +0000] "GET /wp-content/plugins/cubeportfolio/public/js/main.min-1.14.5.js?ver=1.14.5 HTTP/1.1" 200 33598 "http://supermonkeystar.com/" "Mozilla/5.0 (X11; Datanyze; Linux x86_64) AppleWebKit/537.36 (KHTML, like Gecko) Chrome/65.0.3325.181 Safari/537.36"
138.197.111.90 - - [03/Nov/2018:19:55:51 +0000] "GET /wp-content/plugins/mailchimp-for-wp/assets/js/forms-api.min.js?ver=4.1.15 HTTP/1.1" 200 7211 "http://supermonkeystar.com/" "Mozilla/5.0 (X11; Datanyze; Linux x86_64) AppleWebKit/537.36 (KHTML, like Gecko) Chrome/65.0.3325.181 Safari/537.36"
138.197.111.90 - - [03/Nov/2018:19:55:51 +0000] "GET /wp-includes/js/wp-emoji-release.min.js?ver=4.7.11 HTTP/1.1" 200 4736 "http://supermonkeystar.com/" "Mozilla/5.0 (X11; Datanyze; Linux x86_64) AppleWebKit/537.36 (KHTML, like Gecko) Chrome/65.0.3325.181 Safari/537.36"
138.197.111.90 - - [03/Nov/2018:19:55:57 +0000] "GET /wp-content/plugins/revslider/public/assets/js/extensions/revolution.extension.slideanims.min.js HTTP/1.1" 200 7746 "http://supermonkeystar.com/" "Mozilla/5.0 (X11; Datanyze; Linux x86_64) AppleWebKit/537.36 (KHTML, like Gecko) Chrome/65.0.3325.181 Safari/537.36"
138.197.111.90 - - [03/Nov/2018:19:55:57 +0000] "GET /wp-content/plugins/revslider/public/assets/js/extensions/revolution.extension.video.min.js HTTP/1.1" 200 6969 "http://supermonkeystar.com/" "Mozilla/5.0 (X11; Datanyze; Linux x86_64) AppleWebKit/537.36 (KHTML, like Gecko) Chrome/65.0.3325.181 Safari/537.36"
138.197.111.90 - - [03/Nov/2018:19:55:57 +0000] "GET /wp-content/plugins/revslider/public/assets/js/extensions/revolution.extension.actions.min.js HTTP/1.1" 200 2539 "http://supermonkeystar.com/" "Mozilla/5.0 (X11; Datanyze; Linux x86_64) AppleWebKit/537.36 (KHTML, like Gecko) Chrome/65.0.3325.181 Safari/537.36"
138.197.111.90 - - [03/Nov/2018:19:55:57 +0000] "GET /wp-content/plugins/revslider/public/assets/js/extensions/revolution.extension.layeranimation.min.js HTTP/1.1" 200 10510 "http://supermonkeystar.com/" "Mozilla/5.0 (X11; Datanyze; Linux x86_64) AppleWebKit/537.36 (KHTML, like Gecko) Chrome/65.0.3325.181 Safari/537.36"
138.197.111.90 - - [03/Nov/2018:19:56:24 +0000] "GET / HTTP/1.1" 301 5 "-" "Mozilla/5.0 (Macintosh; Intel Mac OS X 10_9_2) AppleWebKit/537.75.14 (KHTML, like Gecko) Version/7.0.3 Safari/537.75.14"
138.197.111.90 - - [03/Nov/2018:19:56:25 +0000] "GET / HTTP/1.1" 200 19567 "http://www.supermonkeystar.com/" "Mozilla/5.0 (Macintosh; Intel Mac OS X 10_9_2) AppleWebKit/537.75.14 (KHTML, like Gecko) Version/7.0.3 Safari/537.75.14"
95.130.9.90 - - [03/Nov/2018:19:58:11 +0000] "GET / HTTP/1.1" 200 19356 "-" "Mozilla/5.0 (Macintosh; Intel Mac OS X 10_11_3) AppleWebKit/601.4.4 (KHTML, like Gecko) Version/9.0.3 Safari/601.4.4"
95.130.9.90 - - [03/Nov/2018:19:58:14 +0000] "POST / HTTP/1.1" 200 19944 "http://supermonkeystar.com/" "Mozilla/5.0 (Macintosh; Intel Mac OS X 10_11_3) AppleWebKit/601.4.4 (KHTML, like Gecko) Version/9.0.3 Safari/601.4.4"
35.204.211.244 - - [03/Nov/2018:20:12:05 +0000] "GET /wp-content/themes/dikka-installable/assets/images/icons/credit-cards/discover.png HTTP/1.1" 404 16989 "-" "Mozilla/5.0 (compatible; tracemyfile/1.0)"
185.129.62.62 - - [03/Nov/2018:20:22:19 +0000] "GET / HTTP/1.1" 200 19410 "-" "Mozilla/5.0 (Windows NT 6.3; Win64; x64) AppleWebKit/537.36 (KHTML, like Gecko) Chrome/42.0.2311.135 Safari/537.36 Edge/12.10240"
185.129.62.62 - - [03/Nov/2018:20:22:21 +0000] "POST / HTTP/1.1" 200 20485 "http://supermonkeystar.com/" "Mozilla/5.0 (Windows NT 6.3; Win64; x64) AppleWebKit/537.36 (KHTML, like Gecko) Chrome/42.0.2311.135 Safari/537.36 Edge/12.10240"
67.231.16.205 - - [03/Nov/2018:21:02:58 +0000] "HEAD / HTTP/1.1" 200 0 "-" "Mozilla/5.0 (compatible; Uptimebot/1.0; +http://www.uptime.com/uptimebot)"
180.76.15.32 - - [03/Nov/2018:21:14:58 +0000] "GET / HTTP/1.1" 200 19710 "-" "Mozilla/5.0 (compatible; Baiduspider/2.0; +http://www.baidu.com/search/spider.html)"
18.232.99.63 - - [03/Nov/2018:21:17:14 +0000] "GET /feed/ HTTP/1.1" 304 0 "https://www.google.com/" "Mozilla/6.0 (Windows NT 6.2; WOW64; rv:16.0.1) Gecko/20121011 Firefox/16.0.1"
178.154.244.10 - - [03/Nov/2018:21:44:51 +0000] "GET /robots.txt HTTP/1.1" 200 78 "-" "Mozilla/5.0 (compatible; YandexBot/3.0; +http://yandex.com/bots)"
178.154.244.10 - - [03/Nov/2018:21:44:55 +0000] "GET / HTTP/1.1" 200 20000 "-" "Mozilla/5.0 (compatible; YandexBot/3.0; +http://yandex.com/bots)"
180.76.15.163 - - [03/Nov/2018:21:48:16 +0000] "GET /wp-content/themes/dikka-installable/assets/js/bootstrap.min.js HTTP/1.1" 200 9191 "-" "Mozilla/5.0 (compatible; Baiduspider/2.0; +http://www.baidu.com/search/spider.html)"
110.83.60.116 - - [03/Nov/2018:21:53:26 +0000] "HEAD /wp-content/themes/twentysixteen/inc/customizer.php HTTP/1.1" 200 0 "-" "-"
40.77.167.121 - - [03/Nov/2018:22:02:03 +0000] "GET /my-test-new/ HTTP/1.1" 200 13393 "-" "Mozilla/5.0 (compatible; bingbot/2.0; +http://www.bing.com/bingbot.htm)"
207.46.13.196 - - [03/Nov/2018:22:21:04 +0000] "GET /home/feed/ HTTP/1.1" 200 749 "-" "Mozilla/5.0 (compatible; bingbot/2.0; +http://www.bing.com/bingbot.htm)"
207.46.13.196 - - [03/Nov/2018:22:21:05 +0000] "GET /creative-wordpress/ HTTP/1.1" 200 12561 "-" "Mozilla/5.0 (compatible; bingbot/2.0; +http://www.bing.com/bingbot.htm)"
207.46.13.196 - - [03/Nov/2018:22:21:07 +0000] "GET /one-post-more/ HTTP/1.1" 200 12397 "-" "Mozilla/5.0 (compatible; bingbot/2.0; +http://www.bing.com/bingbot.htm)"
180.76.15.15 - - [03/Nov/2018:22:21:37 +0000] "GET /wp-content/themes/dikka-installable/assets/js/ytplayer.js HTTP/1.1" 200 12600 "-" "Mozilla/5.0 (compatible; Baiduspider/2.0; +http://www.baidu.com/search/spider.html)"
91.86.112.189 - - [03/Nov/2018:22:26:24 +0000] "GET /wp-login.php HTTP/1.1" 200 2863 "-" "Mozilla/5.0 (Windows NT 6.1; WOW64; rv:40.0) Gecko/20100101 Firefox/40.1"
91.86.112.189 - - [03/Nov/2018:22:26:24 +0000] "GET / HTTP/1.1" 301 5 "-" "Mozilla/5.0 (Windows NT 6.1; WOW64; rv:40.0) Gecko/20100101 Firefox/40.1"
91.86.112.189 - - [03/Nov/2018:22:26:25 +0000] "GET / HTTP/1.1" 200 77447 "-" "Mozilla/5.0 (Windows NT 6.1; WOW64; rv:40.0) Gecko/20100101 Firefox/40.1"
178.137.165.225 - - [03/Nov/2018:22:29:51 +0000] "GET / HTTP/1.1" 200 77512 "http://www.drugstoreforyou.com/" "Mozilla/4.0 (compatible; MSIE 6.0; Windows NT 5.1; SV1)"
178.137.165.225 - - [03/Nov/2018:22:29:53 +0000] "GET / HTTP/1.1" 200 1074 "http://www.drugstoreforyou.com/" "Mozilla/4.0 (compatible; MSIE 6.0; Windows NT 5.1; SV1)"
178.154.244.10 - - [03/Nov/2018:22:30:45 +0000] "GET /wp-content/uploads/2017/03/logo-e1489424223615.png HTTP/1.1" 200 18065 "-" "Mozilla/5.0 (compatible; YandexBot/3.0; +http://yandex.com/bots)"
91.86.112.189 - - [03/Nov/2018:22:39:44 +0000] "GET /wp-login.php HTTP/1.1" 200 2875 "-" "Mozilla/5.0 (Windows NT 6.1; WOW64; rv:40.0) Gecko/20100101 Firefox/40.1"
91.86.112.189 - - [03/Nov/2018:22:39:45 +0000] "GET / HTTP/1.1" 200 77449 "-" "Mozilla/5.0 (Windows NT 6.1; WOW64; rv:40.0) Gecko/20100101 Firefox/40.1"
95.168.216.16 - - [03/Nov/2018:22:58:01 +0000] "GET / HTTP/1.1" 200 19721 "-" "Mozilla/5.0 (Windows NT 6.1; WOW64; rv:56.0) Gecko/20100101 Firefox/56.0"
95.168.216.16 - - [03/Nov/2018:22:58:04 +0000] "POST / HTTP/1.1" 200 20122 "http://supermonkeystar.com/" "Mozilla/5.0 (Windows NT 6.1; WOW64; rv:56.0) Gecko/20100101 Firefox/56.0"
54.38.90.211 - - [03/Nov/2018:23:15:59 +0000] "GET /wp-content/uploads/2017/03/concept-02.jpg HTTP/1.1" 200 215529 "-" "-"
54.38.90.211 - - [03/Nov/2018:23:16:12 +0000] "GET /wp-content/uploads/2014/12/Environment_01.jpg HTTP/1.1" 200 285059 "-" "-"
54.38.90.211 - - [03/Nov/2018:23:16:25 +0000] "GET /wp-content/uploads/2014/12/background_laval_ball_1.jpg HTTP/1.1" 200 191678 "-" "-"
54.38.90.211 - - [03/Nov/2018:23:16:42 +0000] "GET /wp-content/uploads/2014/12/Environment_05.jpg HTTP/1.1" 200 179684 "-" "-"
54.38.90.211 - - [03/Nov/2018:23:16:55 +0000] "GET /wp-content/uploads/2017/03/concept-01.jpg HTTP/1.1" 200 129589 "-" "-"
54.38.90.211 - - [03/Nov/2018:23:17:08 +0000] "GET /wp-content/uploads/2014/12/Environment_04.jpg HTTP/1.1" 200 432269 "-" "-"
54.38.90.211 - - [03/Nov/2018:23:17:19 +0000] "GET /wp-content/uploads/2017/03/concept-04.jpg HTTP/1.1" 200 315174 "-" "-"
54.38.90.211 - - [03/Nov/2018:23:17:32 +0000] "GET /wp-content/uploads/2017/03/concept-03.jpg HTTP/1.1" 200 228665 "-" "-"
54.38.90.211 - - [03/Nov/2018:23:17:45 +0000] "GET /wp-content/uploads/2014/12/Environment_02.jpg HTTP/1.1" 200 358601 "-" "-"
54.38.90.211 - - [03/Nov/2018:23:17:57 +0000] "GET /wp-content/uploads/2017/03/logo-1.png HTTP/1.1" 200 143903 "-" "-"
54.36.150.87 - - [04/Nov/2018:00:48:00 +0000] "GET /robots.txt HTTP/1.1" 200 92 "-" "Mozilla/5.0 (compatible; AhrefsBot/5.2; +http://ahrefs.com/robot/)"
54.36.149.38 - - [04/Nov/2018:00:48:02 +0000] "GET / HTTP/1.1" 200 20397 "-" "Mozilla/5.0 (compatible; AhrefsBot/5.2; +http://ahrefs.com/robot/)"
178.154.244.10 - - [04/Nov/2018:00:59:29 +0000] "GET /category/standard/ HTTP/1.1" 200 11540 "-" "Mozilla/5.0 (compatible; YandexBot/3.0; +http://yandex.com/bots)"
31.170.123.73 - - [04/Nov/2018:01:34:51 +0000] "POST /wp-cron.php?doing_wp_cron=1541295290.0722129344940185546875 HTTP/1.1" 499 0 "http://supermonkeystar.com/wp-cron.php?doing_wp_cron=1541295290.0722129344940185546875" "WordPress/4.7.11; http://supermonkeystar.com"
54.38.138.122 - - [04/Nov/2018:01:34:51 +0000] "GET /robots.txt HTTP/1.1" 200 78 "-" "Mozilla/5.0 (Windows NT 10.0; Win64; x64; rv:48.0) Gecko/20100101 Firefox/48.0"
54.38.138.122 - - [04/Nov/2018:01:34:51 +0000] "GET /?author=1 HTTP/1.1" 301 5 "-" "Mozilla/5.0 (Windows NT 10.0; Win64; x64; rv:48.0) Gecko/20100101 Firefox/48.0"
54.38.138.122 - - [04/Nov/2018:01:34:52 +0000] "POST /xmlrpc.php HTTP/1.1" 200 85824 "-" "Mozilla/5.0 (Windows NT 10.0; Win64; x64; rv:48.0) Gecko/20100101 Firefox/48.0"
54.38.138.122 - - [04/Nov/2018:01:34:52 +0000] "POST /xmlrpc.php HTTP/1.1" 200 85848 "-" "Mozilla/5.0 (Windows NT 10.0; Win64; x64; rv:48.0) Gecko/20100101 Firefox/48.0"
147.135.4.71 - - [04/Nov/2018:01:39:26 +0000] "GET / HTTP/1.1" 200 19946 "-" "Scrapy/1.5.1 (+https://scrapy.org)"
147.135.4.71 - - [04/Nov/2018:01:39:27 +0000] "POST / HTTP/1.1" 200 19212 "http://supermonkeystar.com" "Scrapy/1.5.1 (+https://scrapy.org)"
81.88.49.36 - - [04/Nov/2018:02:06:40 +0000] "GET /wp-content/plugins/Aviliate/user.php HTTP/1.1" 404 78865 "http://site.ru" "Mozilla/5.0 (Windows; U; Windows NT 5.1; en-US) AppleWebKit/533.4 (KHTML, like Gecko) Chrome/5.0.375.99 Safari/533.4"
81.88.49.43 - - [04/Nov/2018:02:06:43 +0000] "GET /wp-content/plugins/Aviliate/user.php HTTP/1.1" 404 78591 "http://site.ru" "Mozilla/5.0 (Windows; U; Windows NT 5.1; en-US) AppleWebKit/533.4 (KHTML, like Gecko) Chrome/5.0.375.99 Safari/533.4"
66.249.66.142 - - [04/Nov/2018:02:36:02 +0000] "GET /wp-content/plugins/revslider/public/assets/js/jquery.themepunch.tools.min.js?ver=5.2.6 HTTP/1.1" 200 42724 "http://supermonkeystar.com/" "Mozilla/5.0 (Linux; Android 6.0.1; Nexus 5X Build/MMB29P) AppleWebKit/537.36 (KHTML, like Gecko) Chrome/41.0.2272.96 Mobile Safari/537.36 (compatible; Googlebot/2.1; +http://www.google.com/bot.html)"
66.249.66.138 - - [04/Nov/2018:02:36:07 +0000] "GET /wp-content/themes/dikka-installable/assets/css/nivo_themes/default/default.css?ver=4.7.11 HTTP/1.1" 200 850 "http://supermonkeystar.com/" "Mozilla/5.0 (Linux; Android 6.0.1; Nexus 5X Build/MMB29P) AppleWebKit/537.36 (KHTML, like Gecko) Chrome/41.0.2272.96 Mobile Safari/537.36 (compatible; Googlebot/2.1; +http://www.google.com/bot.html)"
66.249.66.138 - - [04/Nov/2018:02:36:08 +0000] "GET /wp-admin/admin-ajax.php?action=siteorigin_panels_post_css&post=1546&layout=32891747&ver=1.5.3 HTTP/1.1" 200 391 "http://supermonkeystar.com/" "Mozilla/5.0 (Linux; Android 6.0.1; Nexus 5X Build/MMB29P) AppleWebKit/537.36 (KHTML, like Gecko) Chrome/41.0.2272.96 Mobile Safari/537.36 (compatible; Googlebot/2.1; +http://www.google.com/bot.html)"
138.197.9.82 - - [04/Nov/2018:02:53:36 +0000] "GET / HTTP/1.1" 301 5 "http://www.supermonkeystar.com" "Mozilla/5.0 (X11; Datanyze; Linux x86_64) AppleWebKit/537.36 (KHTML, like Gecko) Chrome/65.0.3325.181 Safari/537.36"
138.197.9.82 - - [04/Nov/2018:02:53:37 +0000] "GET / HTTP/1.1" 200 20292 "http://www.supermonkeystar.com/" "Mozilla/5.0 (X11; Datanyze; Linux x86_64) AppleWebKit/537.36 (KHTML, like Gecko) Chrome/65.0.3325.181 Safari/537.36"
138.197.111.192 - - [04/Nov/2018:02:54:15 +0000] "GET / HTTP/1.1" 301 5 "-" "Mozilla/5.0 (X11; Datanyze; Linux x86_64) AppleWebKit/537.36 (KHTML, like Gecko) Chrome/65.0.3325.181 Safari/537.36"
138.197.111.192 - - [04/Nov/2018:02:54:17 +0000] "GET / HTTP/1.1" 200 19552 "-" "Mozilla/5.0 (X11; Datanyze; Linux x86_64) AppleWebKit/537.36 (KHTML, like Gecko) Chrome/65.0.3325.181 Safari/537.36"
138.197.111.192 - - [04/Nov/2018:02:54:18 +0000] "GET /wp-includes/js/jquery.magnific-popup.min.js HTTP/1.1" 200 8291 "http://supermonkeystar.com/" "Mozilla/5.0 (X11; Datanyze; Linux x86_64) AppleWebKit/537.36 (KHTML, like Gecko) Chrome/65.0.3325.181 Safari/537.36"
138.197.111.192 - - [04/Nov/2018:02:54:18 +0000] "GET /wp-admin/admin-ajax.php?action=siteorigin_panels_post_css&post=1546&layout=32891747&ver=1.5.3 HTTP/1.1" 200 391 "http://supermonkeystar.com/" "Mozilla/5.0 (X11; Datanyze; Linux x86_64) AppleWebKit/537.36 (KHTML, like Gecko) Chrome/65.0.3325.181 Safari/537.36"
138.197.111.192 - - [04/Nov/2018:02:54:19 +0000] "GET /wp-includes/js/jquery/jquery.js?ver=1.12.4 HTTP/1.1" 200 39450 "http://supermonkeystar.com/" "Mozilla/5.0 (X11; Datanyze; Linux x86_64) AppleWebKit/537.36 (KHTML, like Gecko) Chrome/65.0.3325.181 Safari/537.36"
138.197.111.192 - - [04/Nov/2018:02:54:19 +0000] "GET /?action=origin_widgets_css&class=SiteOrigin_Panels_Widget_Spacer&style=simple&preset=blank&ver=1.5.3 HTTP/1.1" 200 126 "http://supermonkeystar.com/" "Mozilla/5.0 (X11; Datanyze; Linux x86_64) AppleWebKit/537.36 (KHTML, like Gecko) Chrome/65.0.3325.181 Safari/537.36"
138.197.111.192 - - [04/Nov/2018:02:54:19 +0000] "GET /wp-includes/js/jquery/jquery-migrate.min.js?ver=1.4.1 HTTP/1.1" 200 4330 "http://supermonkeystar.com/" "Mozilla/5.0 (X11; Datanyze; Linux x86_64) AppleWebKit/537.36 (KHTML, like Gecko) Chrome/65.0.3325.181 Safari/537.36"
138.197.111.192 - - [04/Nov/2018:02:54:19 +0000] "GET /?action=origin_widgets_css&class=SiteOrigin_Panels_Widget_Title&style=simple&preset=simple&ver=1.5.3 HTTP/1.1" 200 198 "http://supermonkeystar.com/" "Mozilla/5.0 (X11; Datanyze; Linux x86_64) AppleWebKit/537.36 (KHTML, like Gecko) Chrome/65.0.3325.181 Safari/537.36"
138.197.111.192 - - [04/Nov/2018:02:54:19 +0000] "GET /wp-content/plugins/revslider/public/assets/js/jquery.themepunch.tools.min.js?ver=5.2.6 HTTP/1.1" 200 42630 "http://supermonkeystar.com/" "Mozilla/5.0 (X11; Datanyze; Linux x86_64) AppleWebKit/537.36 (KHTML, like Gecko) Chrome/65.0.3325.181 Safari/537.36"
138.197.111.192 - - [04/Nov/2018:02:54:19 +0000] "GET /wp-content/plugins/revslider/public/assets/js/jquery.themepunch.revolution.min.js?ver=5.2.6 HTTP/1.1" 200 18470 "http://supermonkeystar.com/" "Mozilla/5.0 (X11; Datanyze; Linux x86_64) AppleWebKit/537.36 (KHTML, like Gecko) Chrome/65.0.3325.181 Safari/537.36"
138.197.111.192 - - [04/Nov/2018:02:54:20 +0000] "GET /wp-content/plugins/youtube-embed-plus/scripts/ytprefs.min.js?ver=4.7.11 HTTP/1.1" 200 2771 "http://supermonkeystar.com/" "Mozilla/5.0 (X11; Datanyze; Linux x86_64) AppleWebKit/537.36 (KHTML, like Gecko) Chrome/65.0.3325.181 Safari/537.36"
138.197.111.192 - - [04/Nov/2018:02:54:21 +0000] "GET /wp-content/plugins/contact-form-7/includes/js/scripts.js?ver=4.8 HTTP/1.1" 200 4384 "http://supermonkeystar.com/" "Mozilla/5.0 (X11; Datanyze; Linux x86_64) AppleWebKit/537.36 (KHTML, like Gecko) Chrome/65.0.3325.181 Safari/537.36"
138.197.111.192 - - [04/Nov/2018:02:54:22 +0000] "GET /wp-content/themes/dikka-installable/assets/js/isotope-min.js?ver=4.7.11 HTTP/1.1" 200 5606 "http://supermonkeystar.com/" "Mozilla/5.0 (X11; Datanyze; Linux x86_64) AppleWebKit/537.36 (KHTML, like Gecko) Chrome/65.0.3325.181 Safari/537.36"
138.197.111.192 - - [04/Nov/2018:02:54:22 +0000] "GET /wp-content/themes/dikka-installable/assets/js/retina.min.js?ver=4.7.11 HTTP/1.1" 200 1293 "http://supermonkeystar.com/" "Mozilla/5.0 (X11; Datanyze; Linux x86_64) AppleWebKit/537.36 (KHTML, like Gecko) Chrome/65.0.3325.181 Safari/537.36"
138.197.111.192 - - [04/Nov/2018:02:54:23 +0000] "GET /wp-content/themes/dikka-installable/assets/js/queryloader.min.js?ver=4.7.11 HTTP/1.1" 200 3702 "http://supermonkeystar.com/" "Mozilla/5.0 (X11; Datanyze; Linux x86_64) AppleWebKit/537.36 (KHTML, like Gecko) Chrome/65.0.3325.181 Safari/537.36"
138.197.111.192 - - [04/Nov/2018:02:54:23 +0000] "GET /wp-content/themes/dikka-installable/assets/js/smartmenus.min.js?ver=4.7.11 HTTP/1.1" 200 7556 "http://supermonkeystar.com/" "Mozilla/5.0 (X11; Datanyze; Linux x86_64) AppleWebKit/537.36 (KHTML, like Gecko) Chrome/65.0.3325.181 Safari/537.36"
138.197.111.192 - - [04/Nov/2018:02:54:23 +0000] "GET /wp-content/themes/dikka-installable/assets/js/ytplayer.js?ver=4.7.11 HTTP/1.1" 200 12601 "http://supermonkeystar.com/" "Mozilla/5.0 (X11; Datanyze; Linux x86_64) AppleWebKit/537.36 (KHTML, like Gecko) Chrome/65.0.3325.181 Safari/537.36"
138.197.111.192 - - [04/Nov/2018:02:54:23 +0000] "GET /wp-content/themes/dikka-installable/assets/js/wow.js?ver=1 HTTP/1.1" 200 2704 "http://supermonkeystar.com/" "Mozilla/5.0 (X11; Datanyze; Linux x86_64) AppleWebKit/537.36 (KHTML, like Gecko) Chrome/65.0.3325.181 Safari/537.36"
138.197.111.192 - - [04/Nov/2018:02:54:23 +0000] "GET /wp-content/themes/dikka-installable/assets/js/bootstrap.min.js?ver=4.7.11 HTTP/1.1" 200 9224 "http://supermonkeystar.com/" "Mozilla/5.0 (X11; Datanyze; Linux x86_64) AppleWebKit/537.36 (KHTML, like Gecko) Chrome/65.0.3325.181 Safari/537.36"
138.197.111.192 - - [04/Nov/2018:02:54:23 +0000] "GET /wp-content/themes/dikka-installable/assets/js/utils.js?ver=4.7.11 HTTP/1.1" 200 14827 "http://supermonkeystar.com/" "Mozilla/5.0 (X11; Datanyze; Linux x86_64) AppleWebKit/537.36 (KHTML, like Gecko) Chrome/65.0.3325.181 Safari/537.36"
138.197.111.192 - - [04/Nov/2018:02:54:23 +0000] "GET /wp-content/themes/dikka-installable/assets/js/main.js?ver=4.7.11 HTTP/1.1" 200 7387 "http://supermonkeystar.com/" "Mozilla/5.0 (X11; Datanyze; Linux x86_64) AppleWebKit/537.36 (KHTML, like Gecko) Chrome/65.0.3325.181 Safari/537.36"
138.197.111.192 - - [04/Nov/2018:02:54:23 +0000] "GET /wp-content/themes/dikka-installable/assets/js/SmoothScroll.js?ver=4.7.11 HTTP/1.1" 200 2600 "http://supermonkeystar.com/" "Mozilla/5.0 (X11; Datanyze; Linux x86_64) AppleWebKit/537.36 (KHTML, like Gecko) Chrome/65.0.3325.181 Safari/537.36"
138.197.111.192 - - [04/Nov/2018:02:54:23 +0000] "GET /wp-content/themes/dikka-installable/assets/js/owl.carousel.min.js?ver=4.7.11 HTTP/1.1" 200 12806 "http://supermonkeystar.com/" "Mozilla/5.0 (X11; Datanyze; Linux x86_64) AppleWebKit/537.36 (KHTML, like Gecko) Chrome/65.0.3325.181 Safari/537.36"
138.197.111.192 - - [04/Nov/2018:02:54:24 +0000] "GET /wp-content/themes/dikka-installable/assets/js/nivo-lightbox.min.js?ver=4.7.11 HTTP/1.1" 200 2449 "http://supermonkeystar.com/" "Mozilla/5.0 (X11; Datanyze; Linux x86_64) AppleWebKit/537.36 (KHTML, like Gecko) Chrome/65.0.3325.181 Safari/537.36"
138.197.111.192 - - [04/Nov/2018:02:54:24 +0000] "GET /wp-content/themes/dikka-installable/assets/js/modernizr.custom.js?ver=4.7.11 HTTP/1.1" 200 5651 "http://supermonkeystar.com/" "Mozilla/5.0 (X11; Datanyze; Linux x86_64) AppleWebKit/537.36 (KHTML, like Gecko) Chrome/65.0.3325.181 Safari/537.36"
138.197.111.192 - - [04/Nov/2018:02:54:24 +0000] "GET /wp-content/plugins/youtube-embed-plus/scripts/fitvids.min.js?ver=4.7.11 HTTP/1.1" 200 877 "http://supermonkeystar.com/" "Mozilla/5.0 (X11; Datanyze; Linux x86_64) AppleWebKit/537.36 (KHTML, like Gecko) Chrome/65.0.3325.181 Safari/537.36"
138.197.111.192 - - [04/Nov/2018:02:54:24 +0000] "GET /wp-includes/js/comment-reply.min.js?ver=4.7.11 HTTP/1.1" 200 621 "http://supermonkeystar.com/" "Mozilla/5.0 (X11; Datanyze; Linux x86_64) AppleWebKit/537.36 (KHTML, like Gecko) Chrome/65.0.3325.181 Safari/537.36"
138.197.111.192 - - [04/Nov/2018:02:54:24 +0000] "GET /wp-content/plugins/cubeportfolio/public/js/main.min-1.14.5.js?ver=1.14.5 HTTP/1.1" 200 33598 "http://supermonkeystar.com/" "Mozilla/5.0 (X11; Datanyze; Linux x86_64) AppleWebKit/537.36 (KHTML, like Gecko) Chrome/65.0.3325.181 Safari/537.36"
138.197.111.192 - - [04/Nov/2018:02:54:24 +0000] "GET /wp-includes/js/wp-embed.min.js?ver=4.7.11 HTTP/1.1" 200 788 "http://supermonkeystar.com/" "Mozilla/5.0 (X11; Datanyze; Linux x86_64) AppleWebKit/537.36 (KHTML, like Gecko) Chrome/65.0.3325.181 Safari/537.36"
138.197.111.192 - - [04/Nov/2018:02:54:24 +0000] "GET /wp-content/plugins/mailchimp-for-wp/assets/js/forms-api.min.js?ver=4.1.15 HTTP/1.1" 200 7211 "http://supermonkeystar.com/" "Mozilla/5.0 (X11; Datanyze; Linux x86_64) AppleWebKit/537.36 (KHTML, like Gecko) Chrome/65.0.3325.181 Safari/537.36"
138.197.111.192 - - [04/Nov/2018:02:54:25 +0000] "GET /wp-includes/js/wp-emoji-release.min.js?ver=4.7.11 HTTP/1.1" 200 4736 "http://supermonkeystar.com/" "Mozilla/5.0 (X11; Datanyze; Linux x86_64) AppleWebKit/537.36 (KHTML, like Gecko) Chrome/65.0.3325.181 Safari/537.36"
138.197.111.192 - - [04/Nov/2018:02:54:26 +0000] "GET /wp-content/plugins/revslider/public/assets/js/extensions/revolution.extension.video.min.js HTTP/1.1" 200 6969 "http://supermonkeystar.com/" "Mozilla/5.0 (X11; Datanyze; Linux x86_64) AppleWebKit/537.36 (KHTML, like Gecko) Chrome/65.0.3325.181 Safari/537.36"
138.197.111.192 - - [04/Nov/2018:02:54:26 +0000] "GET /wp-content/plugins/revslider/public/assets/js/extensions/revolution.extension.slideanims.min.js HTTP/1.1" 200 7766 "http://supermonkeystar.com/" "Mozilla/5.0 (X11; Datanyze; Linux x86_64) AppleWebKit/537.36 (KHTML, like Gecko) Chrome/65.0.3325.181 Safari/537.36"
138.197.111.192 - - [04/Nov/2018:02:54:26 +0000] "GET /wp-content/plugins/revslider/public/assets/js/extensions/revolution.extension.actions.min.js HTTP/1.1" 200 2539 "http://supermonkeystar.com/" "Mozilla/5.0 (X11; Datanyze; Linux x86_64) AppleWebKit/537.36 (KHTML, like Gecko) Chrome/65.0.3325.181 Safari/537.36"
138.197.111.192 - - [04/Nov/2018:02:54:27 +0000] "GET /wp-content/plugins/revslider/public/assets/js/extensions/revolution.extension.layeranimation.min.js HTTP/1.1" 200 10510 "http://supermonkeystar.com/" "Mozilla/5.0 (X11; Datanyze; Linux x86_64) AppleWebKit/537.36 (KHTML, like Gecko) Chrome/65.0.3325.181 Safari/537.36"
138.197.111.192 - - [04/Nov/2018:02:55:18 +0000] "GET / HTTP/1.1" 301 5 "-" "Mozilla/5.0 (compatible; MSIE 10.0; Windows NT 6.1; WOW64; Trident/6.0)"
138.197.111.192 - - [04/Nov/2018:02:55:19 +0000] "GET / HTTP/1.1" 200 20151 "http://www.supermonkeystar.com/" "Mozilla/5.0 (compatible; MSIE 10.0; Windows NT 6.1; WOW64; Trident/6.0)"
