178.154.200.71 - - [03/Nov/2018:03:35:10 +0000] "GET /robots.txt HTTP/1.0" 404 208 "-" "Mozilla/5.0 (compatible; YandexBot/3.0; +http://yandex.com/bots)"
213.180.203.23 - - [03/Nov/2018:03:35:12 +0000] "GET /robots.txt HTTP/1.0" 404 208 "-" "Mozilla/5.0 (compatible; YandexBot/3.0; +http://yandex.com/bots)"
213.180.203.41 - - [03/Nov/2018:03:35:14 +0000] "GET / HTTP/1.0" 200 11888 "-" "Mozilla/5.0 (compatible; YandexBot/3.0; +http://yandex.com/bots)"
37.9.113.88 - - [03/Nov/2018:03:35:15 +0000] "GET / HTTP/1.0" 200 11888 "-" "Mozilla/5.0 (compatible; YandexBot/3.0; +http://yandex.com/bots)"
42.236.99.86 - - [03/Nov/2018:04:10:53 +0000] "GET / HTTP/1.0" 200 11888 "http://looklala.com/" "Mozilla/5.0 (Windows NT 6.1; WOW64) AppleWebKit/537.36 (KHTML, like Gecko) Chrome/50.0.2661.102 Safari/537.36; 360Spider"
42.236.103.66 - - [03/Nov/2018:04:11:08 +0000] "GET / HTTP/1.0" 200 11888 "http://www.looklala.com/" "Mozilla/5.0 (Windows NT 6.1; WOW64) AppleWebKit/537.36 (KHTML, like Gecko) Chrome/50.0.2661.102 Safari/537.36; 360Spider"
101.226.226.221 - - [03/Nov/2018:04:58:59 +0000] "GET / HTTP/1.0" 200 11888 "-" "Mozilla/5.0 (iPhone; CPU iPhone OS 10_2_1 like Mac OS X) AppleWebKit/602.4.6 (KHTML, like Gecko) Mobile/14D27 MicroMessenger/6.5.5 NetType/WIFI Language/zh_CN"
101.226.226.221 - - [03/Nov/2018:04:59:00 +0000] "GET /js/jquery.min.js HTTP/1.0" 200 93070 "http://www.looklala.com/" "Mozilla/5.0 (iPhone; CPU iPhone OS 10_2_1 like Mac OS X) AppleWebKit/602.4.6 (KHTML, like Gecko) Mobile/14D27 MicroMessenger/6.5.5 NetType/WIFI Language/zh_CN"
101.226.226.221 - - [03/Nov/2018:04:59:01 +0000] "GET /js/jpreloader.min.js HTTP/1.0" 200 3292 "http://www.looklala.com/" "Mozilla/5.0 (Linux; Android 4.4.4; Coolpad Y82-520 Build/KTU84P) AppleWebKit/537.36 (KHTML, like Gecko) Version/4.0 Chrome/33.0.0.0 Mobile Safari/537.36 MicroMessenger/6.5.4.1000 NetType/4G Language/zh_CN"
101.226.226.221 - - [03/Nov/2018:04:59:01 +0000] "GET /js/vegas.js HTTP/1.0" 200 14573 "http://www.looklala.com/" "Mozilla/5.0 (Linux; Android 6.0.1; OPPO R9s Build/MMB29M) AppleWebKit/537.36 (KHTML, like Gecko) Version/4.0 Chrome/37.0.0.0 Mobile MQQBrowser/6.9 TBS/036906 Safari/537.36 MicroMessenger/6.5.4.1000 NetType/4G Language/zh_CN"
101.226.226.221 - - [03/Nov/2018:04:59:02 +0000] "GET /js/pagescroller.js HTTP/1.0" 200 3317 "http://www.looklala.com/" "Mozilla/5.0 (Linux; Android 6.0.1; OPPO R9s Build/MMB29M) AppleWebKit/537.36 (KHTML, like Gecko) Version/4.0 Chrome/37.0.0.0 Mobile MQQBrowser/6.9 TBS/036906 Safari/537.36 MicroMessenger/6.5.4.1000 NetType/4G Language/zh_CN"
101.226.226.221 - - [03/Nov/2018:04:59:04 +0000] "GET /js/jquery.easing.1.3.js HTTP/1.0" 200 8301 "http://www.looklala.com/" "Mozilla/5.0 (iPhone; CPU iPhone OS 10_2_1 like Mac OS X) AppleWebKit/602.4.6 (KHTML, like Gecko) Mobile/14D27 MicroMessenger/6.5.5 NetType/WIFI Language/en"
101.226.226.221 - - [03/Nov/2018:04:59:05 +0000] "GET /js/waypoints.min.js HTTP/1.0" 200 8051 "http://www.looklala.com/" "Mozilla/5.0 (iPhone; CPU iPhone OS 10_2_1 like Mac OS X) AppleWebKit/602.4.6 (KHTML, like Gecko) Mobile/14D27 MicroMessenger/6.5.5 NetType/WIFI Language/en"
101.226.226.221 - - [03/Nov/2018:04:59:05 +0000] "GET /js/validate.min.js HTTP/1.0" 200 21069 "http://www.looklala.com/" "Mozilla/5.0 (Linux; Android 6.0.1; OPPO R9s Build/MMB29M) AppleWebKit/537.36 (KHTML, like Gecko) Version/4.0 Chrome/37.0.0.0 Mobile MQQBrowser/6.9 TBS/036906 Safari/537.36 MicroMessenger/6.5.4.1000 NetType/4G Language/zh_CN"
101.226.226.221 - - [03/Nov/2018:04:59:06 +0000] "GET /js/script.js HTTP/1.0" 200 9238 "http://www.looklala.com/" "Mozilla/5.0 (Linux; Android 5.1.1; SM801 Build/LMY47V; wv) AppleWebKit/537.36 (KHTML, like Gecko) Version/4.0 Chrome/53.0.2785.49 Mobile MQQBrowser/6.2 TBS/043024 Safari/537.36 MicroMessenger/6.5.4.1000 NetType/4G Language/zh_CN"
180.76.15.21 - - [03/Nov/2018:05:11:50 +0000] "GET /robots.txt HTTP/1.0" 404 208 "-" "Mozilla/5.0 (Windows NT 5.1; rv:6.0.2) Gecko/20100101 Firefox/6.0.2"
180.76.15.158 - - [03/Nov/2018:05:11:50 +0000] "GET /robots.txt HTTP/1.0" 404 208 "-" "Mozilla/5.0 (Windows NT 5.1; rv:6.0.2) Gecko/20100101 Firefox/6.0.2"
180.76.15.31 - - [03/Nov/2018:05:13:43 +0000] "GET / HTTP/1.0" 200 11888 "-" "Mozilla/5.0 (compatible; Baiduspider/2.0; +http://www.baidu.com/search/spider.html)"
81.17.27.135 - - [03/Nov/2018:05:22:42 +0000] "GET / HTTP/1.0" 200 11888 "-" "Mozilla/5.0 (Windows NT 6.1; Win64; x64) AppleWebKit/537.36 (KHTML, like Gecko) Chrome/52.0.2743.116 Safari/537.36 Edge/15.15063"
185.220.101.28 - - [03/Nov/2018:05:22:51 +0000] "GET /?email-subscribe=josielpower%40gmail.com& HTTP/1.0" 200 11888 "http://looklala.com/" "Mozilla/5.0 (Windows NT 6.1; Win64; x64) AppleWebKit/537.36 (KHTML, like Gecko) Chrome/52.0.2743.116 Safari/537.36 Edge/15.15063"
180.76.15.31 - - [03/Nov/2018:05:47:03 +0000] "GET /?content/2393.html HTTP/1.0" 200 11888 "-" "Mozilla/5.0 (compatible; Baiduspider/2.0; +http://www.baidu.com/search/spider.html)"
51.15.88.249 - - [03/Nov/2018:07:15:34 +0000] "GET / HTTP/1.0" 200 11888 "-" "Mozilla/5.0 (Windows NT 5.1; Win64; x64) AppleWebKit/537.36 (KHTML, like Gecko) Chrome/52.0.2743.116 Safari/537.36 Edge/15.15063"
51.15.88.249 - - [03/Nov/2018:07:15:35 +0000] "GET /?email-subscribe=kellys1337%40gmail.com& HTTP/1.0" 200 11888 "http://looklala.com/" "Mozilla/5.0 (Windows NT 5.1; Win64; x64) AppleWebKit/537.36 (KHTML, like Gecko) Chrome/52.0.2743.116 Safari/537.36 Edge/15.15063"
204.85.191.31 - - [03/Nov/2018:10:56:45 +0000] "GET / HTTP/1.0" 200 11888 "-" "Mozilla/5.0 (Windows NT 6.1; WOW64; rv:40.0) Gecko/20100101 Firefox/40.1"
204.85.191.31 - - [03/Nov/2018:10:56:46 +0000] "GET /?email-subscribe=sfgiantfan06%40yahoo.com& HTTP/1.0" 200 11888 "http://looklala.com/" "Mozilla/5.0 (Windows NT 6.1; WOW64; rv:40.0) Gecko/20100101 Firefox/40.1"
62.102.148.67 - - [03/Nov/2018:11:52:16 +0000] "GET / HTTP/1.0" 200 11888 "-" "Mozilla/5.0 (Windows NT 6.0; Win64; x64) AppleWebKit/537.36 (KHTML, like Gecko) Chrome/46.0.2486.0 Safari/537.36 Edge/13.10586"
62.102.148.67 - - [03/Nov/2018:11:52:17 +0000] "GET /?email-subscribe=jonfonblu%40yahoo.com& HTTP/1.0" 200 11888 "http://looklala.com/" "Mozilla/5.0 (Windows NT 6.0; Win64; x64) AppleWebKit/537.36 (KHTML, like Gecko) Chrome/46.0.2486.0 Safari/537.36 Edge/13.10586"
180.76.15.149 - - [03/Nov/2018:12:10:42 +0000] "GET /?content/1139.html HTTP/1.0" 200 11888 "-" "Mozilla/5.0 (compatible; Baiduspider/2.0; +http://www.baidu.com/search/spider.html)"
197.231.221.211 - - [03/Nov/2018:12:33:12 +0000] "GET / HTTP/1.0" 200 11888 "-" "Mozilla/5.0 (Windows NT 6.2; Win64; x64) AppleWebKit/537.36 (KHTML, like Gecko) Chrome/46.0.2486.0 Safari/537.36 Edge/13.10586"
197.231.221.211 - - [03/Nov/2018:12:33:13 +0000] "GET /?email-subscribe=mauly577%40yahoo.com& HTTP/1.0" 200 11888 "http://looklala.com/" "Mozilla/5.0 (Windows NT 6.2; Win64; x64) AppleWebKit/537.36 (KHTML, like Gecko) Chrome/46.0.2486.0 Safari/537.36 Edge/13.10586"
91.121.112.181 - - [03/Nov/2018:14:58:04 +0000] "GET / HTTP/1.0" 200 11888 "-" "Mozilla/5.0 (Windows NT 6.2; Win64; x64) AppleWebKit/537.36 (KHTML, like Gecko) Chrome/46.0.2486.0 Safari/537.36 Edge/13.10586"
91.121.112.181 - - [03/Nov/2018:14:58:05 +0000] "GET /?email-subscribe=minniemean2%40yahoo.com& HTTP/1.0" 200 11888 "http://looklala.com/" "Mozilla/5.0 (Windows NT 6.2; Win64; x64) AppleWebKit/537.36 (KHTML, like Gecko) Chrome/46.0.2486.0 Safari/537.36 Edge/13.10586"
104.131.147.112 - - [03/Nov/2018:15:23:26 +0000] "GET / HTTP/1.0" 200 11888 "-" "Mozilla/5.0 (compatible; Gluten Free Crawler/1.0; +http://glutenfreepleasure.com/)"
197.95.199.119 - - [03/Nov/2018:15:33:30 +0000] "GET /wp-login.php HTTP/1.0" 404 210 "-" "Mozilla/5.0 (Windows NT 6.1; WOW64; rv:40.0) Gecko/20100101 Firefox/40.1"
197.95.199.119 - - [03/Nov/2018:15:33:30 +0000] "GET / HTTP/1.0" 200 11888 "-" "Mozilla/5.0 (Windows NT 6.1; WOW64; rv:40.0) Gecko/20100101 Firefox/40.1"
178.175.129.91 - - [03/Nov/2018:15:51:54 +0000] "GET / HTTP/1.0" 200 11888 "-" "Mozilla/5.0 (Windows NT 6.3; WOW64) AppleWebKit/537.36 (KHTML, like Gecko) Chrome/48.0.2564.109 Safari/537.36"
178.175.129.91 - - [03/Nov/2018:15:51:55 +0000] "GET /?email-subscribe=jchirchick%40gmail.com& HTTP/1.0" 200 11888 "http://looklala.com/" "Mozilla/5.0 (Windows NT 6.3; WOW64) AppleWebKit/537.36 (KHTML, like Gecko) Chrome/48.0.2564.109 Safari/537.36"
176.10.99.200 - - [03/Nov/2018:15:58:23 +0000] "GET / HTTP/1.0" 200 11888 "-" "Mozilla/5.0 (Macintosh; Intel Mac OS X 10_12_4) AppleWebKit/603.1.30 (KHTML, like Gecko) Version/10.1 Safari/603.1.30"
176.10.99.200 - - [03/Nov/2018:15:58:24 +0000] "GET /?email-subscribe=lxb242%40psu.edu& HTTP/1.0" 200 11888 "http://looklala.com/" "Mozilla/5.0 (Macintosh; Intel Mac OS X 10_12_4) AppleWebKit/603.1.30 (KHTML, like Gecko) Version/10.1 Safari/603.1.30"
37.35.11.21 - - [03/Nov/2018:18:04:31 +0000] "GET /wp-login.php HTTP/1.0" 404 210 "-" "Mozilla/5.0 (Windows NT 6.1; WOW64; rv:40.0) Gecko/20100101 Firefox/40.1"
37.35.11.21 - - [03/Nov/2018:18:04:31 +0000] "GET / HTTP/1.0" 200 11888 "-" "Mozilla/5.0 (Windows NT 6.1; WOW64; rv:40.0) Gecko/20100101 Firefox/40.1"
180.76.15.24 - - [03/Nov/2018:19:14:01 +0000] "GET /js/jquery.easing.1.3.js HTTP/1.0" 200 8301 "-" "Mozilla/5.0 (compatible; Baiduspider/2.0; +http://www.baidu.com/search/spider.html)"
85.248.227.163 - - [03/Nov/2018:19:22:46 +0000] "GET / HTTP/1.0" 200 11888 "-" "Mozilla/5.0 (Macintosh; Intel Mac OS X 10_13_6) AppleWebKit/605.1.15 (KHTML, like Gecko) Version/11.1.2 Safari/605.1.15"
85.248.227.163 - - [03/Nov/2018:19:22:47 +0000] "GET /?email-subscribe=rashidah_f%40yahoo.com& HTTP/1.0" 200 11888 "http://looklala.com/" "Mozilla/5.0 (Macintosh; Intel Mac OS X 10_13_6) AppleWebKit/605.1.15 (KHTML, like Gecko) Version/11.1.2 Safari/605.1.15"
180.76.15.154 - - [03/Nov/2018:19:47:22 +0000] "GET /?content/12105.html HTTP/1.0" 200 11888 "-" "Mozilla/5.0 (compatible; Baiduspider/2.0; +http://www.baidu.com/search/spider.html)"
178.17.166.146 - - [03/Nov/2018:20:28:03 +0000] "GET / HTTP/1.0" 200 11888 "-" "Mozilla/5.0 (Windows NT 10.0; Win64; x64) AppleWebKit/537.36 (KHTML, like Gecko) Chrome/64.0.3282.140 Safari/537.36 Edge/17.17134"
176.10.99.200 - - [03/Nov/2018:20:28:05 +0000] "GET /?email-subscribe=rozysanchez%40yahoo.com& HTTP/1.0" 200 11888 "http://looklala.com/" "Mozilla/5.0 (Windows NT 10.0; Win64; x64) AppleWebKit/537.36 (KHTML, like Gecko) Chrome/64.0.3282.140 Safari/537.36 Edge/17.17134"
91.86.112.189 - - [03/Nov/2018:22:21:34 +0000] "GET /wp-login.php HTTP/1.0" 404 210 "-" "Mozilla/5.0 (Windows NT 6.1; WOW64; rv:40.0) Gecko/20100101 Firefox/40.1"
91.86.112.189 - - [03/Nov/2018:22:21:34 +0000] "GET / HTTP/1.0" 200 11888 "-" "Mozilla/5.0 (Windows NT 6.1; WOW64; rv:40.0) Gecko/20100101 Firefox/40.1"
157.55.39.38 - - [04/Nov/2018:00:00:05 +0000] "GET /robots.txt HTTP/1.0" 404 208 "-" "Mozilla/5.0 (compatible; bingbot/2.0; +http://www.bing.com/bingbot.htm)"
40.77.167.10 - - [04/Nov/2018:00:00:10 +0000] "GET / HTTP/1.0" 304 - "-" "Mozilla/5.0 (compatible; bingbot/2.0; +http://www.bing.com/bingbot.htm)"
180.76.15.141 - - [04/Nov/2018:01:31:06 +0000] "GET / HTTP/1.0" 200 11888 "-" "Mozilla/5.0 (compatible; Baiduspider/2.0; +http://www.baidu.com/search/spider.html)"
180.76.15.147 - - [04/Nov/2018:01:31:07 +0000] "GET /robots.txt HTTP/1.0" 404 208 "-" "Mozilla/5.0 (Windows NT 5.1; rv:6.0.2) Gecko/20100101 Firefox/6.0.2"
180.76.15.33 - - [04/Nov/2018:01:31:07 +0000] "GET /robots.txt HTTP/1.0" 404 208 "-" "Mozilla/5.0 (Windows NT 5.1; rv:6.0.2) Gecko/20100101 Firefox/6.0.2"
52.165.166.139 - - [04/Nov/2018:01:34:48 +0000] "GET / HTTP/1.0" 200 11888 "-" "Mozilla/5.0 (Windows NT 6.1; Win64; x64) AppleWebKit/537.36 (KHTML, like Gecko) Chrome/65.0.3325.181 Safari/537.36"
180.76.15.9 - - [04/Nov/2018:02:04:26 +0000] "GET /?content/3134.html HTTP/1.0" 200 11888 "-" "Mozilla/5.0 (compatible; Baiduspider/2.0; +http://www.baidu.com/search/spider.html)"
14.215.176.15 - - [04/Nov/2018:02:25:07 +0000] "GET / HTTP/1.0" 200 11888 "http://www.baidu.com/s?wd=identity6tt" "Mozilla/5.0 (Windows NT 6.1; WOW64; rv:43.0) Gecko/20100101 Firefox/43.0"
14.215.176.15 - - [04/Nov/2018:02:25:08 +0000] "GET /css/jpreloader.css HTTP/1.0" 200 2411 "http://www.looklala.com/" "Mozilla/5.0 (Windows NT 6.1; WOW64; rv:43.0) Gecko/20100101 Firefox/43.0"
14.215.176.16 - - [04/Nov/2018:02:25:08 +0000] "GET /css/base.css HTTP/1.0" 200 18905 "http://www.looklala.com/" "Mozilla/5.0 (Windows NT 6.1; WOW64; rv:43.0) Gecko/20100101 Firefox/43.0"
14.215.176.15 - - [04/Nov/2018:02:25:08 +0000] "GET /fonts/font-awesome/css/font-awesome.min.css HTTP/1.0" 200 22504 "http://www.looklala.com/" "Mozilla/5.0 (Windows NT 6.1; WOW64; rv:43.0) Gecko/20100101 Firefox/43.0"
14.215.176.12 - - [04/Nov/2018:02:25:08 +0000] "GET /css/jquery.vegas.css HTTP/1.0" 200 710 "http://www.looklala.com/" "Mozilla/5.0 (Windows NT 6.1; WOW64; rv:43.0) Gecko/20100101 Firefox/43.0"
14.215.176.14 - - [04/Nov/2018:02:25:08 +0000] "GET /js/jquery.min.js HTTP/1.0" 200 93070 "http://www.looklala.com/" "Mozilla/5.0 (Windows NT 6.1; WOW64; rv:43.0) Gecko/20100101 Firefox/43.0"
14.215.176.17 - - [04/Nov/2018:02:25:08 +0000] "GET /css/theme/bw.css HTTP/1.0" 200 1151 "http://www.looklala.com/" "Mozilla/5.0 (Windows NT 6.1; WOW64; rv:43.0) Gecko/20100101 Firefox/43.0"
14.215.176.13 - - [04/Nov/2018:02:25:08 +0000] "GET /js/jpreloader.min.js HTTP/1.0" 200 3292 "http://www.looklala.com/" "Mozilla/5.0 (Windows NT 6.1; WOW64; rv:43.0) Gecko/20100101 Firefox/43.0"
14.215.176.16 - - [04/Nov/2018:02:25:08 +0000] "GET /js/vegas.js HTTP/1.0" 200 14573 "http://www.looklala.com/" "Mozilla/5.0 (Windows NT 6.1; WOW64; rv:43.0) Gecko/20100101 Firefox/43.0"
14.215.176.12 - - [04/Nov/2018:02:25:08 +0000] "GET /js/pagescroller.js HTTP/1.0" 200 3317 "http://www.looklala.com/" "Mozilla/5.0 (Windows NT 6.1; WOW64; rv:43.0) Gecko/20100101 Firefox/43.0"
14.215.176.15 - - [04/Nov/2018:02:25:08 +0000] "GET /js/jquery.easing.1.3.js HTTP/1.0" 200 8301 "http://www.looklala.com/" "Mozilla/5.0 (Windows NT 6.1; WOW64; rv:43.0) Gecko/20100101 Firefox/43.0"
14.215.176.17 - - [04/Nov/2018:02:25:08 +0000] "GET /js/waypoints.min.js HTTP/1.0" 200 8051 "http://www.looklala.com/" "Mozilla/5.0 (Windows NT 6.1; WOW64; rv:43.0) Gecko/20100101 Firefox/43.0"
14.215.176.13 - - [04/Nov/2018:02:25:08 +0000] "GET /js/validate.min.js HTTP/1.0" 200 21069 "http://www.looklala.com/" "Mozilla/5.0 (Windows NT 6.1; WOW64; rv:43.0) Gecko/20100101 Firefox/43.0"
14.215.176.16 - - [04/Nov/2018:02:25:08 +0000] "GET /js/script.js HTTP/1.0" 200 9238 "http://www.looklala.com/" "Mozilla/5.0 (Windows NT 6.1; WOW64; rv:43.0) Gecko/20100101 Firefox/43.0"
14.215.176.15 - - [04/Nov/2018:02:25:08 +0000] "GET /fonts/font-awesome/font/fontawesome-webfontf77b.html?v=3.2.1 HTTP/1.0" 200 7529 "http://www.looklala.com/" "Mozilla/5.0 (Windows NT 6.1; WOW64; rv:43.0) Gecko/20100101 Firefox/43.0"
14.215.176.15 - - [04/Nov/2018:02:25:09 +0000] "GET /fonts/font-awesome/font/fontawesome-webfontf77b.ttf?v=3.2.1 HTTP/1.0" 200 79076 "http://www.looklala.com/" "Mozilla/5.0 (Windows NT 6.1; WOW64; rv:43.0) Gecko/20100101 Firefox/43.0"
171.25.193.235 - - [04/Nov/2018:02:39:36 +0000] "GET / HTTP/1.0" 200 11888 "-" "Mozilla/5.0 (Windows NT 6.0; Win64; x64) AppleWebKit/537.36 (KHTML, like Gecko) Chrome/57.0.2987.133 Safari/537.36"
171.25.193.235 - - [04/Nov/2018:02:39:37 +0000] "GET /?email-subscribe=illberisquer%40yahoo.com& HTTP/1.0" 200 11888 "http://looklala.com/" "Mozilla/5.0 (Windows NT 6.0; Win64; x64) AppleWebKit/537.36 (KHTML, like Gecko) Chrome/57.0.2987.133 Safari/537.36"
185.220.101.45 - - [04/Nov/2018:02:40:19 +0000] "GET / HTTP/1.0" 200 11888 "-" "Mozilla/5.0 (Macintosh; Intel Mac OS X 10_12_3) AppleWebKit/602.4.8 (KHTML, like Gecko) Version/10.0.3 Safari/602.4.8"
185.220.101.45 - - [04/Nov/2018:02:40:20 +0000] "GET /?email-subscribe=sceballos81%40gmail.com& HTTP/1.0" 200 11888 "http://looklala.com/" "Mozilla/5.0 (Macintosh; Intel Mac OS X 10_12_3) AppleWebKit/602.4.8 (KHTML, like Gecko) Version/10.0.3 Safari/602.4.8"
