163.172.151.47 - - [31/Oct/2018:04:13:32 +0000] "GET / HTTP/1.1" 200 3826 "-" "Mozilla/5.0 (Windows NT 6.1; WOW64; rv:54.0) Gecko/20100101 Firefox/54.0"
163.172.151.47 - - [31/Oct/2018:04:13:32 +0000] "GET /?email-subscribe=nikowright43%40yahoo.com& HTTP/1.1" 200 3826 "http://looklala.com/" "Mozilla/5.0 (Windows NT 6.1; WOW64; rv:54.0) Gecko/20100101 Firefox/54.0"
180.76.15.22 - - [31/Oct/2018:04:15:35 +0000] "GET /?content/6048.html HTTP/1.1" 200 3826 "-" "Mozilla/5.0 (compatible; Baiduspider/2.0; +http://www.baidu.com/search/spider.html)"
180.76.15.19 - - [31/Oct/2018:04:48:55 +0000] "GET /?content/20465.html HTTP/1.1" 200 3826 "-" "Mozilla/5.0 (compatible; Baiduspider/2.0; +http://www.baidu.com/search/spider.html)"
42.236.99.130 - - [31/Oct/2018:05:16:41 +0000] "GET / HTTP/1.1" 200 3826 "http://looklala.com/" "Mozilla/5.0 (Windows NT 6.1; WOW64) AppleWebKit/537.36 (KHTML, like Gecko) Chrome/50.0.2661.102 Safari/537.36; 360Spider"
42.236.55.21 - - [31/Oct/2018:05:17:56 +0000] "GET / HTTP/1.1" 200 3826 "http://www.looklala.com/" "Mozilla/5.0 (Windows NT 6.1; WOW64) AppleWebKit/537.36 (KHTML, like Gecko) Chrome/50.0.2661.102 Safari/537.36; 360Spider"
185.220.101.45 - - [31/Oct/2018:06:24:42 +0000] "GET / HTTP/1.1" 200 3826 "-" "Mozilla/5.0 (Windows NT 6.1; Trident/7.0; rv:11.0) like Gecko"
185.220.101.45 - - [31/Oct/2018:06:24:43 +0000] "GET /?email-subscribe=thebest.allinone%40yahoo.com& HTTP/1.1" 200 3826 "http://looklala.com/" "Mozilla/5.0 (Windows NT 6.1; Trident/7.0; rv:11.0) like Gecko"
192.42.116.14 - - [31/Oct/2018:07:09:19 +0000] "GET / HTTP/1.1" 200 3826 "-" "Mozilla/5.0 (Windows NT 10.0; WOW64) AppleWebKit/537.36 (KHTML, like Gecko) Chrome/55.0.2883.87 Safari/537.36 OPR/42.0.2393.94"
192.42.116.14 - - [31/Oct/2018:07:09:20 +0000] "GET /?email-subscribe=subhnp%40gmail.com& HTTP/1.1" 200 3826 "http://looklala.com/" "Mozilla/5.0 (Windows NT 10.0; WOW64) AppleWebKit/537.36 (KHTML, like Gecko) Chrome/55.0.2883.87 Safari/537.36 OPR/42.0.2393.94"
37.187.129.166 - - [31/Oct/2018:07:23:54 +0000] "GET / HTTP/1.1" 200 3826 "-" "Mozilla/5.0 (Windows NT 6.1; Win64; x64) AppleWebKit/537.36 (KHTML, like Gecko) Chrome/55.0.2883.87 Safari/537.36"
37.187.129.166 - - [31/Oct/2018:07:23:54 +0000] "GET /?email-subscribe=aletha_warren%40yahoo.com& HTTP/1.1" 200 3826 "http://looklala.com/" "Mozilla/5.0 (Windows NT 6.1; Win64; x64) AppleWebKit/537.36 (KHTML, like Gecko) Chrome/55.0.2883.87 Safari/537.36"
87.118.122.30 - - [31/Oct/2018:07:29:33 +0000] "GET / HTTP/1.1" 200 3826 "-" "Mozilla/5.0 (Windows NT 10.0; Win64; x64) AppleWebKit/537.36 (KHTML, like Gecko) Chrome/66.0.3359.117 Safari/537.36"
185.220.102.8 - - [31/Oct/2018:07:29:34 +0000] "GET /?email-subscribe=vortexhunter00%40gmail.com& HTTP/1.1" 200 3826 "http://looklala.com/" "Mozilla/5.0 (Windows NT 10.0; Win64; x64) AppleWebKit/537.36 (KHTML, like Gecko) Chrome/66.0.3359.117 Safari/537.36"
194.99.105.179 - - [31/Oct/2018:07:53:55 +0000] "GET / HTTP/1.0" 200 11888 "http://looklala.com/" "Mozilla/5.0 (Windows NT 5.1; rv:40.1) Gecko/20100101 Firefox/40.1"
194.99.105.179 - - [31/Oct/2018:07:53:55 +0000] "POST / HTTP/1.0" 200 11888 "http://looklala.com/" "Mozilla/5.0 (Windows NT 5.1; rv:40.1) Gecko/20100101 Firefox/40.1"
185.165.168.168 - - [31/Oct/2018:08:08:00 +0000] "GET / HTTP/1.1" 200 3826 "-" "Mozilla/5.0 (Windows NT 10.0; Win64; x64) AppleWebKit/537.36 (KHTML, like Gecko) Chrome/60.0.3112.90 Safari/537.36"
18.85.22.239 - - [31/Oct/2018:08:08:01 +0000] "GET /?email-subscribe=lentass72%40gmail.com& HTTP/1.1" 200 3826 "http://looklala.com/" "Mozilla/5.0 (Windows NT 10.0; Win64; x64) AppleWebKit/537.36 (KHTML, like Gecko) Chrome/60.0.3112.90 Safari/537.36"
192.42.116.16 - - [31/Oct/2018:09:17:34 +0000] "GET / HTTP/1.1" 200 3826 "-" "Mozilla/4.0 (compatible; MSIE 9.0; Windows NT 6.1)"
192.42.116.16 - - [31/Oct/2018:09:17:35 +0000] "GET /?email-subscribe=filatiyarn%40aol.com& HTTP/1.1" 200 3826 "http://looklala.com/" "Mozilla/4.0 (compatible; MSIE 9.0; Windows NT 6.1)"
104.244.76.50 - - [31/Oct/2018:09:31:15 +0000] "GET / HTTP/1.1" 200 3826 "-" "Mozilla/5.0 (Windows NT 6.3; WOW64; rv:52.0) Gecko/20100101 Firefox/52.0"
104.244.76.50 - - [31/Oct/2018:09:31:17 +0000] "GET /?email-subscribe=marsha.dood%40gfs.com& HTTP/1.1" 200 3826 "http://looklala.com/" "Mozilla/5.0 (Windows NT 6.3; WOW64; rv:52.0) Gecko/20100101 Firefox/52.0"
86.110.117.53 - - [31/Oct/2018:10:07:23 +0000] "GET /wp-admin/setup-config.php?step=1 HTTP/1.1" 404 216 "-" "Mozilla/5.0 (Windows NT 5.1; Win64; x64) AppleWebKit/537.36 (KHTML, like Gecko) Chrome/49.0.2645.34 Safari/537.36"
171.25.193.77 - - [31/Oct/2018:10:42:11 +0000] "GET / HTTP/1.1" 200 3826 "-" "Mozilla/5.0 (Windows NT 6.1; Win64; x64) AppleWebKit/537.36 (KHTML, like Gecko) Chrome/51.0.2704.79 Safari/537.36 Edge/14.14393"
171.25.193.77 - - [31/Oct/2018:10:42:12 +0000] "GET /?email-subscribe=nikowright43%40yahoo.com& HTTP/1.1" 200 3826 "http://looklala.com/" "Mozilla/5.0 (Windows NT 6.1; Win64; x64) AppleWebKit/537.36 (KHTML, like Gecko) Chrome/51.0.2704.79 Safari/537.36 Edge/14.14393"
185.56.80.242 - - [31/Oct/2018:10:50:23 +0000] "GET / HTTP/1.1" 200 3826 "-" "Mozilla/5.0 (Windows NT 10.0; WOW64; rv:48.0) Gecko/20100101 Firefox/48.0"
180.76.15.12 - - [31/Oct/2018:10:56:53 +0000] "GET / HTTP/1.1" 200 3826 "-" "Mozilla/5.0 (compatible; Baiduspider/2.0; +http://www.baidu.com/search/spider.html)"
180.76.15.138 - - [31/Oct/2018:11:30:14 +0000] "GET /?content/9629.html HTTP/1.1" 200 3826 "-" "Mozilla/5.0 (compatible; Baiduspider/2.0; +http://www.baidu.com/search/spider.html)"
176.126.252.12 - - [31/Oct/2018:11:39:43 +0000] "GET / HTTP/1.1" 200 3826 "-" "Mozilla/5.0 (Windows NT 10.0; WOW64; rv:56.0) Gecko/20100101 Firefox/56.0"
185.220.101.20 - - [31/Oct/2018:11:39:45 +0000] "GET /?email-subscribe=casey.eddiekidd%40yahoo.com& HTTP/1.1" 200 3826 "http://looklala.com/" "Mozilla/5.0 (Windows NT 10.0; WOW64; rv:56.0) Gecko/20100101 Firefox/56.0"
104.244.76.13 - - [31/Oct/2018:11:46:19 +0000] "GET / HTTP/1.1" 200 3826 "-" "Mozilla/5.0 (Windows NT 10.0; Win64; x64) AppleWebKit/537.36 (KHTML, like Gecko) Chrome/66.0.3359.117 Safari/537.36"
104.244.76.13 - - [31/Oct/2018:11:46:19 +0000] "GET /?email-subscribe=austinsinbox%40gmail.com& HTTP/1.1" 200 3826 "http://looklala.com/" "Mozilla/5.0 (Windows NT 10.0; Win64; x64) AppleWebKit/537.36 (KHTML, like Gecko) Chrome/66.0.3359.117 Safari/537.36"
5.135.158.101 - - [31/Oct/2018:11:59:22 +0000] "GET / HTTP/1.1" 200 3826 "-" "Mozilla/5.0 (Windows NT 6.1; Win64; x64) AppleWebKit/537.36 (KHTML, like Gecko) Chrome/51.0.2704.79 Safari/537.36 Edge/14.14393"
176.10.99.200 - - [31/Oct/2018:11:59:23 +0000] "GET /?email-subscribe=phd201617%40gmail.com& HTTP/1.1" 200 3826 "http://looklala.com/" "Mozilla/5.0 (Windows NT 6.1; Win64; x64) AppleWebKit/537.36 (KHTML, like Gecko) Chrome/51.0.2704.79 Safari/537.36 Edge/14.14393"
180.76.15.24 - - [31/Oct/2018:12:03:33 +0000] "GET /?content/14649.html HTTP/1.1" 200 3826 "-" "Mozilla/5.0 (compatible; Baiduspider/2.0; +http://www.baidu.com/search/spider.html)"
192.160.102.170 - - [31/Oct/2018:12:07:04 +0000] "GET / HTTP/1.1" 200 3826 "-" "Mozilla/5.0 (Macintosh; Intel Mac OS X 10_12_6) AppleWebKit/603.3.8 (KHTML, like Gecko)"
192.160.102.170 - - [31/Oct/2018:12:07:05 +0000] "GET /?email-subscribe=loquinx%40gmail.com& HTTP/1.1" 200 3826 "http://looklala.com/" "Mozilla/5.0 (Macintosh; Intel Mac OS X 10_12_6) AppleWebKit/603.3.8 (KHTML, like Gecko)"
157.55.39.167 - - [31/Oct/2018:12:25:42 +0000] "GET / HTTP/1.1" 304 0 "-" "Mozilla/5.0 (compatible; bingbot/2.0; +http://www.bing.com/bingbot.htm)"
185.56.80.242 - - [31/Oct/2018:12:25:51 +0000] "GET / HTTP/1.1" 200 3826 "-" "Mozilla/5.0 (Windows NT 6.1; Win64; x64) AppleWebKit/537.36 (KHTML, like Gecko) Chrome/42.0.2311.135 Safari/537.36 Edge/12.10240"
185.56.80.242 - - [31/Oct/2018:12:25:52 +0000] "GET /?email-subscribe=cb%40brinercapital.com& HTTP/1.1" 200 3826 "http://looklala.com/" "Mozilla/5.0 (Windows NT 6.1; Win64; x64) AppleWebKit/537.36 (KHTML, like Gecko) Chrome/42.0.2311.135 Safari/537.36 Edge/12.10240"
176.126.252.11 - - [31/Oct/2018:12:33:55 +0000] "GET / HTTP/1.1" 200 3826 "-" "Mozilla/5.0 (Windows NT 10.0; Win64; x64) AppleWebKit/537.36 (KHTML, like Gecko) Chrome/61.0.3163.100 Safari/537.36"
176.126.252.11 - - [31/Oct/2018:12:33:56 +0000] "GET /?email-subscribe=rhondafunnygirl%40aol.com& HTTP/1.1" 200 3826 "http://looklala.com/" "Mozilla/5.0 (Windows NT 10.0; Win64; x64) AppleWebKit/537.36 (KHTML, like Gecko) Chrome/61.0.3163.100 Safari/537.36"
185.193.125.190 - - [31/Oct/2018:12:39:54 +0000] "GET / HTTP/1.1" 200 3826 "-" "Mozilla/5.0 (Macintosh; Intel Mac OS X 10_12_5) AppleWebKit/603.2.4 (KHTML, like Gecko) Version/10.1.1 Safari/603.2.4"
62.210.71.205 - - [31/Oct/2018:12:39:56 +0000] "GET /?email-subscribe=nikowright43%40yahoo.com& HTTP/1.1" 200 3826 "http://looklala.com/" "Mozilla/5.0 (Macintosh; Intel Mac OS X 10_12_5) AppleWebKit/603.2.4 (KHTML, like Gecko) Version/10.1.1 Safari/603.2.4"
185.56.80.242 - - [31/Oct/2018:12:45:20 +0000] "GET / HTTP/1.1" 200 3826 "-" "Mozilla/5.0 (Windows NT 10.0; WOW64; rv:54.0) Gecko/20100101 Firefox/54.0"
185.56.80.242 - - [31/Oct/2018:12:45:21 +0000] "GET /?email-subscribe=rhondafunnygirl%40aol.com& HTTP/1.1" 200 3826 "http://looklala.com/" "Mozilla/5.0 (Windows NT 10.0; WOW64; rv:54.0) Gecko/20100101 Firefox/54.0"
212.47.227.114 - - [31/Oct/2018:12:45:39 +0000] "GET / HTTP/1.1" 200 3826 "-" "Mozilla/5.0 (Macintosh; Intel Mac OS X 10_12_4) AppleWebKit/603.1.30 (KHTML, like Gecko) Version/10.1 Safari/603.1.30"
212.47.227.114 - - [31/Oct/2018:12:45:40 +0000] "GET /?email-subscribe=k_edmondson67%40yahoo.com& HTTP/1.1" 200 3826 "http://looklala.com/" "Mozilla/5.0 (Macintosh; Intel Mac OS X 10_12_4) AppleWebKit/603.1.30 (KHTML, like Gecko) Version/10.1 Safari/603.1.30"
185.100.87.206 - - [31/Oct/2018:12:50:44 +0000] "GET / HTTP/1.1" 200 3826 "-" "Mozilla/5.0 (Windows NT 6.1; Win64; x64) AppleWebKit/537.36 (KHTML, like Gecko) Chrome/57.0.2987.133 Safari/537.36"
185.56.80.242 - - [31/Oct/2018:12:50:48 +0000] "GET /?email-subscribe=austinsinbox%40gmail.com& HTTP/1.1" 200 3826 "http://looklala.com/" "Mozilla/5.0 (Windows NT 6.1; Win64; x64) AppleWebKit/537.36 (KHTML, like Gecko) Chrome/57.0.2987.133 Safari/537.36"
204.85.191.31 - - [31/Oct/2018:12:54:42 +0000] "GET / HTTP/1.1" 200 3826 "-" "Mozilla/5.0 (Windows NT 10.0; Win64; x64) AppleWebKit/537.36 (KHTML, like Gecko) Chrome/63.0.3239.84 Safari/537.36"
204.85.191.31 - - [31/Oct/2018:12:54:43 +0000] "GET /?email-subscribe=gbolagadekolawole%40gmail.com& HTTP/1.1" 200 3826 "http://looklala.com/" "Mozilla/5.0 (Windows NT 10.0; Win64; x64) AppleWebKit/537.36 (KHTML, like Gecko) Chrome/63.0.3239.84 Safari/537.36"
185.220.101.13 - - [31/Oct/2018:12:55:12 +0000] "GET / HTTP/1.1" 200 3826 "-" "Mozilla/5.0 (Windows NT 6.1; WOW64) AppleWebKit/537.36 (KHTML, like Gecko) Chrome/52.0.2743.116 Safari/537.36"
185.220.101.13 - - [31/Oct/2018:12:55:13 +0000] "GET /?email-subscribe=unicosteel%40aol.com& HTTP/1.1" 200 3826 "http://looklala.com/" "Mozilla/5.0 (Windows NT 6.1; WOW64) AppleWebKit/537.36 (KHTML, like Gecko) Chrome/52.0.2743.116 Safari/537.36"
158.69.192.200 - - [31/Oct/2018:12:59:13 +0000] "GET / HTTP/1.1" 200 3826 "-" "Mozilla/5.0 (Windows NT 6.1; WOW64) AppleWebKit/537.21 (KHTML, like Gecko) Mwendo/1.1.5 Safari/537.21"
158.69.192.200 - - [31/Oct/2018:12:59:14 +0000] "GET /?email-subscribe=vortexhunter00%40gmail.com& HTTP/1.1" 200 3826 "http://looklala.com/" "Mozilla/5.0 (Windows NT 6.1; WOW64) AppleWebKit/537.21 (KHTML, like Gecko) Mwendo/1.1.5 Safari/537.21"
18.221.249.123 - - [31/Oct/2018:13:28:54 +0000] "GET / HTTP/1.1" 200 3826 "-" "Mozilla/5.0 (Macintosh; Intel Mac OS X x.y; rv:42.0) Gecko/20100101 Safari/602.1"
185.220.101.21 - - [31/Oct/2018:13:51:28 +0000] "GET / HTTP/1.1" 200 3826 "-" "Mozilla/5.0 (Windows NT 5.1; Win64; x64) AppleWebKit/537.36 (KHTML, like Gecko) Chrome/52.0.2743.116 Safari/537.36 Edge/15.15063"
185.220.101.21 - - [31/Oct/2018:13:51:29 +0000] "GET /?email-subscribe=drcj99%40aol.com& HTTP/1.1" 200 3826 "http://looklala.com/" "Mozilla/5.0 (Windows NT 5.1; Win64; x64) AppleWebKit/537.36 (KHTML, like Gecko) Chrome/52.0.2743.116 Safari/537.36 Edge/15.15063"
18.188.206.157 - - [31/Oct/2018:14:14:31 +0000] "GET / HTTP/1.1" 200 3826 "-" "Mozilla/5.0 (Windows NT 6.1; Win64; x64; rv:47.0) AppleWebKit/537.36 (KHTML, like Gecko) Chrome/51.0.2704.106 Safari/537.36 OPR/38.0.2220.41"
18.223.132.225 - - [31/Oct/2018:14:44:36 +0000] "GET / HTTP/1.1" 200 3826 "-" "Mozilla/5.0 (Macintosh; Intel Mac OS X x.y; rv:42.0) AppleWebKit/537.36 (KHTML, like Gecko) Safari/602.1"
185.100.87.206 - - [31/Oct/2018:14:46:08 +0000] "GET / HTTP/1.1" 200 3826 "-" "Mozilla/5.0 (Windows NT 6.0; Win64; x64) AppleWebKit/537.36 (KHTML, like Gecko) Chrome/57.0.2987.133 Safari/537.36"
185.100.87.206 - - [31/Oct/2018:14:46:09 +0000] "GET /?email-subscribe=alinbella100%40gmail.com& HTTP/1.1" 200 3826 "http://looklala.com/" "Mozilla/5.0 (Windows NT 6.0; Win64; x64) AppleWebKit/537.36 (KHTML, like Gecko) Chrome/57.0.2987.133 Safari/537.36"
171.25.193.77 - - [31/Oct/2018:14:47:13 +0000] "GET / HTTP/1.1" 200 3826 "-" "Mozilla/5.0 (Windows NT 6.2; Win64; x64) AppleWebKit/537.36 (KHTML, like Gecko) Chrome/51.0.2704.79 Safari/537.36 Edge/14.14393"
171.25.193.77 - - [31/Oct/2018:14:47:14 +0000] "GET /?email-subscribe=drcj99%40aol.com& HTTP/1.1" 200 3826 "http://looklala.com/" "Mozilla/5.0 (Windows NT 6.2; Win64; x64) AppleWebKit/537.36 (KHTML, like Gecko) Chrome/51.0.2704.79 Safari/537.36 Edge/14.14393"
18.85.22.239 - - [31/Oct/2018:15:00:55 +0000] "GET / HTTP/1.1" 200 3826 "-" "Mozilla/5.0 (Macintosh; Intel Mac OS X 10_11_4) AppleWebKit/601.5.17 (KHTML, like Gecko) Version/9.1 Safari/601.5.17"
18.85.22.239 - - [31/Oct/2018:15:00:56 +0000] "GET /?email-subscribe=parvenu1983%40yahoo.com& HTTP/1.1" 200 3826 "http://looklala.com/" "Mozilla/5.0 (Macintosh; Intel Mac OS X 10_11_4) AppleWebKit/601.5.17 (KHTML, like Gecko) Version/9.1 Safari/601.5.17"
13.58.214.240 - - [31/Oct/2018:15:15:04 +0000] "GET / HTTP/1.1" 200 3826 "-" "Mozilla/5.0 (X11; Linux x86_64) Gecko/20100101 Chrome/67.0.3396.79 Safari/537.36"
185.56.80.242 - - [31/Oct/2018:15:18:01 +0000] "GET / HTTP/1.1" 200 3826 "-" "Mozilla/5.0 (Macintosh; Intel Mac OS X 10_11_3) AppleWebKit/601.4.4 (KHTML, like Gecko) Version/9.0.3 Safari/601.4.4"
185.56.80.242 - - [31/Oct/2018:15:18:02 +0000] "GET /?email-subscribe=lusciouslandscaping%40yahoo.com& HTTP/1.1" 200 3826 "http://looklala.com/" "Mozilla/5.0 (Macintosh; Intel Mac OS X 10_11_3) AppleWebKit/601.4.4 (KHTML, like Gecko) Version/9.0.3 Safari/601.4.4"
18.224.212.83 - - [31/Oct/2018:15:44:42 +0000] "GET / HTTP/1.1" 200 3826 "-" "Mozilla/5.0 (X11; Linux x86_64) Trident/5.0 Chrome/51.0.2704.106 Safari/537.36 OPR/38.0.2220.41"
104.244.75.82 - - [31/Oct/2018:15:46:16 +0000] "GET / HTTP/1.1" 200 3826 "-" "Mozilla/5.0 (Windows NT 5.1; WOW64; rv:52.0) Gecko/20100101 Firefox/52.0"
104.244.75.82 - - [31/Oct/2018:15:46:17 +0000] "GET /?email-subscribe=cindykay555%40yahoo.com& HTTP/1.1" 200 3826 "http://looklala.com/" "Mozilla/5.0 (Windows NT 5.1; WOW64; rv:52.0) Gecko/20100101 Firefox/52.0"
163.172.4.153 - - [31/Oct/2018:15:53:05 +0000] "GET / HTTP/1.1" 200 3826 "http://looklala.com/" "Mozilla/5.0 (compatible; MSIE 9.0; Windows NT 6.0; Trident/5.0;  Trident/5.0)"
220.181.125.86 - - [31/Oct/2018:16:02:49 +0000] "GET /robots.txt HTTP/1.1" 404 208 "-" "Sogou web spider/4.0(+http://www.sogou.com/docs/help/webmasters.htm#07)"
220.181.125.86 - - [31/Oct/2018:16:02:49 +0000] "GET / HTTP/1.1" 304 0 "-" "Sogou web spider/4.0(+http://www.sogou.com/docs/help/webmasters.htm#07)"
18.223.132.225 - - [31/Oct/2018:16:14:21 +0000] "GET / HTTP/1.1" 200 3826 "-" "Mozilla/5.0 (Windows NT 6.1; Win64; x64; rv:47.0) Trident/5.0 Chrome/51.0.2704.106 Safari/537.36 OPR/38.0.2220.41"
185.220.101.7 - - [31/Oct/2018:16:24:32 +0000] "GET / HTTP/1.1" 200 3826 "-" "Mozilla/5.0 (Windows NT 10.0; Win64; x64) AppleWebKit/537.36 (KHTML, like Gecko) Chrome/64.0.3282.140 Safari/537.36 Edge/17.17134"
185.220.101.30 - - [31/Oct/2018:16:24:33 +0000] "GET /?email-subscribe=cs%40cpdax.com& HTTP/1.1" 200 3826 "http://looklala.com/" "Mozilla/5.0 (Windows NT 10.0; Win64; x64) AppleWebKit/537.36 (KHTML, like Gecko) Chrome/64.0.3282.140 Safari/537.36 Edge/17.17134"
18.191.230.117 - - [31/Oct/2018:16:43:51 +0000] "GET / HTTP/1.1" 200 3826 "-" "Mozilla/5.0 (Macintosh; Intel Mac OS X x.y; rv:42.0) Trident/5.0 Chrome/51.0.2704.106 Safari/537.36 OPR/38.0.2220.41"
194.74.30.116 - - [31/Oct/2018:16:47:25 +0000] "GET /looklala/beta09/images/home/radicallogoon.png HTTP/1.1" 404 233 "http://www.radicalgraphics.com/cv/css/curri.css" "Mozilla/5.0 (Windows NT 10.0; Win64; x64) AppleWebKit/537.36 (KHTML, like Gecko) Chrome/70.0.3538.67 Safari/537.36"
34.244.73.12 - - [31/Oct/2018:16:59:22 +0000] "GET / HTTP/1.1" 200 3826 "-" "Mozilla/5.0 (X11; Ubuntu; Linux x86_64) AppleWebKit/537.36 (KHTML, like Gecko) Chrome/60.0.3112.101 Safari/537.36"
13.58.214.240 - - [31/Oct/2018:17:14:49 +0000] "GET / HTTP/1.1" 200 3826 "-" "Mozilla/5.0 (X11; Linux x86_64) AppleWebKit/537.36 (KHTML, like Gecko) Chrome/67.0.3396.79 Safari/537.36"
185.56.80.242 - - [31/Oct/2018:17:17:13 +0000] "GET / HTTP/1.1" 200 3826 "-" "Mozilla/5.0 (Windows NT 10.0; WOW64) AppleWebKit/537.36 (KHTML, like Gecko) Chrome/52.0.2743.116 Safari/537.36"
185.56.80.242 - - [31/Oct/2018:17:17:14 +0000] "GET /?email-subscribe=sefann%40yahoo.com& HTTP/1.1" 200 3826 "http://looklala.com/" "Mozilla/5.0 (Windows NT 10.0; WOW64) AppleWebKit/537.36 (KHTML, like Gecko) Chrome/52.0.2743.116 Safari/537.36"
185.100.85.190 - - [31/Oct/2018:17:25:37 +0000] "GET / HTTP/1.1" 200 3826 "-" "Mozilla/5.0 (Windows NT 6.3; Win64; x64) AppleWebKit/537.36 (KHTML, like Gecko) Chrome/55.0.2883.87 Safari/537.36"
185.100.85.190 - - [31/Oct/2018:17:25:38 +0000] "GET /?email-subscribe=chrisndip%40gmail.com& HTTP/1.1" 200 3826 "http://looklala.com/" "Mozilla/5.0 (Windows NT 6.3; Win64; x64) AppleWebKit/537.36 (KHTML, like Gecko) Chrome/55.0.2883.87 Safari/537.36"
5.150.254.67 - - [31/Oct/2018:17:31:11 +0000] "GET / HTTP/1.1" 200 3826 "-" "Mozilla/5.0 (Windows NT 6.3; WOW64; rv:46.0) Gecko/20100101 Firefox/46.0"
179.43.134.156 - - [31/Oct/2018:17:31:14 +0000] "GET /?email-subscribe=markchristianson%40comcast.net& HTTP/1.1" 200 3826 "http://looklala.com/" "Mozilla/5.0 (Windows NT 6.3; WOW64; rv:46.0) Gecko/20100101 Firefox/46.0"
3.16.42.80 - - [31/Oct/2018:17:44:09 +0000] "GET / HTTP/1.1" 200 3826 "-" "Mozilla/5.0 (Macintosh; Intel Mac OS X x.y; rv:42.0) Gecko/20100101 Firefox/42.0"
87.116.177.254 - - [31/Oct/2018:17:51:04 +0000] "GET /wp-login.php HTTP/1.1" 404 210 "-" "Mozilla/5.0 (Windows NT 6.1; WOW64; rv:40.0) Gecko/20100101 Firefox/40.1"
87.116.177.254 - - [31/Oct/2018:17:51:04 +0000] "GET / HTTP/1.1" 200 11888 "-" "Mozilla/5.0 (Windows NT 6.1; WOW64; rv:40.0) Gecko/20100101 Firefox/40.1"
193.201.225.45 - - [31/Oct/2018:18:06:05 +0000] "GET / HTTP/1.1" 200 3826 "-" "Mozilla/5.0 (Windows NT 6.2; Win64; x64) AppleWebKit/537.36 (KHTML, like Gecko) Chrome/57.0.2987.133 Safari/537.36"
87.118.122.50 - - [31/Oct/2018:18:06:07 +0000] "GET /?email-subscribe=nikowright43%40yahoo.com& HTTP/1.1" 200 3826 "http://looklala.com/" "Mozilla/5.0 (Windows NT 6.2; Win64; x64) AppleWebKit/537.36 (KHTML, like Gecko) Chrome/57.0.2987.133 Safari/537.36"
18.222.69.217 - - [31/Oct/2018:18:14:26 +0000] "GET / HTTP/1.1" 200 3826 "-" "Mozilla/5.0 (X11; Linux x86_64) AppleWebKit/537.36 (KHTML, like Gecko) Safari/602.1"
185.220.101.45 - - [31/Oct/2018:18:20:56 +0000] "GET / HTTP/1.1" 200 3826 "-" "Mozilla/5.0 (Macintosh; Intel Mac OS X 10_13_4) AppleWebKit/605.1.15 (KHTML, like Gecko) Version/11.1 Safari/605.1.15"
185.220.101.45 - - [31/Oct/2018:18:20:57 +0000] "GET /?email-subscribe=bearsky23%40yahoo.com& HTTP/1.1" 200 3826 "http://looklala.com/" "Mozilla/5.0 (Macintosh; Intel Mac OS X 10_13_4) AppleWebKit/605.1.15 (KHTML, like Gecko) Version/11.1 Safari/605.1.15"
37.187.129.166 - - [31/Oct/2018:18:28:37 +0000] "GET / HTTP/1.1" 200 3826 "-" "Mozilla/5.0 (Windows NT 6.1; WOW64) AppleWebKit/537.36 (KHTML, like Gecko) Chrome/52.0.2743.116 Safari/537.36"
37.187.129.166 - - [31/Oct/2018:18:28:38 +0000] "GET /?email-subscribe=jereadw%40gmail.com& HTTP/1.1" 200 3826 "http://looklala.com/" "Mozilla/5.0 (Windows NT 6.1; WOW64) AppleWebKit/537.36 (KHTML, like Gecko) Chrome/52.0.2743.116 Safari/537.36"
18.224.212.83 - - [31/Oct/2018:18:44:37 +0000] "GET / HTTP/1.1" 200 3826 "-" "Mozilla/5.0 (Windows NT 6.1; Win64; x64; rv:47.0) AppleWebKit/537.36 (KHTML, like Gecko) Safari/602.1"
2a02:587:1902:2800:a4a4:77d2:24b9:83f - - [31/Oct/2018:18:50:21 +0000] "GET /wp-login.php HTTP/1.1" 404 210 "-" "Mozilla/5.0 (Windows NT 6.1; WOW64; rv:40.0) Gecko/20100101 Firefox/40.1"
2a02:587:1902:2800:a4a4:77d2:24b9:83f - - [31/Oct/2018:18:50:22 +0000] "GET / HTTP/1.1" 200 11888 "-" "Mozilla/5.0 (Windows NT 6.1; WOW64; rv:40.0) Gecko/20100101 Firefox/40.1"
66.70.174.27 - - [31/Oct/2018:19:02:27 +0000] "GET / HTTP/1.1" 200 3826 "-" "Mozilla/5.0 (compatible; MSIE 9.0; Windows NT 6.0; Trident/5.0)"
185.220.101.44 - - [31/Oct/2018:19:02:28 +0000] "GET /?email-subscribe=rmartinez4495%40yahoo.com& HTTP/1.1" 200 3826 "http://looklala.com/" "Mozilla/5.0 (compatible; MSIE 9.0; Windows NT 6.0; Trident/5.0)"
91.219.237.244 - - [31/Oct/2018:19:08:18 +0000] "GET / HTTP/1.1" 200 3826 "-" "Mozilla/5.0 (Windows NT 6.3; Win64; x64) AppleWebKit/537.36 (KHTML, like Gecko) Chrome/55.0.2883.87 Safari/537.36"
185.100.87.207 - - [31/Oct/2018:19:08:20 +0000] "GET /?email-subscribe=nmadrid%40gmail.com& HTTP/1.1" 200 3826 "http://looklala.com/" "Mozilla/5.0 (Windows NT 6.3; Win64; x64) AppleWebKit/537.36 (KHTML, like Gecko) Chrome/55.0.2883.87 Safari/537.36"
18.191.84.64 - - [31/Oct/2018:19:14:22 +0000] "GET / HTTP/1.1" 200 3826 "-" "Mozilla/5.0 (Windows NT 6.1; Win64; x64; rv:47.0) AppleWebKit/537.36 (KHTML, like Gecko) Chrome/67.0.3396.79 Safari/537.36"
104.244.78.163 - - [31/Oct/2018:19:20:08 +0000] "GET / HTTP/1.1" 200 3826 "-" "Mozilla/5.0 (Windows NT 5.1; Win64; x64) AppleWebKit/537.36 (KHTML, like Gecko) Chrome/60.0.3112.90 Safari/537.36"
104.244.78.163 - - [31/Oct/2018:19:20:09 +0000] "GET /?email-subscribe=joey.morgan%40att.net& HTTP/1.1" 200 3826 "http://looklala.com/" "Mozilla/5.0 (Windows NT 5.1; Win64; x64) AppleWebKit/537.36 (KHTML, like Gecko) Chrome/60.0.3112.90 Safari/537.36"
220.181.124.109 - - [31/Oct/2018:19:21:36 +0000] "GET /robots.txt HTTP/1.1" 404 208 "-" "Sogou web spider/4.0(+http://www.sogou.com/docs/help/webmasters.htm#07)"
90.224.11.107 - - [31/Oct/2018:19:40:35 +0000] "GET / HTTP/1.1" 200 3826 "-" "Mozilla/5.0 (Windows NT 10.0; Win64; x64) AppleWebKit/537.36 (KHTML, like Gecko) Chrome/58.0.3029.110 Safari/537.36 Edge/16.16299"
90.224.11.107 - - [31/Oct/2018:19:40:36 +0000] "GET /?email-subscribe=ulbrichheli%40gmail.com& HTTP/1.1" 200 3826 "http://looklala.com/" "Mozilla/5.0 (Windows NT 10.0; Win64; x64) AppleWebKit/537.36 (KHTML, like Gecko) Chrome/58.0.3029.110 Safari/537.36 Edge/16.16299"
18.224.212.83 - - [31/Oct/2018:19:43:35 +0000] "GET / HTTP/1.1" 200 3826 "-" "Mozilla/5.0 (Windows NT 6.1; Win64; x64; rv:47.0) Gecko/20100101 Chrome/51.0.2704.106 Safari/537.36 OPR/38.0.2220.41"
54.36.189.105 - - [31/Oct/2018:19:58:50 +0000] "GET / HTTP/1.1" 200 3826 "-" "Mozilla/5.0 (Windows NT 10.0; Win64; x64) AppleWebKit/537.36 (KHTML, like Gecko) Chrome/66.0.3359.181 Safari/537.36"
54.36.189.105 - - [31/Oct/2018:19:58:51 +0000] "GET /?email-subscribe=itf%40cunadousa.com& HTTP/1.1" 200 3826 "http://looklala.com/" "Mozilla/5.0 (Windows NT 10.0; Win64; x64) AppleWebKit/537.36 (KHTML, like Gecko) Chrome/66.0.3359.181 Safari/537.36"
185.220.101.28 - - [31/Oct/2018:20:13:58 +0000] "GET / HTTP/1.1" 200 3826 "-" "Mozilla/5.0 (Windows NT 6.1; WOW64) AppleWebKit/537.36 (KHTML, like Gecko) Chrome/43.0.2357.65 Safari/537.36"
185.220.101.28 - - [31/Oct/2018:20:13:58 +0000] "GET /?email-subscribe=whip_one%40yahoo.com& HTTP/1.1" 200 3826 "http://looklala.com/" "Mozilla/5.0 (Windows NT 6.1; WOW64) AppleWebKit/537.36 (KHTML, like Gecko) Chrome/43.0.2357.65 Safari/537.36"
18.224.135.194 - - [31/Oct/2018:20:14:19 +0000] "GET / HTTP/1.1" 200 3826 "-" "Mozilla/5.0 (Windows NT 6.1; Win64; x64; rv:47.0) AppleWebKit/537.36 (KHTML, like Gecko) Chrome/67.0.3396.79 Safari/537.36"
91.219.236.171 - - [31/Oct/2018:20:15:52 +0000] "GET / HTTP/1.1" 200 3826 "-" "Mozilla/5.0 (Macintosh; Intel Mac OS X 10_13_2) AppleWebKit/604.4.7 (KHTML, like Gecko) Version/11.0.2 Safari/604.4.7"
91.219.236.171 - - [31/Oct/2018:20:15:52 +0000] "GET /?email-subscribe=jobesales%40cs.com& HTTP/1.1" 200 3826 "http://looklala.com/" "Mozilla/5.0 (Macintosh; Intel Mac OS X 10_13_2) AppleWebKit/604.4.7 (KHTML, like Gecko) Version/11.0.2 Safari/604.4.7"
180.76.15.138 - - [31/Oct/2018:20:22:07 +0000] "GET /?content/17368.html HTTP/1.1" 200 3826 "-" "Mozilla/5.0 (compatible; Baiduspider/2.0; +http://www.baidu.com/search/spider.html)"
199.249.230.66 - - [31/Oct/2018:20:30:28 +0000] "GET / HTTP/1.1" 200 3826 "-" "Mozilla/5.0 (Macintosh; Intel Mac OS X 10_11_3) AppleWebKit/601.4.4 (KHTML, like Gecko) Version/9.0.3 Safari/601.4.4"
199.249.230.66 - - [31/Oct/2018:20:30:29 +0000] "GET /?email-subscribe=still10steps%40aol.com& HTTP/1.1" 200 3826 "http://looklala.com/" "Mozilla/5.0 (Macintosh; Intel Mac OS X 10_11_3) AppleWebKit/601.4.4 (KHTML, like Gecko) Version/9.0.3 Safari/601.4.4"
18.224.212.83 - - [31/Oct/2018:20:44:10 +0000] "GET / HTTP/1.1" 200 3826 "-" "Mozilla/5.0 (X11; Linux x86_64) Gecko/20100101 Safari/602.1"
185.56.80.242 - - [31/Oct/2018:20:48:45 +0000] "GET / HTTP/1.1" 200 3826 "-" "Mozilla/5.0 (compatible; MSIE 10.0; Windows NT 6.1; Trident/6.0)"
185.56.80.242 - - [31/Oct/2018:20:48:46 +0000] "GET /?email-subscribe=gsilerio%40cunadousa.com& HTTP/1.1" 200 3826 "http://looklala.com/" "Mozilla/5.0 (compatible; MSIE 10.0; Windows NT 6.1; Trident/6.0)"
185.220.102.7 - - [31/Oct/2018:20:52:30 +0000] "GET / HTTP/1.1" 200 3826 "-" "Mozilla/5.0 (Windows NT 6.1; Win64; x64) AppleWebKit/537.36 (KHTML, like Gecko) Chrome/54.0.2840.99 Safari/537.36"
185.220.102.7 - - [31/Oct/2018:20:52:31 +0000] "GET /?email-subscribe=nikowright43%40yahoo.com& HTTP/1.1" 200 3826 "http://looklala.com/" "Mozilla/5.0 (Windows NT 6.1; Win64; x64) AppleWebKit/537.36 (KHTML, like Gecko) Chrome/54.0.2840.99 Safari/537.36"
180.76.15.148 - - [31/Oct/2018:20:55:27 +0000] "GET /?content/5000.html HTTP/1.1" 200 3826 "-" "Mozilla/5.0 (compatible; Baiduspider/2.0; +http://www.baidu.com/search/spider.html)"
220.181.124.109 - - [31/Oct/2018:20:56:45 +0000] "GET / HTTP/1.1" 200 3826 "-" "Sogou web spider/4.0(+http://www.sogou.com/docs/help/webmasters.htm#07)"
185.220.102.7 - - [31/Oct/2018:21:01:09 +0000] "GET / HTTP/1.1" 200 3826 "-" "Mozilla/5.0 (Windows NT 10.0; Win64; x64) AppleWebKit/537.36 (KHTML, like Gecko) Chrome/60.0.3112.78 Safari/537.36 OPR/47.0.2631.39"
185.220.102.7 - - [31/Oct/2018:21:01:10 +0000] "GET /?email-subscribe=kathiw5872%40comcast.net& HTTP/1.1" 200 3826 "http://looklala.com/" "Mozilla/5.0 (Windows NT 10.0; Win64; x64) AppleWebKit/537.36 (KHTML, like Gecko) Chrome/60.0.3112.78 Safari/537.36 OPR/47.0.2631.39"
18.218.79.145 - - [31/Oct/2018:21:14:03 +0000] "GET / HTTP/1.1" 200 3826 "-" "Mozilla/5.0 (X11; Linux x86_64) Trident/5.0 Firefox/42.0"
92.63.103.241 - - [31/Oct/2018:21:20:56 +0000] "GET / HTTP/1.1" 200 3826 "-" "Mozilla/5.0 (X11; Linux x86_64) AppleWebKit/537.36 (KHTML, like Gecko) Chrome/44.0.2403.157 Safari/537.36"
92.63.103.241 - - [31/Oct/2018:21:20:56 +0000] "GET /?email-subscribe=mar060156%40aol.com& HTTP/1.1" 200 3826 "http://looklala.com/" "Mozilla/5.0 (X11; Linux x86_64) AppleWebKit/537.36 (KHTML, like Gecko) Chrome/44.0.2403.157 Safari/537.36"
180.76.15.150 - - [31/Oct/2018:21:28:47 +0000] "GET /?content/5466.html HTTP/1.1" 200 3826 "-" "Mozilla/5.0 (compatible; Baiduspider/2.0; +http://www.baidu.com/search/spider.html)"
157.55.39.38 - - [31/Oct/2018:21:34:41 +0000] "GET /robots.txt HTTP/1.1" 404 204 "-" "Mozilla/5.0 (compatible; bingbot/2.0; +http://www.bing.com/bingbot.htm)"
207.46.13.120 - - [31/Oct/2018:21:34:50 +0000] "GET / HTTP/1.1" 200 3826 "-" "Mozilla/5.0 (iPhone; CPU iPhone OS 7_0 like Mac OS X) AppleWebKit/537.51.1 (KHTML, like Gecko) Version/7.0 Mobile/11A465 Safari/9537.53 (compatible; bingbot/2.0; +http://www.bing.com/bingbot.htm)"
40.77.253.109 - - [31/Oct/2018:21:34:52 +0000] "GET /css/jquery.vegas.css HTTP/1.1" 200 432 "http://looklala.com/" "Mozilla/5.0 (iPhone; CPU iPhone OS 7_0 like Mac OS X) AppleWebKit/537.51.1 (KHTML, like Gecko) Version/7.0 Mobile/11A465 Safari/9537.53 BingPreview/1.0b"
40.77.253.109 - - [31/Oct/2018:21:34:52 +0000] "GET /css/base.css HTTP/1.1" 200 5047 "http://looklala.com/" "Mozilla/5.0 (iPhone; CPU iPhone OS 7_0 like Mac OS X) AppleWebKit/537.51.1 (KHTML, like Gecko) Version/7.0 Mobile/11A465 Safari/9537.53 BingPreview/1.0b"
40.77.253.109 - - [31/Oct/2018:21:34:52 +0000] "GET /css/jpreloader.css HTTP/1.1" 200 838 "http://looklala.com/" "Mozilla/5.0 (iPhone; CPU iPhone OS 7_0 like Mac OS X) AppleWebKit/537.51.1 (KHTML, like Gecko) Version/7.0 Mobile/11A465 Safari/9537.53 BingPreview/1.0b"
40.77.253.109 - - [31/Oct/2018:21:34:52 +0000] "GET /fonts/font-awesome/css/font-awesome.min.css HTTP/1.1" 200 4965 "http://looklala.com/" "Mozilla/5.0 (iPhone; CPU iPhone OS 7_0 like Mac OS X) AppleWebKit/537.51.1 (KHTML, like Gecko) Version/7.0 Mobile/11A465 Safari/9537.53 BingPreview/1.0b"
40.77.253.109 - - [31/Oct/2018:21:34:53 +0000] "GET /css/theme/bw.css HTTP/1.1" 200 476 "http://looklala.com/" "Mozilla/5.0 (iPhone; CPU iPhone OS 7_0 like Mac OS X) AppleWebKit/537.51.1 (KHTML, like Gecko) Version/7.0 Mobile/11A465 Safari/9537.53 BingPreview/1.0b"
40.77.253.109 - - [31/Oct/2018:21:34:53 +0000] "GET /js/jquery.min.js HTTP/1.1" 200 38129 "http://looklala.com/" "Mozilla/5.0 (iPhone; CPU iPhone OS 7_0 like Mac OS X) AppleWebKit/537.51.1 (KHTML, like Gecko) Version/7.0 Mobile/11A465 Safari/9537.53 BingPreview/1.0b"
40.77.253.109 - - [31/Oct/2018:21:34:53 +0000] "GET /js/jpreloader.min.js HTTP/1.1" 200 1460 "http://looklala.com/" "Mozilla/5.0 (iPhone; CPU iPhone OS 7_0 like Mac OS X) AppleWebKit/537.51.1 (KHTML, like Gecko) Version/7.0 Mobile/11A465 Safari/9537.53 BingPreview/1.0b"
40.77.253.109 - - [31/Oct/2018:21:34:54 +0000] "GET /js/vegas.js HTTP/1.1" 200 3945 "http://looklala.com/" "Mozilla/5.0 (iPhone; CPU iPhone OS 7_0 like Mac OS X) AppleWebKit/537.51.1 (KHTML, like Gecko) Version/7.0 Mobile/11A465 Safari/9537.53 BingPreview/1.0b"
40.77.253.109 - - [31/Oct/2018:21:34:54 +0000] "GET /js/pagescroller.js HTTP/1.1" 200 1881 "http://looklala.com/" "Mozilla/5.0 (iPhone; CPU iPhone OS 7_0 like Mac OS X) AppleWebKit/537.51.1 (KHTML, like Gecko) Version/7.0 Mobile/11A465 Safari/9537.53 BingPreview/1.0b"
40.77.253.109 - - [31/Oct/2018:21:34:54 +0000] "GET /js/jquery.easing.1.3.js HTTP/1.1" 200 2217 "http://looklala.com/" "Mozilla/5.0 (iPhone; CPU iPhone OS 7_0 like Mac OS X) AppleWebKit/537.51.1 (KHTML, like Gecko) Version/7.0 Mobile/11A465 Safari/9537.53 BingPreview/1.0b"
40.77.253.109 - - [31/Oct/2018:21:34:55 +0000] "GET /js/waypoints.min.js HTTP/1.1" 200 2930 "http://looklala.com/" "Mozilla/5.0 (iPhone; CPU iPhone OS 7_0 like Mac OS X) AppleWebKit/537.51.1 (KHTML, like Gecko) Version/7.0 Mobile/11A465 Safari/9537.53 BingPreview/1.0b"
40.77.253.109 - - [31/Oct/2018:21:34:55 +0000] "GET /js/validate.min.js HTTP/1.1" 200 7344 "http://looklala.com/" "Mozilla/5.0 (iPhone; CPU iPhone OS 7_0 like Mac OS X) AppleWebKit/537.51.1 (KHTML, like Gecko) Version/7.0 Mobile/11A465 Safari/9537.53 BingPreview/1.0b"
40.77.253.109 - - [31/Oct/2018:21:34:55 +0000] "GET /js/script.js HTTP/1.1" 200 3200 "http://looklala.com/" "Mozilla/5.0 (iPhone; CPU iPhone OS 7_0 like Mac OS X) AppleWebKit/537.51.1 (KHTML, like Gecko) Version/7.0 Mobile/11A465 Safari/9537.53 BingPreview/1.0b"
40.77.253.109 - - [31/Oct/2018:21:34:56 +0000] "GET /img/logo-white.png HTTP/1.1" 200 5255 "http://looklala.com/" "Mozilla/5.0 (iPhone; CPU iPhone OS 7_0 like Mac OS X) AppleWebKit/537.51.1 (KHTML, like Gecko) Version/7.0 Mobile/11A465 Safari/9537.53 BingPreview/1.0b"
40.77.253.109 - - [31/Oct/2018:21:34:56 +0000] "GET /img/top.png HTTP/1.1" 200 1867 "http://looklala.com/" "Mozilla/5.0 (iPhone; CPU iPhone OS 7_0 like Mac OS X) AppleWebKit/537.51.1 (KHTML, like Gecko) Version/7.0 Mobile/11A465 Safari/9537.53 BingPreview/1.0b"
40.77.253.109 - - [31/Oct/2018:21:34:56 +0000] "GET /img/pre-load.gif HTTP/1.1" 200 7198 "http://looklala.com/" "Mozilla/5.0 (iPhone; CPU iPhone OS 7_0 like Mac OS X) AppleWebKit/537.51.1 (KHTML, like Gecko) Version/7.0 Mobile/11A465 Safari/9537.53 BingPreview/1.0b"
40.77.253.109 - - [31/Oct/2018:21:34:56 +0000] "GET /img/load.gif HTTP/1.1" 200 1998 "http://looklala.com/" "Mozilla/5.0 (iPhone; CPU iPhone OS 7_0 like Mac OS X) AppleWebKit/537.51.1 (KHTML, like Gecko) Version/7.0 Mobile/11A465 Safari/9537.53 BingPreview/1.0b"
40.77.253.109 - - [31/Oct/2018:21:34:57 +0000] "GET /fonts/font-awesome/font/fontawesome-webfontf77b.ttf?v=3.2.1 HTTP/1.1" 200 79076 "http://looklala.com/" "Mozilla/5.0 (iPhone; CPU iPhone OS 7_0 like Mac OS X) AppleWebKit/537.51.1 (KHTML, like Gecko) Version/7.0 Mobile/11A465 Safari/9537.53 BingPreview/1.0b"
40.77.253.109 - - [31/Oct/2018:21:34:58 +0000] "GET /img/mark.png HTTP/1.1" 200 2000 "http://looklala.com/" "Mozilla/5.0 (iPhone; CPU iPhone OS 7_0 like Mac OS X) AppleWebKit/537.51.1 (KHTML, like Gecko) Version/7.0 Mobile/11A465 Safari/9537.53 BingPreview/1.0b"
40.77.253.109 - - [31/Oct/2018:21:35:04 +0000] "GET /img/bg-color/3.jpg HTTP/1.1" 200 30170 "http://looklala.com/" "Mozilla/5.0 (iPhone; CPU iPhone OS 7_0 like Mac OS X) AppleWebKit/537.51.1 (KHTML, like Gecko) Version/7.0 Mobile/11A465 Safari/9537.53 BingPreview/1.0b"
207.46.13.120 - - [31/Oct/2018:21:35:05 +0000] "GET /robots.txt HTTP/1.1" 404 204 "-" "Mozilla/5.0 (compatible; bingbot/2.0; +http://www.bing.com/bingbot.htm)"
40.77.253.109 - - [31/Oct/2018:21:35:09 +0000] "GET /img/bg-color/SAM_0175_optimized2.jpg HTTP/1.1" 200 201826 "http://looklala.com/" "Mozilla/5.0 (iPhone; CPU iPhone OS 7_0 like Mac OS X) AppleWebKit/537.51.1 (KHTML, like Gecko) Version/7.0 Mobile/11A465 Safari/9537.53 BingPreview/1.0b"
40.77.253.109 - - [31/Oct/2018:21:35:13 +0000] "GET /img/bg-color/6_optimized2.jpg HTTP/1.1" 200 212276 "http://looklala.com/" "Mozilla/5.0 (iPhone; CPU iPhone OS 7_0 like Mac OS X) AppleWebKit/537.51.1 (KHTML, like Gecko) Version/7.0 Mobile/11A465 Safari/9537.53 BingPreview/1.0b"
192.160.102.166 - - [31/Oct/2018:21:37:31 +0000] "GET / HTTP/1.1" 200 3826 "-" "Mozilla/5.0 (Windows NT 10.0; Win64; x64) AppleWebKit/537.36 (KHTML, like Gecko) Chrome/61.0.3163.79 Safari/537.36"
192.160.102.166 - - [31/Oct/2018:21:37:32 +0000] "GET /?email-subscribe=nikowright43%40yahoo.com& HTTP/1.1" 200 3826 "http://looklala.com/" "Mozilla/5.0 (Windows NT 10.0; Win64; x64) AppleWebKit/537.36 (KHTML, like Gecko) Chrome/61.0.3163.79 Safari/537.36"
195.176.3.20 - - [31/Oct/2018:21:38:01 +0000] "GET / HTTP/1.1" 200 3826 "-" "Mozilla/5.0 (Windows NT 6.1; WOW64; rv:47.0) Gecko/20100101 Firefox/47.0"
195.176.3.20 - - [31/Oct/2018:21:38:03 +0000] "GET /?email-subscribe=gsilerio%40cunadousa.com& HTTP/1.1" 200 3826 "http://looklala.com/" "Mozilla/5.0 (Windows NT 6.1; WOW64; rv:47.0) Gecko/20100101 Firefox/47.0"
18.188.113.117 - - [31/Oct/2018:21:44:38 +0000] "GET / HTTP/1.1" 200 3826 "-" "Mozilla/5.0 (Windows NT 6.1; Win64; x64; rv:47.0) Trident/5.0 Safari/602.1"
18.224.135.194 - - [31/Oct/2018:22:14:24 +0000] "GET / HTTP/1.1" 200 3826 "-" "Mozilla/5.0 (Macintosh; Intel Mac OS X x.y; rv:42.0) Gecko/20100101 Chrome/67.0.3396.79 Safari/537.36"
205.185.127.219 - - [31/Oct/2018:22:19:08 +0000] "GET / HTTP/1.1" 200 3826 "-" "Mozilla/5.0 (Windows NT 6.0; Win64; x64) AppleWebKit/537.36 (KHTML, like Gecko) Chrome/51.0.2704.79 Safari/537.36 Edge/14.14393"
205.185.127.219 - - [31/Oct/2018:22:19:10 +0000] "GET /?email-subscribe=moemariec8%40yahoo.com& HTTP/1.1" 200 3826 "http://looklala.com/" "Mozilla/5.0 (Windows NT 6.0; Win64; x64) AppleWebKit/537.36 (KHTML, like Gecko) Chrome/51.0.2704.79 Safari/537.36 Edge/14.14393"
3.16.42.80 - - [31/Oct/2018:22:44:14 +0000] "GET / HTTP/1.1" 200 3826 "-" "Mozilla/5.0 (Windows NT 6.1; Win64; x64; rv:47.0) AppleWebKit/537.36 (KHTML, like Gecko) Firefox/42.0"
178.17.166.146 - - [31/Oct/2018:22:57:52 +0000] "GET / HTTP/1.1" 200 3826 "-" "Mozilla/5.0 (Windows NT 6.3; Win64; x64) AppleWebKit/537.36 (KHTML, like Gecko) Chrome/52.0.2743.116 Safari/537.36 Edge/15.15063"
178.17.166.146 - - [31/Oct/2018:22:57:53 +0000] "GET /?email-subscribe=klynn238%40yahoo.com& HTTP/1.1" 200 3826 "http://looklala.com/" "Mozilla/5.0 (Windows NT 6.3; Win64; x64) AppleWebKit/537.36 (KHTML, like Gecko) Chrome/52.0.2743.116 Safari/537.36 Edge/15.15063"
51.15.88.249 - - [31/Oct/2018:23:03:35 +0000] "GET / HTTP/1.1" 200 3826 "-" "Mozilla/5.0 (Windows NT 5.1; Win64; x64) AppleWebKit/537.36 (KHTML, like Gecko) Chrome/60.0.3112.90 Safari/537.36"
51.15.88.249 - - [31/Oct/2018:23:03:36 +0000] "GET /?email-subscribe=qw%40qiwi.com& HTTP/1.1" 200 3826 "http://looklala.com/" "Mozilla/5.0 (Windows NT 5.1; Win64; x64) AppleWebKit/537.36 (KHTML, like Gecko) Chrome/60.0.3112.90 Safari/537.36"
185.220.101.21 - - [31/Oct/2018:23:05:32 +0000] "GET / HTTP/1.1" 200 3826 "-" "Mozilla/5.0 (Windows NT 6.1; WOW64; rv:50.0) Gecko/20100101 Firefox/50.0"
185.220.101.21 - - [31/Oct/2018:23:05:33 +0000] "GET /?email-subscribe=rxrutledge%40gmail.com& HTTP/1.1" 200 3826 "http://looklala.com/" "Mozilla/5.0 (Windows NT 6.1; WOW64; rv:50.0) Gecko/20100101 Firefox/50.0"
18.224.18.240 - - [31/Oct/2018:23:13:45 +0000] "GET / HTTP/1.1" 200 3826 "-" "Mozilla/5.0 (Windows NT 6.1; Win64; x64; rv:47.0) AppleWebKit/537.36 (KHTML, like Gecko) Chrome/67.0.3396.79 Safari/537.36"
18.85.22.239 - - [31/Oct/2018:23:22:10 +0000] "GET / HTTP/1.1" 200 3826 "-" "Mozilla/5.0 (Windows NT 6.2; Win64; x64) AppleWebKit/537.36 (KHTML, like Gecko) Chrome/51.0.2704.79 Safari/537.36 Edge/14.14393"
199.249.223.61 - - [31/Oct/2018:23:22:12 +0000] "GET /?email-subscribe=coravj%40gmail.com& HTTP/1.1" 200 3826 "http://looklala.com/" "Mozilla/5.0 (Windows NT 6.2; Win64; x64) AppleWebKit/537.36 (KHTML, like Gecko) Chrome/51.0.2704.79 Safari/537.36 Edge/14.14393"
185.193.125.115 - - [31/Oct/2018:23:39:32 +0000] "GET / HTTP/1.1" 200 3826 "-" "Mozilla/5.0 (Windows NT 5.1; WOW64; rv:52.0) Gecko/20100101 Firefox/52.0"
185.193.125.115 - - [31/Oct/2018:23:39:33 +0000] "GET /?email-subscribe=mayraquiroz707%40yahoo.com& HTTP/1.1" 200 3826 "http://looklala.com/" "Mozilla/5.0 (Windows NT 5.1; WOW64; rv:52.0) Gecko/20100101 Firefox/52.0"
18.191.84.64 - - [31/Oct/2018:23:43:40 +0000] "GET / HTTP/1.1" 200 3826 "-" "Mozilla/5.0 (Windows NT 6.1; Win64; x64; rv:47.0) AppleWebKit/537.36 (KHTML, like Gecko) Safari/602.1"
209.141.61.45 - - [31/Oct/2018:23:47:32 +0000] "GET / HTTP/1.1" 200 3826 "-" "Mozilla/5.0 (Windows NT 6.1; Win64; x64) AppleWebKit/537.36 (KHTML, like Gecko) Chrome/62.0.3202.89 Safari/537.36"
209.141.61.45 - - [31/Oct/2018:23:47:33 +0000] "GET /?email-subscribe=srw520%40yahoo.com& HTTP/1.1" 200 3826 "http://looklala.com/" "Mozilla/5.0 (Windows NT 6.1; Win64; x64) AppleWebKit/537.36 (KHTML, like Gecko) Chrome/62.0.3202.89 Safari/537.36"
18.221.249.123 - - [01/Nov/2018:00:13:54 +0000] "GET / HTTP/1.1" 200 3826 "-" "Mozilla/5.0 (Macintosh; Intel Mac OS X x.y; rv:42.0) Trident/5.0 Firefox/42.0"
104.244.76.13 - - [01/Nov/2018:00:25:15 +0000] "GET / HTTP/1.1" 200 3826 "-" "Mozilla/5.0 (Windows NT 6.1; WOW64; rv:54.0) Gecko/20100101 Firefox/54.0"
104.244.76.13 - - [01/Nov/2018:00:25:15 +0000] "GET /?email-subscribe=ulhicks%40gmail.com& HTTP/1.1" 200 3826 "http://looklala.com/" "Mozilla/5.0 (Windows NT 6.1; WOW64; rv:54.0) Gecko/20100101 Firefox/54.0"
199.249.230.67 - - [01/Nov/2018:00:40:03 +0000] "GET / HTTP/1.1" 200 3826 "-" "Mozilla/5.0 (Windows NT 6.1; WOW64) AppleWebKit/537.36 (KHTML, like Gecko) Chrome/51.0.2704.63 Safari/537.36"
18.222.34.244 - - [01/Nov/2018:00:43:28 +0000] "GET / HTTP/1.1" 200 3826 "-" "Mozilla/5.0 (Windows NT 6.1; Win64; x64; rv:47.0) Gecko/20100101 Chrome/67.0.3396.79 Safari/537.36"
18.191.84.64 - - [01/Nov/2018:01:14:14 +0000] "GET / HTTP/1.1" 200 3826 "-" "Mozilla/5.0 (Windows NT 6.1; Win64; x64; rv:47.0) Trident/5.0 Chrome/67.0.3396.79 Safari/537.36"
187.211.81.158 - - [01/Nov/2018:01:19:43 +0000] "GET /wp-login.php HTTP/1.1" 404 210 "-" "Mozilla/5.0 (Windows NT 6.1; WOW64; rv:40.0) Gecko/20100101 Firefox/40.1"
187.211.81.158 - - [01/Nov/2018:01:19:43 +0000] "GET / HTTP/1.1" 200 11888 "-" "Mozilla/5.0 (Windows NT 6.1; WOW64; rv:40.0) Gecko/20100101 Firefox/40.1"
37.187.94.86 - - [01/Nov/2018:01:24:28 +0000] "GET / HTTP/1.1" 200 3826 "-" "Mozilla/5.0 (Windows NT 5.1) AppleWebKit/537.36 (KHTML, like Gecko) Chrome/49.0.2623.112 Safari/537.36"
37.187.94.86 - - [01/Nov/2018:01:24:29 +0000] "GET /?email-subscribe=vanilla1973%40gmail.com& HTTP/1.1" 200 3826 "http://looklala.com/" "Mozilla/5.0 (Windows NT 5.1) AppleWebKit/537.36 (KHTML, like Gecko) Chrome/49.0.2623.112 Safari/537.36"
220.181.124.113 - - [01/Nov/2018:01:24:41 +0000] "GET /robots.txt HTTP/1.1" 404 208 "-" "Sogou web spider/4.0(+http://www.sogou.com/docs/help/webmasters.htm#07)"
178.175.135.99 - - [01/Nov/2018:01:35:36 +0000] "GET / HTTP/1.1" 200 3826 "-" "Mozilla/5.0 (Windows NT 6.1; WOW64; rv:54.0) Gecko/20100101 Firefox/54.0"
178.175.135.99 - - [01/Nov/2018:01:35:36 +0000] "GET /?email-subscribe=ulhicks%40gmail.com& HTTP/1.1" 200 3826 "http://looklala.com/" "Mozilla/5.0 (Windows NT 6.1; WOW64; rv:54.0) Gecko/20100101 Firefox/54.0"
52.173.241.248 - - [01/Nov/2018:01:36:45 +0000] "GET / HTTP/1.1" 200 3826 "-" "Mozilla/5.0 (Windows NT 6.1; Win64; x64) AppleWebKit/537.36 (KHTML, like Gecko) Chrome/64.0.3282.186 Safari/537.36"
18.188.69.31 - - [01/Nov/2018:01:44:22 +0000] "GET / HTTP/1.1" 200 3826 "-" "Mozilla/5.0 (Windows NT 6.1; Win64; x64; rv:47.0) Gecko/20100101 Chrome/51.0.2704.106 Safari/537.36 OPR/38.0.2220.41"
220.181.124.113 - - [01/Nov/2018:01:46:39 +0000] "GET /js/script.js HTTP/1.1" 200 3200 "-" "Sogou web spider/4.0(+http://www.sogou.com/docs/help/webmasters.htm#07)"
3.16.46.187 - - [01/Nov/2018:02:15:04 +0000] "GET / HTTP/1.1" 200 3826 "-" "Mozilla/5.0 (Windows NT 6.1; Win64; x64; rv:47.0) Trident/5.0 Chrome/51.0.2704.106 Safari/537.36 OPR/38.0.2220.41"
85.26.68.152 - - [01/Nov/2018:02:16:23 +0000] "GET /wp-login.php HTTP/1.1" 404 210 "-" "Mozilla/5.0 (Windows NT 6.1; WOW64; rv:40.0) Gecko/20100101 Firefox/40.1"
85.26.68.152 - - [01/Nov/2018:02:16:23 +0000] "GET / HTTP/1.1" 200 11888 "-" "Mozilla/5.0 (Windows NT 6.1; WOW64; rv:40.0) Gecko/20100101 Firefox/40.1"
18.217.34.193 - - [01/Nov/2018:02:45:02 +0000] "GET / HTTP/1.1" 200 3826 "-" "Mozilla/5.0 (Windows NT 6.1; Win64; x64; rv:47.0) Trident/5.0 Safari/602.1"
14.215.176.15 - - [01/Nov/2018:02:58:24 +0000] "GET / HTTP/1.1" 200 3826 "http://www.baidu.com/s?wd=recordjcb" "Mozilla/5.0 (Windows NT 6.1; WOW64; rv:43.0) Gecko/20100101 Firefox/43.0"
14.215.176.15 - - [01/Nov/2018:02:58:24 +0000] "GET /css/jpreloader.css HTTP/1.1" 200 838 "http://www.looklala.com/" "Mozilla/5.0 (Windows NT 6.1; WOW64; rv:43.0) Gecko/20100101 Firefox/43.0"
14.215.176.5 - - [01/Nov/2018:02:58:25 +0000] "GET /css/base.css HTTP/1.1" 200 5047 "http://www.looklala.com/" "Mozilla/5.0 (Windows NT 6.1; WOW64; rv:43.0) Gecko/20100101 Firefox/43.0"
14.215.176.6 - - [01/Nov/2018:02:58:25 +0000] "GET /css/jquery.vegas.css HTTP/1.1" 200 432 "http://www.looklala.com/" "Mozilla/5.0 (Windows NT 6.1; WOW64; rv:43.0) Gecko/20100101 Firefox/43.0"
14.215.176.15 - - [01/Nov/2018:02:58:25 +0000] "GET /css/theme/bw.css HTTP/1.1" 200 476 "http://www.looklala.com/" "Mozilla/5.0 (Windows NT 6.1; WOW64; rv:43.0) Gecko/20100101 Firefox/43.0"
14.215.176.4 - - [01/Nov/2018:02:58:25 +0000] "GET /fonts/font-awesome/css/font-awesome.min.css HTTP/1.1" 200 4995 "http://www.looklala.com/" "Mozilla/5.0 (Windows NT 6.1; WOW64; rv:43.0) Gecko/20100101 Firefox/43.0"
14.215.176.7 - - [01/Nov/2018:02:58:25 +0000] "GET /js/jquery.min.js HTTP/1.1" 200 38129 "http://www.looklala.com/" "Mozilla/5.0 (Windows NT 6.1; WOW64; rv:43.0) Gecko/20100101 Firefox/43.0"
14.215.176.17 - - [01/Nov/2018:02:58:25 +0000] "GET /js/jpreloader.min.js HTTP/1.1" 200 1460 "http://www.looklala.com/" "Mozilla/5.0 (Windows NT 6.1; WOW64; rv:43.0) Gecko/20100101 Firefox/43.0"
14.215.176.5 - - [01/Nov/2018:02:58:25 +0000] "GET /js/vegas.js HTTP/1.1" 200 3945 "http://www.looklala.com/" "Mozilla/5.0 (Windows NT 6.1; WOW64; rv:43.0) Gecko/20100101 Firefox/43.0"
14.215.176.6 - - [01/Nov/2018:02:58:25 +0000] "GET /js/pagescroller.js HTTP/1.1" 200 1881 "http://www.looklala.com/" "Mozilla/5.0 (Windows NT 6.1; WOW64; rv:43.0) Gecko/20100101 Firefox/43.0"
14.215.176.15 - - [01/Nov/2018:02:58:25 +0000] "GET /js/waypoints.min.js HTTP/1.1" 200 2930 "http://www.looklala.com/" "Mozilla/5.0 (Windows NT 6.1; WOW64; rv:43.0) Gecko/20100101 Firefox/43.0"
14.215.176.4 - - [01/Nov/2018:02:58:25 +0000] "GET /js/jquery.easing.1.3.js HTTP/1.1" 200 2217 "http://www.looklala.com/" "Mozilla/5.0 (Windows NT 6.1; WOW64; rv:43.0) Gecko/20100101 Firefox/43.0"
14.215.176.17 - - [01/Nov/2018:02:58:25 +0000] "GET /js/validate.min.js HTTP/1.1" 200 7344 "http://www.looklala.com/" "Mozilla/5.0 (Windows NT 6.1; WOW64; rv:43.0) Gecko/20100101 Firefox/43.0"
14.215.176.5 - - [01/Nov/2018:02:58:25 +0000] "GET /js/script.js HTTP/1.1" 200 3200 "http://www.looklala.com/" "Mozilla/5.0 (Windows NT 6.1; WOW64; rv:43.0) Gecko/20100101 Firefox/43.0"
14.215.176.15 - - [01/Nov/2018:02:58:25 +0000] "GET /fonts/font-awesome/font/fontawesome-webfontf77b.html?v=3.2.1 HTTP/1.1" 200 3124 "http://www.looklala.com/" "Mozilla/5.0 (Windows NT 6.1; WOW64; rv:43.0) Gecko/20100101 Firefox/43.0"
14.215.176.15 - - [01/Nov/2018:02:58:26 +0000] "GET /fonts/font-awesome/font/fontawesome-webfontf77b.ttf?v=3.2.1 HTTP/1.1" 200 79076 "http://www.looklala.com/" "Mozilla/5.0 (Windows NT 6.1; WOW64; rv:43.0) Gecko/20100101 Firefox/43.0"
