185.220.101.12 - - [06/Nov/2018:03:26:53 +0000] "GET / HTTP/1.1" 200 114689 "-" "Mozilla/5.0 (Windows NT 10.0; Win64; x64) AppleWebKit/537.36 (KHTML, like Gecko) Chrome/60.0.3112.78 Safari/537.36 OPR/47.0.2631.39"
213.61.215.54 - - [06/Nov/2018:03:40:01 +0000] "GET / HTTP/1.1" 200 114689 "-" "Mozilla/5.0 (Windows NT 10.0; Win64; x64) AppleWebKit/537.36 (KHTML, like Gecko) Chrome/54.0.2840.99 Safari/537.36"
185.220.102.4 - - [06/Nov/2018:04:06:40 +0000] "GET / HTTP/1.1" 200 114689 "-" "Mozilla/5.0 (Windows NT 6.3; Win64; x64) AppleWebKit/537.36 (KHTML, like Gecko) Chrome/57.0.2987.133 Safari/537.36"
97.74.228.245 - - [06/Nov/2018:04:29:26 +0000] "POST /xmlrpc.php HTTP/1.1" 404 2197 "-" "Mozilla/5.0 (Macintosh; U; Intel Mac OS X 10.6; fr; rv:1.9.2.8) Gecko/20100722 Firefox/3.6.8"
81.88.49.28 - - [06/Nov/2018:04:34:40 +0000] "GET /logo_img.php.suspected HTTP/1.1" 404 2232 "http://site.ru" "Mozilla/5.0 (Windows; U; Windows NT 5.1; en-US) AppleWebKit/533.4 (KHTML, like Gecko) Chrome/5.0.375.99 Safari/533.4"
2a02:25a9:0:389e::1 - - [06/Nov/2018:05:11:16 +0000] "GET /wp-content/upgrade/theme-compat/popup-pomo.php HTTP/1.1" 404 2304 "http://site.ru" "Mozilla/5.0 (Windows; U; Windows NT 5.1; en-US) AppleWebKit/533.4 (KHTML, like Gecko) Chrome/5.0.375.99 Safari/533.4"
192.42.116.18 - - [06/Nov/2018:06:02:21 +0000] "GET / HTTP/1.1" 200 114689 "-" "Mozilla/5.0 (Windows NT 6.3; WOW64; rv:50.0) Gecko/20100101 Firefox/50.0"
97.74.228.245 - - [06/Nov/2018:06:39:21 +0000] "POST /xmlrpc.php HTTP/1.1" 404 2197 "-" "Mozilla/5.0 (Macintosh; U; Intel Mac OS X 10.6; fr; rv:1.9.2.8) Gecko/20100722 Firefox/3.6.8"
39.98.54.25 - - [06/Nov/2018:06:52:07 +0000] "GET / HTTP/1.1" 200 114689 "-" "-"
109.70.100.18 - - [06/Nov/2018:07:23:55 +0000] "GET / HTTP/1.1" 200 114689 "-" "Mozilla/5.0 (Windows NT 10.0; Win64; x64) AppleWebKit/537.36 (KHTML, like Gecko) Chrome/54.0.2840.99 Safari/537.36"
185.112.254.195 - - [06/Nov/2018:07:33:02 +0000] "GET / HTTP/1.1" 200 114689 "-" "Mozilla/5.0 (Windows NT 10.0; Win64; x64) AppleWebKit/537.36 (KHTML, like Gecko) Chrome/64.0.3282.140 Safari/537.36 Edge/17.17134"
123.57.254.142 - - [06/Nov/2018:07:37:39 +0000] "POST /xmlrpc.php HTTP/1.1" 404 2197 "-" "Mozilla/5.0 (Macintosh; U; Intel Mac OS X 10.6; fr; rv:1.9.2.8) Gecko/20100722 Firefox/3.6.8"
123.57.254.142 - - [06/Nov/2018:07:37:39 +0000] "POST /xmlrpc.php HTTP/1.1" 404 2197 "-" "Mozilla/5.0 (Macintosh; U; Intel Mac OS X 10.6; fr; rv:1.9.2.8) Gecko/20100722 Firefox/3.6.8"
185.85.190.132 - - [06/Nov/2018:07:44:37 +0000] "GET /wp-login.php HTTP/1.1" 404 2202 "-" "Mozilla/5.0 (Windows NT 10.0; WOW64) AppleWebKit/537.36 (KHTML, like Gecko) Chrome/51.0.2704.103 Safari/537.36"
178.208.83.28 - - [06/Nov/2018:08:05:28 +0000] "GET /user.php HTTP/1.1" 404 2190 "http://site.ru" "Mozilla/5.0 (Windows; U; Windows NT 5.1; en-US) AppleWebKit/533.4 (KHTML, like Gecko) Chrome/5.0.375.99 Safari/533.4"
178.208.83.28 - - [06/Nov/2018:08:05:45 +0000] "GET /user.php HTTP/1.1" 404 2190 "http://site.ru" "Mozilla/5.0 (Windows; U; Windows NT 5.1; en-US) AppleWebKit/533.4 (KHTML, like Gecko) Chrome/5.0.375.99 Safari/533.4"
192.145.239.32 - - [06/Nov/2018:08:15:35 +0000] "GET /htaccess.php HTTP/1.1" 404 2202 "http://site.ru" "Mozilla/5.0 (Windows; U; Windows NT 5.1; en-US) AppleWebKit/533.4 (KHTML, like Gecko) Chrome/5.0.375.99 Safari/533.4"
192.145.239.32 - - [06/Nov/2018:08:15:40 +0000] "GET /htaccess.php HTTP/1.1" 404 2202 "http://site.ru" "Mozilla/5.0 (Windows; U; Windows NT 5.1; en-US) AppleWebKit/533.4 (KHTML, like Gecko) Chrome/5.0.375.99 Safari/533.4"
97.74.228.245 - - [06/Nov/2018:08:50:14 +0000] "POST /xmlrpc.php HTTP/1.1" 404 2197 "-" "Mozilla/5.0 (Macintosh; U; Intel Mac OS X 10.6; fr; rv:1.9.2.8) Gecko/20100722 Firefox/3.6.8"
89.248.169.130 - - [06/Nov/2018:08:54:22 +0000] "POST /xmlrpc.php HTTP/1.1" 404 2197 "-" "Mozilla/5.0 (Macintosh; U; Intel Mac OS X 10.6; fr; rv:1.9.2.8) Gecko/20100722 Firefox/3.6.8"
89.248.169.130 - - [06/Nov/2018:08:54:23 +0000] "POST /xmlrpc.php HTTP/1.1" 404 2197 "-" "Mozilla/5.0 (Macintosh; U; Intel Mac OS X 10.6; fr; rv:1.9.2.8) Gecko/20100722 Firefox/3.6.8"
89.248.169.130 - - [06/Nov/2018:08:54:23 +0000] "POST /xmlrpc.php HTTP/1.1" 404 2197 "-" "Mozilla/5.0 (Macintosh; U; Intel Mac OS X 10.6; fr; rv:1.9.2.8) Gecko/20100722 Firefox/3.6.8"
89.248.169.130 - - [06/Nov/2018:08:54:26 +0000] "POST /xmlrpc.php HTTP/1.1" 404 2197 "-" "Mozilla/5.0 (Macintosh; U; Intel Mac OS X 10.6; fr; rv:1.9.2.8) Gecko/20100722 Firefox/3.6.8"
199.249.223.71 - - [06/Nov/2018:09:35:01 +0000] "GET / HTTP/1.1" 200 114689 "-" "Mozilla/5.0 (Windows NT 6.3; WOW64; rv:54.0) Gecko/20100101 Firefox/54.0"
185.220.101.28 - - [06/Nov/2018:10:20:10 +0000] "GET / HTTP/1.1" 200 114689 "-" "Mozilla/5.0 (Macintosh; Intel Mac OS X 10_11_4) AppleWebKit/601.5.17 (KHTML, like Gecko)"
185.230.127.163 - - [06/Nov/2018:10:36:20 +0000] "GET / HTTP/1.1" 200 114689 "http://radicalbit.com/" "Mozilla/5.0 (Macintosh; Intel Mac OS X 10_24_87) AppleWebKit/532.83.36 (KHTML, like Gecko) Chrome/57.4.9415.4787 Safari/534.53"
185.230.127.163 - - [06/Nov/2018:10:36:21 +0000] "GET /xmlrpc.php HTTP/1.1" 404 2196 "http://radicalbit.com/" "Mozilla/5.0 (Macintosh; Intel Mac OS X 10_24_87) AppleWebKit/532.83.36 (KHTML, like Gecko) Chrome/57.4.9415.4787 Safari/534.53"
185.230.127.163 - - [06/Nov/2018:10:36:21 +0000] "GET /wp-login.php HTTP/1.1" 404 2202 "http://radicalbit.com/" "Mozilla/5.0 (Macintosh; Intel Mac OS X 10_24_87) AppleWebKit/532.83.36 (KHTML, like Gecko) Chrome/57.4.9415.4787 Safari/534.53"
97.74.228.245 - - [06/Nov/2018:11:04:12 +0000] "POST /xmlrpc.php HTTP/1.1" 404 2197 "-" "Mozilla/5.0 (Macintosh; U; Intel Mac OS X 10.6; fr; rv:1.9.2.8) Gecko/20100722 Firefox/3.6.8"
94.23.204.36 - - [06/Nov/2018:13:35:47 +0000] "GET /wp-includes/css/css.php HTTP/1.1" 404 2235 "radicalbit.com" "Mozilla/5.0 (Windows NT 6.1; WOW64) AppleWebKit/537.36 (KHTML, like Gecko) Chrome/50.0.2661.75 Safari/537.36"
97.74.228.245 - - [06/Nov/2018:13:37:08 +0000] "POST /xmlrpc.php HTTP/1.1" 404 2197 "-" "Mozilla/5.0 (Macintosh; U; Intel Mac OS X 10.6; fr; rv:1.9.2.8) Gecko/20100722 Firefox/3.6.8"
178.17.166.146 - - [06/Nov/2018:13:44:41 +0000] "GET / HTTP/1.1" 200 114689 "-" "Mozilla/5.0 (Windows NT 6.3; WOW64; rv:52.0) Gecko/20100101 Firefox/52.0"
185.220.102.6 - - [06/Nov/2018:14:54:20 +0000] "GET / HTTP/1.1" 200 114689 "-" "Mozilla/5.0 (Windows NT 6.2; Win64; x64) AppleWebKit/537.36 (KHTML, like Gecko) Chrome/55.0.2883.87 Safari/537.36"
81.88.49.27 - - [06/Nov/2018:15:02:37 +0000] "GET /wp-blog-mail.php HTTP/1.1" 404 2214 "http://site.ru" "Mozilla/5.0 (Windows; U; Windows NT 5.1; en-US) AppleWebKit/533.4 (KHTML, like Gecko) Chrome/5.0.375.99 Safari/533.4"
81.88.49.43 - - [06/Nov/2018:15:02:38 +0000] "GET /wp-blog-mail.php HTTP/1.1" 404 2214 "http://site.ru" "Mozilla/5.0 (Windows; U; Windows NT 5.1; en-US) AppleWebKit/533.4 (KHTML, like Gecko) Chrome/5.0.375.99 Safari/533.4"
81.88.49.36 - - [06/Nov/2018:15:03:17 +0000] "GET /wp-blog-mail.php HTTP/1.1" 404 2214 "http://site.ru" "Mozilla/5.0 (Windows; U; Windows NT 5.1; en-US) AppleWebKit/533.4 (KHTML, like Gecko) Chrome/5.0.375.99 Safari/533.4"
81.88.49.50 - - [06/Nov/2018:15:03:24 +0000] "GET /wp-blog-mail.php HTTP/1.1" 404 2214 "http://site.ru" "Mozilla/5.0 (Windows; U; Windows NT 5.1; en-US) AppleWebKit/533.4 (KHTML, like Gecko) Chrome/5.0.375.99 Safari/533.4"
178.154.244.10 - - [06/Nov/2018:15:04:48 +0000] "GET /robots.txt HTTP/1.1" 404 2200 "-" "Mozilla/5.0 (compatible; YandexBot/3.0; +http://yandex.com/bots)"
178.154.244.10 - - [06/Nov/2018:15:04:48 +0000] "GET /robots.txt HTTP/1.1" 404 2196 "-" "Mozilla/5.0 (compatible; YandexBot/3.0; +http://yandex.com/bots)"
178.154.244.10 - - [06/Nov/2018:15:04:52 +0000] "GET / HTTP/1.1" 200 114689 "-" "Mozilla/5.0 (compatible; YandexBot/3.0; +http://yandex.com/bots)"
178.154.244.10 - - [06/Nov/2018:15:04:52 +0000] "GET / HTTP/1.1" 200 114689 "-" "Mozilla/5.0 (compatible; YandexBot/3.0; +http://yandex.com/bots)"
2001:41d0:2:4fb8:: - - [06/Nov/2018:15:07:42 +0000] "GET /wp-admin/network/green.php HTTP/1.1" 404 2244 "http://site.ru" "Mozilla/5.0 (Windows; U; Windows NT 5.1; en-US) AppleWebKit/533.4 (KHTML, like Gecko) Chrome/5.0.375.99 Safari/533.4"
198.96.155.3 - - [06/Nov/2018:15:10:29 +0000] "GET / HTTP/1.1" 200 114689 "-" "Mozilla/4.0 (compatible; MSIE 8.0; Windows NT 6.1; Trident/4.0)"
209.205.206.58 - - [06/Nov/2018:15:40:20 +0000] "GET /wp-caches.php HTTP/1.1" 404 2205 "http://site.ru" "Mozilla/5.0 (Windows; U; Windows NT 5.1; en-US) AppleWebKit/533.4 (KHTML, like Gecko) Chrome/5.0.375.99 Safari/533.4"
192.185.4.92 - - [06/Nov/2018:15:43:48 +0000] "GET /wp-logout.php HTTP/1.1" 404 2205 "http://site.ru" "Mozilla/5.0 (Windows; U; Windows NT 5.1; en-US) AppleWebKit/533.4 (KHTML, like Gecko) Chrome/5.0.375.99 Safari/533.4"
2001:41d0:1008:140c:: - - [06/Nov/2018:15:47:32 +0000] "GET /wp-content/plugins/ajax-user/zz.php.pjpeg HTTP/1.1" 404 2289 "http://site.ru" "Mozilla/5.0 (Windows; U; Windows NT 5.1; en-US) AppleWebKit/533.4 (KHTML, like Gecko) Chrome/5.0.375.99 Safari/533.4"
2001:41d0:1008:140c:: - - [06/Nov/2018:15:47:35 +0000] "GET /wp-content/plugins/ajax-user/zz.php.pjpeg HTTP/1.1" 404 2289 "http://site.ru" "Mozilla/5.0 (Windows; U; Windows NT 5.1; en-US) AppleWebKit/533.4 (KHTML, like Gecko) Chrome/5.0.375.99 Safari/533.4"
97.74.228.245 - - [06/Nov/2018:15:51:36 +0000] "POST /xmlrpc.php HTTP/1.1" 404 2197 "-" "Mozilla/5.0 (Macintosh; U; Intel Mac OS X 10.6; fr; rv:1.9.2.8) Gecko/20100722 Firefox/3.6.8"
66.70.174.44 - - [06/Nov/2018:16:01:52 +0000] "GET / HTTP/1.1" 200 114689 "-" "Mozilla/5.0 (compatible; MSIE 9.0; Windows NT 6.0; Trident/5.0)"
138.197.15.6 - - [06/Nov/2018:16:07:01 +0000] "GET /wp-backup.php HTTP/1.1" 404 2205 "http://site.ru" "Mozilla/5.0 (Windows; U; Windows NT 5.1; en-US) AppleWebKit/533.4 (KHTML, like Gecko) Chrome/5.0.375.99 Safari/533.4"
185.220.101.32 - - [06/Nov/2018:16:11:41 +0000] "GET / HTTP/1.1" 200 114689 "-" "Mozilla/5.0 (Macintosh; Intel Mac OS X 10_12_6) AppleWebKit/537.36 (KHTML, like Gecko) Chrome/61.0.3163.100 Safari/537.36"
62.210.105.116 - - [06/Nov/2018:16:18:37 +0000] "GET / HTTP/1.1" 200 114689 "-" "Mozilla/5.0 (Windows NT 6.1; Win64; x64) AppleWebKit/537.36 (KHTML, like Gecko) Chrome/60.0.3112.90 Safari/537.36"
89.248.162.130 - - [06/Nov/2018:16:27:53 +0000] "GET / HTTP/1.1" 200 114689 "-" "Mozilla/5.0 (Windows NT 6.3; WOW64; rv:52.0) Gecko/20100101 Firefox/52.0"
190.2.148.176 - - [06/Nov/2018:16:28:41 +0000] "GET / HTTP/1.1" 200 114689 "-" "Mozilla/5.0 (Windows NT 5.1) AppleWebKit/537.36 (KHTML, like Gecko) Chrome/27.0.1453.94 Safari/537.36"
165.225.170.35 - - [06/Nov/2018:16:38:42 +0000] "GET /?author=1 HTTP/1.1" 200 114689 "-" "Mozilla/5.0 (Windows NT 10.0; Win64; x64) AppleWebKit/537.36 (KHTML, like Gecko) Chrome/61.0.3163.100 Safari/537.36"
165.225.170.35 - - [06/Nov/2018:16:38:42 +0000] "GET /wp-json/wp/v2/users/ HTTP/1.1" 404 2226 "-" "Mozilla/5.0 (Windows NT 10.0; Win64; x64) AppleWebKit/537.36 (KHTML, like Gecko) Chrome/61.0.3163.100 Safari/537.36"
165.225.170.35 - - [06/Nov/2018:16:38:43 +0000] "POST /xmlrpc.php HTTP/1.1" 404 2197 "-" "Mozilla/5.0 (Windows NT 10.0; Win64; x64) AppleWebKit/537.36 (KHTML, like Gecko) Chrome/61.0.3163.100 Safari/537.36"
165.225.170.35 - - [06/Nov/2018:16:38:43 +0000] "POST /xmlrpc.php HTTP/1.1" 404 2197 "-" "Mozilla/5.0 (Windows NT 10.0; Win64; x64) AppleWebKit/537.36 (KHTML, like Gecko) Chrome/61.0.3163.100 Safari/537.36"
195.176.3.24 - - [06/Nov/2018:16:39:22 +0000] "GET / HTTP/1.1" 200 114689 "-" "Mozilla/4.0 (compatible; MSIE 9.0; Windows NT 6.1)"
171.25.193.235 - - [06/Nov/2018:16:46:42 +0000] "GET / HTTP/1.1" 200 114689 "-" "Mozilla/5.0 (X11; Linux x86_64) AppleWebKit/537.36 (KHTML, like Gecko) Chrome/42.0.2311.135 Safari/537.36"
2001:41d0:a:58b3:: - - [06/Nov/2018:17:19:33 +0000] "GET /wp-admin/network/green.php HTTP/1.1" 404 2244 "http://site.ru" "Mozilla/5.0 (Windows; U; Windows NT 5.1; en-US) AppleWebKit/533.4 (KHTML, like Gecko) Chrome/5.0.375.99 Safari/533.4"
2001:41d0:a:58b3:: - - [06/Nov/2018:17:19:37 +0000] "GET /wp-admin/network/green.php HTTP/1.1" 404 2244 "http://site.ru" "Mozilla/5.0 (Windows; U; Windows NT 5.1; en-US) AppleWebKit/533.4 (KHTML, like Gecko) Chrome/5.0.375.99 Safari/533.4"
2001:41d0:a:58b3:: - - [06/Nov/2018:17:19:38 +0000] "GET /wp-admin/network/green.php HTTP/1.1" 404 2244 "http://site.ru" "Mozilla/5.0 (Windows; U; Windows NT 5.1; en-US) AppleWebKit/533.4 (KHTML, like Gecko) Chrome/5.0.375.99 Safari/533.4"
54.36.150.80 - - [06/Nov/2018:17:41:21 +0000] "GET /robots.txt HTTP/1.1" 404 2200 "-" "Mozilla/5.0 (compatible; AhrefsBot/5.2; +http://ahrefs.com/robot/)"
54.36.148.102 - - [06/Nov/2018:17:41:22 +0000] "GET / HTTP/1.1" 200 114689 "-" "Mozilla/5.0 (compatible; AhrefsBot/5.2; +http://ahrefs.com/robot/)"
95.128.43.164 - - [06/Nov/2018:17:46:38 +0000] "GET / HTTP/1.1" 200 114689 "-" "Mozilla/5.0 (Windows NT 6.1; WOW64; rv:41.0) Gecko/20100101 Firefox/41.0"
78.142.19.43 - - [06/Nov/2018:17:46:45 +0000] "GET / HTTP/1.1" 200 114689 "-" "Mozilla/5.0 (Windows NT 10.0; Win64; x64; rv:57.0) Gecko/20100101 Firefox/57.0"
144.217.60.211 - - [06/Nov/2018:18:05:51 +0000] "GET / HTTP/1.1" 200 114689 "-" "Mozilla/5.0 (Windows NT 6.1; WOW64; rv:46.0) Gecko/20100101 Firefox/46.0"
185.220.102.7 - - [06/Nov/2018:18:12:21 +0000] "GET / HTTP/1.1" 200 114689 "-" "Mozilla/5.0 (Macintosh; Intel Mac OS X 10_10_5) AppleWebKit/603.3.8 (KHTML, like Gecko) Version/10.1.2 Safari/603.3.8"
89.248.169.130 - - [06/Nov/2018:18:19:37 +0000] "POST /xmlrpc.php HTTP/1.1" 404 2197 "-" "Mozilla/5.0 (Macintosh; U; Intel Mac OS X 10.6; fr; rv:1.9.2.8) Gecko/20100722 Firefox/3.6.8"
89.248.169.130 - - [06/Nov/2018:18:19:37 +0000] "POST /xmlrpc.php HTTP/1.1" 404 2197 "-" "Mozilla/5.0 (Macintosh; U; Intel Mac OS X 10.6; fr; rv:1.9.2.8) Gecko/20100722 Firefox/3.6.8"
89.248.169.130 - - [06/Nov/2018:18:19:37 +0000] "POST /xmlrpc.php HTTP/1.1" 404 2197 "-" "Mozilla/5.0 (Macintosh; U; Intel Mac OS X 10.6; fr; rv:1.9.2.8) Gecko/20100722 Firefox/3.6.8"
89.248.169.130 - - [06/Nov/2018:18:19:37 +0000] "POST /xmlrpc.php HTTP/1.1" 404 2197 "-" "Mozilla/5.0 (Macintosh; U; Intel Mac OS X 10.6; fr; rv:1.9.2.8) Gecko/20100722 Firefox/3.6.8"
213.251.182.105 - - [06/Nov/2018:18:45:06 +0000] "GET /wp-system.php HTTP/1.1" 404 2205 "http://site.ru" "Mozilla/5.0 (Windows; U; Windows NT 5.1; en-US) AppleWebKit/533.4 (KHTML, like Gecko) Chrome/5.0.375.99 Safari/533.4"
213.251.182.105 - - [06/Nov/2018:18:45:19 +0000] "GET /wp-system.php HTTP/1.1" 404 2205 "http://site.ru" "Mozilla/5.0 (Windows; U; Windows NT 5.1; en-US) AppleWebKit/533.4 (KHTML, like Gecko) Chrome/5.0.375.99 Safari/533.4"
65.19.167.132 - - [06/Nov/2018:18:54:10 +0000] "GET / HTTP/1.1" 200 114689 "-" "Mozilla/5.0 (Windows NT 6.1; WOW64) AppleWebKit/537.36 (KHTML, like Gecko) Chrome/51.0.2704.106 Safari/537.36"
51.15.88.249 - - [06/Nov/2018:18:58:02 +0000] "GET / HTTP/1.1" 200 114689 "-" "Mozilla/5.0 (Windows NT 6.3; Win64; x64) AppleWebKit/537.36 (KHTML, like Gecko) Chrome/51.0.2704.79 Safari/537.36 Edge/14.14393"
185.117.118.148 - - [06/Nov/2018:18:59:41 +0000] "HEAD / HTTP/1.1" 200 0 "-" "Mozilla/5.0 (compatible; Uptimebot/1.0; +http://www.uptime.com/uptimebot)"
2001:41d0:52:bff::68e - - [06/Nov/2018:19:01:56 +0000] "GET /wp-includes/admin_login.php HTTP/1.1" 404 2247 "http://site.ru" "Mozilla/5.0 (Windows; U; Windows NT 5.1; en-US) AppleWebKit/533.4 (KHTML, like Gecko) Chrome/5.0.375.99 Safari/533.4"
2001:41d0:52:bff::68e - - [06/Nov/2018:19:02:00 +0000] "GET /wp-includes/admin_login.php HTTP/1.1" 404 2247 "http://site.ru" "Mozilla/5.0 (Windows; U; Windows NT 5.1; en-US) AppleWebKit/533.4 (KHTML, like Gecko) Chrome/5.0.375.99 Safari/533.4"
185.100.87.207 - - [06/Nov/2018:19:04:54 +0000] "GET / HTTP/1.1" 200 114689 "-" "Mozilla/5.0 (Windows NT 10.0; Win64; x64) AppleWebKit/537.36 (KHTML, like Gecko) Chrome/59.0.3071.115 Safari/537.36"
190.2.148.176 - - [06/Nov/2018:19:09:21 +0000] "GET / HTTP/1.1" 200 114689 "-" "Mozilla/5.0 (Windows NT 5.1) AppleWebKit/537.36 (KHTML, like Gecko) Chrome/27.0.1453.94 Safari/537.36"
54.36.150.80 - - [06/Nov/2018:19:24:15 +0000] "GET /robots.txt HTTP/1.1" 404 2196 "-" "Mozilla/5.0 (compatible; AhrefsBot/5.2; +http://ahrefs.com/robot/)"
54.36.148.179 - - [06/Nov/2018:19:24:16 +0000] "GET /vrouwen-kapsels-in-4-stappen/ HTTP/1.1" 404 2253 "-" "Mozilla/5.0 (compatible; AhrefsBot/5.2; +http://ahrefs.com/robot/)"
80.90.55.173 - - [06/Nov/2018:19:38:12 +0000] "HEAD / HTTP/1.1" 200 0 "-" "Mozilla/5.0 (compatible; Uptimebot/1.0; +http://www.uptime.com/uptimebot)"
217.182.244.60 - - [06/Nov/2018:19:49:49 +0000] "GET / HTTP/1.1" 200 114689 "-" "Mozilla/5.0 (X11; Ubuntu; Linux x86_64; rv:15.0) Gecko/20100101 Firefox/15.0"
168.1.85.136 - - [06/Nov/2018:20:09:20 +0000] "GET /wp-admin/logo_img.php HTTP/1.1" 404 2229 "http://site.ru" "Mozilla/5.0 (Windows; U; Windows NT 5.1; en-US) AppleWebKit/533.4 (KHTML, like Gecko) Chrome/5.0.375.99 Safari/533.4"
168.1.85.136 - - [06/Nov/2018:20:09:30 +0000] "GET /wp-admin/logo_img.php HTTP/1.1" 404 2229 "http://site.ru" "Mozilla/5.0 (Windows; U; Windows NT 5.1; en-US) AppleWebKit/533.4 (KHTML, like Gecko) Chrome/5.0.375.99 Safari/533.4"
104.244.76.13 - - [06/Nov/2018:20:19:10 +0000] "GET / HTTP/1.1" 200 114689 "-" "Mozilla/5.0 (Windows NT 6.1; WOW64) AppleWebKit/537.36 (KHTML, like Gecko) Chrome/52.0.2743.116 Safari/537.36"
185.86.164.106 - - [06/Nov/2018:20:30:52 +0000] "GET /wp-login.php HTTP/1.1" 404 2202 "-" "Mozilla/5.0 (Windows NT 10.0; WOW64) AppleWebKit/537.36 (KHTML, like Gecko) Chrome/51.0.2704.103 Safari/537.36"
185.85.239.195 - - [06/Nov/2018:20:31:02 +0000] "GET /wp-login.php HTTP/1.1" 404 2202 "-" "Mozilla/5.0 (Windows NT 10.0; WOW64) AppleWebKit/537.36 (KHTML, like Gecko) Chrome/51.0.2704.103 Safari/537.36"
163.172.151.47 - - [06/Nov/2018:20:45:16 +0000] "GET / HTTP/1.1" 200 114689 "-" "Mozilla/5.0 (Windows NT 10.0; Win64; x64) AppleWebKit/537.36 (KHTML, like Gecko) Chrome/61.0.3163.100 Safari/537.36"
51.38.162.232 - - [06/Nov/2018:20:59:10 +0000] "GET / HTTP/1.1" 200 114689 "-" "Mozilla/5.0 (Windows NT 10.0; WOW64; rv:59.0) Gecko/20100101 Firefox/59.0"
5.45.65.152 - - [06/Nov/2018:21:02:35 +0000] "GET //installer-backup.php HTTP/1.1" 404 2226 "-" "Mozilla/5.0 (Windows; U; Windows NT 5.1; en-US; rv:1.9.1.6) Gecko/20091201 Firefox/3.5.6 (.NET CLR 2.0.50727; .NET CLR 3.0.4506.2152; .NET CLR 3.5.30729)"
198.72.115.137 - - [06/Nov/2018:21:16:14 +0000] "GET /rois.php HTTP/1.1" 404 2190 "http://site.ru" "Mozilla/5.0 (Windows; U; Windows NT 5.1; en-US) AppleWebKit/533.4 (KHTML, like Gecko) Chrome/5.0.375.99 Safari/533.4"
198.72.115.137 - - [06/Nov/2018:21:16:20 +0000] "GET /rois.php HTTP/1.1" 404 2190 "http://site.ru" "Mozilla/5.0 (Windows; U; Windows NT 5.1; en-US) AppleWebKit/533.4 (KHTML, like Gecko) Chrome/5.0.375.99 Safari/533.4"
193.201.225.45 - - [06/Nov/2018:21:25:40 +0000] "GET / HTTP/1.1" 200 114689 "-" "Mozilla/5.0 (Windows NT 6.1; WOW64) AppleWebKit/537.36 (KHTML, like Gecko) Chrome/52.0.2743.116 Safari/537.36"
199.249.223.76 - - [06/Nov/2018:21:37:47 +0000] "GET / HTTP/1.1" 200 114689 "-" "Mozilla/5.0 (Windows NT 6.1; WOW64; rv:41.0) Gecko/20100101 Firefox/41.0"
176.10.99.200 - - [06/Nov/2018:22:00:53 +0000] "GET / HTTP/1.1" 200 114689 "-" "Mozilla/5.0 (Windows NT 10.0; Win64; x64) AppleWebKit/537.36 (KHTML, like Gecko) Chrome/61.0.3163.79 Safari/537.36"
66.70.174.12 - - [06/Nov/2018:22:15:19 +0000] "GET / HTTP/1.1" 200 114689 "-" "Mozilla/5.0 (Windows NT 6.1; WOW64; rv:52.0) Gecko/20100101 Firefox/52.0"
123.57.254.142 - - [06/Nov/2018:22:35:40 +0000] "POST /xmlrpc.php HTTP/1.1" 404 2197 "-" "Mozilla/5.0 (Macintosh; U; Intel Mac OS X 10.6; fr; rv:1.9.2.8) Gecko/20100722 Firefox/3.6.8"
123.57.254.142 - - [06/Nov/2018:22:35:40 +0000] "POST /xmlrpc.php HTTP/1.1" 404 2197 "-" "Mozilla/5.0 (Macintosh; U; Intel Mac OS X 10.6; fr; rv:1.9.2.8) Gecko/20100722 Firefox/3.6.8"
193.201.224.210 - - [06/Nov/2018:22:38:50 +0000] "GET /?gf_page=upload HTTP/1.1" 200 114689 "http://radicalbit.com/?gf_page=upload" "Mozilla/5.0 (Windows NT 6.1; WOW64) AppleWebKit/537.36 (KHTML, like Gecko) Chrome/42.0.2311.152 Safari/537.36"
108.167.146.14 - - [06/Nov/2018:22:53:10 +0000] "GET /wp-admin/includes/images.php HTTP/1.1" 404 2250 "http://site.ru" "Mozilla/5.0 (Windows; U; Windows NT 5.1; en-US) AppleWebKit/533.4 (KHTML, like Gecko) Chrome/5.0.375.99 Safari/533.4"
72.52.140.80 - - [06/Nov/2018:22:55:12 +0000] "GET /wp-system.php HTTP/1.1" 404 2205 "http://site.ru" "Mozilla/5.0 (Windows; U; Windows NT 5.1; en-US) AppleWebKit/533.4 (KHTML, like Gecko) Chrome/5.0.375.99 Safari/533.4"
72.52.140.80 - - [06/Nov/2018:22:55:15 +0000] "GET /wp-system.php HTTP/1.1" 404 2205 "http://site.ru" "Mozilla/5.0 (Windows; U; Windows NT 5.1; en-US) AppleWebKit/533.4 (KHTML, like Gecko) Chrome/5.0.375.99 Safari/533.4"
62.210.129.246 - - [06/Nov/2018:23:07:47 +0000] "GET / HTTP/1.1" 200 114689 "-" "Mozilla/5.0 (Windows NT 6.1; WOW64) AppleWebKit/537.36 (KHTML, like Gecko) Chrome/46.0.2490.80 Safari/537.36"
185.165.168.229 - - [06/Nov/2018:23:31:05 +0000] "GET / HTTP/1.1" 200 114689 "-" "Mozilla/5.0 (Windows NT 10.0; WOW64) AppleWebKit/537.36 (KHTML, like Gecko) Chrome/56.0.2924.87 Safari/537.36 OPR/43.0.2442.991"
185.220.102.6 - - [06/Nov/2018:23:43:47 +0000] "GET / HTTP/1.1" 200 114689 "-" "Mozilla/5.0 (Windows NT 6.1; WOW64) AppleWebKit/537.36 (KHTML, like Gecko) Chrome/56.0.2924.87 Safari/537.36 OPR/43.0.2442.991"
107.6.150.246 - - [07/Nov/2018:00:02:22 +0000] "GET / HTTP/1.1" 200 114689 "-" "Mozilla/5.0 (Windows NT 10.0; WOW64) AppleWebKit/537.36 (KHTML, like Gecko) Chrome/66.0.3359.117 Safari/537.36"
23.129.64.105 - - [07/Nov/2018:00:18:45 +0000] "GET / HTTP/1.1" 200 114689 "-" "Mozilla/5.0 (Unknown; Linux) AppleWebKit/538.1 (KHTML, like Gecko) Chrome/v1.0.0 Safari/538.1"
46.105.52.65 - - [07/Nov/2018:00:34:05 +0000] "GET / HTTP/1.1" 200 114689 "-" "Mozilla/5.0 (Windows NT 6.1; Trident/7.0; rv:11.0) like Gecko"
34.216.117.229 - - [07/Nov/2018:00:47:47 +0000] "GET / HTTP/1.1" 200 114689 "-" "Mozilla/5.0 (Macintosh; Intel Mac OS X 10_10_3) AppleWebKit/537.36 (KHTML, like Gecko) Chrome/44.0.2403.89 Safari/537.36"
185.220.100.252 - - [07/Nov/2018:01:04:17 +0000] "GET / HTTP/1.1" 200 114689 "-" "Mozilla/5.0 (Windows NT 10.0; WOW64) AppleWebKit/537.36 (KHTML, like Gecko) Chrome/52.0.2743.116 Safari/537.36"
185.220.101.29 - - [07/Nov/2018:01:12:23 +0000] "GET / HTTP/1.1" 200 114689 "-" "Mozilla/5.0 (Windows NT 10.0; WOW64; rv:48.0) Gecko/20100101 Firefox/48.0"
199.249.230.71 - - [07/Nov/2018:01:23:34 +0000] "GET / HTTP/1.1" 200 114689 "-" "Mozilla/5.0 (Windows NT 6.0; Win64; x64) AppleWebKit/537.36 (KHTML, like Gecko) Chrome/60.0.3112.90 Safari/537.36"
193.169.252.187 - - [07/Nov/2018:01:58:03 +0000] "GET /wp-login.php HTTP/1.1" 404 2202 "http://radicalbit.com/wp-login.php" "Mozilla/4.0 (compatible; MSIE 9.0; Windows NT 6.1; 125LA; .NET CLR 2.0.50727; .NET CLR 3.0.04506.648; .NET CLR 3.5.21022)"
193.169.252.187 - - [07/Nov/2018:01:58:03 +0000] "GET /wp-login.php HTTP/1.1" 404 2202 "http://radicalbit.com/wp-login.php" "Mozilla/4.0 (compatible; MSIE 9.0; Windows NT 6.1; 125LA; .NET CLR 2.0.50727; .NET CLR 3.0.04506.648; .NET CLR 3.5.21022)"
