31.170.123.73 - - [03/Nov/2018:03:32:03 +0000] "POST /wp-cron.php?doing_wp_cron=1541215923.2039239406585693359375 HTTP/1.0" 200 - "-" "WordPress/4.3.17; http://www.ikbensterdam.com"
119.28.213.22 - - [03/Nov/2018:03:32:02 +0000] "POST /wp-login.php HTTP/1.0" 200 8073 "-" "Opera/9.80 (Windows NT 6.0) Presto/2.12.388 Version/12.14"
31.170.123.73 - - [03/Nov/2018:04:15:26 +0000] "POST /wp-cron.php?doing_wp_cron=1541218526.6626999378204345703125 HTTP/1.0" 200 - "-" "WordPress/4.3.17; http://www.ikbensterdam.com"
52.53.201.78 - - [03/Nov/2018:04:15:26 +0000] "GET / HTTP/1.0" 200 48668 "-" "Mozilla/5.0 (Macintosh; Intel Mac OS X 10_12_6) AppleWebKit/537.36 (KHTML, like Gecko) Chrome/61.0.3163.100 Safari/537.36"
31.170.123.73 - - [03/Nov/2018:04:37:19 +0000] "POST /wp-cron.php?doing_wp_cron=1541219839.8916718959808349609375 HTTP/1.0" 200 - "-" "WordPress/4.3.17; http://www.ikbensterdam.com"
34.219.1.100 - - [03/Nov/2018:04:37:19 +0000] "GET /wp-login.php HTTP/1.0" 200 7079 "https://www.google.com/url?48c1bb7daf35faf37570d1bad88963f8" "Mozilla/5.0 (Windows NT 6.2; rv:36.0) Gecko/20100101 Firefox/36.0"
34.219.1.100 - - [03/Nov/2018:04:37:22 +0000] "POST /wp-login.php HTTP/1.0" 200 8073 "https://www.google.com/url?48c1bb7daf35faf37570d1bad88963f8" "Mozilla/5.0 (Windows NT 6.2; rv:36.0) Gecko/20100101 Firefox/36.0"
97.74.228.245 - - [03/Nov/2018:04:42:27 +0000] "POST /xmlrpc.php HTTP/1.0" 200 403 "-" "Mozilla/5.0 (Macintosh; U; Intel Mac OS X 10.6; fr; rv:1.9.2.8) Gecko/20100722 Firefox/3.6.8"
89.248.169.130 - - [03/Nov/2018:05:28:43 +0000] "POST /xmlrpc.php HTTP/1.0" 200 403 "-" "Mozilla/5.0 (Macintosh; U; Intel Mac OS X 10.6; fr; rv:1.9.2.8) Gecko/20100722 Firefox/3.6.8"
89.248.169.130 - - [03/Nov/2018:05:28:43 +0000] "POST /xmlrpc.php HTTP/1.0" 200 403 "-" "Mozilla/5.0 (Macintosh; U; Intel Mac OS X 10.6; fr; rv:1.9.2.8) Gecko/20100722 Firefox/3.6.8"
31.170.123.73 - - [03/Nov/2018:05:28:44 +0000] "POST /wp-cron.php?doing_wp_cron=1541222924.2056560516357421875000 HTTP/1.0" 200 - "-" "WordPress/4.3.17; http://www.ikbensterdam.com"
89.248.169.130 - - [03/Nov/2018:05:28:43 +0000] "POST /xmlrpc.php HTTP/1.0" 200 403 "-" "Mozilla/5.0 (Macintosh; U; Intel Mac OS X 10.6; fr; rv:1.9.2.8) Gecko/20100722 Firefox/3.6.8"
123.57.254.142 - - [03/Nov/2018:06:08:48 +0000] "POST /xmlrpc.php HTTP/1.0" 200 403 "-" "Mozilla/5.0 (Macintosh; U; Intel Mac OS X 10.6; fr; rv:1.9.2.8) Gecko/20100722 Firefox/3.6.8"
31.170.123.73 - - [03/Nov/2018:06:08:49 +0000] "POST /wp-cron.php?doing_wp_cron=1541225328.9671349525451660156250 HTTP/1.0" 200 - "-" "WordPress/4.3.17; http://www.ikbensterdam.com"
123.57.254.142 - - [03/Nov/2018:06:08:48 +0000] "POST /xmlrpc.php HTTP/1.0" 200 403 "-" "Mozilla/5.0 (Macintosh; U; Intel Mac OS X 10.6; fr; rv:1.9.2.8) Gecko/20100722 Firefox/3.6.8"
31.170.123.73 - - [03/Nov/2018:06:54:01 +0000] "POST /wp-cron.php?doing_wp_cron=1541228041.0954151153564453125000 HTTP/1.0" 200 - "-" "WordPress/4.3.17; http://www.ikbensterdam.com"
97.74.228.245 - - [03/Nov/2018:06:54:00 +0000] "POST /xmlrpc.php HTTP/1.0" 200 403 "-" "Mozilla/5.0 (Macintosh; U; Intel Mac OS X 10.6; fr; rv:1.9.2.8) Gecko/20100722 Firefox/3.6.8"
89.40.124.123 - - [03/Nov/2018:07:53:06 +0000] "GET /user/register/ HTTP/1.0" 301 - "-" "Mozilla/5.0 (Windows; U; Windows NT 5.1; de; rv:1.9) Gecko/2008052906 Firefox/3.0"
31.170.123.73 - - [03/Nov/2018:07:53:06 +0000] "POST /wp-cron.php?doing_wp_cron=1541231586.7749979496002197265625 HTTP/1.0" 200 - "-" "WordPress/4.3.17; http://www.ikbensterdam.com"
95.39.26.205 - - [03/Nov/2018:08:15:24 +0000] "GET /wp-content/wp-caches.php HTTP/1.0" 301 - "http://site.ru" "Mozilla/5.0 (Windows; U; Windows NT 5.1; en-US) AppleWebKit/533.4 (KHTML, like Gecko) Chrome/5.0.375.99 Safari/533.4"
192.95.30.29 - - [03/Nov/2018:08:22:47 +0000] "GET /tbl_status.php HTTP/1.0" 301 - "-" "Mozilla/5.0 (Windows NT 6.1; Trident/7.0; rv:11.0) like Gecko"
192.95.30.29 - - [03/Nov/2018:08:22:48 +0000] "GET /tbl_status.php HTTP/1.0" 404 35181 "-" "Mozilla/5.0 (Windows NT 6.1; Trident/7.0; rv:11.0) like Gecko"
180.76.15.138 - - [03/Nov/2018:08:44:11 +0000] "GET /events/?ical=1 HTTP/1.0" 200 230 "-" "Mozilla/5.0 (compatible; Baiduspider/2.0; +http://www.baidu.com/search/spider.html)"
31.170.123.73 - - [03/Nov/2018:09:09:06 +0000] "POST /wp-cron.php?doing_wp_cron=1541236146.0226299762725830078125 HTTP/1.0" 200 - "-" "WordPress/4.3.17; http://www.ikbensterdam.com"
97.74.228.245 - - [03/Nov/2018:09:09:05 +0000] "POST /xmlrpc.php HTTP/1.0" 200 403 "-" "Mozilla/5.0 (Macintosh; U; Intel Mac OS X 10.6; fr; rv:1.9.2.8) Gecko/20100722 Firefox/3.6.8"
180.76.15.154 - - [03/Nov/2018:09:17:31 +0000] "GET /wp-content/themes/lms/framework/js/public/ajax-courses.js HTTP/1.0" 200 8855 "-" "Mozilla/5.0 (compatible; Baiduspider/2.0; +http://www.baidu.com/search/spider.html)"
138.97.93.181 - - [03/Nov/2018:09:43:35 +0000] "POST /wp-login.php HTTP/1.0" 200 8073 "-" "Opera/9.80 (Windows NT 6.0) Presto/2.12.388 Version/12.14"
180.76.15.135 - - [03/Nov/2018:09:50:51 +0000] "GET /wp-content/plugins/designthemes-core-features/shortcodes/css/animations.css?ver=4.3.17 HTTP/1.0" 200 79850 "-" "Mozilla/5.0 (compatible; Baiduspider/2.0; +http://www.baidu.com/search/spider.html)"
31.170.123.73 - - [03/Nov/2018:09:56:05 +0000] "POST /wp-cron.php?doing_wp_cron=1541238965.3044819831848144531250 HTTP/1.0" 200 - "-" "WordPress/4.3.17; http://www.ikbensterdam.com"
50.62.161.185 - - [03/Nov/2018:09:56:04 +0000] "GET /wp-content/plugins/Aviliate/user.php HTTP/1.0" 301 - "http://site.ru" "Mozilla/5.0 (Windows; U; Windows NT 5.1; en-US) AppleWebKit/533.4 (KHTML, like Gecko) Chrome/5.0.375.99 Safari/533.4"
50.62.161.185 - - [03/Nov/2018:09:56:07 +0000] "GET /wp-content/plugins/Aviliate/user.php HTTP/1.0" 404 35281 "http://site.ru" "Mozilla/5.0 (Windows; U; Windows NT 5.1; en-US) AppleWebKit/533.4 (KHTML, like Gecko) Chrome/5.0.375.99 Safari/533.4"
50.62.161.185 - - [03/Nov/2018:09:56:09 +0000] "GET /wp-content/plugins/Aviliate/user.php HTTP/1.0" 301 - "http://site.ru" "Mozilla/5.0 (Windows; U; Windows NT 5.1; en-US) AppleWebKit/533.4 (KHTML, like Gecko) Chrome/5.0.375.99 Safari/533.4"
50.62.161.185 - - [03/Nov/2018:09:56:11 +0000] "GET /wp-content/plugins/Aviliate/user.php HTTP/1.0" 404 35281 "http://site.ru" "Mozilla/5.0 (Windows; U; Windows NT 5.1; en-US) AppleWebKit/533.4 (KHTML, like Gecko) Chrome/5.0.375.99 Safari/533.4"
93.125.99.67 - - [03/Nov/2018:09:57:14 +0000] "GET /sec.php HTTP/1.0" 301 - "http://site.ru" "Mozilla/5.0 (Windows; U; Windows NT 5.1; en-US) AppleWebKit/533.4 (KHTML, like Gecko) Chrome/5.0.375.99 Safari/533.4"
93.125.99.67 - - [03/Nov/2018:09:57:16 +0000] "GET /sec.php HTTP/1.0" 404 35153 "http://site.ru" "Mozilla/5.0 (Windows; U; Windows NT 5.1; en-US) AppleWebKit/533.4 (KHTML, like Gecko) Chrome/5.0.375.99 Safari/533.4"
142.44.161.103 - - [03/Nov/2018:10:08:22 +0000] "GET /wp-admin/wp-caches.php HTTP/1.0" 301 - "http://site.ru" "Mozilla/5.0 (Windows; U; Windows NT 5.1; en-US) AppleWebKit/533.4 (KHTML, like Gecko) Chrome/5.0.375.99 Safari/533.4"
31.170.123.73 - - [03/Nov/2018:10:18:35 +0000] "POST /wp-cron.php?doing_wp_cron=1541240315.5163280963897705078125 HTTP/1.0" 200 - "-" "WordPress/4.3.17; http://www.ikbensterdam.com"
54.188.237.192 - - [03/Nov/2018:10:18:34 +0000] "GET /wp-login.php HTTP/1.0" 200 7079 "https://www.google.com/url?48c1bb7daf35faf37570d1bad88963f8" "Mozilla/5.0 (Windows NT 6.0; WOW64; rv:29.0) Gecko/20120101 Firefox/29.0"
54.188.237.192 - - [03/Nov/2018:10:18:37 +0000] "POST /wp-login.php HTTP/1.0" 200 8073 "https://www.google.com/url?48c1bb7daf35faf37570d1bad88963f8" "Mozilla/5.0 (Windows NT 6.0; WOW64; rv:29.0) Gecko/20120101 Firefox/29.0"
31.170.123.73 - - [03/Nov/2018:11:22:32 +0000] "POST /wp-cron.php?doing_wp_cron=1541244152.2873299121856689453125 HTTP/1.0" 200 - "-" "WordPress/4.3.17; http://www.ikbensterdam.com"
97.74.228.245 - - [03/Nov/2018:11:22:31 +0000] "POST /xmlrpc.php HTTP/1.0" 200 403 "-" "Mozilla/5.0 (Macintosh; U; Intel Mac OS X 10.6; fr; rv:1.9.2.8) Gecko/20100722 Firefox/3.6.8"
31.170.123.73 - - [03/Nov/2018:13:45:43 +0000] "POST /wp-cron.php?doing_wp_cron=1541252743.3124220371246337890625 HTTP/1.0" 200 - "-" "WordPress/4.3.17; http://www.ikbensterdam.com"
97.74.228.245 - - [03/Nov/2018:13:45:42 +0000] "POST /xmlrpc.php HTTP/1.0" 200 403 "-" "Mozilla/5.0 (Macintosh; U; Intel Mac OS X 10.6; fr; rv:1.9.2.8) Gecko/20100722 Firefox/3.6.8"
89.248.169.130 - - [03/Nov/2018:13:59:20 +0000] "POST /xmlrpc.php HTTP/1.0" 200 403 "-" "Mozilla/5.0 (Macintosh; U; Intel Mac OS X 10.6; fr; rv:1.9.2.8) Gecko/20100722 Firefox/3.6.8"
89.248.169.130 - - [03/Nov/2018:13:59:20 +0000] "POST /xmlrpc.php HTTP/1.0" 200 403 "-" "Mozilla/5.0 (Macintosh; U; Intel Mac OS X 10.6; fr; rv:1.9.2.8) Gecko/20100722 Firefox/3.6.8"
31.170.123.73 - - [03/Nov/2018:13:59:21 +0000] "POST /wp-cron.php?doing_wp_cron=1541253561.1791141033172607421875 HTTP/1.0" 200 - "-" "WordPress/4.3.17; http://www.ikbensterdam.com"
89.248.169.130 - - [03/Nov/2018:13:59:20 +0000] "POST /xmlrpc.php HTTP/1.0" 200 403 "-" "Mozilla/5.0 (Macintosh; U; Intel Mac OS X 10.6; fr; rv:1.9.2.8) Gecko/20100722 Firefox/3.6.8"
89.248.169.130 - - [03/Nov/2018:13:59:21 +0000] "POST /xmlrpc.php HTTP/1.0" 200 403 "-" "Mozilla/5.0 (Macintosh; U; Intel Mac OS X 10.6; fr; rv:1.9.2.8) Gecko/20100722 Firefox/3.6.8"
81.236.49.255 - - [03/Nov/2018:14:08:43 +0000] "GET /wp-content/plugins/wp-zipy/el.php HTTP/1.0" 301 - "http://site.ru" "Mozilla/5.0 (Windows; U; Windows NT 5.1; en-US) AppleWebKit/533.4 (KHTML, like Gecko) Chrome/5.0.375.99 Safari/533.4"
81.236.49.255 - - [03/Nov/2018:14:08:44 +0000] "GET /wp-content/plugins/wp-zipy/el.php HTTP/1.0" 404 35269 "http://site.ru" "Mozilla/5.0 (Windows; U; Windows NT 5.1; en-US) AppleWebKit/533.4 (KHTML, like Gecko) Chrome/5.0.375.99 Safari/533.4"
31.170.123.73 - - [03/Nov/2018:15:46:17 +0000] "POST /wp-cron.php?doing_wp_cron=1541259977.1964590549468994140625 HTTP/1.0" 200 - "-" "WordPress/4.3.17; http://www.ikbensterdam.com"
66.198.240.60 - - [03/Nov/2018:15:46:16 +0000] "GET /_.php HTTP/1.0" 301 - "http://site.ru" "Mozilla/5.0 (Windows; U; Windows NT 5.1; en-US) AppleWebKit/533.4 (KHTML, like Gecko) Chrome/5.0.375.99 Safari/533.4"
66.198.240.60 - - [03/Nov/2018:15:46:18 +0000] "GET /_.php HTTP/1.0" 404 35145 "http://site.ru" "Mozilla/5.0 (Windows; U; Windows NT 5.1; en-US) AppleWebKit/533.4 (KHTML, like Gecko) Chrome/5.0.375.99 Safari/533.4"
31.170.123.73 - - [03/Nov/2018:15:55:15 +0000] "POST /wp-cron.php?doing_wp_cron=1541260515.8684070110321044921875 HTTP/1.0" 200 - "-" "WordPress/4.3.17; http://www.ikbensterdam.com"
80.211.27.103 - - [03/Nov/2018:15:55:15 +0000] "POST /wp-login.php HTTP/1.0" 200 8073 "-" "Opera/9.80 (Windows NT 6.0) Presto/2.12.388 Version/12.14"
97.74.228.245 - - [03/Nov/2018:15:55:45 +0000] "POST /xmlrpc.php HTTP/1.0" 200 403 "-" "Mozilla/5.0 (Macintosh; U; Intel Mac OS X 10.6; fr; rv:1.9.2.8) Gecko/20100722 Firefox/3.6.8"
31.170.123.73 - - [03/Nov/2018:17:03:04 +0000] "POST /wp-cron.php?doing_wp_cron=1541264584.2714219093322753906250 HTTP/1.0" 200 - "-" "WordPress/4.3.17; http://www.ikbensterdam.com"
119.28.186.204 - - [03/Nov/2018:17:03:03 +0000] "POST /wp-login.php HTTP/1.0" 200 8073 "-" "Opera/9.80 (Windows NT 6.0) Presto/2.12.388 Version/12.14"
151.80.218.210 - - [03/Nov/2018:17:17:11 +0000] "GET /wp-content/plugins/html404/wso25.php HTTP/1.0" 301 - "http://site.ru" "Mozilla/5.0 (Windows; U; Windows NT 5.1; en-US) AppleWebKit/533.4 (KHTML, like Gecko) Chrome/5.0.375.99 Safari/533.4"
180.76.15.8 - - [03/Nov/2018:17:19:51 +0000] "GET / HTTP/1.0" 301 - "-" "Mozilla/5.0 (compatible; Baiduspider/2.0; +http://www.baidu.com/search/spider.html)"
180.76.15.163 - - [03/Nov/2018:17:19:52 +0000] "GET / HTTP/1.0" 200 48668 "-" "Mozilla/5.0 (compatible; Baiduspider/2.0; +http://www.baidu.com/search/spider.html)"
34.222.39.139 - - [03/Nov/2018:17:31:50 +0000] "GET /wp-login.php HTTP/1.0" 200 7079 "https://www.google.com/url?48c1bb7daf35faf37570d1bad88963f8" "Mozilla/5.0 (Windows NT 5.1; rv:28.0) Gecko/20100101 Firefox/28.0"
34.222.39.139 - - [03/Nov/2018:17:31:59 +0000] "POST /wp-login.php HTTP/1.0" 200 8073 "https://www.google.com/url?48c1bb7daf35faf37570d1bad88963f8" "Mozilla/5.0 (Windows NT 5.1; rv:28.0) Gecko/20100101 Firefox/28.0"
188.128.175.127 - - [03/Nov/2018:17:51:37 +0000] "GET /wp-includes/wp-caches.php HTTP/1.0" 301 - "http://site.ru" "Mozilla/5.0 (Windows; U; Windows NT 5.1; en-US) AppleWebKit/533.4 (KHTML, like Gecko) Chrome/5.0.375.99 Safari/533.4"
2a02:25a9:1:e37f::1 - - [03/Nov/2018:17:51:38 +0000] "GET /wp-includes/wp-caches.php HTTP/1.0" 404 35229 "http://site.ru" "Mozilla/5.0 (Windows; U; Windows NT 5.1; en-US) AppleWebKit/533.4 (KHTML, like Gecko) Chrome/5.0.375.99 Safari/533.4"
188.128.175.127 - - [03/Nov/2018:17:51:40 +0000] "GET /wp-includes/wp-caches.php HTTP/1.0" 301 - "http://site.ru" "Mozilla/5.0 (Windows; U; Windows NT 5.1; en-US) AppleWebKit/533.4 (KHTML, like Gecko) Chrome/5.0.375.99 Safari/533.4"
188.128.175.127 - - [03/Nov/2018:17:51:41 +0000] "GET /wp-includes/wp-caches.php HTTP/1.0" 404 35229 "http://site.ru" "Mozilla/5.0 (Windows; U; Windows NT 5.1; en-US) AppleWebKit/533.4 (KHTML, like Gecko) Chrome/5.0.375.99 Safari/533.4"
180.76.15.146 - - [03/Nov/2018:17:53:11 +0000] "GET /wp-content/plugins/woocommerce/assets/js/frontend/add-to-cart-variation.min.js HTTP/1.0" 200 8290 "-" "Mozilla/5.0 (compatible; Baiduspider/2.0; +http://www.baidu.com/search/spider.html)"
31.170.123.73 - - [03/Nov/2018:18:04:51 +0000] "POST /wp-cron.php?doing_wp_cron=1541268291.7009339332580566406250 HTTP/1.0" 200 - "-" "WordPress/4.3.17; http://www.ikbensterdam.com"
97.74.228.245 - - [03/Nov/2018:18:04:51 +0000] "POST /xmlrpc.php HTTP/1.0" 200 403 "-" "Mozilla/5.0 (Macintosh; U; Intel Mac OS X 10.6; fr; rv:1.9.2.8) Gecko/20100722 Firefox/3.6.8"
89.111.178.100 - - [03/Nov/2018:19:30:34 +0000] "GET /xmlrpz.php HTTP/1.0" 301 - "http://site.ru" "Mozilla/5.0 (Windows; U; Windows NT 5.1; en-US) AppleWebKit/533.4 (KHTML, like Gecko) Chrome/5.0.375.99 Safari/533.4"
89.111.178.100 - - [03/Nov/2018:19:30:36 +0000] "GET /xmlrpz.php HTTP/1.0" 404 35165 "http://site.ru" "Mozilla/5.0 (Windows; U; Windows NT 5.1; en-US) AppleWebKit/533.4 (KHTML, like Gecko) Chrome/5.0.375.99 Safari/533.4"
89.111.178.100 - - [03/Nov/2018:19:30:37 +0000] "GET /xmlrpz.php HTTP/1.0" 301 - "http://site.ru" "Mozilla/5.0 (Windows; U; Windows NT 5.1; en-US) AppleWebKit/533.4 (KHTML, like Gecko) Chrome/5.0.375.99 Safari/533.4"
31.170.123.73 - - [03/Nov/2018:19:30:34 +0000] "POST /wp-cron.php?doing_wp_cron=1541273434.9172079563140869140625 HTTP/1.0" 200 - "-" "WordPress/4.3.17; http://www.ikbensterdam.com"
89.111.178.100 - - [03/Nov/2018:19:30:39 +0000] "GET /xmlrpz.php HTTP/1.0" 404 35165 "http://site.ru" "Mozilla/5.0 (Windows; U; Windows NT 5.1; en-US) AppleWebKit/533.4 (KHTML, like Gecko) Chrome/5.0.375.99 Safari/533.4"
31.170.123.73 - - [03/Nov/2018:20:13:50 +0000] "POST /wp-cron.php?doing_wp_cron=1541276030.6410040855407714843750 HTTP/1.0" 200 - "-" "WordPress/4.3.17; http://www.ikbensterdam.com"
97.74.228.245 - - [03/Nov/2018:20:13:50 +0000] "POST /xmlrpc.php HTTP/1.0" 200 403 "-" "Mozilla/5.0 (Macintosh; U; Intel Mac OS X 10.6; fr; rv:1.9.2.8) Gecko/20100722 Firefox/3.6.8"
123.57.254.142 - - [03/Nov/2018:21:19:08 +0000] "POST /xmlrpc.php HTTP/1.0" 200 403 "-" "Mozilla/5.0 (Macintosh; U; Intel Mac OS X 10.6; fr; rv:1.9.2.8) Gecko/20100722 Firefox/3.6.8"
31.170.123.73 - - [03/Nov/2018:21:19:09 +0000] "POST /wp-cron.php?doing_wp_cron=1541279949.3911550045013427734375 HTTP/1.0" 200 - "-" "WordPress/4.3.17; http://www.ikbensterdam.com"
123.57.254.142 - - [03/Nov/2018:21:19:08 +0000] "POST /xmlrpc.php HTTP/1.0" 200 403 "-" "Mozilla/5.0 (Macintosh; U; Intel Mac OS X 10.6; fr; rv:1.9.2.8) Gecko/20100722 Firefox/3.6.8"
31.170.123.73 - - [03/Nov/2018:22:22:58 +0000] "POST /wp-cron.php?doing_wp_cron=1541283778.2285830974578857421875 HTTP/1.0" 200 - "-" "WordPress/4.3.17; http://www.ikbensterdam.com"
97.74.228.245 - - [03/Nov/2018:22:22:57 +0000] "POST /xmlrpc.php HTTP/1.0" 200 403 "-" "Mozilla/5.0 (Macintosh; U; Intel Mac OS X 10.6; fr; rv:1.9.2.8) Gecko/20100722 Firefox/3.6.8"
89.248.169.130 - - [03/Nov/2018:22:57:32 +0000] "POST /xmlrpc.php HTTP/1.0" 200 403 "-" "Mozilla/5.0 (Macintosh; U; Intel Mac OS X 10.6; fr; rv:1.9.2.8) Gecko/20100722 Firefox/3.6.8"
31.170.123.73 - - [03/Nov/2018:22:57:32 +0000] "POST /wp-cron.php?doing_wp_cron=1541285852.8121120929718017578125 HTTP/1.0" 200 - "-" "WordPress/4.3.17; http://www.ikbensterdam.com"
89.248.169.130 - - [03/Nov/2018:22:57:32 +0000] "POST /xmlrpc.php HTTP/1.0" 200 403 "-" "Mozilla/5.0 (Macintosh; U; Intel Mac OS X 10.6; fr; rv:1.9.2.8) Gecko/20100722 Firefox/3.6.8"
89.248.169.130 - - [03/Nov/2018:22:57:32 +0000] "POST /xmlrpc.php HTTP/1.0" 200 403 "-" "Mozilla/5.0 (Macintosh; U; Intel Mac OS X 10.6; fr; rv:1.9.2.8) Gecko/20100722 Firefox/3.6.8"
61.154.29.129 - - [03/Nov/2018:23:16:58 +0000] "HEAD /wp-content/themes/twentysixteen/inc/customizer.php HTTP/1.0" 404 - "-" "-"
66.249.66.45 - - [03/Nov/2018:23:17:20 +0000] "GET /robots.txt HTTP/1.0" 200 35 "-" "Mozilla/5.0 (compatible; Googlebot/2.1; +http://www.google.com/bot.html)"
66.249.66.43 - - [03/Nov/2018:23:17:37 +0000] "GET / HTTP/1.0" 200 48668 "-" "Mozilla/5.0 (compatible; Googlebot/2.1; +http://www.google.com/bot.html)"
31.170.123.73 - - [03/Nov/2018:23:35:21 +0000] "POST /wp-cron.php?doing_wp_cron=1541288121.8060040473937988281250 HTTP/1.0" 200 - "-" "WordPress/4.3.17; http://www.ikbensterdam.com"
128.177.10.95 - - [03/Nov/2018:23:35:21 +0000] "GET / HTTP/1.0" 200 48668 "-" "Mozilla/4.0 (compatible; MSIE 5.0; Windows NT; DigExt)"
31.170.123.73 - - [04/Nov/2018:00:31:30 +0000] "POST /wp-cron.php?doing_wp_cron=1541291490.3123230934143066406250 HTTP/1.0" 200 - "-" "WordPress/4.3.17; http://www.ikbensterdam.com"
97.74.228.245 - - [04/Nov/2018:00:31:29 +0000] "POST /xmlrpc.php HTTP/1.0" 200 403 "-" "Mozilla/5.0 (Macintosh; U; Intel Mac OS X 10.6; fr; rv:1.9.2.8) Gecko/20100722 Firefox/3.6.8"
31.170.123.73 - - [04/Nov/2018:02:06:57 +0000] "POST /wp-cron.php?doing_wp_cron=1541297217.0874700546264648437500 HTTP/1.0" 200 - "-" "WordPress/4.3.17; http://www.ikbensterdam.com"
87.247.241.226 - - [04/Nov/2018:02:06:56 +0000] "GET /xmlrpz.php HTTP/1.0" 301 - "http://site.ru" "Mozilla/5.0 (Windows; U; Windows NT 5.1; en-US) AppleWebKit/533.4 (KHTML, like Gecko) Chrome/5.0.375.99 Safari/533.4"
87.247.241.226 - - [04/Nov/2018:02:06:57 +0000] "GET /xmlrpz.php HTTP/1.0" 404 35165 "http://site.ru" "Mozilla/5.0 (Windows; U; Windows NT 5.1; en-US) AppleWebKit/533.4 (KHTML, like Gecko) Chrome/5.0.375.99 Safari/533.4"
87.247.241.226 - - [04/Nov/2018:02:07:00 +0000] "GET /xmlrpz.php HTTP/1.0" 301 - "http://site.ru" "Mozilla/5.0 (Windows; U; Windows NT 5.1; en-US) AppleWebKit/533.4 (KHTML, like Gecko) Chrome/5.0.375.99 Safari/533.4"
87.247.241.226 - - [04/Nov/2018:02:07:00 +0000] "GET /xmlrpz.php HTTP/1.0" 404 35165 "http://site.ru" "Mozilla/5.0 (Windows; U; Windows NT 5.1; en-US) AppleWebKit/533.4 (KHTML, like Gecko) Chrome/5.0.375.99 Safari/533.4"
165.225.170.35 - - [04/Nov/2018:02:41:29 +0000] "GET /?author=1 HTTP/1.0" 301 - "-" "Mozilla/5.0 (Windows NT 10.0; Win64; x64) AppleWebKit/537.36 (KHTML, like Gecko) Chrome/61.0.3163.100 Safari/537.36"
165.225.170.35 - - [04/Nov/2018:02:41:30 +0000] "POST /xmlrpc.php HTTP/1.0" 403 212 "-" "Mozilla/5.0 (Windows NT 10.0; Win64; x64) AppleWebKit/537.36 (KHTML, like Gecko) Chrome/61.0.3163.100 Safari/537.36"
165.225.170.35 - - [04/Nov/2018:02:41:30 +0000] "POST /xmlrpc.php HTTP/1.0" 200 401 "-" "Mozilla/5.0 (Windows NT 10.0; Win64; x64) AppleWebKit/537.36 (KHTML, like Gecko) Chrome/61.0.3163.100 Safari/537.36"
97.74.228.245 - - [04/Nov/2018:02:42:25 +0000] "POST /xmlrpc.php HTTP/1.0" 200 403 "-" "Mozilla/5.0 (Macintosh; U; Intel Mac OS X 10.6; fr; rv:1.9.2.8) Gecko/20100722 Firefox/3.6.8"
165.225.170.35 - - [04/Nov/2018:02:52:05 +0000] "POST /xmlrpc.php HTTP/1.0" 200 401 "-" "Mozilla/5.0 (Windows NT 10.0; Win64; x64) AppleWebKit/537.36 (KHTML, like Gecko) Chrome/61.0.3163.100 Safari/537.36"
165.225.170.35 - - [04/Nov/2018:02:52:06 +0000] "POST /xmlrpc.php HTTP/1.0" 200 401 "-" "Mozilla/5.0 (Windows NT 10.0; Win64; x64) AppleWebKit/537.36 (KHTML, like Gecko) Chrome/61.0.3163.100 Safari/537.36"
165.225.170.35 - - [04/Nov/2018:02:52:06 +0000] "POST /xmlrpc.php HTTP/1.0" 200 401 "-" "Mozilla/5.0 (Windows NT 10.0; Win64; x64) AppleWebKit/537.36 (KHTML, like Gecko) Chrome/61.0.3163.100 Safari/537.36"
165.225.170.35 - - [04/Nov/2018:02:52:07 +0000] "POST /xmlrpc.php HTTP/1.0" 200 401 "-" "Mozilla/5.0 (Windows NT 10.0; Win64; x64) AppleWebKit/537.36 (KHTML, like Gecko) Chrome/61.0.3163.100 Safari/537.36"
165.225.170.35 - - [04/Nov/2018:02:52:08 +0000] "POST /xmlrpc.php HTTP/1.0" 200 401 "-" "Mozilla/5.0 (Windows NT 10.0; Win64; x64) AppleWebKit/537.36 (KHTML, like Gecko) Chrome/61.0.3163.100 Safari/537.36"
165.225.170.35 - - [04/Nov/2018:02:52:08 +0000] "POST /xmlrpc.php HTTP/1.0" 200 401 "-" "Mozilla/5.0 (Windows NT 10.0; Win64; x64) AppleWebKit/537.36 (KHTML, like Gecko) Chrome/61.0.3163.100 Safari/537.36"
165.225.170.35 - - [04/Nov/2018:02:52:09 +0000] "POST /xmlrpc.php HTTP/1.0" 200 401 "-" "Mozilla/5.0 (Windows NT 10.0; Win64; x64) AppleWebKit/537.36 (KHTML, like Gecko) Chrome/61.0.3163.100 Safari/537.36"
165.225.170.35 - - [04/Nov/2018:02:52:09 +0000] "POST /xmlrpc.php HTTP/1.0" 200 401 "-" "Mozilla/5.0 (Windows NT 10.0; Win64; x64) AppleWebKit/537.36 (KHTML, like Gecko) Chrome/61.0.3163.100 Safari/537.36"
165.225.170.35 - - [04/Nov/2018:02:52:10 +0000] "POST /xmlrpc.php HTTP/1.0" 200 401 "-" "Mozilla/5.0 (Windows NT 10.0; Win64; x64) AppleWebKit/537.36 (KHTML, like Gecko) Chrome/61.0.3163.100 Safari/537.36"
165.225.170.35 - - [04/Nov/2018:02:52:11 +0000] "POST /xmlrpc.php HTTP/1.0" 200 401 "-" "Mozilla/5.0 (Windows NT 10.0; Win64; x64) AppleWebKit/537.36 (KHTML, like Gecko) Chrome/61.0.3163.100 Safari/537.36"
165.225.170.35 - - [04/Nov/2018:02:52:11 +0000] "POST /xmlrpc.php HTTP/1.0" 200 401 "-" "Mozilla/5.0 (Windows NT 10.0; Win64; x64) AppleWebKit/537.36 (KHTML, like Gecko) Chrome/61.0.3163.100 Safari/537.36"
165.225.170.35 - - [04/Nov/2018:02:52:12 +0000] "POST /xmlrpc.php HTTP/1.0" 200 401 "-" "Mozilla/5.0 (Windows NT 10.0; Win64; x64) AppleWebKit/537.36 (KHTML, like Gecko) Chrome/61.0.3163.100 Safari/537.36"
165.225.170.35 - - [04/Nov/2018:02:52:13 +0000] "POST /xmlrpc.php HTTP/1.0" 200 401 "-" "Mozilla/5.0 (Windows NT 10.0; Win64; x64) AppleWebKit/537.36 (KHTML, like Gecko) Chrome/61.0.3163.100 Safari/537.36"
165.225.170.35 - - [04/Nov/2018:02:52:13 +0000] "POST /xmlrpc.php HTTP/1.0" 200 401 "-" "Mozilla/5.0 (Windows NT 10.0; Win64; x64) AppleWebKit/537.36 (KHTML, like Gecko) Chrome/61.0.3163.100 Safari/537.36"
165.225.170.35 - - [04/Nov/2018:02:52:14 +0000] "POST /xmlrpc.php HTTP/1.0" 200 401 "-" "Mozilla/5.0 (Windows NT 10.0; Win64; x64) AppleWebKit/537.36 (KHTML, like Gecko) Chrome/61.0.3163.100 Safari/537.36"
165.225.170.35 - - [04/Nov/2018:02:52:14 +0000] "POST /xmlrpc.php HTTP/1.0" 200 401 "-" "Mozilla/5.0 (Windows NT 10.0; Win64; x64) AppleWebKit/537.36 (KHTML, like Gecko) Chrome/61.0.3163.100 Safari/537.36"
165.225.170.35 - - [04/Nov/2018:02:52:15 +0000] "POST /xmlrpc.php HTTP/1.0" 200 401 "-" "Mozilla/5.0 (Windows NT 10.0; Win64; x64) AppleWebKit/537.36 (KHTML, like Gecko) Chrome/61.0.3163.100 Safari/537.36"
165.225.170.35 - - [04/Nov/2018:02:52:16 +0000] "POST /xmlrpc.php HTTP/1.0" 200 401 "-" "Mozilla/5.0 (Windows NT 10.0; Win64; x64) AppleWebKit/537.36 (KHTML, like Gecko) Chrome/61.0.3163.100 Safari/537.36"
165.225.170.35 - - [04/Nov/2018:02:52:16 +0000] "POST /xmlrpc.php HTTP/1.0" 200 401 "-" "Mozilla/5.0 (Windows NT 10.0; Win64; x64) AppleWebKit/537.36 (KHTML, like Gecko) Chrome/61.0.3163.100 Safari/537.36"
165.225.170.35 - - [04/Nov/2018:02:52:17 +0000] "POST /xmlrpc.php HTTP/1.0" 200 401 "-" "Mozilla/5.0 (Windows NT 10.0; Win64; x64) AppleWebKit/537.36 (KHTML, like Gecko) Chrome/61.0.3163.100 Safari/537.36"
165.225.170.35 - - [04/Nov/2018:02:52:18 +0000] "POST /xmlrpc.php HTTP/1.0" 200 401 "-" "Mozilla/5.0 (Windows NT 10.0; Win64; x64) AppleWebKit/537.36 (KHTML, like Gecko) Chrome/61.0.3163.100 Safari/537.36"
165.225.170.35 - - [04/Nov/2018:02:52:18 +0000] "POST /xmlrpc.php HTTP/1.0" 403 212 "-" "Mozilla/5.0 (Windows NT 10.0; Win64; x64) AppleWebKit/537.36 (KHTML, like Gecko) Chrome/61.0.3163.100 Safari/537.36"
