97.74.228.245 - - [05/Nov/2018:03:38:28 +0000] "POST /xmlrpc.php HTTP/1.1" 404 2197 "-" "Mozilla/5.0 (Macintosh; U; Intel Mac OS X 10.6; fr; rv:1.9.2.8) Gecko/20100722 Firefox/3.6.8"
198.23.202.38 - - [05/Nov/2018:03:53:51 +0000] "GET /robots.txt HTTP/1.1" 404 2196 "-" "Mozilla/5.0 (Windows NT 10.0; Win64; x64; rv:50.0) Gecko/20100101 Firefox/50.0"
198.23.202.38 - - [05/Nov/2018:03:53:51 +0000] "GET /xmlrpc.php?rsd HTTP/1.1" 404 2200 "-" "Mozilla/5.0 (Windows NT 10.0; Win64; x64; rv:50.0) Gecko/20100101 Firefox/50.0"
198.23.202.38 - - [05/Nov/2018:03:53:51 +0000] "GET / HTTP/1.1" 200 114689 "-" "Mozilla/5.0 (Windows NT 10.0; Win64; x64; rv:50.0) Gecko/20100101 Firefox/50.0"
198.23.202.38 - - [05/Nov/2018:03:53:52 +0000] "GET /?author=1 HTTP/1.1" 200 114689 "-" "Mozilla/5.0 (Windows NT 10.0; Win64; x64; rv:50.0) Gecko/20100101 Firefox/50.0"
198.23.202.38 - - [05/Nov/2018:03:53:52 +0000] "GET /wp-json/wp/v2/users/ HTTP/1.1" 404 2226 "-" "Mozilla/5.0 (Windows NT 10.0; Win64; x64; rv:50.0) Gecko/20100101 Firefox/50.0"
198.23.202.38 - - [05/Nov/2018:03:53:52 +0000] "POST /xmlrpc.php HTTP/1.1" 404 2197 "-" "Mozilla/5.0 (Windows NT 10.0; Win64; x64; rv:50.0) Gecko/20100101 Firefox/50.0"
85.248.227.164 - - [05/Nov/2018:03:58:44 +0000] "GET / HTTP/1.1" 200 114689 "-" "Mozilla/5.0 (Macintosh; Intel Mac OS X 10_12_1) AppleWebKit/602.2.14 (KHTML, like Gecko) Version/10.0.1 Safari/602.2.14"
40.77.167.51 - - [05/Nov/2018:04:06:46 +0000] "GET /learn/ HTTP/1.1" 404 2184 "-" "Mozilla/5.0 (compatible; bingbot/2.0; +http://www.bing.com/bingbot.htm)"
89.248.169.130 - - [05/Nov/2018:04:52:54 +0000] "POST /xmlrpc.php HTTP/1.1" 404 2197 "-" "Mozilla/5.0 (Macintosh; U; Intel Mac OS X 10.6; fr; rv:1.9.2.8) Gecko/20100722 Firefox/3.6.8"
89.248.169.130 - - [05/Nov/2018:04:52:54 +0000] "POST /xmlrpc.php HTTP/1.1" 404 2197 "-" "Mozilla/5.0 (Macintosh; U; Intel Mac OS X 10.6; fr; rv:1.9.2.8) Gecko/20100722 Firefox/3.6.8"
89.248.169.130 - - [05/Nov/2018:04:52:54 +0000] "POST /xmlrpc.php HTTP/1.1" 404 2197 "-" "Mozilla/5.0 (Macintosh; U; Intel Mac OS X 10.6; fr; rv:1.9.2.8) Gecko/20100722 Firefox/3.6.8"
89.248.169.130 - - [05/Nov/2018:04:52:55 +0000] "POST /xmlrpc.php HTTP/1.1" 404 2197 "-" "Mozilla/5.0 (Macintosh; U; Intel Mac OS X 10.6; fr; rv:1.9.2.8) Gecko/20100722 Firefox/3.6.8"
97.74.228.245 - - [05/Nov/2018:05:55:27 +0000] "POST /xmlrpc.php HTTP/1.1" 404 2197 "-" "Mozilla/5.0 (Macintosh; U; Intel Mac OS X 10.6; fr; rv:1.9.2.8) Gecko/20100722 Firefox/3.6.8"
199.249.230.73 - - [05/Nov/2018:06:32:44 +0000] "GET / HTTP/1.1" 200 114689 "-" "Mozilla/5.0 (Windows NT 6.3; Win64; x64) AppleWebKit/537.36 (KHTML, like Gecko) Chrome/42.0.2311.135 Safari/537.36 Edge/12.10240"
195.135.194.134 - - [05/Nov/2018:06:32:59 +0000] "GET / HTTP/1.1" 200 114689 "-" "Mozilla/5.0 (Macintosh; Intel Mac OS X 10_12_6) AppleWebKit/537.36 (KHTML, like Gecko) Chrome/61.0.3163.100 Safari/537.36"
185.220.101.25 - - [05/Nov/2018:07:29:52 +0000] "GET / HTTP/1.1" 200 114689 "-" "Mozilla/5.0 (Windows NT 10.0; Win64; x64) AppleWebKit/537.36 (KHTML, like Gecko) Chrome/57.0.2987.133 Safari/537.36"
104.200.20.162 - - [05/Nov/2018:07:50:42 +0000] "GET /wp-admin/default.php HTTP/1.1" 404 2226 "http://site.ru" "Mozilla/5.0 (Windows; U; Windows NT 5.1; en-US) AppleWebKit/533.4 (KHTML, like Gecko) Chrome/5.0.375.99 Safari/533.4"
104.200.20.162 - - [05/Nov/2018:07:50:55 +0000] "GET /wp-admin/default.php HTTP/1.1" 404 2226 "http://site.ru" "Mozilla/5.0 (Windows; U; Windows NT 5.1; en-US) AppleWebKit/533.4 (KHTML, like Gecko) Chrome/5.0.375.99 Safari/533.4"
104.200.20.162 - - [05/Nov/2018:07:50:59 +0000] "GET /wp-admin/default.php HTTP/1.1" 404 2226 "http://site.ru" "Mozilla/5.0 (Windows; U; Windows NT 5.1; en-US) AppleWebKit/533.4 (KHTML, like Gecko) Chrome/5.0.375.99 Safari/533.4"
97.74.228.245 - - [05/Nov/2018:08:11:23 +0000] "POST /xmlrpc.php HTTP/1.1" 404 2197 "-" "Mozilla/5.0 (Macintosh; U; Intel Mac OS X 10.6; fr; rv:1.9.2.8) Gecko/20100722 Firefox/3.6.8"
2607:5300:61:9d5:: - - [05/Nov/2018:08:36:35 +0000] "GET /wp-blog-posts.php HTTP/1.1" 404 2217 "http://site.ru" "Mozilla/5.0 (Windows; U; Windows NT 5.1; en-US) AppleWebKit/533.4 (KHTML, like Gecko) Chrome/5.0.375.99 Safari/533.4"
209.205.206.58 - - [05/Nov/2018:09:14:03 +0000] "GET /wp-content/themes/gaukingo/db.php HTTP/1.1" 404 2265 "http://site.ru" "Mozilla/5.0 (Windows; U; Windows NT 5.1; en-US) AppleWebKit/533.4 (KHTML, like Gecko) Chrome/5.0.375.99 Safari/533.4"
104.192.74.36 - - [05/Nov/2018:09:19:51 +0000] "GET /robots.txt HTTP/1.1" 404 2200 "http://www.radicalbit.com/robots.txt" "Mozilla/5.0 (Macintosh; Intel Mac OS X 10_12_1) AppleWebKit/537.36 (KHTML, like Gecko) Chrome/58.0.3029.110 Safari/537.36"
104.192.74.36 - - [05/Nov/2018:09:19:51 +0000] "GET / HTTP/1.1" 200 114689 "http://www.radicalbit.com" "Mozilla/5.0 (Macintosh; Intel Mac OS X 10_12_1) AppleWebKit/537.36 (KHTML, like Gecko) Chrome/58.0.3029.110 Safari/537.36"
104.192.74.36 - - [05/Nov/2018:09:19:51 +0000] "GET / HTTP/1.1" 200 114689 "-" "Mozilla"
180.76.15.13 - - [05/Nov/2018:09:29:28 +0000] "GET /index_files/rtl.css HTTP/1.1" 404 2223 "-" "Mozilla/5.0 (compatible; Baiduspider/2.0; +http://www.baidu.com/search/spider.html)"
84.39.31.91 - - [05/Nov/2018:09:44:10 +0000] "GET /wp-login.php?loggedout=true HTTP/1.1" 404 2217 "-" "Mozilla/5.0 (Macintosh; Intel Mac OS X 10_13_6) AppleWebKit/605.1.15 (KHTML, like Gecko)"
84.39.31.91 - - [05/Nov/2018:09:44:10 +0000] "GET /apple-touch-icon-precomposed.png HTTP/1.1" 404 2262 "-" "Safari/13606.2.11 CFNetwork/902.1 Darwin/17.7.0 (x86_64)"
84.39.31.91 - - [05/Nov/2018:09:44:10 +0000] "GET /apple-touch-icon.png HTTP/1.1" 404 2226 "-" "Safari/13606.2.11 CFNetwork/902.1 Darwin/17.7.0 (x86_64)"
84.39.31.91 - - [05/Nov/2018:09:44:10 +0000] "GET /favicon.ico HTTP/1.1" 404 2199 "-" "Safari/13606.2.11 CFNetwork/902.1 Darwin/17.7.0 (x86_64)"
84.39.31.91 - - [05/Nov/2018:09:44:10 +0000] "GET /apple-touch-icon-precomposed.png HTTP/1.1" 404 2262 "-" "Safari/13606.2.11 CFNetwork/902.1 Darwin/17.7.0 (x86_64)"
84.39.31.91 - - [05/Nov/2018:09:44:10 +0000] "GET /apple-touch-icon.png HTTP/1.1" 404 2226 "-" "Safari/13606.2.11 CFNetwork/902.1 Darwin/17.7.0 (x86_64)"
84.39.31.91 - - [05/Nov/2018:09:44:10 +0000] "GET /favicon.ico HTTP/1.1" 404 2199 "-" "Safari/13606.2.11 CFNetwork/902.1 Darwin/17.7.0 (x86_64)"
84.39.31.91 - - [05/Nov/2018:09:44:10 +0000] "GET /wp-login.php?loggedout=true HTTP/1.1" 404 2217 "-" "Mozilla/5.0 (iPhone; CPU iPhone OS 11_3 like Mac OS X) AppleWebKit/605.1.15 (KHTML, like Gecko) Version/11.0 Mobile/15E148 Safari/604.1"
84.39.31.91 - - [05/Nov/2018:09:44:10 +0000] "GET /apple-touch-icon-precomposed.png HTTP/1.1" 404 2262 "-" "Safari/13606.2.11 CFNetwork/902.1 Darwin/17.7.0 (x86_64)"
84.39.31.91 - - [05/Nov/2018:09:44:10 +0000] "GET /apple-touch-icon.png HTTP/1.1" 404 2226 "-" "Safari/13606.2.11 CFNetwork/902.1 Darwin/17.7.0 (x86_64)"
84.39.31.91 - - [05/Nov/2018:09:44:10 +0000] "GET /favicon.ico HTTP/1.1" 404 2199 "-" "Safari/13606.2.11 CFNetwork/902.1 Darwin/17.7.0 (x86_64)"
84.39.31.91 - - [05/Nov/2018:09:44:10 +0000] "GET /apple-touch-icon-precomposed.png HTTP/1.1" 404 2262 "-" "Safari/13606.2.11 CFNetwork/902.1 Darwin/17.7.0 (x86_64)"
84.39.31.91 - - [05/Nov/2018:09:44:10 +0000] "GET /apple-touch-icon.png HTTP/1.1" 404 2226 "-" "Safari/13606.2.11 CFNetwork/902.1 Darwin/17.7.0 (x86_64)"
84.39.31.91 - - [05/Nov/2018:09:44:10 +0000] "GET /favicon.ico HTTP/1.1" 404 2199 "-" "Safari/13606.2.11 CFNetwork/902.1 Darwin/17.7.0 (x86_64)"
97.74.228.245 - - [05/Nov/2018:10:25:46 +0000] "POST /xmlrpc.php HTTP/1.1" 404 2197 "-" "Mozilla/5.0 (Macintosh; U; Intel Mac OS X 10.6; fr; rv:1.9.2.8) Gecko/20100722 Firefox/3.6.8"
193.201.224.210 - - [05/Nov/2018:10:56:02 +0000] "GET /wp-content/themes/organizer/lib_upload/server/php/index.php HTTP/1.1" 404 2343 "http://radicalbit.com/wp-content/themes/organizer/lib_upload/server/php/index.php" "Mozilla/5.0 (Windows NT 6.1; WOW64) AppleWebKit/537.36 (KHTML, like Gecko) Chrome/42.0.2311.152 Safari/537.36"
193.201.224.210 - - [05/Nov/2018:10:56:03 +0000] "GET /wp-content/plugins/csv2wpec-coupon/csv2wpecCoupon_FileUpload.php HTTP/1.1" 404 2358 "http://radicalbit.com/wp-content/plugins/csv2wpec-coupon/csv2wpecCoupon_FileUpload.php" "Mozilla/5.0 (Windows NT 6.1; WOW64) AppleWebKit/537.36 (KHTML, like Gecko) Chrome/42.0.2311.152 Safari/537.36"
2a02:c200:1:10::1404:1 - - [05/Nov/2018:12:05:20 +0000] "GET /wp-content/plugins/resizer-img/accdb.php HTTP/1.1" 404 2286 "http://site.ru" "Mozilla/5.0 (Windows; U; Windows NT 5.1; en-US) AppleWebKit/533.4 (KHTML, like Gecko) Chrome/5.0.375.99 Safari/533.4"
2a02:c200:1:10::1404:1 - - [05/Nov/2018:12:05:26 +0000] "GET /wp-content/plugins/resizer-img/accdb.php HTTP/1.1" 404 2286 "http://site.ru" "Mozilla/5.0 (Windows; U; Windows NT 5.1; en-US) AppleWebKit/533.4 (KHTML, like Gecko) Chrome/5.0.375.99 Safari/533.4"
52.53.201.78 - - [05/Nov/2018:12:35:41 +0000] "GET / HTTP/1.1" 200 114689 "-" "Mozilla/5.0 (Macintosh; Intel Mac OS X 10_12_6) AppleWebKit/537.36 (KHTML, like Gecko) Chrome/61.0.3163.100 Safari/537.36"
185.117.118.149 - - [05/Nov/2018:12:36:06 +0000] "GET /robots.txt HTTP/1.1" 404 2196 "-" "Mozilla/5.0 (compatible; Uptimebot/1.0; +http://www.uptime.com/uptimebot)"
185.117.118.149 - - [05/Nov/2018:12:36:07 +0000] "HEAD / HTTP/1.1" 200 0 "-" "Mozilla/5.0 (compatible; Uptimebot/1.0; +http://www.uptime.com/uptimebot)"
97.74.228.245 - - [05/Nov/2018:12:58:30 +0000] "POST /xmlrpc.php HTTP/1.1" 404 2197 "-" "Mozilla/5.0 (Macintosh; U; Intel Mac OS X 10.6; fr; rv:1.9.2.8) Gecko/20100722 Firefox/3.6.8"
89.248.169.130 - - [05/Nov/2018:14:09:56 +0000] "POST /xmlrpc.php HTTP/1.1" 404 2197 "-" "Mozilla/5.0 (Macintosh; U; Intel Mac OS X 10.6; fr; rv:1.9.2.8) Gecko/20100722 Firefox/3.6.8"
89.248.169.130 - - [05/Nov/2018:14:09:56 +0000] "POST /xmlrpc.php HTTP/1.1" 404 2197 "-" "Mozilla/5.0 (Macintosh; U; Intel Mac OS X 10.6; fr; rv:1.9.2.8) Gecko/20100722 Firefox/3.6.8"
89.248.169.130 - - [05/Nov/2018:14:09:57 +0000] "POST /xmlrpc.php HTTP/1.1" 404 2197 "-" "Mozilla/5.0 (Macintosh; U; Intel Mac OS X 10.6; fr; rv:1.9.2.8) Gecko/20100722 Firefox/3.6.8"
43.241.57.131 - - [05/Nov/2018:14:10:51 +0000] "GET /shell.php HTTP/1.1" 404 2193 "http://site.ru" "Mozilla/5.0 (Windows; U; Windows NT 5.1; en-US) AppleWebKit/533.4 (KHTML, like Gecko) Chrome/5.0.375.99 Safari/533.4"
43.241.57.131 - - [05/Nov/2018:14:11:07 +0000] "GET /shell.php HTTP/1.1" 404 2193 "http://site.ru" "Mozilla/5.0 (Windows; U; Windows NT 5.1; en-US) AppleWebKit/533.4 (KHTML, like Gecko) Chrome/5.0.375.99 Safari/533.4"
54.36.150.80 - - [05/Nov/2018:14:39:20 +0000] "GET /robots.txt HTTP/1.1" 404 2196 "-" "Mozilla/5.0 (compatible; AhrefsBot/5.2; +http://ahrefs.com/robot/)"
54.36.149.74 - - [05/Nov/2018:14:39:21 +0000] "GET /maak-visuele-aantekeningen-met-deze-5-tips/feed/ HTTP/1.1" 404 2310 "-" "Mozilla/5.0 (compatible; AhrefsBot/5.2; +http://ahrefs.com/robot/)"
97.74.228.245 - - [05/Nov/2018:15:15:40 +0000] "POST /xmlrpc.php HTTP/1.1" 404 2197 "-" "Mozilla/5.0 (Macintosh; U; Intel Mac OS X 10.6; fr; rv:1.9.2.8) Gecko/20100722 Firefox/3.6.8"
54.36.148.87 - - [05/Nov/2018:15:50:13 +0000] "GET /kracht-van-de-flip/feed/ HTTP/1.1" 404 2238 "-" "Mozilla/5.0 (compatible; AhrefsBot/5.2; +http://ahrefs.com/robot/)"
185.220.101.6 - - [05/Nov/2018:16:58:59 +0000] "GET / HTTP/1.1" 200 114689 "-" "Mozilla/5.0 (Windows NT 10.0; Win64; x64) AppleWebKit/537.36 (KHTML, like Gecko) Chrome/42.0.2311.135 Safari/537.36 Edge/12.10240"
185.24.218.173 - - [05/Nov/2018:17:14:46 +0000] "GET / HTTP/1.1" 200 114689 "-" "Mozilla/5.0 (Windows NT 5.1; Win64; x64) AppleWebKit/537.36 (KHTML, like Gecko) Chrome/55.0.2883.87 Safari/537.36"
198.98.61.36 - - [05/Nov/2018:17:33:01 +0000] "GET / HTTP/1.1" 200 114689 "-" "Mozilla/5.0 (Windows NT 10.0; WOW64) AppleWebKit/537.36 (KHTML, like Gecko) Chrome/56.0.2924.87 Safari/537.36 OPR/43.0.2442.991"
97.74.228.245 - - [05/Nov/2018:17:33:21 +0000] "POST /xmlrpc.php HTTP/1.1" 404 2197 "-" "Mozilla/5.0 (Macintosh; U; Intel Mac OS X 10.6; fr; rv:1.9.2.8) Gecko/20100722 Firefox/3.6.8"
162.215.252.26 - - [05/Nov/2018:17:40:07 +0000] "GET /wp-login.php HTTP/1.1" 404 2202 "http://radicalbit.com/wp-login.php" "Mozilla/5.0 (Windows NT 10.0; Win64; x64) AppleWebKit/537.36 (KHTML, like Gecko) Chrome/63.0.3239.84 Safari/537.36"
71.248.162.59 - - [05/Nov/2018:17:43:08 +0000] "GET /robots.txt HTTP/1.1" 404 2196 "-" "curl/7.54.0"
217.147.169.49 - - [05/Nov/2018:17:57:45 +0000] "GET / HTTP/1.1" 200 114689 "-" "Mozilla/5.0 (Windows NT 6.1; Win64; x64) AppleWebKit/537.36 (KHTML, like Gecko) Chrome/52.0.2743.116 Safari/537.36 Edge/15.15063"
123.57.254.142 - - [05/Nov/2018:18:01:43 +0000] "POST /xmlrpc.php HTTP/1.1" 404 2197 "-" "Mozilla/5.0 (Macintosh; U; Intel Mac OS X 10.6; fr; rv:1.9.2.8) Gecko/20100722 Firefox/3.6.8"
123.57.254.142 - - [05/Nov/2018:18:01:43 +0000] "POST /xmlrpc.php HTTP/1.1" 404 2197 "-" "Mozilla/5.0 (Macintosh; U; Intel Mac OS X 10.6; fr; rv:1.9.2.8) Gecko/20100722 Firefox/3.6.8"
204.85.191.30 - - [05/Nov/2018:18:21:17 +0000] "GET / HTTP/1.1" 200 114689 "-" "Mozilla/5.0 (Windows NT 10.0; Win64; x64) AppleWebKit/537.36 (KHTML, like Gecko) Chrome/60.0.3112.113 Safari/537.36"
162.247.74.206 - - [05/Nov/2018:18:56:16 +0000] "GET / HTTP/1.1" 200 114689 "-" "Mozilla/5.0 (Windows NT 6.1) AppleWebKit/537.36 (KHTML, like Gecko) Chrome/41.0.2272.104 Safari/537.36"
54.36.148.72 - - [05/Nov/2018:19:01:19 +0000] "GET /poppetjes-tekenen-zoveel-wensen-zoveel-mensen/ HTTP/1.1" 404 2304 "-" "Mozilla/5.0 (compatible; AhrefsBot/5.2; +http://ahrefs.com/robot/)"
51.15.125.181 - - [05/Nov/2018:19:08:50 +0000] "GET / HTTP/1.1" 200 114689 "-" "Mozilla/5.0 (Windows NT 6.2; Win64; x64) AppleWebKit/537.36 (KHTML, like Gecko) Chrome/51.0.2704.79 Safari/537.36 Edge/14.14393"
185.104.120.4 - - [05/Nov/2018:19:18:51 +0000] "GET / HTTP/1.1" 200 114689 "-" "Mozilla/5.0 (Windows NT 6.1; Win64; x64) AppleWebKit/537.36 (KHTML, like Gecko) Chrome/60.0.3112.113 Safari/537.36"
80.67.172.162 - - [05/Nov/2018:19:39:12 +0000] "GET / HTTP/1.1" 200 114689 "-" "Mozilla/5.0 (Windows NT 6.1; Win64; x64) AppleWebKit/537.36 (KHTML, like Gecko) Chrome/55.0.2883.87 Safari/537.36"
195.114.18.165 - - [05/Nov/2018:19:43:26 +0000] "GET /wp-organizer.php HTTP/1.1" 404 2214 "http://site.ru" "Mozilla/5.0 (Windows; U; Windows NT 5.1; en-US) AppleWebKit/533.4 (KHTML, like Gecko) Chrome/5.0.375.99 Safari/533.4"
97.74.228.245 - - [05/Nov/2018:19:47:09 +0000] "POST /xmlrpc.php HTTP/1.1" 404 2197 "-" "Mozilla/5.0 (Macintosh; U; Intel Mac OS X 10.6; fr; rv:1.9.2.8) Gecko/20100722 Firefox/3.6.8"
213.251.182.113 - - [05/Nov/2018:19:48:10 +0000] "GET /wp-content/wordpress_cache.php HTTP/1.1" 404 2256 "http://site.ru" "Mozilla/5.0 (Windows; U; Windows NT 5.1; en-US) AppleWebKit/533.4 (KHTML, like Gecko) Chrome/5.0.375.99 Safari/533.4"
82.193.40.26 - - [05/Nov/2018:19:50:00 +0000] "GET /wp-login.php HTTP/1.1" 404 2202 "http://radicalbit.com/wp-login.php" "Mozilla/5.0 (Windows NT 10.0; Win64; x64) AppleWebKit/537.36 (KHTML, like Gecko) Chrome/63.0.3239.84 Safari/537.36"
192.42.116.18 - - [05/Nov/2018:19:56:49 +0000] "GET / HTTP/1.1" 200 114689 "-" "Mozilla/5.0 (Windows NT 6.2; WOW64; rv:50.0) Gecko/20100101 Firefox/50.0"
185.127.25.192 - - [05/Nov/2018:20:11:15 +0000] "GET / HTTP/1.1" 200 114689 "-" "Mozilla/5.0 (Windows NT 10.0; Win64; x64) AppleWebKit/537.36 (KHTML, like Gecko) Chrome/46.0.2486.0 Safari/537.36 Edge/13.10586"
109.70.100.19 - - [05/Nov/2018:20:16:26 +0000] "GET / HTTP/1.1" 200 114689 "-" "Mozilla/5.0 (Windows NT 10.0; WOW64) AppleWebKit/537.36 (KHTML, like Gecko) Chrome/52.0.2743.116 Safari/537.36"
37.233.102.65 - - [05/Nov/2018:20:31:53 +0000] "GET / HTTP/1.1" 200 114689 "-" "Mozilla/5.0 (Windows NT 10.0; Win64; x64) AppleWebKit/537.36 (KHTML, like Gecko) Chrome/62.0.3202.89 Safari/537.36"
74.82.47.194 - - [05/Nov/2018:20:38:39 +0000] "GET / HTTP/1.1" 200 114689 "-" "Mozilla/5.0 (Windows NT 10.0; Win64; x64; rv:61.0) Gecko/20100101 Firefox/61.0"
109.201.133.100 - - [05/Nov/2018:20:48:05 +0000] "GET / HTTP/1.1" 200 114689 "-" "Mozilla/5.0 (Windows NT 6.3; WOW64; rv:41.0) Gecko/20100101 Firefox/41.0"
104.244.78.163 - - [05/Nov/2018:20:52:49 +0000] "GET / HTTP/1.1" 200 114689 "-" "Mozilla/5.0 (Macintosh; Intel Mac OS X 10_12_3) AppleWebKit/602.4.8 (KHTML, like Gecko) Version/10.0.3 Safari/602.4.8"
185.193.125.190 - - [05/Nov/2018:20:55:51 +0000] "GET / HTTP/1.1" 200 114689 "-" "Mozilla/5.0 (Windows NT 10.0; Win64; x64) AppleWebKit/537.36 (KHTML, like Gecko) Chrome/66.0.3359.117 Safari/537.36"
163.172.67.180 - - [05/Nov/2018:21:01:17 +0000] "GET / HTTP/1.1" 200 114689 "-" "Mozilla/5.0 (Windows NT 10.0; Win64; x64) AppleWebKit/537.36 (KHTML, like Gecko) Chrome/54.0.2840.99 Safari/537.36"
185.117.118.148 - - [05/Nov/2018:21:03:53 +0000] "HEAD / HTTP/1.1" 200 0 "-" "Mozilla/5.0 (compatible; Uptimebot/1.0; +http://www.uptime.com/uptimebot)"
82.223.14.245 - - [05/Nov/2018:21:04:35 +0000] "GET / HTTP/1.1" 200 114689 "-" "Mozilla/5.0 (Windows NT 6.1; WOW64; rv:39.0) Gecko/20100101 Firefox/39.0"
163.172.67.180 - - [05/Nov/2018:21:16:55 +0000] "GET / HTTP/1.1" 200 114689 "-" "Mozilla/5.0 (Windows NT 10.0; WOW64; Trident/7.0; rv:11.0) like Gecko"
195.176.3.20 - - [05/Nov/2018:21:21:08 +0000] "GET / HTTP/1.1" 200 114689 "-" "Mozilla/5.0 (Windows NT 5.1; Win64; x64) AppleWebKit/537.36 (KHTML, like Gecko) Chrome/46.0.2486.0 Safari/537.36 Edge/13.10586"
37.233.103.114 - - [05/Nov/2018:21:23:31 +0000] "GET / HTTP/1.1" 200 114689 "-" "Mozilla/5.0 (Windows NT 6.0; WOW64; rv:52.0) Gecko/20100101 Firefox/52.0"
69.51.204.242 - - [05/Nov/2018:21:30:55 +0000] "GET /modules/mod_ariimageslidersa/098.php HTTP/1.1" 404 2274 "http://site.ru" "Mozilla/5.0 (Windows; U; Windows NT 5.1; en-US) AppleWebKit/533.4 (KHTML, like Gecko) Chrome/5.0.375.99 Safari/533.4"
69.51.204.242 - - [05/Nov/2018:21:31:06 +0000] "GET /modules/mod_ariimageslidersa/098.php HTTP/1.1" 404 2274 "http://site.ru" "Mozilla/5.0 (Windows; U; Windows NT 5.1; en-US) AppleWebKit/533.4 (KHTML, like Gecko) Chrome/5.0.375.99 Safari/533.4"
69.51.204.242 - - [05/Nov/2018:21:31:16 +0000] "GET /modules/mod_ariimageslidersa/098.php HTTP/1.1" 404 2274 "http://site.ru" "Mozilla/5.0 (Windows; U; Windows NT 5.1; en-US) AppleWebKit/533.4 (KHTML, like Gecko) Chrome/5.0.375.99 Safari/533.4"
46.4.86.164 - - [05/Nov/2018:21:32:31 +0000] "GET / HTTP/1.1" 200 114689 "-" "Mozilla/5.0 (Windows NT 6.3; Win64; x64) AppleWebKit/537.36 (KHTML, like Gecko) Chrome/55.0.2883.87 Safari/537.36"
109.70.100.19 - - [05/Nov/2018:21:44:47 +0000] "GET / HTTP/1.1" 200 114689 "-" "Mozilla/5.0 (Windows NT 10.0; Win64; x64) AppleWebKit/537.36 (KHTML, like Gecko) Chrome/60.0.3112.78 Safari/537.36 OPR/47.0.2631.39"
89.234.157.254 - - [05/Nov/2018:21:52:04 +0000] "GET / HTTP/1.1" 200 114689 "-" "Mozilla/5.0 (Macintosh; Intel Mac OS X 10_11_5) AppleWebKit/601.6.17 (KHTML, like Gecko) Version/9.1.1 Safari/601.6.17"
185.220.100.253 - - [05/Nov/2018:21:52:19 +0000] "GET / HTTP/1.1" 200 114689 "-" "Mozilla/5.0 (Windows NT 5.1; WOW64; rv:52.0) Gecko/20100101 Firefox/52.0"
198.20.69.98 - - [05/Nov/2018:21:56:53 +0000] "GET / HTTP/1.1" 200 114689 "-" "Mozilla/5.0 (Windows NT 6.1) AppleWebKit/537.36 (KHTML, like Gecko) Chrome/41.0.2228.0 Safari/537.36"
198.20.69.98 - - [05/Nov/2018:21:56:55 +0000] "GET /robots.txt HTTP/1.1" 404 2196 "-" "-"
198.20.69.98 - - [05/Nov/2018:21:56:58 +0000] "GET /sitemap.xml HTTP/1.1" 404 2199 "-" "-"
198.20.69.98 - - [05/Nov/2018:21:57:02 +0000] "GET /.well-known/security.txt HTTP/1.1" 404 2238 "-" "-"
198.20.69.98 - - [05/Nov/2018:21:57:13 +0000] "GET /favicon.ico HTTP/1.1" 404 2199 "-" "python-requests/2.10.0"
97.74.228.245 - - [05/Nov/2018:21:59:35 +0000] "POST /xmlrpc.php HTTP/1.1" 404 2197 "-" "Mozilla/5.0 (Macintosh; U; Intel Mac OS X 10.6; fr; rv:1.9.2.8) Gecko/20100722 Firefox/3.6.8"
69.12.66.233 - - [05/Nov/2018:22:20:25 +0000] "GET /wp-content/plugins/xnxx/xnxx.php HTTP/1.1" 404 2262 "http://radicalbit.com/wp-content/plugins/xnxx/xnxx.php" "Mozilla/5.0 (Windows NT 6.1; WOW64) AppleWebKit/537.36 (KHTML, like Gecko) Chrome/42.0.2311.152 Safari/537.36"
185.220.101.46 - - [05/Nov/2018:22:25:41 +0000] "GET / HTTP/1.1" 200 114689 "-" "Mozilla/5.0 (Windows NT 6.3; Win64; x64) AppleWebKit/537.36 (KHTML, like Gecko) Chrome/51.0.2704.79 Safari/537.36 Edge/14.14393"
85.114.142.205 - - [05/Nov/2018:22:47:38 +0000] "GET / HTTP/1.1" 200 114689 "-" "Mozilla/5.0 (Windows NT 10.0; WOW64; rv:54.0) Gecko/20100101 Firefox/54.0"
209.17.96.218 - - [05/Nov/2018:23:15:57 +0000] "GET / HTTP/1.1" 200 114689 "-" "Mozilla/5.0 (compatible; Nimbostratus-Bot/v1.3.2; http://cloudsystemnetworks.com)"
89.248.169.130 - - [05/Nov/2018:23:19:51 +0000] "POST /xmlrpc.php HTTP/1.1" 404 2197 "-" "Mozilla/5.0 (Macintosh; U; Intel Mac OS X 10.6; fr; rv:1.9.2.8) Gecko/20100722 Firefox/3.6.8"
89.248.169.130 - - [05/Nov/2018:23:19:51 +0000] "POST /xmlrpc.php HTTP/1.1" 404 2197 "-" "Mozilla/5.0 (Macintosh; U; Intel Mac OS X 10.6; fr; rv:1.9.2.8) Gecko/20100722 Firefox/3.6.8"
89.248.169.130 - - [05/Nov/2018:23:19:52 +0000] "POST /xmlrpc.php HTTP/1.1" 404 2197 "-" "Mozilla/5.0 (Macintosh; U; Intel Mac OS X 10.6; fr; rv:1.9.2.8) Gecko/20100722 Firefox/3.6.8"
89.248.169.130 - - [05/Nov/2018:23:19:52 +0000] "POST /xmlrpc.php HTTP/1.1" 404 2197 "-" "Mozilla/5.0 (Macintosh; U; Intel Mac OS X 10.6; fr; rv:1.9.2.8) Gecko/20100722 Firefox/3.6.8"
104.244.73.126 - - [05/Nov/2018:23:46:35 +0000] "GET / HTTP/1.1" 200 114689 "-" "Mozilla/5.0 (Macintosh; Intel Mac OS X 10_12_4) AppleWebKit/603.1.30 (KHTML, like Gecko) Version/10.1 Safari/603.1.30"
64.91.249.226 - - [05/Nov/2018:23:54:35 +0000] "GET /wso.php HTTP/1.1" 404 2187 "http://site.ru" "Mozilla/5.0 (Windows; U; Windows NT 5.1; en-US) AppleWebKit/533.4 (KHTML, like Gecko) Chrome/5.0.375.99 Safari/533.4"
40.77.167.51 - - [05/Nov/2018:23:57:39 +0000] "GET /learn/ HTTP/1.1" 404 2184 "-" "Mozilla/5.0 (compatible; bingbot/2.0; +http://www.bing.com/bingbot.htm)"
163.172.67.180 - - [05/Nov/2018:23:57:59 +0000] "GET / HTTP/1.1" 200 114689 "-" "Mozilla/5.0 (Windows NT 10.0; WOW64; Trident/7.0; rv:11.0) like Gecko"
97.74.228.245 - - [06/Nov/2018:00:08:22 +0000] "POST /xmlrpc.php HTTP/1.1" 404 2197 "-" "Mozilla/5.0 (Macintosh; U; Intel Mac OS X 10.6; fr; rv:1.9.2.8) Gecko/20100722 Firefox/3.6.8"
86.110.117.53 - - [06/Nov/2018:00:08:47 +0000] "GET /wp-admin/setup-config.php?step=1 HTTP/1.1" 404 2248 "-" "Mozilla/5.0 (Macintosh; Intel Mac OS X 10_12_0) AppleWebKit/537.36 (KHTML, like Gecko) Chrome/56.0.2967.59 Safari/537.36"
51.15.82.2 - - [06/Nov/2018:00:09:19 +0000] "GET / HTTP/1.1" 200 114689 "-" "Mozilla/5.0 (Windows NT 6.1; Win64; x64) AppleWebKit/537.36 (KHTML, like Gecko) Chrome/52.0.2743.116 Safari/537.36 Edge/15.15063"
162.247.74.74 - - [06/Nov/2018:00:18:12 +0000] "GET / HTTP/1.1" 200 114689 "-" "Mozilla/5.0 (Macintosh; Intel Mac OS X 10_10_5) AppleWebKit/603.3.8 (KHTML, like Gecko) Version/10.1.2 Safari/603.3.8"
51.15.72.211 - - [06/Nov/2018:00:23:20 +0000] "GET / HTTP/1.1" 200 114689 "-" "Mozilla/5.0 (Windows NT 10.0; WOW64; rv:50.0) Gecko/20100101 Firefox/50.0"
54.36.189.105 - - [06/Nov/2018:00:23:52 +0000] "GET / HTTP/1.1" 200 114689 "-" "Mozilla/5.0 (Windows NT 6.1; WOW64; rv:47.0) Gecko/20100101 Firefox/47.0"
154.118.255.235 - - [06/Nov/2018:01:04:29 +0000] "GET / HTTP/1.1" 200 114689 "-" "-"
213.231.59.229 - - [06/Nov/2018:01:27:19 +0000] "GET / HTTP/1.1" 200 114689 "http://radicalbit.com/" "Mozilla/5.0 (Windows NT 6.0; rv:45.60.17) Gecko/20158382 Firefox/45.60.17"
213.231.59.229 - - [06/Nov/2018:01:27:19 +0000] "GET /xmlrpc.php HTTP/1.1" 404 2196 "http://radicalbit.com/" "Mozilla/5.0 (Windows NT 6.0; rv:45.60.17) Gecko/20158382 Firefox/45.60.17"
213.231.59.229 - - [06/Nov/2018:01:27:19 +0000] "GET /wp-login.php HTTP/1.1" 404 2202 "http://radicalbit.com/" "Mozilla/5.0 (Windows NT 6.0; rv:45.60.17) Gecko/20158382 Firefox/45.60.17"
176.10.99.200 - - [06/Nov/2018:01:34:30 +0000] "GET / HTTP/1.1" 200 114689 "-" "Mozilla/5.0 (Windows NT 5.1; Win64; x64) AppleWebKit/537.36 (KHTML, like Gecko) Chrome/46.0.2486.0 Safari/537.36 Edge/13.10586"
195.176.3.19 - - [06/Nov/2018:01:49:13 +0000] "GET / HTTP/1.1" 200 114689 "-" "Mozilla/5.0 (Windows NT 6.1; WOW64; rv:52.0) Gecko/20100101 Firefox/52.0"
2607:5300:61:9d5:: - - [06/Nov/2018:01:53:49 +0000] "GET /wp-content/uploads/logo_img.php HTTP/1.1" 404 2259 "http://site.ru" "Mozilla/5.0 (Windows; U; Windows NT 5.1; en-US) AppleWebKit/533.4 (KHTML, like Gecko) Chrome/5.0.375.99 Safari/533.4"
97.74.228.245 - - [06/Nov/2018:02:17:08 +0000] "POST /xmlrpc.php HTTP/1.1" 404 2197 "-" "Mozilla/5.0 (Macintosh; U; Intel Mac OS X 10.6; fr; rv:1.9.2.8) Gecko/20100722 Firefox/3.6.8"
