31.170.123.73 - - [06/Nov/2018:03:15:55 +0000] "POST /wp-cron.php?doing_wp_cron=1541474154.7453610897064208984375 HTTP/1.1" 200 40 "http://royalgeekness.com/wp-cron.php?doing_wp_cron=1541474154.7453610897064208984375" "WordPress/4.9.8; http://royalgeekness.com"
52.53.201.78 - - [06/Nov/2018:03:15:55 +0000] "GET / HTTP/1.1" 301 5 "-" "Mozilla/5.0 (Macintosh; Intel Mac OS X 10_12_6) AppleWebKit/537.36 (KHTML, like Gecko) Chrome/61.0.3163.100 Safari/537.36"
52.53.201.78 - - [06/Nov/2018:03:15:57 +0000] "GET / HTTP/1.1" 200 2114 "http://www.royalgeekness.com/" "Mozilla/5.0 (Macintosh; Intel Mac OS X 10_12_6) AppleWebKit/537.36 (KHTML, like Gecko) Chrome/61.0.3163.100 Safari/537.36"
14.177.149.251 - - [06/Nov/2018:03:25:31 +0000] "POST /wp-login.php HTTP/1.1" 200 3285 "-" "Opera/9.80 (Windows NT 6.0) Presto/2.12.388 Version/12.14"
31.170.123.73 - - [06/Nov/2018:03:59:05 +0000] "POST /wp-cron.php?doing_wp_cron=1541476745.0780498981475830078125 HTTP/1.1" 200 40 "http://royalgeekness.com/wp-cron.php?doing_wp_cron=1541476745.0780498981475830078125" "WordPress/4.9.8; http://royalgeekness.com"
193.201.224.210 - - [06/Nov/2018:03:59:05 +0000] "GET /wp-content/plugins/simple-forum/resources/jscript/ajaxupload/sf-uploader.php HTTP/1.1" 404 2110 "http://royalgeekness.com/wp-content/plugins/simple-forum/resources/jscript/ajaxupload/sf-uploader.php" "Mozilla/5.0 (Windows NT 6.1; WOW64) AppleWebKit/537.36 (KHTML, like Gecko) Chrome/42.0.2311.152 Safari/537.36"
193.201.224.210 - - [06/Nov/2018:03:59:06 +0000] "GET /?gf_page=upload HTTP/1.1" 200 2165 "http://royalgeekness.com/?gf_page=upload" "Mozilla/5.0 (Windows NT 6.1; WOW64) AppleWebKit/537.36 (KHTML, like Gecko) Chrome/42.0.2311.152 Safari/537.36"
31.170.123.73 - - [06/Nov/2018:04:37:07 +0000] "POST /wp-cron.php?doing_wp_cron=1541479026.8500831127166748046875 HTTP/1.1" 200 40 "http://royalgeekness.com/wp-cron.php?doing_wp_cron=1541479026.8500831127166748046875" "WordPress/4.9.8; http://royalgeekness.com"
103.243.107.103 - - [06/Nov/2018:04:37:07 +0000] "GET /logo_img.php.suspected HTTP/1.1" 404 5137 "http://site.ru" "Mozilla/5.0 (Windows; U; Windows NT 5.1; en-US) AppleWebKit/533.4 (KHTML, like Gecko) Chrome/5.0.375.99 Safari/533.4"
103.243.107.103 - - [06/Nov/2018:04:37:31 +0000] "GET /logo_img.php.suspected HTTP/1.1" 404 5114 "http://site.ru" "Mozilla/5.0 (Windows; U; Windows NT 5.1; en-US) AppleWebKit/533.4 (KHTML, like Gecko) Chrome/5.0.375.99 Safari/533.4"
31.170.123.73 - - [06/Nov/2018:05:28:57 +0000] "POST /wp-cron.php?doing_wp_cron=1541482136.5999000072479248046875 HTTP/1.1" 499 0 "http://royalgeekness.com/wp-cron.php?doing_wp_cron=1541482136.5999000072479248046875" "WordPress/4.9.8; http://royalgeekness.com"
80.211.27.105 - - [06/Nov/2018:05:28:57 +0000] "GET /user/register/ HTTP/1.1" 404 5138 "-" "Mozilla/5.0 (Windows; U; Windows NT 5.1; de; rv:1.9) Gecko/2008052906 Firefox/3.0"
154.118.255.235 - - [06/Nov/2018:05:36:59 +0000] "GET / HTTP/1.1" 200 5125 "-" "-"
31.170.123.73 - - [06/Nov/2018:06:33:44 +0000] "POST /wp-cron.php?doing_wp_cron=1541486023.8242900371551513671875 HTTP/1.1" 200 40 "http://royalgeekness.com/wp-cron.php?doing_wp_cron=1541486023.8242900371551513671875" "WordPress/4.9.8; http://royalgeekness.com"
109.203.101.161 - - [06/Nov/2018:06:33:44 +0000] "GET /wp-includes/admin_login.php HTTP/1.1" 404 5138 "http://site.ru" "Mozilla/5.0 (Windows; U; Windows NT 5.1; en-US) AppleWebKit/533.4 (KHTML, like Gecko) Chrome/5.0.375.99 Safari/533.4"
218.152.169.2 - - [06/Nov/2018:06:48:25 +0000] "GET /wp-login.php HTTP/1.1" 200 2323 "-" "Mozilla/5.0 (Windows NT 5.1; rv:29.0) Gecko/20100101 Firefox/29.0"
218.152.169.2 - - [06/Nov/2018:06:48:26 +0000] "POST /wp-login.php HTTP/1.1" 200 3290 "-" "Mozilla/5.0 (Windows NT 5.1; rv:29.0) Gecko/20100101 Firefox/29.0"
31.220.111.192 - - [06/Nov/2018:06:49:58 +0000] "GET /wp-blog-posts.php HTTP/1.1" 404 5137 "http://site.ru" "Mozilla/5.0 (Windows; U; Windows NT 5.1; en-US) AppleWebKit/533.4 (KHTML, like Gecko) Chrome/5.0.375.99 Safari/533.4"
31.170.123.73 - - [06/Nov/2018:07:04:37 +0000] "POST /wp-cron.php?doing_wp_cron=1541487876.8097929954528808593750 HTTP/1.1" 200 40 "http://royalgeekness.com/wp-cron.php?doing_wp_cron=1541487876.8097929954528808593750" "WordPress/4.9.8; http://royalgeekness.com"
50.62.161.185 - - [06/Nov/2018:07:04:37 +0000] "GET /wp-blog-mail.php HTTP/1.1" 404 5125 "http://site.ru" "Mozilla/5.0 (Windows; U; Windows NT 5.1; en-US) AppleWebKit/533.4 (KHTML, like Gecko) Chrome/5.0.375.99 Safari/533.4"
50.62.161.185 - - [06/Nov/2018:07:04:41 +0000] "GET /wp-blog-mail.php HTTP/1.1" 404 5126 "http://site.ru" "Mozilla/5.0 (Windows; U; Windows NT 5.1; en-US) AppleWebKit/533.4 (KHTML, like Gecko) Chrome/5.0.375.99 Safari/533.4"
112.137.167.172 - - [06/Nov/2018:07:07:54 +0000] "GET /modules/mod_ariimageslidersa/098.php HTTP/1.1" 404 5138 "http://site.ru" "Mozilla/5.0 (Windows; U; Windows NT 5.1; en-US) AppleWebKit/533.4 (KHTML, like Gecko) Chrome/5.0.375.99 Safari/533.4"
31.170.123.73 - - [06/Nov/2018:07:53:53 +0000] "POST /wp-cron.php?doing_wp_cron=1541490832.7305099964141845703125 HTTP/1.1" 200 40 "http://royalgeekness.com/wp-cron.php?doing_wp_cron=1541490832.7305099964141845703125" "WordPress/4.9.8; http://royalgeekness.com"
171.61.142.22 - - [06/Nov/2018:07:53:53 +0000] "GET / HTTP/1.1" 200 5154 "http://royalgeekness.com" "Mozilla/4.0 (compatible; MSIE 6.0; Windows NT 5.1; SV1; .NET CLR 2.0.50727; .NET CLR 1.1.4322)"
171.61.142.22 - - [06/Nov/2018:07:53:54 +0000] "GET / HTTP/1.1" 200 5137 "http://royalgeekness.com" "Mozilla/4.0 (compatible; MSIE 6.0; Windows NT 5.1; SV1; .NET CLR 2.0.50727; .NET CLR 1.1.4322)"
31.170.123.73 - - [06/Nov/2018:08:40:59 +0000] "POST /wp-cron.php?doing_wp_cron=1541493658.8999500274658203125000 HTTP/1.1" 200 40 "http://royalgeekness.com/wp-cron.php?doing_wp_cron=1541493658.8999500274658203125000" "WordPress/4.9.8; http://royalgeekness.com"
18.188.255.25 - - [06/Nov/2018:08:40:59 +0000] "GET /wp-login.php HTTP/1.1" 200 1337 "https://www.google.com/url?5d6c8f725d83672c7c6a5d7ecd21bc6a" "Mozilla/5.0 (Windows NT 6.1; rv:36.0) Gecko/20100101 Firefox/36.0"
18.188.255.25 - - [06/Nov/2018:08:41:00 +0000] "POST /wp-login.php HTTP/1.1" 200 1736 "https://www.google.com/url?5d6c8f725d83672c7c6a5d7ecd21bc6a" "Mozilla/5.0 (Windows NT 6.1; rv:36.0) Gecko/20100101 Firefox/36.0"
31.170.123.73 - - [06/Nov/2018:09:03:11 +0000] "POST /wp-cron.php?doing_wp_cron=1541494990.7325170040130615234375 HTTP/1.1" 200 40 "http://royalgeekness.com/wp-cron.php?doing_wp_cron=1541494990.7325170040130615234375" "WordPress/4.9.8; http://royalgeekness.com"
86.109.170.96 - - [06/Nov/2018:09:03:11 +0000] "GET /wso.php HTTP/1.1" 404 5120 "http://site.ru" "Mozilla/5.0 (Windows; U; Windows NT 5.1; en-US) AppleWebKit/533.4 (KHTML, like Gecko) Chrome/5.0.375.99 Safari/533.4"
31.170.123.73 - - [06/Nov/2018:10:13:09 +0000] "POST /wp-cron.php?doing_wp_cron=1541499188.4023270606994628906250 HTTP/1.1" 200 40 "http://royalgeekness.com/wp-cron.php?doing_wp_cron=1541499188.4023270606994628906250" "WordPress/4.9.8; http://royalgeekness.com"
23.225.221.162 - - [06/Nov/2018:10:13:09 +0000] "GET /rois.php HTTP/1.1" 404 5121 "http://site.ru" "Mozilla/5.0 (Windows; U; Windows NT 5.1; en-US) AppleWebKit/533.4 (KHTML, like Gecko) Chrome/5.0.375.99 Safari/533.4"
60.246.3.84 - - [06/Nov/2018:10:45:45 +0000] "POST /wp-login.php HTTP/1.1" 200 3284 "-" "Opera/9.80 (Windows NT 6.0) Presto/2.12.388 Version/12.14"
31.170.123.73 - - [06/Nov/2018:12:05:31 +0000] "POST /wp-cron.php?doing_wp_cron=1541505931.3293309211730957031250 HTTP/1.1" 200 40 "http://royalgeekness.com/wp-cron.php?doing_wp_cron=1541505931.3293309211730957031250" "WordPress/4.9.8; http://royalgeekness.com"
208.97.138.194 - - [06/Nov/2018:12:05:32 +0000] "GET /wp-includes/css/css.php HTTP/1.1" 404 5144 "royalgeekness.com" "Mozilla/5.0 (Windows NT 6.1; WOW64) AppleWebKit/537.36 (KHTML, like Gecko) Chrome/50.0.2661.75 Safari/537.36"
31.170.123.73 - - [06/Nov/2018:13:21:47 +0000] "POST /wp-cron.php?doing_wp_cron=1541510506.1621389389038085937500 HTTP/1.1" 499 0 "http://royalgeekness.com/wp-cron.php?doing_wp_cron=1541510506.1621389389038085937500" "WordPress/4.9.8; http://royalgeekness.com"
61.119.59.36 - - [06/Nov/2018:13:21:47 +0000] "GET /wp-admin/default.php HTTP/1.1" 404 5138 "http://site.ru" "Mozilla/5.0 (Windows; U; Windows NT 5.1; en-US) AppleWebKit/533.4 (KHTML, like Gecko) Chrome/5.0.375.99 Safari/533.4"
61.119.59.36 - - [06/Nov/2018:13:22:00 +0000] "GET /wp-admin/default.php HTTP/1.1" 404 5126 "http://site.ru" "Mozilla/5.0 (Windows; U; Windows NT 5.1; en-US) AppleWebKit/533.4 (KHTML, like Gecko) Chrome/5.0.375.99 Safari/533.4"
31.170.123.73 - - [06/Nov/2018:14:16:39 +0000] "POST /wp-cron.php?doing_wp_cron=1541513799.1950490474700927734375 HTTP/1.1" 200 40 "http://royalgeekness.com/wp-cron.php?doing_wp_cron=1541513799.1950490474700927734375" "WordPress/4.9.8; http://royalgeekness.com"
5.45.65.152 - - [06/Nov/2018:14:16:39 +0000] "GET //installer-backup.php HTTP/1.1" 301 5 "-" "Mozilla/5.0 (Windows; U; Windows NT 5.1; en-US; rv:1.9.1.6) Gecko/20091201 Firefox/3.5.6 (.NET CLR 2.0.50727; .NET CLR 3.0.4506.2152; .NET CLR 3.5.30729)"
31.170.123.73 - - [06/Nov/2018:14:41:11 +0000] "POST /wp-cron.php?doing_wp_cron=1541515270.9906830787658691406250 HTTP/1.1" 200 40 "http://royalgeekness.com/wp-cron.php?doing_wp_cron=1541515270.9906830787658691406250" "WordPress/4.9.8; http://royalgeekness.com"
87.238.192.35 - - [06/Nov/2018:14:41:11 +0000] "GET /wp-seo.php HTTP/1.1" 404 5096 "http://site.ru" "Mozilla/5.0 (Windows; U; Windows NT 5.1; en-US) AppleWebKit/533.4 (KHTML, like Gecko) Chrome/5.0.375.99 Safari/533.4"
87.238.192.35 - - [06/Nov/2018:14:41:35 +0000] "GET /wp-seo.php HTTP/1.1" 404 5114 "http://site.ru" "Mozilla/5.0 (Windows; U; Windows NT 5.1; en-US) AppleWebKit/533.4 (KHTML, like Gecko) Chrome/5.0.375.99 Safari/533.4"
31.170.123.73 - - [06/Nov/2018:16:36:33 +0000] "POST /wp-cron.php?doing_wp_cron=1541522192.5136930942535400390625 HTTP/1.1" 200 40 "http://royalgeekness.com/wp-cron.php?doing_wp_cron=1541522192.5136930942535400390625" "WordPress/4.9.8; http://royalgeekness.com"
81.88.49.28 - - [06/Nov/2018:16:36:33 +0000] "GET /wp-content/plugins/ajax-user/zz.php.pjpeg HTTP/1.1" 404 5170 "http://site.ru" "Mozilla/5.0 (Windows; U; Windows NT 5.1; en-US) AppleWebKit/533.4 (KHTML, like Gecko) Chrome/5.0.375.99 Safari/533.4"
81.88.49.29 - - [06/Nov/2018:16:36:35 +0000] "GET /wp-content/plugins/ajax-user/zz.php.pjpeg HTTP/1.1" 404 5108 "http://site.ru" "Mozilla/5.0 (Windows; U; Windows NT 5.1; en-US) AppleWebKit/533.4 (KHTML, like Gecko) Chrome/5.0.375.99 Safari/533.4"
31.170.123.73 - - [06/Nov/2018:17:16:01 +0000] "POST /wp-cron.php?doing_wp_cron=1541524560.3593959808349609375000 HTTP/1.1" 499 0 "http://royalgeekness.com/wp-cron.php?doing_wp_cron=1541524560.3593959808349609375000" "WordPress/4.9.8; http://royalgeekness.com"
198.46.81.44 - - [06/Nov/2018:17:16:01 +0000] "GET /wp-content/plugins/studio-tinymce-widget/mark.php HTTP/1.1" 404 5045 "http://site.ru" "Mozilla/5.0 (Windows; U; Windows NT 5.1; en-US) AppleWebKit/533.4 (KHTML, like Gecko) Chrome/5.0.375.99 Safari/533.4"
31.170.123.73 - - [06/Nov/2018:17:20:31 +0000] "POST /wp-cron.php?doing_wp_cron=1541524830.4915750026702880859375 HTTP/1.1" 200 40 "http://royalgeekness.com/wp-cron.php?doing_wp_cron=1541524830.4915750026702880859375" "WordPress/4.9.8; http://royalgeekness.com"
13.92.94.200 - - [06/Nov/2018:17:20:31 +0000] "GET /user.php HTTP/1.1" 404 5150 "http://site.ru" "Mozilla/5.0 (Windows; U; Windows NT 5.1; en-US) AppleWebKit/533.4 (KHTML, like Gecko) Chrome/5.0.375.99 Safari/533.4"
13.92.94.200 - - [06/Nov/2018:17:20:31 +0000] "GET /user.php HTTP/1.1" 404 5156 "http://site.ru" "Mozilla/5.0 (Windows; U; Windows NT 5.1; en-US) AppleWebKit/533.4 (KHTML, like Gecko) Chrome/5.0.375.99 Safari/533.4"
31.170.123.73 - - [06/Nov/2018:18:01:58 +0000] "POST /wp-cron.php?doing_wp_cron=1541527317.9560790061950683593750 HTTP/1.1" 200 40 "http://royalgeekness.com/wp-cron.php?doing_wp_cron=1541527317.9560790061950683593750" "WordPress/4.9.8; http://royalgeekness.com"
182.75.175.2 - - [06/Nov/2018:18:01:58 +0000] "POST /wp-login.php HTTP/1.1" 200 3301 "-" "Opera/9.80 (Windows NT 6.0) Presto/2.12.388 Version/12.14"
66.249.66.157 - - [06/Nov/2018:18:06:42 +0000] "GET /robots.txt HTTP/1.1" 200 2162 "-" "Mozilla/5.0 (compatible; Googlebot/2.1; +http://www.google.com/bot.html)"
66.249.66.158 - - [06/Nov/2018:18:06:43 +0000] "GET / HTTP/1.1" 301 5 "-" "Mozilla/5.0 (Linux; Android 6.0.1; Nexus 5X Build/MMB29P) AppleWebKit/537.36 (KHTML, like Gecko) Chrome/41.0.2272.96 Mobile Safari/537.36 (compatible; Googlebot/2.1; +http://www.google.com/bot.html)"
66.249.66.27 - - [06/Nov/2018:18:06:44 +0000] "GET / HTTP/1.1" 200 2047 "-" "Mozilla/5.0 (Linux; Android 6.0.1; Nexus 5X Build/MMB29P) AppleWebKit/537.36 (KHTML, like Gecko) Chrome/41.0.2272.96 Mobile Safari/537.36 (compatible; Googlebot/2.1; +http://www.google.com/bot.html)"
31.170.123.73 - - [06/Nov/2018:18:20:41 +0000] "POST /wp-cron.php?doing_wp_cron=1541528441.1203949451446533203125 HTTP/1.1" 200 40 "http://royalgeekness.com/wp-cron.php?doing_wp_cron=1541528441.1203949451446533203125" "WordPress/4.9.8; http://royalgeekness.com"
89.253.192.194 - - [06/Nov/2018:18:20:41 +0000] "GET /wp-admin/logo_img.php HTTP/1.1" 404 5121 "http://site.ru" "Mozilla/5.0 (Windows; U; Windows NT 5.1; en-US) AppleWebKit/533.4 (KHTML, like Gecko) Chrome/5.0.375.99 Safari/533.4"
31.170.123.73 - - [06/Nov/2018:19:30:28 +0000] "POST /wp-cron.php?doing_wp_cron=1541532628.0821809768676757812500 HTTP/1.1" 200 40 "http://royalgeekness.com/wp-cron.php?doing_wp_cron=1541532628.0821809768676757812500" "WordPress/4.9.8; http://royalgeekness.com"
66.249.66.27 - - [06/Nov/2018:19:30:28 +0000] "GET / HTTP/1.1" 200 2100 "-" "Mozilla/5.0 (compatible; Googlebot/2.1; +http://www.google.com/bot.html)"
31.170.123.73 - - [06/Nov/2018:20:32:50 +0000] "POST /wp-cron.php?doing_wp_cron=1541536370.2294321060180664062500 HTTP/1.1" 200 40 "http://royalgeekness.com/wp-cron.php?doing_wp_cron=1541536370.2294321060180664062500" "WordPress/4.9.8; http://royalgeekness.com"
120.35.38.152 - - [06/Nov/2018:20:32:50 +0000] "HEAD /wp-blog-header.php HTTP/1.1" 404 0 "-" "-"
31.170.123.73 - - [06/Nov/2018:21:25:05 +0000] "POST /wp-cron.php?doing_wp_cron=1541539505.4344749450683593750000 HTTP/1.1" 200 40 "http://royalgeekness.com/wp-cron.php?doing_wp_cron=1541539505.4344749450683593750000" "WordPress/4.9.8; http://royalgeekness.com"
213.251.182.115 - - [06/Nov/2018:21:25:06 +0000] "GET /wp-backup.php HTTP/1.1" 404 5155 "http://site.ru" "Mozilla/5.0 (Windows; U; Windows NT 5.1; en-US) AppleWebKit/533.4 (KHTML, like Gecko) Chrome/5.0.375.99 Safari/533.4"
213.251.182.115 - - [06/Nov/2018:21:25:25 +0000] "GET /wp-backup.php HTTP/1.1" 404 5126 "http://site.ru" "Mozilla/5.0 (Windows; U; Windows NT 5.1; en-US) AppleWebKit/533.4 (KHTML, like Gecko) Chrome/5.0.375.99 Safari/533.4"
213.251.182.115 - - [06/Nov/2018:21:25:25 +0000] "GET /wp-backup.php HTTP/1.1" 404 5131 "http://site.ru" "Mozilla/5.0 (Windows; U; Windows NT 5.1; en-US) AppleWebKit/533.4 (KHTML, like Gecko) Chrome/5.0.375.99 Safari/533.4"
31.170.123.73 - - [06/Nov/2018:21:47:48 +0000] "POST /wp-cron.php?doing_wp_cron=1541540867.1806890964508056640625 HTTP/1.1" 499 0 "http://royalgeekness.com/wp-cron.php?doing_wp_cron=1541540867.1806890964508056640625" "WordPress/4.9.8; http://royalgeekness.com"
69.73.182.184 - - [06/Nov/2018:21:47:49 +0000] "GET /wp-caches.php HTTP/1.1" 404 5136 "http://site.ru" "Mozilla/5.0 (Windows; U; Windows NT 5.1; en-US) AppleWebKit/533.4 (KHTML, like Gecko) Chrome/5.0.375.99 Safari/533.4"
69.73.182.184 - - [06/Nov/2018:21:47:50 +0000] "GET /wp-caches.php HTTP/1.1" 404 5132 "http://site.ru" "Mozilla/5.0 (Windows; U; Windows NT 5.1; en-US) AppleWebKit/533.4 (KHTML, like Gecko) Chrome/5.0.375.99 Safari/533.4"
31.170.123.73 - - [06/Nov/2018:23:25:06 +0000] "POST /wp-cron.php?doing_wp_cron=1541546705.5966958999633789062500 HTTP/1.1" 200 40 "http://royalgeekness.com/wp-cron.php?doing_wp_cron=1541546705.5966958999633789062500" "WordPress/4.9.8; http://royalgeekness.com"
104.200.20.162 - - [06/Nov/2018:23:25:06 +0000] "GET /wp-content/plugins/nav-menus.php HTTP/1.1" 404 5148 "http://site.ru" "Mozilla/5.0 (Windows; U; Windows NT 5.1; en-US) AppleWebKit/533.4 (KHTML, like Gecko) Chrome/5.0.375.99 Safari/533.4"
104.200.20.162 - - [06/Nov/2018:23:25:11 +0000] "GET /wp-content/plugins/nav-menus.php HTTP/1.1" 404 5177 "http://site.ru" "Mozilla/5.0 (Windows; U; Windows NT 5.1; en-US) AppleWebKit/533.4 (KHTML, like Gecko) Chrome/5.0.375.99 Safari/533.4"
89.163.131.167 - - [06/Nov/2018:23:49:35 +0000] "HEAD / HTTP/1.1" 200 0 "-" "Mozilla/5.0 (compatible; Uptimebot/1.0; +http://www.uptime.com/uptimebot)"
31.170.123.73 - - [07/Nov/2018:00:03:08 +0000] "POST /wp-cron.php?doing_wp_cron=1541548988.0836639404296875000000 HTTP/1.1" 200 40 "http://royalgeekness.com/wp-cron.php?doing_wp_cron=1541548988.0836639404296875000000" "WordPress/4.9.8; http://royalgeekness.com"
52.173.241.248 - - [07/Nov/2018:00:03:08 +0000] "GET / HTTP/1.1" 200 2100 "-" "Mozilla/5.0 (Windows NT 10.0; Win64; x64; rv:59.0) Gecko/20100101 Firefox/59.0"
52.173.241.248 - - [07/Nov/2018:00:09:03 +0000] "GET / HTTP/1.1" 200 2114 "-" "Mozilla/5.0 (Windows NT 10.0; Win64; x64) AppleWebKit/537.36 (KHTML, like Gecko) Chrome/64.0.3282.186 Safari/537.36"
