157.55.39.38 - - [05/Nov/2018:03:04:04 +0000] "GET /robots.txt HTTP/1.0" 404 208 "-" "Mozilla/5.0 (compatible; bingbot/2.0; +http://www.bing.com/bingbot.htm)"
40.77.167.10 - - [05/Nov/2018:03:04:09 +0000] "GET / HTTP/1.0" 200 11888 "-" "Mozilla/5.0 (iPhone; CPU iPhone OS 7_0 like Mac OS X) AppleWebKit/537.51.1 (KHTML, like Gecko) Version/7.0 Mobile/11A465 Safari/9537.53 (compatible; bingbot/2.0; +http://www.bing.com/bingbot.htm)"
40.77.192.177 - - [05/Nov/2018:03:04:14 +0000] "GET /css/jpreloader.css HTTP/1.0" 200 2411 "-" "Mozilla/5.0 (iPhone; CPU iPhone OS 7_0 like Mac OS X) AppleWebKit/537.51.1 (KHTML, like Gecko) Version/7.0 Mobile/11A465 Safari/9537.53 BingPreview/1.0b"
40.77.253.98 - - [05/Nov/2018:03:04:15 +0000] "GET /css/base.css HTTP/1.0" 200 18905 "-" "Mozilla/5.0 (iPhone; CPU iPhone OS 7_0 like Mac OS X) AppleWebKit/537.51.1 (KHTML, like Gecko) Version/7.0 Mobile/11A465 Safari/9537.53 BingPreview/1.0b"
40.77.253.252 - - [05/Nov/2018:03:04:17 +0000] "GET /css/jquery.vegas.css HTTP/1.0" 200 710 "-" "Mozilla/5.0 (iPhone; CPU iPhone OS 7_0 like Mac OS X) AppleWebKit/537.51.1 (KHTML, like Gecko) Version/7.0 Mobile/11A465 Safari/9537.53 BingPreview/1.0b"
40.77.252.108 - - [05/Nov/2018:03:04:18 +0000] "GET /css/theme/bw.css HTTP/1.0" 200 1151 "-" "Mozilla/5.0 (iPhone; CPU iPhone OS 7_0 like Mac OS X) AppleWebKit/537.51.1 (KHTML, like Gecko) Version/7.0 Mobile/11A465 Safari/9537.53 BingPreview/1.0b"
40.77.194.71 - - [05/Nov/2018:03:04:20 +0000] "GET /js/jquery.min.js HTTP/1.0" 200 93070 "-" "Mozilla/5.0 (iPhone; CPU iPhone OS 7_0 like Mac OS X) AppleWebKit/537.51.1 (KHTML, like Gecko) Version/7.0 Mobile/11A465 Safari/9537.53 BingPreview/1.0b"
40.77.252.74 - - [05/Nov/2018:03:04:22 +0000] "GET /js/jpreloader.min.js HTTP/1.0" 200 3292 "-" "Mozilla/5.0 (iPhone; CPU iPhone OS 7_0 like Mac OS X) AppleWebKit/537.51.1 (KHTML, like Gecko) Version/7.0 Mobile/11A465 Safari/9537.53 BingPreview/1.0b"
40.77.192.148 - - [05/Nov/2018:03:04:23 +0000] "GET /js/vegas.js HTTP/1.0" 200 14573 "-" "Mozilla/5.0 (iPhone; CPU iPhone OS 7_0 like Mac OS X) AppleWebKit/537.51.1 (KHTML, like Gecko) Version/7.0 Mobile/11A465 Safari/9537.53 BingPreview/1.0b"
40.77.167.10 - - [05/Nov/2018:03:04:23 +0000] "GET /robots.txt HTTP/1.0" 404 208 "-" "Mozilla/5.0 (compatible; bingbot/2.0; +http://www.bing.com/bingbot.htm)"
40.77.194.83 - - [05/Nov/2018:03:04:24 +0000] "GET /js/pagescroller.js HTTP/1.0" 200 3317 "-" "Mozilla/5.0 (iPhone; CPU iPhone OS 7_0 like Mac OS X) AppleWebKit/537.51.1 (KHTML, like Gecko) Version/7.0 Mobile/11A465 Safari/9537.53 BingPreview/1.0b"
40.77.192.3 - - [05/Nov/2018:03:04:25 +0000] "GET /js/jquery.easing.1.3.js HTTP/1.0" 200 8301 "-" "Mozilla/5.0 (iPhone; CPU iPhone OS 7_0 like Mac OS X) AppleWebKit/537.51.1 (KHTML, like Gecko) Version/7.0 Mobile/11A465 Safari/9537.53 BingPreview/1.0b"
40.77.193.80 - - [05/Nov/2018:03:04:26 +0000] "GET /js/waypoints.min.js HTTP/1.0" 200 8051 "-" "Mozilla/5.0 (iPhone; CPU iPhone OS 7_0 like Mac OS X) AppleWebKit/537.51.1 (KHTML, like Gecko) Version/7.0 Mobile/11A465 Safari/9537.53 BingPreview/1.0b"
40.77.195.9 - - [05/Nov/2018:03:04:27 +0000] "GET /js/validate.min.js HTTP/1.0" 200 21069 "-" "Mozilla/5.0 (iPhone; CPU iPhone OS 7_0 like Mac OS X) AppleWebKit/537.51.1 (KHTML, like Gecko) Version/7.0 Mobile/11A465 Safari/9537.53 BingPreview/1.0b"
40.77.192.159 - - [05/Nov/2018:03:04:29 +0000] "GET /js/script.js HTTP/1.0" 200 9238 "-" "Mozilla/5.0 (iPhone; CPU iPhone OS 7_0 like Mac OS X) AppleWebKit/537.51.1 (KHTML, like Gecko) Version/7.0 Mobile/11A465 Safari/9537.53 BingPreview/1.0b"
40.77.195.175 - - [05/Nov/2018:03:04:34 +0000] "GET /img/mark.png HTTP/1.0" 200 2000 "-" "Mozilla/5.0 (iPhone; CPU iPhone OS 7_0 like Mac OS X) AppleWebKit/537.51.1 (KHTML, like Gecko) Version/7.0 Mobile/11A465 Safari/9537.53 BingPreview/1.0b"
110.83.60.116 - - [05/Nov/2018:03:55:20 +0000] "HEAD /wp-blog-header.php HTTP/1.0" 404 - "-" "-"
89.238.186.73 - - [05/Nov/2018:04:23:14 +0000] "GET / HTTP/1.0" 200 11888 "http://looklala.com/" "Mozilla/5.0 (Windows NT 10.0) AppleWebKit/537.36 (KHTML, like Gecko) Chrome/62.0.3202.94 Safari/537.36"
89.238.186.73 - - [05/Nov/2018:04:23:15 +0000] "POST / HTTP/1.0" 200 11888 "http://looklala.com/" "Mozilla/5.0 (Windows NT 10.0) AppleWebKit/537.36 (KHTML, like Gecko) Chrome/62.0.3202.94 Safari/537.36"
185.10.68.103 - - [05/Nov/2018:04:27:50 +0000] "GET / HTTP/1.0" 200 11888 "-" "Mozilla/5.0 (Windows NT 6.3; Win64; x64) AppleWebKit/537.36 (KHTML, like Gecko) Chrome/60.0.3112.113 Safari/537.36"
185.10.68.103 - - [05/Nov/2018:04:27:52 +0000] "GET /?email-subscribe=lindaldiv%40aol.com& HTTP/1.0" 200 11888 "http://looklala.com/" "Mozilla/5.0 (Windows NT 6.3; Win64; x64) AppleWebKit/537.36 (KHTML, like Gecko) Chrome/60.0.3112.113 Safari/537.36"
39.98.62.11 - - [05/Nov/2018:06:35:13 +0000] "GET / HTTP/1.0" 200 11888 "-" "-"
18.221.39.211 - - [05/Nov/2018:06:47:51 +0000] "GET / HTTP/1.0" 200 11888 "-" "Mozilla/5.0 (Macintosh; Intel Mac OS X x.y; rv:42.0) Trident/5.0 Chrome/51.0.2704.106 Safari/537.36 OPR/38.0.2220.41"
74.82.47.194 - - [05/Nov/2018:07:15:15 +0000] "GET / HTTP/1.0" 200 11888 "-" "Mozilla/5.0 (Windows NT 6.1) AppleWebKit/537.36 (KHTML, like Gecko) Chrome/41.0.2272.104 Safari/537.36"
74.82.47.194 - - [05/Nov/2018:07:15:16 +0000] "GET /?email-subscribe=brianprayoga%40gmail.com& HTTP/1.0" 200 11888 "http://looklala.com/" "Mozilla/5.0 (Windows NT 6.1) AppleWebKit/537.36 (KHTML, like Gecko) Chrome/41.0.2272.104 Safari/537.36"
18.220.65.247 - - [05/Nov/2018:07:15:23 +0000] "GET / HTTP/1.0" 200 11888 "-" "Mozilla/5.0 (X11; Linux x86_64) Gecko/20100101 Chrome/51.0.2704.106 Safari/537.36 OPR/38.0.2220.41"
18.218.156.196 - - [05/Nov/2018:07:17:51 +0000] "GET / HTTP/1.0" 200 11888 "-" "Mozilla/5.0 (X11; Linux x86_64) AppleWebKit/537.36 (KHTML, like Gecko) Firefox/42.0"
180.249.95.12 - - [05/Nov/2018:07:20:29 +0000] "GET /wp-login.php HTTP/1.0" 404 210 "-" "Mozilla/5.0 (Windows NT 6.1; WOW64; rv:40.0) Gecko/20100101 Firefox/40.1"
180.249.95.12 - - [05/Nov/2018:07:20:30 +0000] "GET / HTTP/1.0" 200 11888 "-" "Mozilla/5.0 (Windows NT 6.1; WOW64; rv:40.0) Gecko/20100101 Firefox/40.1"
180.76.15.22 - - [05/Nov/2018:07:24:27 +0000] "GET /?content/24977.html HTTP/1.0" 200 11888 "-" "Mozilla/5.0 (compatible; Baiduspider/2.0; +http://www.baidu.com/search/spider.html)"
3.16.46.187 - - [05/Nov/2018:07:48:12 +0000] "GET / HTTP/1.0" 200 11888 "-" "Mozilla/5.0 (Windows NT 6.1; Win64; x64; rv:47.0) Gecko/20100101 Safari/602.1"
180.76.15.34 - - [05/Nov/2018:07:57:46 +0000] "GET /?content/21635.html HTTP/1.0" 200 11888 "-" "Mozilla/5.0 (compatible; Baiduspider/2.0; +http://www.baidu.com/search/spider.html)"
18.188.208.82 - - [05/Nov/2018:08:12:46 +0000] "GET / HTTP/1.0" 200 11888 "-" "Mozilla/5.0 (X11; Linux x86_64) AppleWebKit/537.36 (KHTML, like Gecko) Chrome/51.0.2704.106 Safari/537.36 OPR/38.0.2220.41"
18.224.212.83 - - [05/Nov/2018:09:13:15 +0000] "GET / HTTP/1.0" 200 11888 "-" "Mozilla/5.0 (X11; Linux x86_64) Gecko/20100101 Firefox/42.0"
2a03:2880:ff:21::face:b00c - - [05/Nov/2018:09:26:31 +0000] "GET /robots.txt HTTP/1.0" 404 208 "-" "facebookexternalhit/1.1 (+http://www.facebook.com/externalhit_uatext.php)"
18.223.156.199 - - [05/Nov/2018:09:47:59 +0000] "GET / HTTP/1.0" 200 11888 "-" "Mozilla/5.0 (Windows NT 6.1; Win64; x64; rv:47.0) AppleWebKit/537.36 (KHTML, like Gecko) Chrome/51.0.2704.106 Safari/537.36 OPR/38.0.2220.41"
18.218.10.23 - - [05/Nov/2018:09:48:02 +0000] "GET / HTTP/1.0" 200 11888 "-" "Mozilla/5.0 (Windows NT 6.1; Win64; x64; rv:47.0) AppleWebKit/537.36 (KHTML, like Gecko) Chrome/51.0.2704.106 Safari/537.36 OPR/38.0.2220.41"
195.254.134.242 - - [05/Nov/2018:09:50:30 +0000] "GET / HTTP/1.0" 200 11888 "-" "Mozilla/5.0 (Windows NT 6.1; WOW64) AppleWebKit/537.36 (KHTML, like Gecko) Chrome/52.0.2743.116 Safari/537.36"
195.254.134.242 - - [05/Nov/2018:09:50:31 +0000] "GET /?email-subscribe=mustang1997da%40yahoo.com& HTTP/1.0" 200 11888 "http://looklala.com/" "Mozilla/5.0 (Windows NT 6.1; WOW64) AppleWebKit/537.36 (KHTML, like Gecko) Chrome/52.0.2743.116 Safari/537.36"
2a03:2880:10ff:5::face:b00c - - [05/Nov/2018:10:11:36 +0000] "GET / HTTP/1.0" 200 11888 "-" "Mozilla/5.0 (Windows NT 10.0; Win64; x64) AppleWebKit/537.36 (KHTML, like Gecko) Chrome/70.0.3538.77 Safari/537.36"
2a03:2880:10ff:5::face:b00c - - [05/Nov/2018:10:11:36 +0000] "GET /css/jpreloader.css HTTP/1.0" 200 2411 "http://looklala.com/" "Mozilla/5.0 (Windows NT 10.0; Win64; x64) AppleWebKit/537.36 (KHTML, like Gecko) Chrome/70.0.3538.77 Safari/537.36"
2a03:2880:10ff:5::face:b00c - - [05/Nov/2018:10:11:36 +0000] "GET /js/jpreloader.min.js HTTP/1.0" 200 3292 "http://looklala.com/" "Mozilla/5.0 (Windows NT 10.0; Win64; x64) AppleWebKit/537.36 (KHTML, like Gecko) Chrome/70.0.3538.77 Safari/537.36"
2a03:2880:10ff:5::face:b00c - - [05/Nov/2018:10:11:36 +0000] "GET /js/vegas.js HTTP/1.0" 200 14573 "http://looklala.com/" "Mozilla/5.0 (Windows NT 10.0; Win64; x64) AppleWebKit/537.36 (KHTML, like Gecko) Chrome/70.0.3538.77 Safari/537.36"
2a03:2880:10ff:1e::face:b00c - - [05/Nov/2018:10:11:37 +0000] "GET /css/theme/bw.css HTTP/1.0" 200 1151 "http://looklala.com/" "Mozilla/5.0 (Windows NT 10.0; Win64; x64) AppleWebKit/537.36 (KHTML, like Gecko) Chrome/70.0.3538.77 Safari/537.36"
2a03:2880:10ff:10::face:b00c - - [05/Nov/2018:10:11:37 +0000] "GET /js/jquery.min.js HTTP/1.0" 200 93070 "http://looklala.com/" "Mozilla/5.0 (Windows NT 10.0; Win64; x64) AppleWebKit/537.36 (KHTML, like Gecko) Chrome/70.0.3538.77 Safari/537.36"
2a03:2880:10ff:5::face:b00c - - [05/Nov/2018:10:11:37 +0000] "GET /js/pagescroller.js HTTP/1.0" 200 3317 "http://looklala.com/" "Mozilla/5.0 (Windows NT 10.0; Win64; x64) AppleWebKit/537.36 (KHTML, like Gecko) Chrome/70.0.3538.77 Safari/537.36"
2a03:2880:10ff:11::face:b00c - - [05/Nov/2018:10:11:37 +0000] "GET /css/jquery.vegas.css HTTP/1.0" 200 710 "http://looklala.com/" "Mozilla/5.0 (Windows NT 10.0; Win64; x64) AppleWebKit/537.36 (KHTML, like Gecko) Chrome/70.0.3538.77 Safari/537.36"
2a03:2880:10ff:1e::face:b00c - - [05/Nov/2018:10:11:37 +0000] "GET /js/jquery.easing.1.3.js HTTP/1.0" 200 8301 "http://looklala.com/" "Mozilla/5.0 (Windows NT 10.0; Win64; x64) AppleWebKit/537.36 (KHTML, like Gecko) Chrome/70.0.3538.77 Safari/537.36"
2a03:2880:10ff:19::face:b00c - - [05/Nov/2018:10:11:37 +0000] "GET /css/base.css HTTP/1.0" 200 18905 "http://looklala.com/" "Mozilla/5.0 (Windows NT 10.0; Win64; x64) AppleWebKit/537.36 (KHTML, like Gecko) Chrome/70.0.3538.77 Safari/537.36"
2a03:2880:10ff:13::face:b00c - - [05/Nov/2018:10:11:37 +0000] "GET /fonts/font-awesome/css/font-awesome.min.css HTTP/1.0" 200 22504 "http://looklala.com/" "Mozilla/5.0 (Windows NT 10.0; Win64; x64) AppleWebKit/537.36 (KHTML, like Gecko) Chrome/70.0.3538.77 Safari/537.36"
2a03:2880:10ff:5::face:b00c - - [05/Nov/2018:10:11:37 +0000] "GET /js/waypoints.min.js HTTP/1.0" 200 8051 "http://looklala.com/" "Mozilla/5.0 (Windows NT 10.0; Win64; x64) AppleWebKit/537.36 (KHTML, like Gecko) Chrome/70.0.3538.77 Safari/537.36"
2a03:2880:10ff:11::face:b00c - - [05/Nov/2018:10:11:37 +0000] "GET /js/validate.min.js HTTP/1.0" 200 21069 "http://looklala.com/" "Mozilla/5.0 (Windows NT 10.0; Win64; x64) AppleWebKit/537.36 (KHTML, like Gecko) Chrome/70.0.3538.77 Safari/537.36"
2a03:2880:10ff:1e::face:b00c - - [05/Nov/2018:10:11:37 +0000] "GET /js/script.js HTTP/1.0" 200 9238 "http://looklala.com/" "Mozilla/5.0 (Windows NT 10.0; Win64; x64) AppleWebKit/537.36 (KHTML, like Gecko) Chrome/70.0.3538.77 Safari/537.36"
2a03:2880:10ff:1e::face:b00c - - [05/Nov/2018:10:11:37 +0000] "GET /img/logo-white.png HTTP/1.0" 200 5255 "http://looklala.com/css/base.css" "Mozilla/5.0 (Windows NT 10.0; Win64; x64) AppleWebKit/537.36 (KHTML, like Gecko) Chrome/70.0.3538.77 Safari/537.36"
2a03:2880:10ff:5::face:b00c - - [05/Nov/2018:10:11:37 +0000] "GET /fonts/font-awesome/font/fontawesome-webfontf77b.html?v=3.2.1 HTTP/1.0" 200 7529 "http://looklala.com/fonts/font-awesome/css/font-awesome.min.css" "Mozilla/5.0 (Windows NT 10.0; Win64; x64) AppleWebKit/537.36 (KHTML, like Gecko) Chrome/70.0.3538.77 Safari/537.36"
2a03:2880:10ff:11::face:b00c - - [05/Nov/2018:10:11:37 +0000] "GET /img/top.png HTTP/1.0" 200 1867 "http://looklala.com/css/base.css" "Mozilla/5.0 (Windows NT 10.0; Win64; x64) AppleWebKit/537.36 (KHTML, like Gecko) Chrome/70.0.3538.77 Safari/537.36"
2a03:2880:10ff:10::face:b00c - - [05/Nov/2018:10:11:37 +0000] "GET /img/pre-load.gif HTTP/1.0" 200 7198 "http://looklala.com/css/jpreloader.css" "Mozilla/5.0 (Windows NT 10.0; Win64; x64) AppleWebKit/537.36 (KHTML, like Gecko) Chrome/70.0.3538.77 Safari/537.36"
2a03:2880:10ff:13::face:b00c - - [05/Nov/2018:10:11:37 +0000] "GET /img/load.gif HTTP/1.0" 200 1998 "http://looklala.com/css/jpreloader.css" "Mozilla/5.0 (Windows NT 10.0; Win64; x64) AppleWebKit/537.36 (KHTML, like Gecko) Chrome/70.0.3538.77 Safari/537.36"
2a03:2880:10ff:10::face:b00c - - [05/Nov/2018:10:11:37 +0000] "GET /fonts/font-awesome/font/fontawesome-webfontf77b.ttf?v=3.2.1 HTTP/1.0" 200 79076 "http://looklala.com/fonts/font-awesome/css/font-awesome.min.css" "Mozilla/5.0 (Windows NT 10.0; Win64; x64) AppleWebKit/537.36 (KHTML, like Gecko) Chrome/70.0.3538.77 Safari/537.36"
2a03:2880:10ff:10::face:b00c - - [05/Nov/2018:10:11:39 +0000] "GET /img/favicons/favicon.ico HTTP/1.0" 200 4286 "http://looklala.com/" "Mozilla/5.0 (Windows NT 10.0; Win64; x64) AppleWebKit/537.36 (KHTML, like Gecko) Chrome/70.0.3538.77 Safari/537.36"
2a03:2880:10ff:10::face:b00c - - [05/Nov/2018:10:11:42 +0000] "GET /img/mark.png HTTP/1.0" 200 2000 "http://looklala.com/" "Mozilla/5.0 (Windows NT 10.0; Win64; x64) AppleWebKit/537.36 (KHTML, like Gecko) Chrome/70.0.3538.77 Safari/537.36"
2a03:2880:10ff:16::face:b00c - - [05/Nov/2018:10:11:45 +0000] "GET /img/bg-color/3.jpg HTTP/1.0" 200 30170 "http://looklala.com/" "Mozilla/5.0 (Windows NT 10.0; Win64; x64) AppleWebKit/537.36 (KHTML, like Gecko) Chrome/70.0.3538.77 Safari/537.36"
18.222.143.109 - - [05/Nov/2018:10:26:00 +0000] "GET / HTTP/1.0" 200 11888 "-" "Mozilla/5.0 (Windows NT 6.1; Win64; x64; rv:47.0) AppleWebKit/537.36 (KHTML, like Gecko) Firefox/42.0"
18.221.249.123 - - [05/Nov/2018:10:42:37 +0000] "GET / HTTP/1.0" 200 11888 "-" "Mozilla/5.0 (Macintosh; Intel Mac OS X x.y; rv:42.0) Trident/5.0 Chrome/51.0.2704.106 Safari/537.36 OPR/38.0.2220.41"
185.220.101.1 - - [05/Nov/2018:11:11:14 +0000] "GET / HTTP/1.0" 200 11888 "-" "Mozilla/5.0 (Windows NT 10.0; WOW64) AppleWebKit/537.36 (KHTML, like Gecko) Chrome/45.0.2454.93 Safari/537.36"
185.220.101.1 - - [05/Nov/2018:11:11:15 +0000] "GET /?email-subscribe=phirijudith79%40yahoo.co.uk& HTTP/1.0" 200 11888 "http://looklala.com/" "Mozilla/5.0 (Windows NT 10.0; WOW64) AppleWebKit/537.36 (KHTML, like Gecko) Chrome/45.0.2454.93 Safari/537.36"
18.218.156.196 - - [05/Nov/2018:11:15:15 +0000] "GET / HTTP/1.0" 200 11888 "-" "Mozilla/5.0 (Macintosh; Intel Mac OS X x.y; rv:42.0) AppleWebKit/537.36 (KHTML, like Gecko) Chrome/67.0.3396.79 Safari/537.36"
18.191.114.91 - - [05/Nov/2018:11:43:27 +0000] "GET / HTTP/1.0" 200 11888 "-" "Mozilla/5.0 (Macintosh; Intel Mac OS X x.y; rv:42.0) Gecko/20100101 Firefox/42.0"
109.70.100.19 - - [05/Nov/2018:11:44:40 +0000] "GET / HTTP/1.0" 200 11888 "-" "Mozilla/5.0 (Macintosh; Intel Mac OS X 10_11_4) AppleWebKit/601.5.17 (KHTML, like Gecko)"
109.70.100.19 - - [05/Nov/2018:11:44:40 +0000] "GET /?email-subscribe=smithetak44%40aol.com& HTTP/1.0" 200 11888 "http://looklala.com/" "Mozilla/5.0 (Macintosh; Intel Mac OS X 10_11_4) AppleWebKit/601.5.17 (KHTML, like Gecko)"
185.220.101.33 - - [05/Nov/2018:11:58:20 +0000] "GET / HTTP/1.0" 200 11888 "-" "Mozilla/5.0 (Windows NT 6.1; Win64; x64) AppleWebKit/537.36 (KHTML, like Gecko) Chrome/61.0.3163.100 Safari/537.36"
185.220.101.33 - - [05/Nov/2018:11:58:21 +0000] "GET /?email-subscribe=jonathanayaz%40aol.com& HTTP/1.0" 200 11888 "http://looklala.com/" "Mozilla/5.0 (Windows NT 6.1; Win64; x64) AppleWebKit/537.36 (KHTML, like Gecko) Chrome/61.0.3163.100 Safari/537.36"
180.76.15.18 - - [05/Nov/2018:12:11:26 +0000] "GET /?content/21993.html HTTP/1.0" 200 11888 "-" "Mozilla/5.0 (compatible; Baiduspider/2.0; +http://www.baidu.com/search/spider.html)"
18.188.69.31 - - [05/Nov/2018:12:13:26 +0000] "GET / HTTP/1.0" 200 11888 "-" "Mozilla/5.0 (X11; Linux x86_64) Gecko/20100101 Firefox/42.0"
18.224.18.240 - - [05/Nov/2018:12:42:55 +0000] "GET / HTTP/1.0" 200 11888 "-" "Mozilla/5.0 (X11; Linux x86_64) AppleWebKit/537.36 (KHTML, like Gecko) Safari/602.1"
35.192.84.7 - - [05/Nov/2018:12:51:30 +0000] "GET /robots.txt HTTP/1.0" 404 208 "-" "ltx71 - (http://ltx71.com/)"
18.85.22.239 - - [05/Nov/2018:12:58:01 +0000] "GET / HTTP/1.0" 200 11888 "-" "Mozilla/5.0 (Macintosh; Intel Mac OS X 10_12_6) AppleWebKit/537.36 (KHTML, like Gecko) Chrome/61.0.3163.100 Safari/537.36"
18.85.22.239 - - [05/Nov/2018:12:58:02 +0000] "GET /?email-subscribe=robinfuller%40yahoo.com& HTTP/1.0" 200 11888 "http://looklala.com/" "Mozilla/5.0 (Macintosh; Intel Mac OS X 10_12_6) AppleWebKit/537.36 (KHTML, like Gecko) Chrome/61.0.3163.100 Safari/537.36"
185.193.125.190 - - [05/Nov/2018:13:07:07 +0000] "GET / HTTP/1.0" 200 11888 "-" "Mozilla/5.0 (Windows NT 6.1; Win64; x64) AppleWebKit/537.36 (KHTML, like Gecko) Chrome/62.0.3202.89 Safari/537.36"
185.193.125.190 - - [05/Nov/2018:13:07:08 +0000] "GET /?email-subscribe=michellesarakendell%40yahoo.co.uk& HTTP/1.0" 200 11888 "http://looklala.com/" "Mozilla/5.0 (Windows NT 6.1; Win64; x64) AppleWebKit/537.36 (KHTML, like Gecko) Chrome/62.0.3202.89 Safari/537.36"
18.223.185.60 - - [05/Nov/2018:13:13:17 +0000] "GET / HTTP/1.0" 200 11888 "-" "Mozilla/5.0 (Macintosh; Intel Mac OS X x.y; rv:42.0) Gecko/20100101 Safari/602.1"
145.239.90.27 - - [05/Nov/2018:13:34:35 +0000] "GET / HTTP/1.0" 200 11888 "-" "Mozilla/5.0 (Windows NT 6.2; WOW64; rv:50.0) Gecko/20100101 Firefox/50.0"
145.239.90.27 - - [05/Nov/2018:13:34:36 +0000] "GET /?email-subscribe=srjoy%40yahoo.com& HTTP/1.0" 200 11888 "http://looklala.com/" "Mozilla/5.0 (Windows NT 6.2; WOW64; rv:50.0) Gecko/20100101 Firefox/50.0"
185.220.102.4 - - [05/Nov/2018:13:35:10 +0000] "GET / HTTP/1.0" 200 11888 "-" "Mozilla/5.0 (Windows NT 6.1; WOW64) AppleWebKit/537.21 (KHTML, like Gecko) Mwendo/1.1.5 Safari/537.21"
185.220.102.4 - - [05/Nov/2018:13:35:10 +0000] "GET /?email-subscribe=zwoticher%40yahoo.de& HTTP/1.0" 200 11888 "http://looklala.com/" "Mozilla/5.0 (Windows NT 6.1; WOW64) AppleWebKit/537.21 (KHTML, like Gecko) Mwendo/1.1.5 Safari/537.21"
18.224.135.194 - - [05/Nov/2018:13:41:47 +0000] "GET / HTTP/1.0" 200 11888 "-" "Mozilla/5.0 (Windows NT 6.1; Win64; x64; rv:47.0) Trident/5.0 Chrome/51.0.2704.106 Safari/537.36 OPR/38.0.2220.41"
209.95.51.11 - - [05/Nov/2018:13:54:25 +0000] "GET / HTTP/1.0" 200 11888 "-" "Mozilla/5.0 (Windows NT 6.3; Win64; x64) AppleWebKit/537.36 (KHTML, like Gecko) Chrome/42.0.2311.135 Safari/537.36 Edge/12.10240"
209.95.51.11 - - [05/Nov/2018:13:54:26 +0000] "GET /?email-subscribe=dayraven13%40yahoo.com& HTTP/1.0" 200 11888 "http://looklala.com/" "Mozilla/5.0 (Windows NT 6.3; Win64; x64) AppleWebKit/537.36 (KHTML, like Gecko) Chrome/42.0.2311.135 Safari/537.36 Edge/12.10240"
18.221.68.148 - - [05/Nov/2018:14:12:23 +0000] "GET / HTTP/1.0" 200 11888 "-" "Mozilla/5.0 (X11; Linux x86_64) AppleWebKit/537.36 (KHTML, like Gecko) Chrome/67.0.3396.79 Safari/537.36"
185.220.101.28 - - [05/Nov/2018:14:25:05 +0000] "GET / HTTP/1.0" 200 11888 "-" "Mozilla/5.0 (Windows NT 6.0; Win64; x64) AppleWebKit/537.36 (KHTML, like Gecko) Chrome/52.0.2743.116 Safari/537.36 Edge/15.15063"
185.220.101.28 - - [05/Nov/2018:14:25:06 +0000] "GET /?email-subscribe=austinsinbox%40gmail.com& HTTP/1.0" 200 11888 "http://looklala.com/" "Mozilla/5.0 (Windows NT 6.0; Win64; x64) AppleWebKit/537.36 (KHTML, like Gecko) Chrome/52.0.2743.116 Safari/537.36 Edge/15.15063"
18.224.135.194 - - [05/Nov/2018:14:42:52 +0000] "GET / HTTP/1.0" 200 11888 "-" "Mozilla/5.0 (Macintosh; Intel Mac OS X x.y; rv:42.0) AppleWebKit/537.36 (KHTML, like Gecko) Firefox/42.0"
46.183.221.155 - - [05/Nov/2018:14:46:10 +0000] "GET / HTTP/1.0" 200 11888 "-" "Mozilla/5.0 (Windows NT 6.3; Win64; x64) AppleWebKit/537.36 (KHTML, like Gecko) Chrome/42.0.2311.135 Safari/537.36 Edge/12.10240"
46.183.221.155 - - [05/Nov/2018:14:46:11 +0000] "GET /?email-subscribe=zwoticher%40yahoo.de& HTTP/1.0" 200 11888 "http://looklala.com/" "Mozilla/5.0 (Windows NT 6.3; Win64; x64) AppleWebKit/537.36 (KHTML, like Gecko) Chrome/42.0.2311.135 Safari/537.36 Edge/12.10240"
18.220.11.248 - - [05/Nov/2018:15:12:36 +0000] "GET / HTTP/1.0" 200 11888 "-" "Mozilla/5.0 (Macintosh; Intel Mac OS X x.y; rv:42.0) AppleWebKit/537.36 (KHTML, like Gecko) Safari/602.1"
74.82.47.194 - - [05/Nov/2018:15:18:39 +0000] "GET / HTTP/1.0" 200 11888 "-" "Mozilla/5.0 (Windows NT 6.1; Win64; x64) AppleWebKit/537.36 (KHTML, like Gecko) Chrome/54.0.2840.99 Safari/537.36"
77.247.181.163 - - [05/Nov/2018:15:18:40 +0000] "GET / HTTP/1.0" 200 11888 "-" "Mozilla/5.0 (Windows NT 6.1; WOW64) AppleWebKit/537.36 (KHTML, like Gecko) Chrome/56.0.2924.87 Safari/537.36 OPR/43.0.2442.991"
74.82.47.194 - - [05/Nov/2018:15:18:41 +0000] "GET /?email-subscribe=ganmtrailer%40shaw.ca& HTTP/1.0" 200 11888 "http://looklala.com/" "Mozilla/5.0 (Windows NT 6.1; Win64; x64) AppleWebKit/537.36 (KHTML, like Gecko) Chrome/54.0.2840.99 Safari/537.36"
185.220.101.0 - - [05/Nov/2018:15:18:41 +0000] "GET /?email-subscribe=ganmtrailer%40shaw.ca& HTTP/1.0" 200 11888 "http://looklala.com/" "Mozilla/5.0 (Windows NT 6.1; WOW64) AppleWebKit/537.36 (KHTML, like Gecko) Chrome/56.0.2924.87 Safari/537.36 OPR/43.0.2442.991"
18.217.120.202 - - [05/Nov/2018:15:43:05 +0000] "GET / HTTP/1.0" 200 11888 "-" "Mozilla/5.0 (X11; Linux x86_64) AppleWebKit/537.36 (KHTML, like Gecko) Chrome/51.0.2704.106 Safari/537.36 OPR/38.0.2220.41"
18.224.135.194 - - [05/Nov/2018:16:12:28 +0000] "GET / HTTP/1.0" 200 11888 "-" "Mozilla/5.0 (X11; Linux x86_64) Gecko/20100101 Safari/602.1"
189.111.181.250 - - [05/Nov/2018:16:28:52 +0000] "GET /wp-login.php HTTP/1.0" 404 210 "-" "Mozilla/5.0 (Windows NT 6.1; WOW64; rv:40.0) Gecko/20100101 Firefox/40.1"
189.111.181.250 - - [05/Nov/2018:16:28:52 +0000] "GET / HTTP/1.0" 200 11888 "-" "Mozilla/5.0 (Windows NT 6.1; WOW64; rv:40.0) Gecko/20100101 Firefox/40.1"
158.69.192.200 - - [05/Nov/2018:16:39:12 +0000] "GET / HTTP/1.0" 200 11888 "-" "Mozilla/5.0 (Windows NT 6.3; WOW64; rv:46.0) Gecko/20100101 Firefox/46.0"
158.69.192.200 - - [05/Nov/2018:16:39:13 +0000] "GET /?email-subscribe=hoefertandrealynn%40gmail.com& HTTP/1.0" 200 11888 "http://looklala.com/" "Mozilla/5.0 (Windows NT 6.3; WOW64; rv:46.0) Gecko/20100101 Firefox/46.0"
18.224.135.194 - - [05/Nov/2018:16:42:44 +0000] "GET / HTTP/1.0" 200 11888 "-" "Mozilla/5.0 (Macintosh; Intel Mac OS X x.y; rv:42.0) AppleWebKit/537.36 (KHTML, like Gecko) Firefox/42.0"
195.176.3.23 - - [05/Nov/2018:16:43:52 +0000] "GET / HTTP/1.0" 200 11888 "-" "Mozilla/5.0 (Windows NT 6.1; WOW64; rv:47.0) Gecko/20100101 Firefox/47.0"
195.176.3.23 - - [05/Nov/2018:16:43:52 +0000] "GET /?email-subscribe=cam.chemtech%40gmail.com& HTTP/1.0" 200 11888 "http://looklala.com/" "Mozilla/5.0 (Windows NT 6.1; WOW64; rv:47.0) Gecko/20100101 Firefox/47.0"
17.58.99.161 - - [05/Nov/2018:16:53:28 +0000] "GET /robots.txt HTTP/1.0" 404 208 "-" "Mozilla/5.0 (Macintosh; Intel Mac OS X 10_10_1) AppleWebKit/600.2.5 (KHTML, like Gecko) Version/8.0.2 Safari/600.2.5 (Applebot/0.1; +http://www.apple.com/go/applebot)"
17.58.99.161 - - [05/Nov/2018:16:53:29 +0000] "GET / HTTP/1.0" 200 11888 "-" "Mozilla/5.0 (Macintosh; Intel Mac OS X 10_10_1) AppleWebKit/600.2.5 (KHTML, like Gecko) Version/8.0.2 Safari/600.2.5 (Applebot/0.1; +http://www.apple.com/go/applebot)"
51.15.80.14 - - [05/Nov/2018:17:01:14 +0000] "GET / HTTP/1.0" 200 11888 "-" "Mozilla/5.0 (Windows NT 5.1; Win64; x64) AppleWebKit/537.36 (KHTML, like Gecko) Chrome/52.0.2743.116 Safari/537.36 Edge/15.15063"
51.15.80.14 - - [05/Nov/2018:17:01:14 +0000] "GET /?email-subscribe=mcphersonrl%40yahoo.com& HTTP/1.0" 200 11888 "http://looklala.com/" "Mozilla/5.0 (Windows NT 5.1; Win64; x64) AppleWebKit/537.36 (KHTML, like Gecko) Chrome/52.0.2743.116 Safari/537.36 Edge/15.15063"
18.218.156.196 - - [05/Nov/2018:17:13:11 +0000] "GET / HTTP/1.0" 200 11888 "-" "Mozilla/5.0 (X11; Linux x86_64) Trident/5.0 Chrome/67.0.3396.79 Safari/537.36"
18.191.244.114 - - [05/Nov/2018:17:42:22 +0000] "GET / HTTP/1.0" 200 11888 "-" "Mozilla/5.0 (X11; Linux x86_64) Gecko/20100101 Chrome/51.0.2704.106 Safari/537.36 OPR/38.0.2220.41"
185.220.101.44 - - [05/Nov/2018:17:53:34 +0000] "GET / HTTP/1.0" 200 11888 "-" "Mozilla/5.0 (Windows NT 6.1; WOW64; rv:54.0) Gecko/20100101 Firefox/54.0"
185.220.101.44 - - [05/Nov/2018:17:53:35 +0000] "GET /?email-subscribe=ganmtrailer%40shaw.ca& HTTP/1.0" 200 11888 "http://looklala.com/" "Mozilla/5.0 (Windows NT 6.1; WOW64; rv:54.0) Gecko/20100101 Firefox/54.0"
185.220.102.7 - - [05/Nov/2018:18:00:33 +0000] "GET / HTTP/1.0" 200 11888 "-" "Mozilla/5.0 (Windows NT 10.0; WOW64) AppleWebKit/537.36 (KHTML, like Gecko) Chrome/55.0.2883.87 Safari/537.36 OPR/42.0.2393.94"
185.220.102.7 - - [05/Nov/2018:18:00:34 +0000] "GET /?email-subscribe=m1llerstime%40aol.com& HTTP/1.0" 200 11888 "http://looklala.com/" "Mozilla/5.0 (Windows NT 10.0; WOW64) AppleWebKit/537.36 (KHTML, like Gecko) Chrome/55.0.2883.87 Safari/537.36 OPR/42.0.2393.94"
18.223.239.51 - - [05/Nov/2018:18:11:32 +0000] "GET / HTTP/1.0" 200 11888 "-" "Mozilla/5.0 (Macintosh; Intel Mac OS X x.y; rv:42.0) Gecko/20100101 Firefox/42.0"
18.223.156.199 - - [05/Nov/2018:18:40:57 +0000] "GET / HTTP/1.0" 200 11888 "-" "Mozilla/5.0 (Windows NT 6.1; Win64; x64; rv:47.0) AppleWebKit/537.36 (KHTML, like Gecko) Safari/602.1"
188.214.104.146 - - [05/Nov/2018:18:43:37 +0000] "GET / HTTP/1.0" 200 11888 "-" "Mozilla/5.0 (X11; Linux x86_64) AppleWebKit/537.36 (KHTML, like Gecko) Chrome/44.0.2403.157 Safari/537.36"
188.214.104.146 - - [05/Nov/2018:18:43:38 +0000] "GET /?email-subscribe=jamesw1518%40yahoo.com& HTTP/1.0" 200 11888 "http://looklala.com/" "Mozilla/5.0 (X11; Linux x86_64) AppleWebKit/537.36 (KHTML, like Gecko) Chrome/44.0.2403.157 Safari/537.36"
18.223.195.193 - - [05/Nov/2018:19:11:14 +0000] "GET / HTTP/1.0" 200 11888 "-" "Mozilla/5.0 (X11; Linux x86_64) AppleWebKit/537.36 (KHTML, like Gecko) Chrome/67.0.3396.79 Safari/537.36"
85.93.218.204 - - [05/Nov/2018:19:16:03 +0000] "GET / HTTP/1.0" 200 11888 "-" "Mozilla/5.0 (Windows NT 6.1; Win64; x64) AppleWebKit/537.36 (KHTML, like Gecko) Chrome/42.0.2311.135 Safari/537.36 Edge/12.10240"
85.93.218.204 - - [05/Nov/2018:19:16:04 +0000] "GET /?email-subscribe=bradley78133%40yahoo.com& HTTP/1.0" 200 11888 "http://looklala.com/" "Mozilla/5.0 (Windows NT 6.1; Win64; x64) AppleWebKit/537.36 (KHTML, like Gecko) Chrome/42.0.2311.135 Safari/537.36 Edge/12.10240"
52.15.34.116 - - [05/Nov/2018:19:40:59 +0000] "GET / HTTP/1.0" 200 11888 "-" "Mozilla/5.0 (Macintosh; Intel Mac OS X x.y; rv:42.0) Gecko/20100101 Chrome/51.0.2704.106 Safari/537.36 OPR/38.0.2220.41"
197.231.221.211 - - [05/Nov/2018:19:43:01 +0000] "GET / HTTP/1.0" 200 11888 "-" "Mozilla/5.0 (Windows NT 6.3; Win64; x64) AppleWebKit/537.36 (KHTML, like Gecko) Chrome/55.0.2883.87 Safari/537.36"
197.231.221.211 - - [05/Nov/2018:19:43:02 +0000] "GET /?email-subscribe=lcoins%40yahoo.com& HTTP/1.0" 200 11888 "http://looklala.com/" "Mozilla/5.0 (Windows NT 6.3; Win64; x64) AppleWebKit/537.36 (KHTML, like Gecko) Chrome/55.0.2883.87 Safari/537.36"
149.202.238.204 - - [05/Nov/2018:19:47:13 +0000] "GET / HTTP/1.0" 200 11888 "-" "Mozilla/5.0 (Macintosh; Intel Mac OS X 10_11_6) AppleWebKit/601.7.7 (KHTML, like Gecko) Version/9.1.2 Safari/601.7.7"
149.202.238.204 - - [05/Nov/2018:19:47:13 +0000] "GET /?email-subscribe=kimdoyle73%40gmail.com& HTTP/1.0" 200 11888 "http://looklala.com/" "Mozilla/5.0 (Macintosh; Intel Mac OS X 10_11_6) AppleWebKit/601.7.7 (KHTML, like Gecko) Version/9.1.2 Safari/601.7.7"
149.36.64.8 - - [05/Nov/2018:19:48:03 +0000] "GET / HTTP/1.0" 200 11888 "-" "Mozilla/5.0 (Windows NT 10.0; Win64; x64) AppleWebKit/537.36 (KHTML, like Gecko) Chrome/62.0.3202.89 Safari/537.36"
149.36.64.8 - - [05/Nov/2018:19:48:06 +0000] "GET /?email-subscribe=rthomas%40theislandspot.net& HTTP/1.0" 200 11888 "http://looklala.com/" "Mozilla/5.0 (Windows NT 10.0; Win64; x64) AppleWebKit/537.36 (KHTML, like Gecko) Chrome/62.0.3202.89 Safari/537.36"
185.227.68.78 - - [05/Nov/2018:19:53:21 +0000] "GET / HTTP/1.0" 200 11888 "-" "Mozilla/5.0 (Windows NT 6.3; Win64; x64) AppleWebKit/537.36 (KHTML, like Gecko) Chrome/51.0.2704.79 Safari/537.36 Edge/14.14393"
185.227.68.78 - - [05/Nov/2018:19:53:22 +0000] "GET /?email-subscribe=omarlagos%40yahoo.com& HTTP/1.0" 200 11888 "http://looklala.com/" "Mozilla/5.0 (Windows NT 6.3; Win64; x64) AppleWebKit/537.36 (KHTML, like Gecko) Chrome/51.0.2704.79 Safari/537.36 Edge/14.14393"
18.85.22.239 - - [05/Nov/2018:20:09:40 +0000] "GET / HTTP/1.0" 200 11888 "-" "Mozilla/5.0 (Windows NT 6.3; WOW64; rv:44.0) Gecko/20100101 Firefox/44.0"
18.85.22.239 - - [05/Nov/2018:20:09:41 +0000] "GET /?email-subscribe=davidmiroglio%40gmail.com& HTTP/1.0" 200 11888 "http://looklala.com/" "Mozilla/5.0 (Windows NT 6.3; WOW64; rv:44.0) Gecko/20100101 Firefox/44.0"
18.220.61.112 - - [05/Nov/2018:20:11:40 +0000] "GET / HTTP/1.0" 200 11888 "-" "Mozilla/5.0 (Macintosh; Intel Mac OS X x.y; rv:42.0) AppleWebKit/537.36 (KHTML, like Gecko) Firefox/42.0"
77.247.181.163 - - [05/Nov/2018:20:28:50 +0000] "GET / HTTP/1.0" 200 11888 "-" "Mozilla/5.0 (Windows NT 10.0; Win64; x64; rv:57.0) Gecko/20100101 Firefox/57.0"
77.247.181.163 - - [05/Nov/2018:20:28:51 +0000] "GET /?email-subscribe=spotsarugger%40yahoo.com& HTTP/1.0" 200 11888 "http://looklala.com/" "Mozilla/5.0 (Windows NT 10.0; Win64; x64; rv:57.0) Gecko/20100101 Firefox/57.0"
51.38.113.64 - - [05/Nov/2018:20:30:19 +0000] "GET / HTTP/1.0" 200 11888 "-" "Mozilla/5.0 (Macintosh; Intel Mac OS X 10_10_5) AppleWebKit/603.3.8 (KHTML, like Gecko) Version/10.1.2 Safari/603.3.8"
51.38.113.64 - - [05/Nov/2018:20:30:20 +0000] "GET /?email-subscribe=gnsilverton453%40gmail.com& HTTP/1.0" 200 11888 "http://looklala.com/" "Mozilla/5.0 (Macintosh; Intel Mac OS X 10_10_5) AppleWebKit/603.3.8 (KHTML, like Gecko) Version/10.1.2 Safari/603.3.8"
78.109.23.2 - - [05/Nov/2018:20:39:52 +0000] "GET / HTTP/1.0" 200 11888 "-" "Mozilla/5.0 (Windows NT 6.1; Win64; x64) AppleWebKit/537.36 (KHTML, like Gecko) Chrome/52.0.2743.116 Safari/537.36 Edge/15.15063"
78.109.23.2 - - [05/Nov/2018:20:39:53 +0000] "GET /?email-subscribe=amandashams%40gmail.com& HTTP/1.0" 200 11888 "http://looklala.com/" "Mozilla/5.0 (Windows NT 6.1; Win64; x64) AppleWebKit/537.36 (KHTML, like Gecko) Chrome/52.0.2743.116 Safari/537.36 Edge/15.15063"
18.188.90.138 - - [05/Nov/2018:20:41:09 +0000] "GET / HTTP/1.0" 200 11888 "-" "Mozilla/5.0 (Windows NT 6.1; Win64; x64; rv:47.0) AppleWebKit/537.36 (KHTML, like Gecko) Chrome/51.0.2704.106 Safari/537.36 OPR/38.0.2220.41"
204.85.191.31 - - [05/Nov/2018:20:46:59 +0000] "GET / HTTP/1.0" 200 11888 "-" "Mozilla/5.0 (Windows NT 6.1; WOW64) AppleWebKit/537.36 (KHTML, like Gecko) Chrome/55.0.2883.87 Safari/537.36 OPR/42.0.2393.94"
204.85.191.31 - - [05/Nov/2018:20:47:00 +0000] "GET /?email-subscribe=emulet001%40yahoo.com& HTTP/1.0" 200 11888 "http://looklala.com/" "Mozilla/5.0 (Windows NT 6.1; WOW64) AppleWebKit/537.36 (KHTML, like Gecko) Chrome/55.0.2883.87 Safari/537.36 OPR/42.0.2393.94"
185.193.125.115 - - [05/Nov/2018:20:58:57 +0000] "GET / HTTP/1.0" 200 11888 "-" "Mozilla/5.0 (Windows NT 10.0; Win64; x64) AppleWebKit/537.36 (KHTML, like Gecko) Chrome/64.0.3282.140 Safari/537.36 Edge/17.17134"
185.193.125.115 - - [05/Nov/2018:20:59:00 +0000] "GET / HTTP/1.0" 200 11888 "-" "Mozilla/5.0 (Windows NT 10.0; Win64; x64) AppleWebKit/537.36 (KHTML, like Gecko) Chrome/64.0.3282.140 Safari/537.36 Edge/17.17134"
18.217.120.202 - - [05/Nov/2018:21:11:16 +0000] "GET / HTTP/1.0" 200 11888 "-" "Mozilla/5.0 (Macintosh; Intel Mac OS X x.y; rv:42.0) Gecko/20100101 Chrome/51.0.2704.106 Safari/537.36 OPR/38.0.2220.41"
193.29.58.84 - - [05/Nov/2018:21:24:55 +0000] "GET / HTTP/1.0" 200 11888 "-" "Mozilla/5.0 (Windows NT 6.1; Win64; x64) AppleWebKit/537.36 (KHTML, like Gecko) Chrome/60.0.3112.90 Safari/537.36"
193.29.58.84 - - [05/Nov/2018:21:24:56 +0000] "GET /?email-subscribe=hottyeight%40yahoo.com& HTTP/1.0" 200 11888 "http://looklala.com/" "Mozilla/5.0 (Windows NT 6.1; Win64; x64) AppleWebKit/537.36 (KHTML, like Gecko) Chrome/60.0.3112.90 Safari/537.36"
185.220.101.21 - - [05/Nov/2018:21:28:05 +0000] "GET / HTTP/1.0" 200 11888 "-" "Mozilla/5.0 (Macintosh; Intel Mac OS X 10_12_5) AppleWebKit/603.2.4 (KHTML, like Gecko) Version/10.1.1 Safari/603.2.4"
66.70.174.11 - - [05/Nov/2018:21:28:06 +0000] "GET /?email-subscribe=spotsarugger%40yahoo.com& HTTP/1.0" 200 11888 "http://looklala.com/" "Mozilla/5.0 (Macintosh; Intel Mac OS X 10_12_5) AppleWebKit/603.2.4 (KHTML, like Gecko) Version/10.1.1 Safari/603.2.4"
185.220.101.9 - - [05/Nov/2018:21:39:16 +0000] "GET / HTTP/1.0" 200 11888 "-" "Mozilla/5.0 (Macintosh; Intel Mac OS X 10_12_1) AppleWebKit/602.2.14 (KHTML, like Gecko) Version/10.0.1 Safari/602.2.14"
185.220.101.9 - - [05/Nov/2018:21:39:17 +0000] "GET /?email-subscribe=samsherkawy%40yahoo.com& HTTP/1.0" 200 11888 "http://looklala.com/" "Mozilla/5.0 (Macintosh; Intel Mac OS X 10_12_1) AppleWebKit/602.2.14 (KHTML, like Gecko) Version/10.0.1 Safari/602.2.14"
18.223.156.199 - - [05/Nov/2018:21:40:27 +0000] "GET / HTTP/1.0" 200 11888 "-" "Mozilla/5.0 (Macintosh; Intel Mac OS X x.y; rv:42.0) Gecko/20100101 Safari/602.1"
185.220.102.7 - - [05/Nov/2018:21:51:47 +0000] "GET / HTTP/1.0" 200 11888 "-" "Mozilla/5.0 (Windows NT 6.0; Win64; x64) AppleWebKit/537.36 (KHTML, like Gecko) Chrome/51.0.2704.79 Safari/537.36 Edge/14.14393"
185.220.102.7 - - [05/Nov/2018:21:51:48 +0000] "GET /?email-subscribe=lisa.easley%40icloud.com& HTTP/1.0" 200 11888 "http://looklala.com/" "Mozilla/5.0 (Windows NT 6.0; Win64; x64) AppleWebKit/537.36 (KHTML, like Gecko) Chrome/51.0.2704.79 Safari/537.36 Edge/14.14393"
185.100.87.129 - - [05/Nov/2018:22:05:06 +0000] "GET / HTTP/1.0" 200 11888 "-" "Mozilla/5.0 (Windows NT 10.0; Win64; x64) AppleWebKit/537.36 (KHTML, like Gecko) Chrome/59.0.3071.115 Safari/537.36"
185.100.87.129 - - [05/Nov/2018:22:05:07 +0000] "GET /?email-subscribe=wdeane3%40comcast.net& HTTP/1.0" 200 11888 "http://looklala.com/" "Mozilla/5.0 (Windows NT 10.0; Win64; x64) AppleWebKit/537.36 (KHTML, like Gecko) Chrome/59.0.3071.115 Safari/537.36"
18.188.208.82 - - [05/Nov/2018:22:10:39 +0000] "GET / HTTP/1.0" 200 11888 "-" "Mozilla/5.0 (Windows NT 6.1; Win64; x64; rv:47.0) AppleWebKit/537.36 (KHTML, like Gecko) Chrome/51.0.2704.106 Safari/537.36 OPR/38.0.2220.41"
51.254.209.128 - - [05/Nov/2018:22:29:46 +0000] "GET / HTTP/1.0" 200 11888 "-" "Mozilla/5.0 (Windows NT 6.1; Win64; x64; Trident/7.0; rv:11.0) like Gecko"
51.254.209.128 - - [05/Nov/2018:22:29:47 +0000] "GET /?email-subscribe=domenic.sorbara%40rogers.com& HTTP/1.0" 200 11888 "http://looklala.com/" "Mozilla/5.0 (Windows NT 6.1; Win64; x64; Trident/7.0; rv:11.0) like Gecko"
37.187.129.166 - - [05/Nov/2018:22:32:37 +0000] "GET / HTTP/1.0" 200 11888 "-" "Mozilla/5.0 (Macintosh; Intel Mac OS X 10_13_6) AppleWebKit/605.1.15 (KHTML, like Gecko) Version/11.1.2 Safari/605.1.15"
37.187.129.166 - - [05/Nov/2018:22:32:38 +0000] "GET /?email-subscribe=dazzq123%40gmail.com& HTTP/1.0" 200 11888 "http://looklala.com/" "Mozilla/5.0 (Macintosh; Intel Mac OS X 10_13_6) AppleWebKit/605.1.15 (KHTML, like Gecko) Version/11.1.2 Safari/605.1.15"
185.220.101.29 - - [05/Nov/2018:22:37:55 +0000] "GET / HTTP/1.0" 200 11888 "-" "Mozilla/5.0 (Macintosh; Intel Mac OS X 10_11_5) AppleWebKit/601.6.17 (KHTML, like Gecko) Version/9.1.1 Safari/601.6.17"
185.220.101.29 - - [05/Nov/2018:22:37:55 +0000] "GET /?email-subscribe=cindybrogan1968%40gmail.com& HTTP/1.0" 200 11888 "http://looklala.com/" "Mozilla/5.0 (Macintosh; Intel Mac OS X 10_11_5) AppleWebKit/601.6.17 (KHTML, like Gecko) Version/9.1.1 Safari/601.6.17"
18.188.90.138 - - [05/Nov/2018:22:41:38 +0000] "GET / HTTP/1.0" 200 11888 "-" "Mozilla/5.0 (X11; Linux x86_64) Trident/5.0 Chrome/67.0.3396.79 Safari/537.36"
185.220.101.47 - - [05/Nov/2018:22:41:45 +0000] "GET / HTTP/1.0" 200 11888 "-" "Mozilla/5.0 (Windows NT 5.1; rv:7.0.1) Gecko/20100101 Firefox/7.0.1"
185.220.101.47 - - [05/Nov/2018:22:41:46 +0000] "GET /?email-subscribe=dwzepp%40gmail.com& HTTP/1.0" 200 11888 "http://looklala.com/" "Mozilla/5.0 (Windows NT 5.1; rv:7.0.1) Gecko/20100101 Firefox/7.0.1"
178.17.166.150 - - [05/Nov/2018:23:11:20 +0000] "GET / HTTP/1.0" 200 11888 "-" "Mozilla/5.0 (Windows NT 10.0; Win64; x64) AppleWebKit/537.36 (KHTML, like Gecko) Chrome/66.0.3359.181 Safari/537.36"
178.17.166.150 - - [05/Nov/2018:23:11:21 +0000] "GET /?email-subscribe=debbie_schlot%40yahoo.com& HTTP/1.0" 200 11888 "http://looklala.com/" "Mozilla/5.0 (Windows NT 10.0; Win64; x64) AppleWebKit/537.36 (KHTML, like Gecko) Chrome/66.0.3359.181 Safari/537.36"
3.16.46.187 - - [05/Nov/2018:23:11:35 +0000] "GET / HTTP/1.0" 200 11888 "-" "Mozilla/5.0 (Windows NT 6.1; Win64; x64; rv:47.0) Trident/5.0 Safari/602.1"
46.166.129.156 - - [05/Nov/2018:23:33:56 +0000] "GET / HTTP/1.0" 200 11888 "-" "Mozilla/5.0 (Windows NT 6.3; Win64; x64) AppleWebKit/537.36 (KHTML, like Gecko) Chrome/60.0.3112.113 Safari/537.36"
46.166.129.156 - - [05/Nov/2018:23:33:57 +0000] "GET /?email-subscribe=amlarese%40gmail.com& HTTP/1.0" 200 11888 "http://looklala.com/" "Mozilla/5.0 (Windows NT 6.3; Win64; x64) AppleWebKit/537.36 (KHTML, like Gecko) Chrome/60.0.3112.113 Safari/537.36"
3.16.46.187 - - [05/Nov/2018:23:41:49 +0000] "GET / HTTP/1.0" 200 11888 "-" "Mozilla/5.0 (Macintosh; Intel Mac OS X x.y; rv:42.0) AppleWebKit/537.36 (KHTML, like Gecko) Chrome/67.0.3396.79 Safari/537.36"
89.248.162.130 - - [05/Nov/2018:23:48:41 +0000] "GET / HTTP/1.0" 200 11888 "-" "Mozilla/5.0 (Windows NT 10.0; Win64; x64) AppleWebKit/537.36 (KHTML, like Gecko) Chrome/60.0.3112.113 Safari/537.36"
89.248.162.130 - - [05/Nov/2018:23:48:42 +0000] "GET /?email-subscribe=winnis5%40yahoo.com& HTTP/1.0" 200 11888 "http://looklala.com/" "Mozilla/5.0 (Windows NT 10.0; Win64; x64) AppleWebKit/537.36 (KHTML, like Gecko) Chrome/60.0.3112.113 Safari/537.36"
51.15.65.25 - - [05/Nov/2018:23:53:59 +0000] "GET / HTTP/1.0" 200 11888 "-" "Mozilla/5.0 (Macintosh; Intel Mac OS X 10_11_4) AppleWebKit/601.5.17 (KHTML, like Gecko) Version/9.1 Safari/601.5.17"
51.15.65.25 - - [05/Nov/2018:23:54:00 +0000] "GET /?email-subscribe=mccloss%40aol.com& HTTP/1.0" 200 11888 "http://looklala.com/" "Mozilla/5.0 (Macintosh; Intel Mac OS X 10_11_4) AppleWebKit/601.5.17 (KHTML, like Gecko) Version/9.1 Safari/601.5.17"
18.224.212.83 - - [06/Nov/2018:00:11:23 +0000] "GET / HTTP/1.0" 200 11888 "-" "Mozilla/5.0 (Macintosh; Intel Mac OS X x.y; rv:42.0) Trident/5.0 Chrome/67.0.3396.79 Safari/537.36"
220.181.125.86 - - [06/Nov/2018:00:15:04 +0000] "GET / HTTP/1.0" 304 - "-" "Sogou web spider/4.0(+http://www.sogou.com/docs/help/webmasters.htm#07)"
220.181.125.86 - - [06/Nov/2018:00:15:04 +0000] "GET /robots.txt HTTP/1.0" 404 208 "-" "Sogou web spider/4.0(+http://www.sogou.com/docs/help/webmasters.htm#07)"
195.176.3.24 - - [06/Nov/2018:00:20:01 +0000] "GET / HTTP/1.0" 200 11888 "-" "Mozilla/5.0 (Windows NT 6.2; Win64; x64) AppleWebKit/537.36 (KHTML, like Gecko) Chrome/57.0.2987.133 Safari/537.36"
195.176.3.24 - - [06/Nov/2018:00:20:01 +0000] "GET /?email-subscribe=mccloss%40aol.com& HTTP/1.0" 200 11888 "http://looklala.com/" "Mozilla/5.0 (Windows NT 6.2; Win64; x64) AppleWebKit/537.36 (KHTML, like Gecko) Chrome/57.0.2987.133 Safari/537.36"
185.220.101.5 - - [06/Nov/2018:00:31:43 +0000] "GET / HTTP/1.0" 200 11888 "-" "Mozilla/5.0 (Windows NT 6.0; Win64; x64) AppleWebKit/537.36 (KHTML, like Gecko) Chrome/57.0.2987.133 Safari/537.36"
185.220.101.5 - - [06/Nov/2018:00:31:43 +0000] "GET /?email-subscribe=robert.l.williams%40gmail.com& HTTP/1.0" 200 11888 "http://looklala.com/" "Mozilla/5.0 (Windows NT 6.0; Win64; x64) AppleWebKit/537.36 (KHTML, like Gecko) Chrome/57.0.2987.133 Safari/537.36"
18.223.132.225 - - [06/Nov/2018:00:41:29 +0000] "GET / HTTP/1.0" 200 11888 "-" "Mozilla/5.0 (Windows NT 6.1; Win64; x64; rv:47.0) AppleWebKit/537.36 (KHTML, like Gecko) Chrome/51.0.2704.106 Safari/537.36 OPR/38.0.2220.41"
180.76.15.143 - - [06/Nov/2018:00:41:43 +0000] "GET /?content/10629.html HTTP/1.0" 200 11888 "-" "Mozilla/5.0 (compatible; Baiduspider/2.0; +http://www.baidu.com/search/spider.html)"
185.248.160.214 - - [06/Nov/2018:00:43:57 +0000] "GET / HTTP/1.0" 200 11888 "-" "Mozilla/5.0 (Windows NT 10.0; Win64; x64) AppleWebKit/537.36 (KHTML, like Gecko) Chrome/52.0.2743.116 Safari/537.36 Edge/15.15063"
185.248.160.214 - - [06/Nov/2018:00:43:57 +0000] "GET /?email-subscribe=cindyturbeville%40yahoo.com& HTTP/1.0" 200 11888 "http://looklala.com/" "Mozilla/5.0 (Windows NT 10.0; Win64; x64) AppleWebKit/537.36 (KHTML, like Gecko) Chrome/52.0.2743.116 Safari/537.36 Edge/15.15063"
185.193.125.115 - - [06/Nov/2018:00:44:20 +0000] "GET / HTTP/1.0" 200 11888 "-" "Mozilla/5.0 (Windows NT 10.0; WOW64; rv:56.0) Gecko/20100101 Firefox/56.0"
185.193.125.115 - - [06/Nov/2018:00:44:20 +0000] "GET /?email-subscribe=mccloss%40aol.com& HTTP/1.0" 200 11888 "http://looklala.com/" "Mozilla/5.0 (Windows NT 10.0; WOW64; rv:56.0) Gecko/20100101 Firefox/56.0"
18.216.20.127 - - [06/Nov/2018:01:11:01 +0000] "GET / HTTP/1.0" 200 11888 "-" "Mozilla/5.0 (Windows NT 6.1; Win64; x64; rv:47.0) AppleWebKit/537.36 (KHTML, like Gecko) Chrome/51.0.2704.106 Safari/537.36 OPR/38.0.2220.41"
18.223.185.60 - - [06/Nov/2018:01:40:57 +0000] "GET / HTTP/1.0" 200 11888 "-" "Mozilla/5.0 (Windows NT 6.1; Win64; x64; rv:47.0) AppleWebKit/537.36 (KHTML, like Gecko) Chrome/51.0.2704.106 Safari/537.36 OPR/38.0.2220.41"
18.224.212.83 - - [06/Nov/2018:02:11:08 +0000] "GET / HTTP/1.0" 200 11888 "-" "Mozilla/5.0 (X11; Linux x86_64) Trident/5.0 Safari/602.1"
18.222.143.109 - - [06/Nov/2018:02:40:57 +0000] "GET / HTTP/1.0" 200 11888 "-" "Mozilla/5.0 (X11; Linux x86_64) AppleWebKit/537.36 (KHTML, like Gecko) Chrome/51.0.2704.106 Safari/537.36 OPR/38.0.2220.41"
