31.170.123.73 - - [01/Nov/2018:03:04:13 +0000] "POST /wp-cron.php?doing_wp_cron=1541041453.8821539878845214843750 HTTP/1.0" 200 - "http://gameworkforce.com/wp-cron.php?doing_wp_cron=1541041453.8821539878845214843750" "WordPress/4.9.8; http://gameworkforce.com"
1.53.252.162 - - [01/Nov/2018:03:04:13 +0000] "GET /index.php?sort=cHJpbnQgbWQ1KDIxMzEyMyk7 HTTP/1.0" 301 - "gameworkforce.com" "Mozilla/5.0 (Windows NT 6.1; WOW64) AppleWebKit/537.36 (KHTML, like Gecko) Chrome/50.0.2661.75 Safari/537.36"
1.53.252.162 - - [01/Nov/2018:03:04:15 +0000] "GET /?sort=cHJpbnQgbWQ1KDIxMzEyMyk7 HTTP/1.0" 200 65588 "gameworkforce.com" "Mozilla/5.0 (Windows NT 6.1; WOW64) AppleWebKit/537.36 (KHTML, like Gecko) Chrome/50.0.2661.75 Safari/537.36"
31.170.123.73 - - [01/Nov/2018:03:44:18 +0000] "POST /wp-cron.php?doing_wp_cron=1541043858.4170238971710205078125 HTTP/1.0" 200 - "http://gameworkforce.com/wp-cron.php?doing_wp_cron=1541043858.4170238971710205078125" "WordPress/4.9.8; http://gameworkforce.com"
54.210.165.25 - - [01/Nov/2018:03:44:17 +0000] "GET /wp-login.php HTTP/1.0" 200 2280 "https://www.google.com/url?5dbc53961246a3ebd5a882d37979a0c2" "Mozilla/5.0 (Windows NT 6.2; WOW64; rv:31.0) Gecko/20100101 Firefox/31.0"
54.210.165.25 - - [01/Nov/2018:03:44:19 +0000] "POST /wp-login.php HTTP/1.0" 200 3271 "https://www.google.com/url?5dbc53961246a3ebd5a882d37979a0c2" "Mozilla/5.0 (Windows NT 6.2; WOW64; rv:31.0) Gecko/20100101 Firefox/31.0"
31.170.123.73 - - [01/Nov/2018:08:32:39 +0000] "POST /wp-cron.php?doing_wp_cron=1541061159.5334711074829101562500 HTTP/1.0" 200 - "http://gameworkforce.com/wp-cron.php?doing_wp_cron=1541061159.5334711074829101562500" "WordPress/4.9.8; http://gameworkforce.com"
18.236.136.2 - - [01/Nov/2018:08:32:39 +0000] "GET /wp-login.php HTTP/1.0" 200 2280 "https://www.google.com/url?5dbc53961246a3ebd5a882d37979a0c2" "Mozilla/5.0 (Windows NT 5.1; rv:29.0) Gecko/20120101 Firefox/29.0"
18.236.136.2 - - [01/Nov/2018:08:32:54 +0000] "POST /wp-login.php HTTP/1.0" 200 3271 "https://www.google.com/url?5dbc53961246a3ebd5a882d37979a0c2" "Mozilla/5.0 (Windows NT 5.1; rv:29.0) Gecko/20120101 Firefox/29.0"
54.36.150.75 - - [01/Nov/2018:09:13:58 +0000] "GET /robots.txt HTTP/1.0" 404 208 "-" "Mozilla/5.0 (compatible; AhrefsBot/5.2; +http://ahrefs.com/robot/)"
31.170.123.73 - - [01/Nov/2018:10:02:49 +0000] "POST /wp-cron.php?doing_wp_cron=1541066569.5490190982818603515625 HTTP/1.0" 200 - "http://gameworkforce.com/wp-cron.php?doing_wp_cron=1541066569.5490190982818603515625" "WordPress/4.9.8; http://gameworkforce.com"
190.2.148.176 - - [01/Nov/2018:10:02:49 +0000] "GET / HTTP/1.0" 200 65588 "-" "Mozilla/5.0 (Windows NT 5.1) AppleWebKit/537.36 (KHTML, like Gecko) Chrome/27.0.1453.94 Safari/537.36"
178.170.82.27 - - [01/Nov/2018:11:33:44 +0000] "GET /wp-content/themes/pridmag/db.php HTTP/1.0" 404 230 "gameworkforce.com" "Mozilla/5.0 (Windows NT 6.1; WOW64) AppleWebKit/537.36 (KHTML, like Gecko) Chrome/50.0.2661.75 Safari/537.36"
77.234.68.136 - - [01/Nov/2018:11:41:42 +0000] "GET / HTTP/1.0" 200 65588 "https://brandnewblogs.com/site-browser-2/" "Mozilla/5.0 (Windows NT 10.0; Win64; x64; rv:61.0) Gecko/20100101 Firefox/61.0"
77.234.68.136 - - [01/Nov/2018:11:41:44 +0000] "GET / HTTP/1.0" 200 65588 "https://brandnewblogs.com/site-browser-2/" "Mozilla/5.0 (Windows NT 10.0; Win64; x64; rv:61.0) Gecko/20100101 Firefox/61.0"
77.234.68.136 - - [01/Nov/2018:11:41:44 +0000] "GET / HTTP/1.0" 200 65588 "https://brandnewblogs.com/site-browser-2/" "Mozilla/5.0 (Windows NT 10.0; Win64; x64; rv:61.0) Gecko/20100101 Firefox/61.0"
31.170.123.73 - - [01/Nov/2018:11:41:43 +0000] "POST /wp-cron.php?doing_wp_cron=1541072503.0162699222564697265625 HTTP/1.0" 200 - "http://gameworkforce.com/wp-cron.php?doing_wp_cron=1541072503.0162699222564697265625" "WordPress/4.9.8; http://gameworkforce.com"
178.137.82.233 - - [01/Nov/2018:12:24:22 +0000] "GET /groups/ HTTP/1.0" 404 205 "-" "Mozilla/5.0 (Windows NT 5.0; rv:44.0) Gecko/20100101 Firefox/44.0"
31.170.123.73 - - [01/Nov/2018:12:40:07 +0000] "POST /wp-cron.php?doing_wp_cron=1541076007.9029409885406494140625 HTTP/1.0" 200 - "http://gameworkforce.com/wp-cron.php?doing_wp_cron=1541076007.9029409885406494140625" "WordPress/4.9.8; http://gameworkforce.com"
18.221.20.175 - - [01/Nov/2018:12:40:07 +0000] "GET /wp-login.php HTTP/1.0" 200 2280 "https://www.google.com/url?5dbc53961246a3ebd5a882d37979a0c2" "Mozilla/5.0 (Windows NT 5.1; rv:29.0) Gecko/20120101 Firefox/29.0"
18.221.20.175 - - [01/Nov/2018:12:40:08 +0000] "POST /wp-login.php HTTP/1.0" 200 3220 "https://www.google.com/url?5dbc53961246a3ebd5a882d37979a0c2" "Mozilla/5.0 (Windows NT 5.1; rv:29.0) Gecko/20120101 Firefox/29.0"
31.170.123.73 - - [01/Nov/2018:13:45:13 +0000] "POST /wp-cron.php?doing_wp_cron=1541079913.5282928943634033203125 HTTP/1.0" 200 - "http://gameworkforce.com/wp-cron.php?doing_wp_cron=1541079913.5282928943634033203125" "WordPress/4.9.8; http://gameworkforce.com"
5.196.87.56 - - [01/Nov/2018:13:45:13 +0000] "GET / HTTP/1.0" 301 - "-" "Mozilla/5.0 (compatible; AhrefsBot/5.2; +http://ahrefs.com/robot/)"
31.170.123.73 - - [01/Nov/2018:15:53:24 +0000] "POST /wp-admin/admin-ajax.php?action=wp_1_wc_privacy_cleanup&nonce=ac3eb207a6 HTTP/1.0" 200 - "http://gameworkforce.com/wp-admin/admin-ajax.php?action=wp_1_wc_privacy_cleanup&nonce=ac3eb207a6" "WordPress/4.9.8; http://gameworkforce.com"
31.170.123.73 - - [01/Nov/2018:15:53:23 +0000] "POST /wp-cron.php?doing_wp_cron=1541087603.4769029617309570312500 HTTP/1.0" 200 - "http://gameworkforce.com/wp-cron.php?doing_wp_cron=1541087603.4769029617309570312500" "WordPress/4.9.8; http://gameworkforce.com"
77.234.68.136 - - [01/Nov/2018:15:53:23 +0000] "GET / HTTP/1.0" 200 65588 "https://brandnewblogs.com/site-browser-2/" "Mozilla/5.0 (Windows NT 10.0; Win64; x64; rv:61.0) Gecko/20100101 Firefox/61.0"
31.170.123.73 - - [01/Nov/2018:15:53:25 +0000] "POST /wp-cron.php?doing_wp_cron=1541087605.2281439304351806640625 HTTP/1.0" 200 - "http://gameworkforce.com/wp-cron.php?doing_wp_cron=1541087605.2281439304351806640625" "WordPress/4.9.8; http://gameworkforce.com"
77.234.68.136 - - [01/Nov/2018:15:53:24 +0000] "GET / HTTP/1.0" 200 65588 "https://brandnewblogs.com/site-browser-2/" "Mozilla/5.0 (Windows NT 10.0; Win64; x64; rv:61.0) Gecko/20100101 Firefox/61.0"
77.234.68.136 - - [01/Nov/2018:15:53:25 +0000] "GET / HTTP/1.0" 200 65588 "https://brandnewblogs.com/site-browser-2/" "Mozilla/5.0 (Windows NT 10.0; Win64; x64; rv:61.0) Gecko/20100101 Firefox/61.0"
31.170.123.73 - - [01/Nov/2018:17:10:21 +0000] "POST /wp-cron.php?doing_wp_cron=1541092221.5071620941162109375000 HTTP/1.0" 200 - "http://gameworkforce.com/wp-cron.php?doing_wp_cron=1541092221.5071620941162109375000" "WordPress/4.9.8; http://gameworkforce.com"
18.223.30.190 - - [01/Nov/2018:17:10:21 +0000] "GET /wp-login.php HTTP/1.0" 200 2280 "https://www.google.com/url?5dbc53961246a3ebd5a882d37979a0c2" "Mozilla/5.0 (Windows NT 6.1; rv:31.0) Gecko/20100101 Firefox/31.0"
18.223.30.190 - - [01/Nov/2018:17:10:30 +0000] "POST /wp-login.php HTTP/1.0" 200 3271 "https://www.google.com/url?5dbc53961246a3ebd5a882d37979a0c2" "Mozilla/5.0 (Windows NT 6.1; rv:31.0) Gecko/20100101 Firefox/31.0"
91.238.164.172 - - [01/Nov/2018:18:11:53 +0000] "GET /seomarket.php HTTP/1.0" 404 211 "gameworkforce.com" "Mozilla/5.0 (Windows NT 6.1; WOW64) AppleWebKit/537.36 (KHTML, like Gecko) Chrome/50.0.2661.75 Safari/537.36"
31.170.123.73 - - [01/Nov/2018:18:18:47 +0000] "POST /wp-cron.php?doing_wp_cron=1541096327.1864109039306640625000 HTTP/1.0" 200 - "http://gameworkforce.com/wp-cron.php?doing_wp_cron=1541096327.1864109039306640625000" "WordPress/4.9.8; http://gameworkforce.com"
151.80.39.24 - - [01/Nov/2018:18:18:46 +0000] "GET / HTTP/1.0" 301 - "-" "Mozilla/5.0 (compatible; AhrefsBot/5.2; +http://ahrefs.com/robot/)"
2400:6180:0:d0::337c:1001 - - [01/Nov/2018:19:20:36 +0000] "GET /wp-main.php HTTP/1.0" 404 209 "gameworkforce.com" "Mozilla/5.0 (Windows NT 6.1; WOW64) AppleWebKit/537.36 (KHTML, like Gecko) Chrome/50.0.2661.75 Safari/537.36"
31.170.123.73 - - [01/Nov/2018:21:54:22 +0000] "POST /wp-cron.php?doing_wp_cron=1541109262.6343729496002197265625 HTTP/1.0" 200 - "http://gameworkforce.com/wp-cron.php?doing_wp_cron=1541109262.6343729496002197265625" "WordPress/4.9.8; http://gameworkforce.com"
52.42.115.130 - - [01/Nov/2018:21:54:22 +0000] "GET /wp-login.php HTTP/1.0" 200 2280 "https://www.google.com/url?5dbc53961246a3ebd5a882d37979a0c2" "Mozilla/5.0 (Windows NT 6.1; WOW64; rv:29.0) Gecko/20120101 Firefox/29.0"
52.42.115.130 - - [01/Nov/2018:21:54:40 +0000] "POST /wp-login.php HTTP/1.0" 200 3271 "https://www.google.com/url?5dbc53961246a3ebd5a882d37979a0c2" "Mozilla/5.0 (Windows NT 6.1; WOW64; rv:29.0) Gecko/20120101 Firefox/29.0"
66.249.66.146 - - [01/Nov/2018:22:28:50 +0000] "GET /robots.txt HTTP/1.0" 404 208 "-" "Mozilla/5.0 (compatible; Googlebot/2.1; +http://www.google.com/bot.html)"
67.205.1.151 - - [01/Nov/2018:22:54:32 +0000] "GET /wp-clear.php HTTP/1.0" 404 210 "gameworkforce.com" "Mozilla/5.0 (Windows NT 6.1; WOW64) AppleWebKit/537.36 (KHTML, like Gecko) Chrome/50.0.2661.75 Safari/537.36"
52.165.148.51 - - [02/Nov/2018:01:47:26 +0000] "GET / HTTP/1.0" 200 34616 "-" "Mozilla/5.0 (Windows NT 10.0; Win64; x64) AppleWebKit/537.36 (KHTML, like Gecko) Chrome/65.0.3325.181 Safari/537.36"
31.170.123.73 - - [02/Nov/2018:01:47:26 +0000] "POST /wp-cron.php?doing_wp_cron=1541123246.9292159080505371093750 HTTP/1.0" 200 - "http://gameworkforce.com/wp-cron.php?doing_wp_cron=1541123246.9292159080505371093750" "WordPress/4.9.8; http://gameworkforce.com"
31.170.123.73 - - [02/Nov/2018:02:25:21 +0000] "POST /wp-cron.php?doing_wp_cron=1541125521.3697159290313720703125 HTTP/1.0" 200 - "http://gameworkforce.com/wp-cron.php?doing_wp_cron=1541125521.3697159290313720703125" "WordPress/4.9.8; http://gameworkforce.com"
52.13.50.97 - - [02/Nov/2018:02:25:20 +0000] "GET /wp-login.php HTTP/1.0" 200 2280 "https://www.google.com/url?5dbc53961246a3ebd5a882d37979a0c2" "Mozilla/5.0 (Windows NT 6.1; rv:29.0) Gecko/20120101 Firefox/29.0"
52.13.50.97 - - [02/Nov/2018:02:25:22 +0000] "POST /wp-login.php HTTP/1.0" 200 3271 "https://www.google.com/url?5dbc53961246a3ebd5a882d37979a0c2" "Mozilla/5.0 (Windows NT 6.1; rv:29.0) Gecko/20120101 Firefox/29.0"
