54.210.165.25 - - [03/Nov/2018:05:15:10 +0000] "GET /wp-login.php HTTP/1.0" 200 2422 "https://www.google.com/url?ea6a4673af35e054fba356c46b5de485" "Mozilla/5.0 (Windows NT 6.1; rv:36.0) Gecko/20100101 Firefox/36.0"
54.210.165.25 - - [03/Nov/2018:05:15:11 +0000] "POST /wp-login.php HTTP/1.0" 200 3369 "https://www.google.com/url?ea6a4673af35e054fba356c46b5de485" "Mozilla/5.0 (Windows NT 6.1; rv:36.0) Gecko/20100101 Firefox/36.0"
31.170.123.73 - - [03/Nov/2018:05:15:10 +0000] "POST /wp-cron.php?doing_wp_cron=1541222110.4046020507812500000000 HTTP/1.0" 200 - "http://magicbyafrica.com/wp-cron.php?doing_wp_cron=1541222110.4046020507812500000000" "WordPress/4.8.7; http://magicbyafrica.com"
52.173.241.248 - - [03/Nov/2018:06:15:06 +0000] "GET / HTTP/1.0" 301 - "-" "Mozilla/5.0 (Windows NT 6.1; Win64; x64; rv:59.0) Gecko/20100101 Firefox/59.0"
192.99.35.135 - - [03/Nov/2018:08:01:54 +0000] "GET /wp-json/wp/v2/users/ HTTP/1.0" 200 577 "-" "Mozilla/5.0 (Windows NT 6.1; Win64; x64) AppleWebKit/537.36 (KHTML, like Gecko) Chrome/62.0.3202.94 Safari/537.36"
18.207.203.70 - - [03/Nov/2018:11:41:30 +0000] "GET /wp-login.php HTTP/1.0" 200 2422 "https://www.google.com/url?ea6a4673af35e054fba356c46b5de485" "Mozilla/5.0 (Windows NT 6.0; rv:29.0) Gecko/20120101 Firefox/29.0"
18.207.203.70 - - [03/Nov/2018:11:41:32 +0000] "POST /wp-login.php HTTP/1.0" 200 3369 "https://www.google.com/url?ea6a4673af35e054fba356c46b5de485" "Mozilla/5.0 (Windows NT 6.0; rv:29.0) Gecko/20120101 Firefox/29.0"
31.170.123.73 - - [03/Nov/2018:11:41:31 +0000] "POST /wp-cron.php?doing_wp_cron=1541245291.0810060501098632812500 HTTP/1.0" 200 - "http://magicbyafrica.com/wp-cron.php?doing_wp_cron=1541245291.0810060501098632812500" "WordPress/4.8.7; http://magicbyafrica.com"
89.163.131.165 - - [03/Nov/2018:14:36:11 +0000] "GET /robots.txt HTTP/1.0" 200 67 "-" "Mozilla/5.0 (compatible; Uptimebot/1.0; +http://www.uptime.com/uptimebot)"
89.163.131.167 - - [03/Nov/2018:14:36:11 +0000] "HEAD / HTTP/1.0" 301 - "-" "Mozilla/5.0 (compatible; Uptimebot/1.0; +http://www.uptime.com/uptimebot)"
155.133.132.66 - - [03/Nov/2018:17:59:31 +0000] "GET /wp/wp-admin/setup-config.php?step=1 HTTP/1.0" 301 - "-" "libwww-perl/6.26"
155.133.132.66 - - [03/Nov/2018:17:59:32 +0000] "GET /wp/wp-admin/setup-config.php?step=1 HTTP/1.0" 404 50025 "-" "libwww-perl/6.26"
155.133.132.66 - - [03/Nov/2018:17:59:32 +0000] "GET /wordpress/wp-admin/setup-config.php?step=1 HTTP/1.0" 301 - "-" "libwww-perl/6.26"
155.133.132.66 - - [03/Nov/2018:17:59:32 +0000] "GET /wordpress/wp-admin/setup-config.php?step=1 HTTP/1.0" 404 50025 "-" "libwww-perl/6.26"
2a03:2880:10ff:7::face:b00c - - [03/Nov/2018:18:17:34 +0000] "HEAD / HTTP/1.0" 301 - "-" "facebookexternalhit/1.1 (+http://www.facebook.com/externalhit_uatext.php)"
18.209.28.196 - - [03/Nov/2018:19:15:19 +0000] "GET /wp-login.php HTTP/1.0" 200 2422 "https://www.google.com/url?ea6a4673af35e054fba356c46b5de485" "Mozilla/5.0 (Windows NT 6.1; rv:33.0) Gecko/20100101 Firefox/33.0"
18.209.28.196 - - [03/Nov/2018:19:15:19 +0000] "POST /wp-login.php HTTP/1.0" 200 3369 "https://www.google.com/url?ea6a4673af35e054fba356c46b5de485" "Mozilla/5.0 (Windows NT 6.1; rv:33.0) Gecko/20100101 Firefox/33.0"
67.231.16.206 - - [03/Nov/2018:20:33:20 +0000] "HEAD / HTTP/1.0" 301 - "-" "Mozilla/5.0 (compatible; Uptimebot/1.0; +http://www.uptime.com/uptimebot)"
190.2.148.176 - - [04/Nov/2018:00:09:41 +0000] "GET / HTTP/1.0" 301 - "-" "Mozilla/5.0 (Windows NT 5.1) AppleWebKit/537.36 (KHTML, like Gecko) Chrome/27.0.1453.94 Safari/537.36"
