141.8.142.120 - - [06/Nov/2018:03:09:09 +0000] "GET /robots.txt HTTP/1.0" 404 208 "-" "Mozilla/5.0 (compatible; YandexBot/3.0; +http://yandex.com/bots)"
141.8.142.120 - - [06/Nov/2018:03:09:13 +0000] "GET / HTTP/1.0" 302 20 "-" "Mozilla/5.0 (compatible; YandexBot/3.0; +http://yandex.com/bots)"
178.154.244.10 - - [06/Nov/2018:03:09:17 +0000] "GET /login_page.php HTTP/1.0" 200 1378 "-" "Mozilla/5.0 (compatible; YandexBot/3.0; +http://yandex.com/bots)"
18.188.206.157 - - [06/Nov/2018:03:16:35 +0000] "GET /login_page.php HTTP/1.0" 200 1375 "-" "Mozilla/5.0 (X11; Linux x86_64) AppleWebKit/537.36 (KHTML, like Gecko) Chrome/67.0.3396.79 Safari/537.36"
18.224.135.194 - - [06/Nov/2018:03:44:08 +0000] "GET /login_page.php HTTP/1.0" 200 1375 "-" "Mozilla/5.0 (Macintosh; Intel Mac OS X x.y; rv:42.0) AppleWebKit/537.36 (KHTML, like Gecko) Firefox/42.0"
18.191.114.91 - - [06/Nov/2018:04:14:15 +0000] "GET /login_page.php HTTP/1.0" 200 1375 "-" "Mozilla/5.0 (X11; Linux x86_64) Gecko/20100101 Chrome/67.0.3396.79 Safari/537.36"
3.16.42.80 - - [06/Nov/2018:04:44:34 +0000] "GET /login_page.php HTTP/1.0" 200 1375 "-" "Mozilla/5.0 (Windows NT 6.1; Win64; x64; rv:47.0) Gecko/20100101 Chrome/67.0.3396.79 Safari/537.36"
18.222.238.207 - - [06/Nov/2018:05:13:57 +0000] "GET /login_page.php HTTP/1.0" 200 1375 "-" "Mozilla/5.0 (Macintosh; Intel Mac OS X x.y; rv:42.0) Trident/5.0 Chrome/51.0.2704.106 Safari/537.36 OPR/38.0.2220.41"
18.224.96.63 - - [06/Nov/2018:05:45:01 +0000] "GET /login_page.php HTTP/1.0" 200 1375 "-" "Mozilla/5.0 (X11; Linux x86_64) Gecko/20100101 Firefox/42.0"
18.191.230.117 - - [06/Nov/2018:06:15:08 +0000] "GET /login_page.php HTTP/1.0" 200 1375 "-" "Mozilla/5.0 (Macintosh; Intel Mac OS X x.y; rv:42.0) AppleWebKit/537.36 (KHTML, like Gecko) Chrome/67.0.3396.79 Safari/537.36"
18.191.230.117 - - [06/Nov/2018:06:45:05 +0000] "GET /login_page.php HTTP/1.0" 200 1375 "-" "Mozilla/5.0 (Macintosh; Intel Mac OS X x.y; rv:42.0) AppleWebKit/537.36 (KHTML, like Gecko) Safari/602.1"
18.223.247.156 - - [06/Nov/2018:07:15:22 +0000] "GET /login_page.php HTTP/1.0" 200 1375 "-" "Mozilla/5.0 (X11; Linux x86_64) AppleWebKit/537.36 (KHTML, like Gecko) Chrome/67.0.3396.79 Safari/537.36"
18.220.11.248 - - [06/Nov/2018:07:44:28 +0000] "GET /login_page.php HTTP/1.0" 200 1375 "-" "Mozilla/5.0 (X11; Linux x86_64) AppleWebKit/537.36 (KHTML, like Gecko) Chrome/51.0.2704.106 Safari/537.36 OPR/38.0.2220.41"
18.216.244.161 - - [06/Nov/2018:08:14:38 +0000] "GET /login_page.php HTTP/1.0" 200 1375 "-" "Mozilla/5.0 (Macintosh; Intel Mac OS X x.y; rv:42.0) Trident/5.0 Firefox/42.0"
66.249.66.148 - - [06/Nov/2018:08:34:20 +0000] "GET / HTTP/1.0" 302 20 "-" "Mozilla/5.0 (compatible; Googlebot/2.1; +http://www.google.com/bot.html)"
66.249.66.148 - - [06/Nov/2018:08:34:20 +0000] "GET /login_page.php HTTP/1.0" 200 1378 "-" "Mozilla/5.0 (compatible; Googlebot/2.1; +http://www.google.com/bot.html)"
66.249.66.148 - - [06/Nov/2018:08:34:23 +0000] "GET /javascript_translations.php HTTP/1.0" 200 116 "http://www.orangepotion.com/login_page.php" "Mozilla/5.0 AppleWebKit/537.36 (KHTML, like Gecko; compatible; Googlebot/2.1; +http://www.google.com/bot.html) Safari/537.36"
18.224.96.63 - - [06/Nov/2018:08:45:38 +0000] "GET /login_page.php HTTP/1.0" 200 1375 "-" "Mozilla/5.0 (Macintosh; Intel Mac OS X x.y; rv:42.0) AppleWebKit/537.36 (KHTML, like Gecko) Firefox/42.0"
34.215.53.194 - - [06/Nov/2018:08:52:29 +0000] "GET / HTTP/1.0" 302 20 "-" "Mozilla/5.0 (Windows NT 10.0; Win64; x64) AppleWebKit/537.36 (KHTML, like Gecko) Chrome/66.0.3359.181 Safari/537.36"
34.215.53.194 - - [06/Nov/2018:08:52:29 +0000] "GET /login_page.php HTTP/1.0" 200 1375 "-" "Mozilla/5.0 (Windows NT 10.0; Win64; x64) AppleWebKit/537.36 (KHTML, like Gecko) Chrome/66.0.3359.181 Safari/537.36"
52.89.44.203 - - [06/Nov/2018:08:52:31 +0000] "GET / HTTP/1.0" 302 20 "-" "Mozilla/5.0 (X11; Linux x86_64) AppleWebKit/537.36 (KHTML, like Gecko) HeadlessChrome/68.0.3440.106 Safari/537.36"
52.89.44.203 - - [06/Nov/2018:08:52:31 +0000] "GET /login_page.php HTTP/1.0" 200 1375 "-" "Mozilla/5.0 (X11; Linux x86_64) AppleWebKit/537.36 (KHTML, like Gecko) HeadlessChrome/68.0.3440.106 Safari/537.36"
52.89.44.203 - - [06/Nov/2018:08:52:32 +0000] "GET /css/default.css HTTP/1.0" 200 2084 "http://orangepotion.com/login_page.php" "Mozilla/5.0 (X11; Linux x86_64) AppleWebKit/537.36 (KHTML, like Gecko) HeadlessChrome/68.0.3440.106 Safari/537.36"
52.89.44.203 - - [06/Nov/2018:08:52:32 +0000] "GET /css/login.css HTTP/1.0" 200 827 "http://orangepotion.com/login_page.php" "Mozilla/5.0 (X11; Linux x86_64) AppleWebKit/537.36 (KHTML, like Gecko) HeadlessChrome/68.0.3440.106 Safari/537.36"
52.89.44.203 - - [06/Nov/2018:08:52:32 +0000] "GET /css/dropzone-4.3.0.min.css HTTP/1.0" 200 9716 "http://orangepotion.com/login_page.php" "Mozilla/5.0 (X11; Linux x86_64) AppleWebKit/537.36 (KHTML, like Gecko) HeadlessChrome/68.0.3440.106 Safari/537.36"
52.89.44.203 - - [06/Nov/2018:08:52:32 +0000] "GET /css/bootstrap-3.3.6.min.css HTTP/1.0" 200 115813 "http://orangepotion.com/login_page.php" "Mozilla/5.0 (X11; Linux x86_64) AppleWebKit/537.36 (KHTML, like Gecko) HeadlessChrome/68.0.3440.106 Safari/537.36"
52.89.44.203 - - [06/Nov/2018:08:52:32 +0000] "GET /css/font-awesome-4.6.3.min.css HTTP/1.0" 200 29063 "http://orangepotion.com/login_page.php" "Mozilla/5.0 (X11; Linux x86_64) AppleWebKit/537.36 (KHTML, like Gecko) HeadlessChrome/68.0.3440.106 Safari/537.36"
52.89.44.203 - - [06/Nov/2018:08:52:32 +0000] "GET /css/common_config.php HTTP/1.0" 200 140 "http://orangepotion.com/login_page.php" "Mozilla/5.0 (X11; Linux x86_64) AppleWebKit/537.36 (KHTML, like Gecko) HeadlessChrome/68.0.3440.106 Safari/537.36"
52.89.44.203 - - [06/Nov/2018:08:52:32 +0000] "GET /css/open-sans.css HTTP/1.0" 200 1175 "http://orangepotion.com/login_page.php" "Mozilla/5.0 (X11; Linux x86_64) AppleWebKit/537.36 (KHTML, like Gecko) HeadlessChrome/68.0.3440.106 Safari/537.36"
52.89.44.203 - - [06/Nov/2018:08:52:32 +0000] "GET /css/status_config.php HTTP/1.0" 200 20 "http://orangepotion.com/login_page.php" "Mozilla/5.0 (X11; Linux x86_64) AppleWebKit/537.36 (KHTML, like Gecko) HeadlessChrome/68.0.3440.106 Safari/537.36"
52.89.44.203 - - [06/Nov/2018:08:52:32 +0000] "GET /css/bootstrap-datetimepicker-4.17.47.min.css HTTP/1.0" 200 7785 "http://orangepotion.com/login_page.php" "Mozilla/5.0 (X11; Linux x86_64) AppleWebKit/537.36 (KHTML, like Gecko) HeadlessChrome/68.0.3440.106 Safari/537.36"
52.89.44.203 - - [06/Nov/2018:08:52:32 +0000] "GET /css/ace.min.css HTTP/1.0" 200 298300 "http://orangepotion.com/login_page.php" "Mozilla/5.0 (X11; Linux x86_64) AppleWebKit/537.36 (KHTML, like Gecko) HeadlessChrome/68.0.3440.106 Safari/537.36"
52.89.44.203 - - [06/Nov/2018:08:52:32 +0000] "GET /css/ace-mantis.css HTTP/1.0" 200 12793 "http://orangepotion.com/login_page.php" "Mozilla/5.0 (X11; Linux x86_64) AppleWebKit/537.36 (KHTML, like Gecko) HeadlessChrome/68.0.3440.106 Safari/537.36"
52.89.44.203 - - [06/Nov/2018:08:52:32 +0000] "GET /css/ace-skins.min.css HTTP/1.0" 200 14106 "http://orangepotion.com/login_page.php" "Mozilla/5.0 (X11; Linux x86_64) AppleWebKit/537.36 (KHTML, like Gecko) HeadlessChrome/68.0.3440.106 Safari/537.36"
52.89.44.203 - - [06/Nov/2018:08:52:32 +0000] "GET /js/jquery-2.2.4.min.js HTTP/1.0" 200 85578 "http://orangepotion.com/login_page.php" "Mozilla/5.0 (X11; Linux x86_64) AppleWebKit/537.36 (KHTML, like Gecko) HeadlessChrome/68.0.3440.106 Safari/537.36"
52.89.44.203 - - [06/Nov/2018:08:52:32 +0000] "GET /plugin_file.php?file=Source/style.css HTTP/1.0" 200 1542 "http://orangepotion.com/login_page.php" "Mozilla/5.0 (X11; Linux x86_64) AppleWebKit/537.36 (KHTML, like Gecko) HeadlessChrome/68.0.3440.106 Safari/537.36"
52.89.44.203 - - [06/Nov/2018:08:52:32 +0000] "GET /js/dropzone-4.3.0.min.js HTTP/1.0" 200 33588 "http://orangepotion.com/login_page.php" "Mozilla/5.0 (X11; Linux x86_64) AppleWebKit/537.36 (KHTML, like Gecko) HeadlessChrome/68.0.3440.106 Safari/537.36"
52.89.44.203 - - [06/Nov/2018:08:52:32 +0000] "GET /javascript_config.php HTTP/1.0" 200 107 "http://orangepotion.com/login_page.php" "Mozilla/5.0 (X11; Linux x86_64) AppleWebKit/537.36 (KHTML, like Gecko) HeadlessChrome/68.0.3440.106 Safari/537.36"
52.89.44.203 - - [06/Nov/2018:08:52:32 +0000] "GET /js/common.js HTTP/1.0" 200 17147 "http://orangepotion.com/login_page.php" "Mozilla/5.0 (X11; Linux x86_64) AppleWebKit/537.36 (KHTML, like Gecko) HeadlessChrome/68.0.3440.106 Safari/537.36"
52.89.44.203 - - [06/Nov/2018:08:52:32 +0000] "GET /javascript_translations.php HTTP/1.0" 200 116 "http://orangepotion.com/login_page.php" "Mozilla/5.0 (X11; Linux x86_64) AppleWebKit/537.36 (KHTML, like Gecko) HeadlessChrome/68.0.3440.106 Safari/537.36"
52.89.44.203 - - [06/Nov/2018:08:52:33 +0000] "GET /plugin_file.php?file=MantisGraph/chart-2.1.6.min.js HTTP/1.0" 200 37186 "http://orangepotion.com/login_page.php" "Mozilla/5.0 (X11; Linux x86_64) AppleWebKit/537.36 (KHTML, like Gecko) HeadlessChrome/68.0.3440.106 Safari/537.36"
52.89.44.203 - - [06/Nov/2018:08:52:33 +0000] "GET /plugin_file.php?file=MantisGraph/chart.bundle-2.1.6.min.js HTTP/1.0" 200 52126 "http://orangepotion.com/login_page.php" "Mozilla/5.0 (X11; Linux x86_64) AppleWebKit/537.36 (KHTML, like Gecko) HeadlessChrome/68.0.3440.106 Safari/537.36"
52.89.44.203 - - [06/Nov/2018:08:52:33 +0000] "GET /plugin_file.php?file=MantisGraph/MantisGraph.js HTTP/1.0" 200 496 "http://orangepotion.com/login_page.php" "Mozilla/5.0 (X11; Linux x86_64) AppleWebKit/537.36 (KHTML, like Gecko) HeadlessChrome/68.0.3440.106 Safari/537.36"
52.89.44.203 - - [06/Nov/2018:08:52:33 +0000] "GET /js/bootstrap-3.3.6.min.js HTTP/1.0" 200 36868 "http://orangepotion.com/login_page.php" "Mozilla/5.0 (X11; Linux x86_64) AppleWebKit/537.36 (KHTML, like Gecko) HeadlessChrome/68.0.3440.106 Safari/537.36"
52.89.44.203 - - [06/Nov/2018:08:52:33 +0000] "GET /js/moment-with-locales-2.15.2.min.js HTTP/1.0" 200 232806 "http://orangepotion.com/login_page.php" "Mozilla/5.0 (X11; Linux x86_64) AppleWebKit/537.36 (KHTML, like Gecko) HeadlessChrome/68.0.3440.106 Safari/537.36"
52.89.44.203 - - [06/Nov/2018:08:52:33 +0000] "GET /js/list-1.4.1.min.js HTTP/1.0" 200 15689 "http://orangepotion.com/login_page.php" "Mozilla/5.0 (X11; Linux x86_64) AppleWebKit/537.36 (KHTML, like Gecko) HeadlessChrome/68.0.3440.106 Safari/537.36"
52.89.44.203 - - [06/Nov/2018:08:52:33 +0000] "GET /images/mantis_logo.png HTTP/1.0" 200 77114 "http://orangepotion.com/login_page.php" "Mozilla/5.0 (X11; Linux x86_64) AppleWebKit/537.36 (KHTML, like Gecko) HeadlessChrome/68.0.3440.106 Safari/537.36"
52.89.44.203 - - [06/Nov/2018:08:52:33 +0000] "GET /js/ace.min.js HTTP/1.0" 200 41178 "http://orangepotion.com/login_page.php" "Mozilla/5.0 (X11; Linux x86_64) AppleWebKit/537.36 (KHTML, like Gecko) HeadlessChrome/68.0.3440.106 Safari/537.36"
52.89.44.203 - - [06/Nov/2018:08:52:33 +0000] "GET /js/bootstrap-datetimepicker-4.17.47.min.js HTTP/1.0" 200 38510 "http://orangepotion.com/login_page.php" "Mozilla/5.0 (X11; Linux x86_64) AppleWebKit/537.36 (KHTML, like Gecko) HeadlessChrome/68.0.3440.106 Safari/537.36"
52.89.44.203 - - [06/Nov/2018:08:52:33 +0000] "GET /js/typeahead.jquery-1.1.1.min.js HTTP/1.0" 200 31010 "http://orangepotion.com/login_page.php" "Mozilla/5.0 (X11; Linux x86_64) AppleWebKit/537.36 (KHTML, like Gecko) HeadlessChrome/68.0.3440.106 Safari/537.36"
52.89.44.203 - - [06/Nov/2018:08:52:33 +0000] "GET /fonts/fontawesome-webfont.woff2?v=4.6.3 HTTP/1.0" 200 71896 "http://orangepotion.com/css/font-awesome-4.6.3.min.css" "Mozilla/5.0 (X11; Linux x86_64) AppleWebKit/537.36 (KHTML, like Gecko) HeadlessChrome/68.0.3440.106 Safari/537.36"
52.89.44.203 - - [06/Nov/2018:08:52:33 +0000] "GET /fonts/DXI1ORHCpsQm3Vp6mXoaTXhCUOGz7vYGh680lGh-uXM.woff HTTP/1.0" 200 22656 "http://orangepotion.com/css/open-sans.css" "Mozilla/5.0 (X11; Linux x86_64) AppleWebKit/537.36 (KHTML, like Gecko) HeadlessChrome/68.0.3440.106 Safari/537.36"
52.89.44.203 - - [06/Nov/2018:08:52:33 +0000] "GET /fonts/cJZKeOuBrn4kERxqtaUH3T8E0i7KZn-EPnyo3HZu7kw.woff HTTP/1.0" 200 21956 "http://orangepotion.com/css/open-sans.css" "Mozilla/5.0 (X11; Linux x86_64) AppleWebKit/537.36 (KHTML, like Gecko) HeadlessChrome/68.0.3440.106 Safari/537.36"
18.217.34.193 - - [06/Nov/2018:09:16:17 +0000] "GET /login_page.php HTTP/1.0" 200 1375 "-" "Mozilla/5.0 (Macintosh; Intel Mac OS X x.y; rv:42.0) AppleWebKit/537.36 (KHTML, like Gecko) Chrome/51.0.2704.106 Safari/537.36 OPR/38.0.2220.41"
52.14.98.62 - - [06/Nov/2018:09:47:02 +0000] "GET /login_page.php HTTP/1.0" 200 1375 "-" "Mozilla/5.0 (Macintosh; Intel Mac OS X x.y; rv:42.0) AppleWebKit/537.36 (KHTML, like Gecko) Chrome/51.0.2704.106 Safari/537.36 OPR/38.0.2220.41"
18.218.79.145 - - [06/Nov/2018:09:48:04 +0000] "GET /login_page.php HTTP/1.0" 200 1375 "-" "Mozilla/5.0 (Macintosh; Intel Mac OS X x.y; rv:42.0) AppleWebKit/537.36 (KHTML, like Gecko) Safari/602.1"
18.220.209.234 - - [06/Nov/2018:10:15:27 +0000] "GET /login_page.php HTTP/1.0" 200 1375 "-" "Mozilla/5.0 (Macintosh; Intel Mac OS X x.y; rv:42.0) Gecko/20100101 Safari/602.1"
18.217.24.3 - - [06/Nov/2018:10:44:56 +0000] "GET /login_page.php HTTP/1.0" 200 1375 "-" "Mozilla/5.0 (Windows NT 6.1; Win64; x64; rv:47.0) AppleWebKit/537.36 (KHTML, like Gecko) Safari/602.1"
18.188.208.82 - - [06/Nov/2018:11:16:50 +0000] "GET /login_page.php HTTP/1.0" 200 1375 "-" "Mozilla/5.0 (Windows NT 6.1; Win64; x64; rv:47.0) AppleWebKit/537.36 (KHTML, like Gecko) Chrome/51.0.2704.106 Safari/537.36 OPR/38.0.2220.41"
18.224.212.83 - - [06/Nov/2018:11:18:54 +0000] "GET /login_page.php HTTP/1.0" 200 1375 "-" "Mozilla/5.0 (Macintosh; Intel Mac OS X x.y; rv:42.0) Gecko/20100101 Firefox/42.0"
18.216.244.161 - - [06/Nov/2018:11:43:38 +0000] "GET /login_page.php HTTP/1.0" 200 1375 "-" "Mozilla/5.0 (Windows NT 6.1; Win64; x64; rv:47.0) AppleWebKit/537.36 (KHTML, like Gecko) Chrome/67.0.3396.79 Safari/537.36"
18.223.247.156 - - [06/Nov/2018:12:14:52 +0000] "GET /login_page.php HTTP/1.0" 200 1375 "-" "Mozilla/5.0 (Macintosh; Intel Mac OS X x.y; rv:42.0) Trident/5.0 Safari/602.1"
213.180.203.23 - - [06/Nov/2018:12:36:54 +0000] "GET /robots.txt HTTP/1.0" 404 208 "-" "Mozilla/5.0 (compatible; YandexBot/3.0; +http://yandex.com/bots)"
141.8.132.14 - - [06/Nov/2018:12:36:54 +0000] "GET /robots.txt HTTP/1.0" 404 208 "-" "Mozilla/5.0 (compatible; YandexBot/3.0; +http://yandex.com/bots)"
95.108.181.75 - - [06/Nov/2018:12:36:57 +0000] "GET / HTTP/1.0" 302 20 "-" "Mozilla/5.0 (compatible; YandexBot/3.0; +http://yandex.com/bots)"
178.154.171.69 - - [06/Nov/2018:12:36:58 +0000] "GET / HTTP/1.0" 302 20 "-" "Mozilla/5.0 (compatible; YandexBot/3.0; +http://yandex.com/bots)"
37.9.113.56 - - [06/Nov/2018:12:37:01 +0000] "GET /login_page.php HTTP/1.0" 200 1467 "-" "Mozilla/5.0 (compatible; YandexBot/3.0; +http://yandex.com/bots)"
178.154.244.60 - - [06/Nov/2018:12:37:01 +0000] "GET /login_page.php HTTP/1.0" 200 1465 "-" "Mozilla/5.0 (compatible; YandexBot/3.0; +http://yandex.com/bots)"
18.222.238.207 - - [06/Nov/2018:12:45:23 +0000] "GET /login_page.php HTTP/1.0" 200 1375 "-" "Mozilla/5.0 (Macintosh; Intel Mac OS X x.y; rv:42.0) AppleWebKit/537.36 (KHTML, like Gecko) Safari/602.1"
18.188.90.138 - - [06/Nov/2018:13:15:38 +0000] "GET /login_page.php HTTP/1.0" 200 1375 "-" "Mozilla/5.0 (Macintosh; Intel Mac OS X x.y; rv:42.0) Gecko/20100101 Chrome/67.0.3396.79 Safari/537.36"
18.220.209.234 - - [06/Nov/2018:13:45:44 +0000] "GET /login_page.php HTTP/1.0" 200 1375 "-" "Mozilla/5.0 (Windows NT 6.1; Win64; x64; rv:47.0) AppleWebKit/537.36 (KHTML, like Gecko) Firefox/42.0"
18.217.34.193 - - [06/Nov/2018:13:46:00 +0000] "GET /login_page.php HTTP/1.0" 200 1375 "-" "Mozilla/5.0 (Windows NT 6.1; Win64; x64; rv:47.0) Gecko/20100101 Chrome/51.0.2704.106 Safari/537.36 OPR/38.0.2220.41"
18.216.19.83 - - [06/Nov/2018:14:16:30 +0000] "GET /login_page.php HTTP/1.0" 200 1375 "-" "Mozilla/5.0 (Macintosh; Intel Mac OS X x.y; rv:42.0) AppleWebKit/537.36 (KHTML, like Gecko) Safari/602.1"
18.216.20.127 - - [06/Nov/2018:14:45:22 +0000] "GET /login_page.php HTTP/1.0" 200 1375 "-" "Mozilla/5.0 (X11; Linux x86_64) AppleWebKit/537.36 (KHTML, like Gecko) Firefox/42.0"
18.191.154.160 - - [06/Nov/2018:15:15:13 +0000] "GET /login_page.php HTTP/1.0" 200 1375 "-" "Mozilla/5.0 (X11; Linux x86_64) AppleWebKit/537.36 (KHTML, like Gecko) Safari/602.1"
18.188.208.82 - - [06/Nov/2018:15:45:15 +0000] "GET /login_page.php HTTP/1.0" 200 1375 "-" "Mozilla/5.0 (Windows NT 6.1; Win64; x64; rv:47.0) AppleWebKit/537.36 (KHTML, like Gecko) Safari/602.1"
18.188.113.117 - - [06/Nov/2018:16:14:14 +0000] "GET /login_page.php HTTP/1.0" 200 1375 "-" "Mozilla/5.0 (Windows NT 6.1; Win64; x64; rv:47.0) Gecko/20100101 Firefox/42.0"
123.125.71.14 - - [06/Nov/2018:16:44:45 +0000] "GET /robots.txt HTTP/1.0" 404 208 "-" "Mozilla/5.0 (compatible; Baiduspider/2.0; +http://www.baidu.com/search/spider.html)"
18.188.206.157 - - [06/Nov/2018:16:45:22 +0000] "GET /login_page.php HTTP/1.0" 200 1375 "-" "Mozilla/5.0 (Macintosh; Intel Mac OS X x.y; rv:42.0) Trident/5.0 Firefox/42.0"
18.223.239.51 - - [06/Nov/2018:17:16:49 +0000] "GET /login_page.php HTTP/1.0" 200 1375 "-" "Mozilla/5.0 (X11; Linux x86_64) Gecko/20100101 Safari/602.1"
80.90.55.171 - - [06/Nov/2018:17:43:36 +0000] "HEAD /login_page.php HTTP/1.0" 200 - "-" "Mozilla/5.0 (compatible; Uptimebot/1.0; +http://www.uptime.com/uptimebot)"
18.220.11.248 - - [06/Nov/2018:17:45:19 +0000] "GET /login_page.php HTTP/1.0" 200 1375 "-" "Mozilla/5.0 (Windows NT 6.1; Win64; x64; rv:47.0) AppleWebKit/537.36 (KHTML, like Gecko) Chrome/67.0.3396.79 Safari/537.36"
18.220.61.112 - - [06/Nov/2018:18:14:47 +0000] "GET /login_page.php HTTP/1.0" 200 1375 "-" "Mozilla/5.0 (Windows NT 6.1; Win64; x64; rv:47.0) Gecko/20100101 Chrome/67.0.3396.79 Safari/537.36"
18.188.175.209 - - [06/Nov/2018:18:46:06 +0000] "GET /login_page.php HTTP/1.0" 200 1375 "-" "Mozilla/5.0 (X11; Linux x86_64) Trident/5.0 Safari/602.1"
18.191.230.117 - - [06/Nov/2018:19:16:23 +0000] "GET /login_page.php HTTP/1.0" 200 1375 "-" "Mozilla/5.0 (X11; Linux x86_64) Trident/5.0 Chrome/51.0.2704.106 Safari/537.36 OPR/38.0.2220.41"
18.188.113.117 - - [06/Nov/2018:19:45:16 +0000] "GET /login_page.php HTTP/1.0" 200 1375 "-" "Mozilla/5.0 (Macintosh; Intel Mac OS X x.y; rv:42.0) Trident/5.0 Firefox/42.0"
18.224.96.63 - - [06/Nov/2018:20:15:08 +0000] "GET /login_page.php HTTP/1.0" 200 1375 "-" "Mozilla/5.0 (X11; Linux x86_64) AppleWebKit/537.36 (KHTML, like Gecko) Chrome/51.0.2704.106 Safari/537.36 OPR/38.0.2220.41"
141.8.132.4 - - [06/Nov/2018:20:23:34 +0000] "GET /robots.txt HTTP/1.0" 404 208 "-" "Mozilla/5.0 (compatible; YandexBot/3.0; +http://yandex.com/bots)"
178.154.171.60 - - [06/Nov/2018:20:23:38 +0000] "GET /login_page.php HTTP/1.0" 200 1375 "-" "Mozilla/5.0 (compatible; YandexBot/3.0; +http://yandex.com/bots)"
3.16.46.187 - - [06/Nov/2018:20:44:42 +0000] "GET /login_page.php HTTP/1.0" 200 1375 "-" "Mozilla/5.0 (Windows NT 6.1; Win64; x64; rv:47.0) AppleWebKit/537.36 (KHTML, like Gecko) Chrome/51.0.2704.106 Safari/537.36 OPR/38.0.2220.41"
18.222.207.230 - - [06/Nov/2018:21:15:08 +0000] "GET /login_page.php HTTP/1.0" 200 1375 "-" "Mozilla/5.0 (X11; Linux x86_64) Trident/5.0 Chrome/51.0.2704.106 Safari/537.36 OPR/38.0.2220.41"
18.191.84.64 - - [06/Nov/2018:21:46:06 +0000] "GET /login_page.php HTTP/1.0" 200 1375 "-" "Mozilla/5.0 (X11; Linux x86_64) Trident/5.0 Chrome/51.0.2704.106 Safari/537.36 OPR/38.0.2220.41"
52.53.201.78 - - [06/Nov/2018:22:12:33 +0000] "GET / HTTP/1.0" 302 20 "-" "Mozilla/5.0 (Macintosh; Intel Mac OS X 10_12_6) AppleWebKit/537.36 (KHTML, like Gecko) Chrome/61.0.3163.100 Safari/537.36"
52.53.201.78 - - [06/Nov/2018:22:12:34 +0000] "GET /login_page.php HTTP/1.0" 200 1378 "http://www.orangepotion.com/" "Mozilla/5.0 (Macintosh; Intel Mac OS X 10_12_6) AppleWebKit/537.36 (KHTML, like Gecko) Chrome/61.0.3163.100 Safari/537.36"
18.221.174.210 - - [06/Nov/2018:22:14:35 +0000] "GET /login_page.php HTTP/1.0" 200 1375 "-" "Mozilla/5.0 (X11; Linux x86_64) Gecko/20100101 Chrome/67.0.3396.79 Safari/537.36"
141.8.132.4 - - [06/Nov/2018:22:42:21 +0000] "GET /robots.txt HTTP/1.0" 404 208 "-" "Mozilla/5.0 (compatible; YandexBot/3.0; +http://yandex.com/bots)"
178.154.171.60 - - [06/Nov/2018:22:42:25 +0000] "GET /browser_search_plugin.php?type=id HTTP/1.0" 200 367 "-" "Mozilla/5.0 (compatible; YandexBot/3.0; +http://yandex.com/bots)"
141.8.132.13 - - [06/Nov/2018:22:43:20 +0000] "GET /browser_search_plugin.php?type=text HTTP/1.0" 200 404 "-" "Mozilla/5.0 (compatible; YandexBot/3.0; +http://yandex.com/bots)"
18.223.156.199 - - [06/Nov/2018:22:45:33 +0000] "GET /login_page.php HTTP/1.0" 200 1375 "-" "Mozilla/5.0 (Macintosh; Intel Mac OS X x.y; rv:42.0) Gecko/20100101 Chrome/67.0.3396.79 Safari/537.36"
18.223.195.193 - - [06/Nov/2018:23:16:27 +0000] "GET /login_page.php HTTP/1.0" 200 1375 "-" "Mozilla/5.0 (X11; Linux x86_64) Gecko/20100101 Chrome/51.0.2704.106 Safari/537.36 OPR/38.0.2220.41"
18.217.34.193 - - [06/Nov/2018:23:45:53 +0000] "GET /login_page.php HTTP/1.0" 200 1375 "-" "Mozilla/5.0 (Macintosh; Intel Mac OS X x.y; rv:42.0) Gecko/20100101 Chrome/51.0.2704.106 Safari/537.36 OPR/38.0.2220.41"
18.224.212.83 - - [07/Nov/2018:00:15:33 +0000] "GET /login_page.php HTTP/1.0" 200 1375 "-" "Mozilla/5.0 (Windows NT 6.1; Win64; x64; rv:47.0) Gecko/20100101 Safari/602.1"
209.17.96.18 - - [07/Nov/2018:00:27:19 +0000] "GET / HTTP/1.0" 302 - "-" "Mozilla/5.0 (compatible; Nimbostratus-Bot/v1.3.2; http://cloudsystemnetworks.com)"
18.188.90.138 - - [07/Nov/2018:00:45:22 +0000] "GET /login_page.php HTTP/1.0" 200 1375 "-" "Mozilla/5.0 (Windows NT 6.1; Win64; x64; rv:47.0) AppleWebKit/537.36 (KHTML, like Gecko) Chrome/51.0.2704.106 Safari/537.36 OPR/38.0.2220.41"
18.223.132.225 - - [07/Nov/2018:00:46:27 +0000] "GET /login_page.php HTTP/1.0" 200 1375 "-" "Mozilla/5.0 (X11; Linux x86_64) Gecko/20100101 Safari/602.1"
89.163.131.165 - - [07/Nov/2018:01:01:19 +0000] "HEAD /login_page.php HTTP/1.0" 200 - "-" "Mozilla/5.0 (compatible; Uptimebot/1.0; +http://www.uptime.com/uptimebot)"
18.223.247.156 - - [07/Nov/2018:01:15:15 +0000] "GET /login_page.php HTTP/1.0" 200 1375 "-" "Mozilla/5.0 (X11; Linux x86_64) AppleWebKit/537.36 (KHTML, like Gecko) Chrome/67.0.3396.79 Safari/537.36"
18.222.143.109 - - [07/Nov/2018:01:45:19 +0000] "GET /login_page.php HTTP/1.0" 200 1375 "-" "Mozilla/5.0 (Windows NT 6.1; Win64; x64; rv:47.0) AppleWebKit/537.36 (KHTML, like Gecko) Firefox/42.0"
190.2.148.176 - - [07/Nov/2018:01:47:03 +0000] "GET / HTTP/1.0" 302 - "-" "Mozilla/5.0 (Windows NT 5.1) AppleWebKit/537.36 (KHTML, like Gecko) Chrome/27.0.1453.94 Safari/537.36"
190.2.148.176 - - [07/Nov/2018:01:47:03 +0000] "GET /login_page.php HTTP/1.0" 200 4914 "-" "Mozilla/5.0 (Windows NT 5.1) AppleWebKit/537.36 (KHTML, like Gecko) Chrome/27.0.1453.94 Safari/537.36"
18.223.247.156 - - [07/Nov/2018:02:16:02 +0000] "GET /login_page.php HTTP/1.0" 200 1375 "-" "Mozilla/5.0 (Windows NT 6.1; Win64; x64; rv:47.0) Trident/5.0 Firefox/42.0"
18.191.84.64 - - [07/Nov/2018:02:46:45 +0000] "GET /login_page.php HTTP/1.0" 200 1375 "-" "Mozilla/5.0 (Windows NT 6.1; Win64; x64; rv:47.0) Gecko/20100101 Firefox/42.0"
18.224.18.240 - - [07/Nov/2018:02:47:30 +0000] "GET /login_page.php HTTP/1.0" 200 1375 "-" "Mozilla/5.0 (Macintosh; Intel Mac OS X x.y; rv:42.0) AppleWebKit/537.36 (KHTML, like Gecko) Chrome/67.0.3396.79 Safari/537.36"
