31.170.123.73 - - [05/Nov/2018:04:10:07 +0000] "POST /wp-cron.php?doing_wp_cron=1541391007.1298921108245849609375 HTTP/1.1" 200 40 "http://royalgeekness.com/wp-cron.php?doing_wp_cron=1541391007.1298921108245849609375" "WordPress/4.9.8; http://royalgeekness.com"
165.225.170.35 - - [05/Nov/2018:04:10:07 +0000] "GET /?author=1 HTTP/1.1" 301 5 "-" "Mozilla/5.0 (Windows NT 10.0; Win64; x64) AppleWebKit/537.36 (KHTML, like Gecko) Chrome/61.0.3163.100 Safari/537.36"
165.225.170.35 - - [05/Nov/2018:04:10:08 +0000] "POST /xmlrpc.php HTTP/1.1" 200 43222 "-" "Mozilla/5.0 (Windows NT 10.0; Win64; x64) AppleWebKit/537.36 (KHTML, like Gecko) Chrome/61.0.3163.100 Safari/537.36"
165.225.170.35 - - [05/Nov/2018:04:10:09 +0000] "POST /xmlrpc.php HTTP/1.1" 200 413 "-" "Mozilla/5.0 (Windows NT 10.0; Win64; x64) AppleWebKit/537.36 (KHTML, like Gecko) Chrome/61.0.3163.100 Safari/537.36"
165.225.170.35 - - [05/Nov/2018:04:10:09 +0000] "POST /xmlrpc.php HTTP/1.1" 200 413 "-" "Mozilla/5.0 (Windows NT 10.0; Win64; x64) AppleWebKit/537.36 (KHTML, like Gecko) Chrome/61.0.3163.100 Safari/537.36"
165.225.170.35 - - [05/Nov/2018:04:10:10 +0000] "POST /xmlrpc.php HTTP/1.1" 200 413 "-" "Mozilla/5.0 (Windows NT 10.0; Win64; x64) AppleWebKit/537.36 (KHTML, like Gecko) Chrome/61.0.3163.100 Safari/537.36"
165.225.170.35 - - [05/Nov/2018:04:10:11 +0000] "POST /xmlrpc.php HTTP/1.1" 200 413 "-" "Mozilla/5.0 (Windows NT 10.0; Win64; x64) AppleWebKit/537.36 (KHTML, like Gecko) Chrome/61.0.3163.100 Safari/537.36"
165.225.170.35 - - [05/Nov/2018:04:10:11 +0000] "POST /xmlrpc.php HTTP/1.1" 200 413 "-" "Mozilla/5.0 (Windows NT 10.0; Win64; x64) AppleWebKit/537.36 (KHTML, like Gecko) Chrome/61.0.3163.100 Safari/537.36"
165.225.170.35 - - [05/Nov/2018:04:10:12 +0000] "POST /xmlrpc.php HTTP/1.1" 200 413 "-" "Mozilla/5.0 (Windows NT 10.0; Win64; x64) AppleWebKit/537.36 (KHTML, like Gecko) Chrome/61.0.3163.100 Safari/537.36"
165.225.170.35 - - [05/Nov/2018:04:10:13 +0000] "POST /xmlrpc.php HTTP/1.1" 200 413 "-" "Mozilla/5.0 (Windows NT 10.0; Win64; x64) AppleWebKit/537.36 (KHTML, like Gecko) Chrome/61.0.3163.100 Safari/537.36"
165.225.170.35 - - [05/Nov/2018:04:10:13 +0000] "POST /xmlrpc.php HTTP/1.1" 200 413 "-" "Mozilla/5.0 (Windows NT 10.0; Win64; x64) AppleWebKit/537.36 (KHTML, like Gecko) Chrome/61.0.3163.100 Safari/537.36"
165.225.170.35 - - [05/Nov/2018:04:10:14 +0000] "POST /xmlrpc.php HTTP/1.1" 200 413 "-" "Mozilla/5.0 (Windows NT 10.0; Win64; x64) AppleWebKit/537.36 (KHTML, like Gecko) Chrome/61.0.3163.100 Safari/537.36"
165.225.170.35 - - [05/Nov/2018:04:10:15 +0000] "POST /xmlrpc.php HTTP/1.1" 200 413 "-" "Mozilla/5.0 (Windows NT 10.0; Win64; x64) AppleWebKit/537.36 (KHTML, like Gecko) Chrome/61.0.3163.100 Safari/537.36"
165.225.170.35 - - [05/Nov/2018:04:10:15 +0000] "POST /xmlrpc.php HTTP/1.1" 200 413 "-" "Mozilla/5.0 (Windows NT 10.0; Win64; x64) AppleWebKit/537.36 (KHTML, like Gecko) Chrome/61.0.3163.100 Safari/537.36"
165.225.170.35 - - [05/Nov/2018:04:10:16 +0000] "POST /xmlrpc.php HTTP/1.1" 200 413 "-" "Mozilla/5.0 (Windows NT 10.0; Win64; x64) AppleWebKit/537.36 (KHTML, like Gecko) Chrome/61.0.3163.100 Safari/537.36"
165.225.170.35 - - [05/Nov/2018:04:10:17 +0000] "POST /xmlrpc.php HTTP/1.1" 200 413 "-" "Mozilla/5.0 (Windows NT 10.0; Win64; x64) AppleWebKit/537.36 (KHTML, like Gecko) Chrome/61.0.3163.100 Safari/537.36"
165.225.170.35 - - [05/Nov/2018:04:10:17 +0000] "POST /xmlrpc.php HTTP/1.1" 200 413 "-" "Mozilla/5.0 (Windows NT 10.0; Win64; x64) AppleWebKit/537.36 (KHTML, like Gecko) Chrome/61.0.3163.100 Safari/537.36"
165.225.170.35 - - [05/Nov/2018:04:10:18 +0000] "POST /xmlrpc.php HTTP/1.1" 200 413 "-" "Mozilla/5.0 (Windows NT 10.0; Win64; x64) AppleWebKit/537.36 (KHTML, like Gecko) Chrome/61.0.3163.100 Safari/537.36"
165.225.170.35 - - [05/Nov/2018:04:10:19 +0000] "POST /xmlrpc.php HTTP/1.1" 200 413 "-" "Mozilla/5.0 (Windows NT 10.0; Win64; x64) AppleWebKit/537.36 (KHTML, like Gecko) Chrome/61.0.3163.100 Safari/537.36"
165.225.170.35 - - [05/Nov/2018:04:10:19 +0000] "POST /xmlrpc.php HTTP/1.1" 200 413 "-" "Mozilla/5.0 (Windows NT 10.0; Win64; x64) AppleWebKit/537.36 (KHTML, like Gecko) Chrome/61.0.3163.100 Safari/537.36"
165.225.170.35 - - [05/Nov/2018:04:10:20 +0000] "POST /xmlrpc.php HTTP/1.1" 200 413 "-" "Mozilla/5.0 (Windows NT 10.0; Win64; x64) AppleWebKit/537.36 (KHTML, like Gecko) Chrome/61.0.3163.100 Safari/537.36"
165.225.170.35 - - [05/Nov/2018:04:10:21 +0000] "POST /xmlrpc.php HTTP/1.1" 200 413 "-" "Mozilla/5.0 (Windows NT 10.0; Win64; x64) AppleWebKit/537.36 (KHTML, like Gecko) Chrome/61.0.3163.100 Safari/537.36"
165.225.170.35 - - [05/Nov/2018:04:10:21 +0000] "POST /xmlrpc.php HTTP/1.1" 403 212 "-" "Mozilla/5.0 (Windows NT 10.0; Win64; x64) AppleWebKit/537.36 (KHTML, like Gecko) Chrome/61.0.3163.100 Safari/537.36"
193.201.224.210 - - [05/Nov/2018:04:49:27 +0000] "GET /wp-content/themes/ThisWay/includes/uploadify/upload_settings_image.php HTTP/1.1" 404 2064 "http://royalgeekness.com/wp-content/themes/ThisWay/includes/uploadify/upload_settings_image.php" "Mozilla/5.0 (Windows NT 6.1; WOW64) AppleWebKit/537.36 (KHTML, like Gecko) Chrome/42.0.2311.152 Safari/537.36"
31.170.123.73 - - [05/Nov/2018:06:03:27 +0000] "POST /wp-cron.php?doing_wp_cron=1541397806.0537199974060058593750 HTTP/1.1" 499 0 "http://royalgeekness.com/wp-cron.php?doing_wp_cron=1541397806.0537199974060058593750" "WordPress/4.9.8; http://royalgeekness.com"
115.84.99.184 - - [05/Nov/2018:06:03:27 +0000] "POST /wp-login.php HTTP/1.1" 200 3266 "-" "Opera/9.80 (Windows NT 6.0) Presto/2.12.388 Version/12.14"
31.170.123.73 - - [05/Nov/2018:07:01:11 +0000] "POST /wp-cron.php?doing_wp_cron=1541401270.7189610004425048828125 HTTP/1.1" 200 40 "http://royalgeekness.com/wp-cron.php?doing_wp_cron=1541401270.7189610004425048828125" "WordPress/4.9.8; http://royalgeekness.com"
198.23.202.38 - - [05/Nov/2018:07:01:11 +0000] "GET /robots.txt HTTP/1.1" 200 5143 "-" "Mozilla/5.0 (Windows NT 10.0; Win64; x64; rv:50.0) Gecko/20100101 Firefox/50.0"
198.23.202.38 - - [05/Nov/2018:07:01:12 +0000] "GET /?author=1 HTTP/1.1" 301 5 "-" "Mozilla/5.0 (Windows NT 10.0; Win64; x64; rv:50.0) Gecko/20100101 Firefox/50.0"
198.23.202.38 - - [05/Nov/2018:07:01:13 +0000] "POST /xmlrpc.php HTTP/1.1" 200 86046 "-" "Mozilla/5.0 (Windows NT 10.0; Win64; x64; rv:50.0) Gecko/20100101 Firefox/50.0"
198.23.202.38 - - [05/Nov/2018:07:01:14 +0000] "POST /xmlrpc.php HTTP/1.1" 200 86038 "-" "Mozilla/5.0 (Windows NT 10.0; Win64; x64; rv:50.0) Gecko/20100101 Firefox/50.0"
31.170.123.73 - - [05/Nov/2018:09:51:52 +0000] "POST /wp-cron.php?doing_wp_cron=1541411511.5452439785003662109375 HTTP/1.1" 200 40 "http://royalgeekness.com/wp-cron.php?doing_wp_cron=1541411511.5452439785003662109375" "WordPress/4.9.8; http://royalgeekness.com"
67.23.238.58 - - [05/Nov/2018:09:51:52 +0000] "GET /wp-admin/network/green.php HTTP/1.1" 404 5138 "http://site.ru" "Mozilla/5.0 (Windows; U; Windows NT 5.1; en-US) AppleWebKit/533.4 (KHTML, like Gecko) Chrome/5.0.375.99 Safari/533.4"
31.170.123.73 - - [05/Nov/2018:10:11:50 +0000] "POST /wp-cron.php?doing_wp_cron=1541412709.9356629848480224609375 HTTP/1.1" 200 40 "http://royalgeekness.com/wp-cron.php?doing_wp_cron=1541412709.9356629848480224609375" "WordPress/4.9.8; http://royalgeekness.com"
213.251.182.107 - - [05/Nov/2018:10:11:50 +0000] "GET /htaccess.php HTTP/1.1" 404 5138 "http://site.ru" "Mozilla/5.0 (Windows; U; Windows NT 5.1; en-US) AppleWebKit/533.4 (KHTML, like Gecko) Chrome/5.0.375.99 Safari/533.4"
31.170.123.73 - - [05/Nov/2018:12:40:29 +0000] "POST /wp-cron.php?doing_wp_cron=1541421628.5132479667663574218750 HTTP/1.1" 200 40 "http://royalgeekness.com/wp-cron.php?doing_wp_cron=1541421628.5132479667663574218750" "WordPress/4.9.8; http://royalgeekness.com"
192.138.189.105 - - [05/Nov/2018:12:40:29 +0000] "GET /wp-content/plugins/resizer-img/accdb.php HTTP/1.1" 404 5126 "http://site.ru" "Mozilla/5.0 (Windows; U; Windows NT 5.1; en-US) AppleWebKit/533.4 (KHTML, like Gecko) Chrome/5.0.375.99 Safari/533.4"
192.138.189.105 - - [05/Nov/2018:12:40:29 +0000] "GET /wp-content/plugins/resizer-img/accdb.php HTTP/1.1" 404 5144 "http://site.ru" "Mozilla/5.0 (Windows; U; Windows NT 5.1; en-US) AppleWebKit/533.4 (KHTML, like Gecko) Chrome/5.0.375.99 Safari/533.4"
41.78.27.215 - - [05/Nov/2018:14:12:15 +0000] "GET /wp-mains.php HTTP/1.1" 404 5137 "http://site.ru" "Mozilla/5.0 (Windows; U; Windows NT 5.1; en-US) AppleWebKit/533.4 (KHTML, like Gecko) Chrome/5.0.375.99 Safari/533.4"
31.170.123.73 - - [05/Nov/2018:14:12:16 +0000] "POST /wp-cron.php?doing_wp_cron=1541427135.8330910205841064453125 HTTP/1.1" 499 0 "http://royalgeekness.com/wp-cron.php?doing_wp_cron=1541427135.8330910205841064453125" "WordPress/4.9.8; http://royalgeekness.com"
41.78.27.215 - - [05/Nov/2018:14:12:16 +0000] "GET /wp-mains.php HTTP/1.1" 404 5148 "http://site.ru" "Mozilla/5.0 (Windows; U; Windows NT 5.1; en-US) AppleWebKit/533.4 (KHTML, like Gecko) Chrome/5.0.375.99 Safari/533.4"
31.170.123.73 - - [05/Nov/2018:14:54:14 +0000] "POST /wp-cron.php?doing_wp_cron=1541429653.8260920047760009765625 HTTP/1.1" 200 40 "http://royalgeekness.com/wp-cron.php?doing_wp_cron=1541429653.8260920047760009765625" "WordPress/4.9.8; http://royalgeekness.com"
87.238.192.35 - - [05/Nov/2018:14:54:14 +0000] "GET /wp-content/uploads/logo_img.php HTTP/1.1" 404 5161 "http://site.ru" "Mozilla/5.0 (Windows; U; Windows NT 5.1; en-US) AppleWebKit/533.4 (KHTML, like Gecko) Chrome/5.0.375.99 Safari/533.4"
31.170.123.73 - - [05/Nov/2018:18:20:55 +0000] "POST /wp-cron.php?doing_wp_cron=1541442054.3505630493164062500000 HTTP/1.1" 499 0 "http://royalgeekness.com/wp-cron.php?doing_wp_cron=1541442054.3505630493164062500000" "WordPress/4.9.8; http://royalgeekness.com"
2a01:5b40:0:4105::1 - - [05/Nov/2018:18:20:55 +0000] "GET /wp-content/wordpress_cache.php HTTP/1.1" 404 5138 "http://site.ru" "Mozilla/5.0 (Windows; U; Windows NT 5.1; en-US) AppleWebKit/533.4 (KHTML, like Gecko) Chrome/5.0.375.99 Safari/533.4"
180.76.15.11 - - [05/Nov/2018:18:36:11 +0000] "GET / HTTP/1.1" 301 5 "-" "Mozilla/5.0 (compatible; Baiduspider/2.0; +http://www.baidu.com/search/spider.html)"
180.76.15.148 - - [05/Nov/2018:18:36:12 +0000] "GET / HTTP/1.1" 200 2046 "-" "Mozilla/5.0 (compatible; Baiduspider/2.0; +http://www.baidu.com/search/spider.html)"
31.170.123.73 - - [05/Nov/2018:19:51:09 +0000] "POST /wp-cron.php?doing_wp_cron=1541447468.9305429458618164062500 HTTP/1.1" 200 40 "http://royalgeekness.com/wp-cron.php?doing_wp_cron=1541447468.9305429458618164062500" "WordPress/4.9.8; http://royalgeekness.com"
178.154.244.10 - - [05/Nov/2018:19:51:09 +0000] "GET /robots.txt HTTP/1.1" 200 5120 "-" "Mozilla/5.0 (compatible; YandexBot/3.0; +http://yandex.com/bots)"
141.8.142.120 - - [05/Nov/2018:19:51:12 +0000] "GET / HTTP/1.1" 200 2124 "-" "Mozilla/5.0 (compatible; YandexBot/3.0; +http://yandex.com/bots)"
31.170.123.73 - - [05/Nov/2018:19:57:54 +0000] "POST /wp-cron.php?doing_wp_cron=1541447873.5834720134735107421875 HTTP/1.1" 200 40 "http://royalgeekness.com/wp-cron.php?doing_wp_cron=1541447873.5834720134735107421875" "WordPress/4.9.8; http://royalgeekness.com"
209.17.96.202 - - [05/Nov/2018:19:57:54 +0000] "GET / HTTP/1.1" 200 5131 "-" "Mozilla/5.0 (compatible; Nimbostratus-Bot/v1.3.2; http://cloudsystemnetworks.com)"
143.255.153.196 - - [05/Nov/2018:20:06:40 +0000] "POST /wp-login.php HTTP/1.1" 200 3325 "-" "Opera/9.80 (Windows NT 6.0) Presto/2.12.388 Version/12.14"
31.170.123.73 - - [05/Nov/2018:21:01:26 +0000] "POST /wp-cron.php?doing_wp_cron=1541451686.1816620826721191406250 HTTP/1.1" 200 40 "http://royalgeekness.com/wp-cron.php?doing_wp_cron=1541451686.1816620826721191406250" "WordPress/4.9.8; http://royalgeekness.com"
185.234.217.218 - - [05/Nov/2018:21:01:26 +0000] "GET /wp-login.php HTTP/1.1" 200 2329 "-" "Mozilla/5.0 (compatible; MSIE 9.0; Windows NT 6.1; Trident/5.0)"
185.234.217.218 - - [05/Nov/2018:21:01:27 +0000] "GET /xmlrpc.php HTTP/1.1" 405 53 "-" "Mozilla/5.0 (compatible; MSIE 9.0; Windows NT 6.1; Trident/5.0)"
185.234.217.218 - - [05/Nov/2018:21:01:28 +0000] "GET /?author=1 HTTP/1.1" 301 5 "-" "Mozilla/5.0 (compatible; MSIE 9.0; Windows NT 6.1; Trident/5.0)"
185.234.217.218 - - [05/Nov/2018:21:01:29 +0000] "GET /?author=2 HTTP/1.1" 200 5177 "-" "Mozilla/5.0 (compatible; MSIE 9.0; Windows NT 6.1; Trident/5.0)"
185.234.217.218 - - [05/Nov/2018:21:01:29 +0000] "GET /?author=3 HTTP/1.1" 404 5155 "-" "Mozilla/5.0 (compatible; MSIE 9.0; Windows NT 6.1; Trident/5.0)"
185.234.217.218 - - [05/Nov/2018:21:01:30 +0000] "GET /?author=4 HTTP/1.1" 404 5114 "-" "Mozilla/5.0 (compatible; MSIE 9.0; Windows NT 6.1; Trident/5.0)"
185.234.217.218 - - [05/Nov/2018:21:01:31 +0000] "POST /wp-login.php HTTP/1.1" 200 3320 "-" "Mozilla/5.0 (Windows NT 6.1; WOW64; rv:18.0) Gecko/20100101 Firefox/18.0"
185.234.217.218 - - [05/Nov/2018:21:01:33 +0000] "POST /wp-login.php HTTP/1.1" 200 3265 "-" "Mozilla/5.0 (Windows NT 6.1; WOW64; rv:18.0) Gecko/20100101 Firefox/18.0"
185.234.217.218 - - [05/Nov/2018:21:01:33 +0000] "POST /wp-login.php HTTP/1.1" 200 3277 "-" "Mozilla/5.0 (Windows NT 6.1; WOW64; rv:18.0) Gecko/20100101 Firefox/18.0"
185.234.217.218 - - [05/Nov/2018:21:01:34 +0000] "POST /wp-login.php HTTP/1.1" 200 3302 "-" "Mozilla/5.0 (Windows NT 6.1; WOW64; rv:18.0) Gecko/20100101 Firefox/18.0"
185.234.217.218 - - [05/Nov/2018:21:01:35 +0000] "POST /wp-login.php HTTP/1.1" 200 3321 "-" "Mozilla/5.0 (Windows NT 6.1; WOW64; rv:18.0) Gecko/20100101 Firefox/18.0"
185.234.217.218 - - [05/Nov/2018:21:01:36 +0000] "POST /wp-login.php HTTP/1.1" 200 3291 "-" "Mozilla/5.0 (Windows NT 6.1; WOW64; rv:18.0) Gecko/20100101 Firefox/18.0"
185.234.217.218 - - [05/Nov/2018:21:01:37 +0000] "POST /wp-login.php HTTP/1.1" 200 3297 "-" "Mozilla/5.0 (Windows NT 6.1; WOW64; rv:18.0) Gecko/20100101 Firefox/18.0"
185.234.217.218 - - [05/Nov/2018:21:01:38 +0000] "POST /wp-login.php HTTP/1.1" 200 3284 "-" "Mozilla/5.0 (Windows NT 6.1; WOW64; rv:18.0) Gecko/20100101 Firefox/18.0"
185.234.217.218 - - [05/Nov/2018:21:01:39 +0000] "POST /wp-login.php HTTP/1.1" 200 3360 "-" "Mozilla/5.0 (Windows NT 6.1; WOW64; rv:18.0) Gecko/20100101 Firefox/18.0"
185.234.217.218 - - [05/Nov/2018:21:01:40 +0000] "POST /wp-login.php HTTP/1.1" 200 3306 "-" "Mozilla/5.0 (Windows NT 6.1; WOW64; rv:18.0) Gecko/20100101 Firefox/18.0"
185.234.217.218 - - [05/Nov/2018:21:01:41 +0000] "POST /wp-login.php HTTP/1.1" 200 3285 "-" "Mozilla/5.0 (Windows NT 6.1; WOW64; rv:18.0) Gecko/20100101 Firefox/18.0"
185.234.217.218 - - [05/Nov/2018:21:01:41 +0000] "POST /wp-login.php HTTP/1.1" 200 3284 "-" "Mozilla/5.0 (Windows NT 6.1; WOW64; rv:18.0) Gecko/20100101 Firefox/18.0"
185.234.217.218 - - [05/Nov/2018:21:01:42 +0000] "POST /wp-login.php HTTP/1.1" 200 3289 "-" "Mozilla/5.0 (Windows NT 6.1; WOW64; rv:18.0) Gecko/20100101 Firefox/18.0"
185.234.217.218 - - [05/Nov/2018:21:01:43 +0000] "POST /wp-login.php HTTP/1.1" 200 3286 "-" "Mozilla/5.0 (Windows NT 6.1; WOW64; rv:18.0) Gecko/20100101 Firefox/18.0"
185.234.217.218 - - [05/Nov/2018:21:01:44 +0000] "POST /wp-login.php HTTP/1.1" 200 3319 "-" "Mozilla/5.0 (Windows NT 6.1; WOW64; rv:18.0) Gecko/20100101 Firefox/18.0"
185.234.217.218 - - [05/Nov/2018:21:01:45 +0000] "POST /wp-login.php HTTP/1.1" 200 3309 "-" "Mozilla/5.0 (Windows NT 6.1; WOW64; rv:18.0) Gecko/20100101 Firefox/18.0"
185.234.217.218 - - [05/Nov/2018:21:01:46 +0000] "POST /wp-login.php HTTP/1.1" 200 3303 "-" "Mozilla/5.0 (Windows NT 6.1; WOW64; rv:18.0) Gecko/20100101 Firefox/18.0"
185.234.217.218 - - [05/Nov/2018:21:01:47 +0000] "POST /wp-login.php HTTP/1.1" 200 3291 "-" "Mozilla/5.0 (Windows NT 6.1; WOW64; rv:18.0) Gecko/20100101 Firefox/18.0"
185.234.217.218 - - [05/Nov/2018:21:01:48 +0000] "POST /wp-login.php HTTP/1.1" 200 3272 "-" "Mozilla/5.0 (Windows NT 6.1; WOW64; rv:18.0) Gecko/20100101 Firefox/18.0"
185.234.217.218 - - [05/Nov/2018:21:01:48 +0000] "POST /wp-login.php HTTP/1.1" 200 3267 "-" "Mozilla/5.0 (Windows NT 6.1; WOW64; rv:18.0) Gecko/20100101 Firefox/18.0"
185.234.217.218 - - [05/Nov/2018:21:01:48 +0000] "POST /wp-login.php HTTP/1.1" 403 214 "-" "Mozilla/5.0 (Windows NT 6.1; WOW64; rv:18.0) Gecko/20100101 Firefox/18.0"
185.234.217.218 - - [05/Nov/2018:21:01:49 +0000] "POST /wp-login.php HTTP/1.1" 403 214 "-" "Mozilla/5.0 (Windows NT 6.1; WOW64; rv:18.0) Gecko/20100101 Firefox/18.0"
192.185.82.96 - - [05/Nov/2018:21:28:34 +0000] "GET /wp-content/themes/gaukingo/db.php HTTP/1.1" 404 5131 "http://site.ru" "Mozilla/5.0 (Windows; U; Windows NT 5.1; en-US) AppleWebKit/533.4 (KHTML, like Gecko) Chrome/5.0.375.99 Safari/533.4"
69.12.66.233 - - [05/Nov/2018:21:29:55 +0000] "GET /wp-content/plugins/xnxx/xnxx.php HTTP/1.1" 404 2140 "http://royalgeekness.com/wp-content/plugins/xnxx/xnxx.php" "Mozilla/5.0 (Windows NT 6.1; WOW64) AppleWebKit/537.36 (KHTML, like Gecko) Chrome/42.0.2311.152 Safari/537.36"
40.77.167.95 - - [05/Nov/2018:21:51:34 +0000] "GET / HTTP/1.1" 200 2136 "-" "Mozilla/5.0 (compatible; bingbot/2.0; +http://www.bing.com/bingbot.htm)"
31.170.123.73 - - [05/Nov/2018:21:56:58 +0000] "POST /wp-cron.php?doing_wp_cron=1541455017.4365088939666748046875 HTTP/1.1" 200 40 "http://royalgeekness.com/wp-cron.php?doing_wp_cron=1541455017.4365088939666748046875" "WordPress/4.9.8; http://royalgeekness.com"
27.254.81.248 - - [05/Nov/2018:21:56:58 +0000] "GET /wp-organizer.php HTTP/1.1" 404 5108 "http://site.ru" "Mozilla/5.0 (Windows; U; Windows NT 5.1; en-US) AppleWebKit/533.4 (KHTML, like Gecko) Chrome/5.0.375.99 Safari/533.4"
31.170.123.73 - - [05/Nov/2018:22:37:08 +0000] "POST /wp-cron.php?doing_wp_cron=1541457428.2763469219207763671875 HTTP/1.1" 200 40 "http://royalgeekness.com/wp-cron.php?doing_wp_cron=1541457428.2763469219207763671875" "WordPress/4.9.8; http://royalgeekness.com"
39.98.54.25 - - [05/Nov/2018:22:37:08 +0000] "GET / HTTP/1.1" 301 5 "-" "-"
39.98.54.25 - - [05/Nov/2018:22:37:10 +0000] "GET / HTTP/1.1" 200 2024 "-" "-"
31.170.123.73 - - [05/Nov/2018:23:20:05 +0000] "POST /wp-cron.php?doing_wp_cron=1541460005.1390800476074218750000 HTTP/1.1" 200 40 "http://royalgeekness.com/wp-cron.php?doing_wp_cron=1541460005.1390800476074218750000" "WordPress/4.9.8; http://royalgeekness.com"
192.185.4.92 - - [05/Nov/2018:23:20:05 +0000] "GET /wp-system.php HTTP/1.1" 404 5137 "http://site.ru" "Mozilla/5.0 (Windows; U; Windows NT 5.1; en-US) AppleWebKit/533.4 (KHTML, like Gecko) Chrome/5.0.375.99 Safari/533.4"
31.170.123.73 - - [05/Nov/2018:23:57:50 +0000] "POST /wp-cron.php?doing_wp_cron=1541462269.8841059207916259765625 HTTP/1.1" 200 40 "http://royalgeekness.com/wp-cron.php?doing_wp_cron=1541462269.8841059207916259765625" "WordPress/4.9.8; http://royalgeekness.com"
81.88.49.57 - - [05/Nov/2018:23:57:50 +0000] "GET /wp-content/upgrade/theme-compat/popup-pomo.php HTTP/1.1" 404 5108 "http://site.ru" "Mozilla/5.0 (Windows; U; Windows NT 5.1; en-US) AppleWebKit/533.4 (KHTML, like Gecko) Chrome/5.0.375.99 Safari/533.4"
81.88.49.24 - - [05/Nov/2018:23:57:59 +0000] "GET /wp-content/upgrade/theme-compat/popup-pomo.php HTTP/1.1" 404 5108 "http://site.ru" "Mozilla/5.0 (Windows; U; Windows NT 5.1; en-US) AppleWebKit/533.4 (KHTML, like Gecko) Chrome/5.0.375.99 Safari/533.4"
23.226.68.146 - - [05/Nov/2018:23:59:11 +0000] "GET /wp-admin/includes/images.php HTTP/1.1" 404 5108 "http://site.ru" "Mozilla/5.0 (Windows; U; Windows NT 5.1; en-US) AppleWebKit/533.4 (KHTML, like Gecko) Chrome/5.0.375.99 Safari/533.4"
31.170.123.73 - - [06/Nov/2018:00:28:17 +0000] "POST /wp-cron.php?doing_wp_cron=1541464097.3359470367431640625000 HTTP/1.1" 200 40 "http://royalgeekness.com/wp-cron.php?doing_wp_cron=1541464097.3359470367431640625000" "WordPress/4.9.8; http://royalgeekness.com"
66.249.66.29 - - [06/Nov/2018:00:28:18 +0000] "GET /robots.txt HTTP/1.1" 200 2077 "-" "Mozilla/5.0 (compatible; Googlebot/2.1; +http://www.google.com/bot.html)"
66.249.66.28 - - [06/Nov/2018:00:28:18 +0000] "GET /testimonials-sitemap.xml HTTP/1.1" 200 536 "-" "Mozilla/5.0 (compatible; Googlebot/2.1; +http://www.google.com/bot.html)"
31.170.123.73 - - [06/Nov/2018:00:45:21 +0000] "POST /wp-cron.php?doing_wp_cron=1541465121.1462969779968261718750 HTTP/1.1" 200 40 "http://royalgeekness.com/wp-cron.php?doing_wp_cron=1541465121.1462969779968261718750" "WordPress/4.9.8; http://royalgeekness.com"
52.165.166.139 - - [06/Nov/2018:00:45:21 +0000] "GET / HTTP/1.1" 200 2189 "-" "Mozilla/5.0 (Windows NT 10.0; Win64; x64; rv:59.0) Gecko/20100101 Firefox/59.0"
31.170.123.73 - - [06/Nov/2018:01:06:26 +0000] "POST /wp-cron.php?doing_wp_cron=1541466385.5322730541229248046875 HTTP/1.1" 200 40 "http://royalgeekness.com/wp-cron.php?doing_wp_cron=1541466385.5322730541229248046875" "WordPress/4.9.8; http://royalgeekness.com"
180.76.15.144 - - [06/Nov/2018:01:06:26 +0000] "GET / HTTP/1.1" 200 2039 "-" "Mozilla/5.0 (compatible; Baiduspider/2.0; +http://www.baidu.com/search/spider.html)"
31.170.123.73 - - [06/Nov/2018:02:08:16 +0000] "POST /wp-cron.php?doing_wp_cron=1541470096.1973209381103515625000 HTTP/1.1" 200 40 "http://royalgeekness.com/wp-cron.php?doing_wp_cron=1541470096.1973209381103515625000" "WordPress/4.9.8; http://royalgeekness.com"
213.231.59.229 - - [06/Nov/2018:02:08:16 +0000] "GET / HTTP/1.1" 200 2126 "http://royalgeekness.com/" "Mozilla/5.0 (Windows NT 6.3; WOW64; rv:52.56.19) Gecko/20168806 Firefox/52.56.19"
213.231.59.229 - - [06/Nov/2018:02:08:17 +0000] "GET /xmlrpc.php HTTP/1.1" 405 53 "http://royalgeekness.com/" "Mozilla/5.0 (Windows NT 6.3; WOW64; rv:52.56.19) Gecko/20168806 Firefox/52.56.19"
213.231.59.229 - - [06/Nov/2018:02:08:21 +0000] "GET /wp-login.php HTTP/1.1" 200 1455 "http://royalgeekness.com/" "Mozilla/5.0 (Windows NT 6.3; WOW64; rv:52.56.19) Gecko/20168806 Firefox/52.56.19"
218.95.159.106 - - [06/Nov/2018:02:23:18 +0000] "GET /wp-login.php HTTP/1.1" 200 2323 "-" "Mozilla/5.0 (Windows NT 5.1; rv:29.0) Gecko/20100101 Firefox/29.0"
218.95.159.106 - - [06/Nov/2018:02:23:19 +0000] "POST /wp-login.php HTTP/1.1" 200 3290 "-" "Mozilla/5.0 (Windows NT 5.1; rv:29.0) Gecko/20100101 Firefox/29.0"
