31.170.123.73 - - [31/Oct/2018:03:31:20 +0000] "POST /wp-cron.php?doing_wp_cron=1540956680.7101581096649169921875 HTTP/1.0" 200 - "-" "WordPress/4.3.17; http://www.ikbensterdam.com"
18.207.203.70 - - [31/Oct/2018:03:31:20 +0000] "GET /wp-login.php HTTP/1.0" 200 7079 "https://www.google.com/url?48c1bb7daf35faf37570d1bad88963f8" "Mozilla/5.0 (Windows NT 6.1; rv:36.0) Gecko/20100101 Firefox/36.0"
18.207.203.70 - - [31/Oct/2018:03:31:21 +0000] "POST /wp-login.php HTTP/1.0" 200 8073 "https://www.google.com/url?48c1bb7daf35faf37570d1bad88963f8" "Mozilla/5.0 (Windows NT 6.1; rv:36.0) Gecko/20100101 Firefox/36.0"
31.170.123.73 - - [31/Oct/2018:04:02:15 +0000] "POST /wp-cron.php?doing_wp_cron=1540958535.8604390621185302734375 HTTP/1.0" 200 - "-" "WordPress/4.3.17; http://www.ikbensterdam.com"
52.165.148.51 - - [31/Oct/2018:04:02:15 +0000] "GET / HTTP/1.0" 301 - "-" "Mozilla/5.0 (Windows NT 10.0; Win64; x64) AppleWebKit/537.36 (KHTML, like Gecko) Chrome/65.0.3325.181 Safari/537.36"
97.74.228.245 - - [31/Oct/2018:04:12:12 +0000] "POST /xmlrpc.php HTTP/1.0" 200 403 "-" "Mozilla/5.0 (Macintosh; U; Intel Mac OS X 10.6; fr; rv:1.9.2.8) Gecko/20100722 Firefox/3.6.8"
31.170.123.73 - - [31/Oct/2018:04:56:54 +0000] "POST /wp-cron.php?doing_wp_cron=1540961814.3652849197387695312500 HTTP/1.0" 200 - "-" "WordPress/4.3.17; http://www.ikbensterdam.com"
185.86.164.102 - - [31/Oct/2018:04:56:53 +0000] "GET /wp-login.php HTTP/1.0" 200 7079 "-" "Mozilla/5.0 (Windows NT 10.0; WOW64) AppleWebKit/537.36 (KHTML, like Gecko) Chrome/51.0.2704.103 Safari/537.36"
185.86.164.102 - - [31/Oct/2018:04:56:55 +0000] "POST /wp-login.php HTTP/1.0" 200 8022 "http://www.ikbensterdam.com/wp-login.php" "Mozilla/5.0 (Windows NT 10.0; WOW64) AppleWebKit/537.36 (KHTML, like Gecko) Chrome/51.0.2704.103 Safari/537.36"
52.173.241.248 - - [31/Oct/2018:05:42:40 +0000] "GET / HTTP/1.0" 301 - "-" "Mozilla/5.0 (X11; Ubuntu; Linux x86_64; rv:59.0) Gecko/20100101 Firefox/59.0"
31.170.123.73 - - [31/Oct/2018:06:12:56 +0000] "POST /wp-cron.php?doing_wp_cron=1540966376.7106950283050537109375 HTTP/1.0" 200 - "-" "WordPress/4.3.17; http://www.ikbensterdam.com"
80.90.55.171 - - [31/Oct/2018:06:12:56 +0000] "GET /robots.txt HTTP/1.0" 200 35 "-" "Mozilla/5.0 (compatible; Uptimebot/1.0; +http://www.uptime.com/uptimebot)"
97.74.228.245 - - [31/Oct/2018:06:25:35 +0000] "POST /xmlrpc.php HTTP/1.0" 200 403 "-" "Mozilla/5.0 (Macintosh; U; Intel Mac OS X 10.6; fr; rv:1.9.2.8) Gecko/20100722 Firefox/3.6.8"
123.57.254.142 - - [31/Oct/2018:07:08:43 +0000] "POST /xmlrpc.php HTTP/1.0" 200 403 "-" "Mozilla/5.0 (Macintosh; U; Intel Mac OS X 10.6; fr; rv:1.9.2.8) Gecko/20100722 Firefox/3.6.8"
123.57.254.142 - - [31/Oct/2018:07:08:42 +0000] "POST /xmlrpc.php HTTP/1.0" 200 403 "-" "Mozilla/5.0 (Macintosh; U; Intel Mac OS X 10.6; fr; rv:1.9.2.8) Gecko/20100722 Firefox/3.6.8"
31.170.123.73 - - [31/Oct/2018:07:08:43 +0000] "POST /wp-cron.php?doing_wp_cron=1540969723.3160209655761718750000 HTTP/1.0" 200 - "-" "WordPress/4.3.17; http://www.ikbensterdam.com"
31.170.123.73 - - [31/Oct/2018:07:23:35 +0000] "POST /wp-cron.php?doing_wp_cron=1540970615.7198190689086914062500 HTTP/1.0" 200 - "-" "WordPress/4.3.17; http://www.ikbensterdam.com"
52.173.241.248 - - [31/Oct/2018:07:23:35 +0000] "GET / HTTP/1.0" 301 - "-" "Mozilla/5.0 (Windows NT 10.0; Win64; x64) AppleWebKit/537.36 (KHTML, like Gecko) Chrome/64.0.3282.186 Safari/537.36"
185.220.101.47 - - [31/Oct/2018:07:30:33 +0000] "GET / HTTP/1.0" 301 - "-" "Mozilla/5.0 (Windows NT 6.1; WOW64) AppleWebKit/537.36 (KHTML, like Gecko) Chrome/48.0.2564.109 Safari/537.36"
185.220.101.47 - - [31/Oct/2018:07:30:35 +0000] "GET / HTTP/1.0" 200 48668 "-" "Mozilla/5.0 (Windows NT 6.1; WOW64) AppleWebKit/537.36 (KHTML, like Gecko) Chrome/48.0.2564.109 Safari/537.36"
185.220.101.47 - - [31/Oct/2018:07:30:37 +0000] "GET / HTTP/1.0" 301 - "-" "Mozilla/5.0 (Windows NT 6.1; WOW64) AppleWebKit/537.36 (KHTML, like Gecko) Chrome/48.0.2564.109 Safari/537.36"
185.220.101.47 - - [31/Oct/2018:07:30:38 +0000] "GET / HTTP/1.0" 200 48668 "-" "Mozilla/5.0 (Windows NT 6.1; WOW64) AppleWebKit/537.36 (KHTML, like Gecko) Chrome/48.0.2564.109 Safari/537.36"
91.219.236.171 - - [31/Oct/2018:07:30:41 +0000] "GET / HTTP/1.0" 301 - "-" "Mozilla/5.0 (Windows NT 6.1; WOW64) AppleWebKit/537.36 (KHTML, like Gecko) Chrome/48.0.2564.109 Safari/537.36"
91.219.236.171 - - [31/Oct/2018:07:30:42 +0000] "GET / HTTP/1.0" 200 48668 "-" "Mozilla/5.0 (Windows NT 6.1; WOW64) AppleWebKit/537.36 (KHTML, like Gecko) Chrome/48.0.2564.109 Safari/537.36"
91.219.236.171 - - [31/Oct/2018:07:30:43 +0000] "GET /wp-login.php?action=register HTTP/1.0" 302 - "-" "Mozilla/5.0 (Windows NT 6.1; WOW64) AppleWebKit/537.36 (KHTML, like Gecko) Chrome/48.0.2564.109 Safari/537.36"
91.219.236.171 - - [31/Oct/2018:07:30:44 +0000] "GET /wp-login.php?registration=disabled HTTP/1.0" 200 7221 "-" "Mozilla/5.0 (Windows NT 6.1; WOW64) AppleWebKit/537.36 (KHTML, like Gecko) Chrome/48.0.2564.109 Safari/537.36"
91.219.236.171 - - [31/Oct/2018:07:30:46 +0000] "GET / HTTP/1.0" 301 - "-" "Mozilla/5.0 (Windows NT 6.1; WOW64) AppleWebKit/537.36 (KHTML, like Gecko) Chrome/48.0.2564.109 Safari/537.36"
91.219.236.171 - - [31/Oct/2018:07:30:47 +0000] "GET / HTTP/1.0" 200 48668 "-" "Mozilla/5.0 (Windows NT 6.1; WOW64) AppleWebKit/537.36 (KHTML, like Gecko) Chrome/48.0.2564.109 Safari/537.36"
91.219.236.171 - - [31/Oct/2018:07:30:48 +0000] "GET /index.php?option=com_user&task=register HTTP/1.0" 301 - "-" "Mozilla/5.0 (Windows NT 6.1; WOW64) AppleWebKit/537.36 (KHTML, like Gecko) Chrome/48.0.2564.109 Safari/537.36"
91.219.236.171 - - [31/Oct/2018:07:30:50 +0000] "GET /?option=com_user&task=register HTTP/1.0" 200 48788 "-" "Mozilla/5.0 (Windows NT 6.1; WOW64) AppleWebKit/537.36 (KHTML, like Gecko) Chrome/48.0.2564.109 Safari/537.36"
198.96.155.3 - - [31/Oct/2018:07:30:52 +0000] "GET /user/register HTTP/1.0" 301 - "-" "Mozilla/5.0 (Windows NT 6.1; WOW64) AppleWebKit/537.36 (KHTML, like Gecko) Chrome/48.0.2564.109 Safari/537.36"
198.96.155.3 - - [31/Oct/2018:07:30:53 +0000] "GET /user/register HTTP/1.0" 404 35181 "-" "Mozilla/5.0 (Windows NT 6.1; WOW64) AppleWebKit/537.36 (KHTML, like Gecko) Chrome/48.0.2564.109 Safari/537.36"
37.9.113.40 - - [31/Oct/2018:07:50:48 +0000] "GET /robots.txt HTTP/1.0" 200 35 "-" "Mozilla/5.0 (compatible; YandexBot/3.0; +http://yandex.com/bots)"
95.108.181.113 - - [31/Oct/2018:07:50:52 +0000] "GET / HTTP/1.0" 200 48668 "-" "Mozilla/5.0 (compatible; YandexBot/3.0; +http://yandex.com/bots)"
31.170.123.73 - - [31/Oct/2018:08:42:41 +0000] "POST /wp-cron.php?doing_wp_cron=1540975361.7700150012969970703125 HTTP/1.0" 200 - "-" "WordPress/4.3.17; http://www.ikbensterdam.com"
97.74.228.245 - - [31/Oct/2018:08:42:41 +0000] "POST /xmlrpc.php HTTP/1.0" 200 403 "-" "Mozilla/5.0 (Macintosh; U; Intel Mac OS X 10.6; fr; rv:1.9.2.8) Gecko/20100722 Firefox/3.6.8"
31.170.123.73 - - [31/Oct/2018:09:03:11 +0000] "POST /wp-cron.php?doing_wp_cron=1540976591.6967320442199707031250 HTTP/1.0" 200 - "-" "WordPress/4.3.17; http://www.ikbensterdam.com"
52.173.241.248 - - [31/Oct/2018:09:03:11 +0000] "GET / HTTP/1.0" 301 - "-" "Mozilla/5.0 (Windows NT 10.0; Win64; x64; rv:59.0) Gecko/20100101 Firefox/59.0"
95.108.213.59 - - [31/Oct/2018:09:30:04 +0000] "GET /xmlrpc.php?rsd HTTP/1.0" 200 753 "-" "Mozilla/5.0 (compatible; YandexBot/3.0; +http://yandex.com/bots)"
31.170.123.73 - - [31/Oct/2018:09:48:32 +0000] "POST /wp-cron.php?doing_wp_cron=1540979312.7099280357360839843750 HTTP/1.0" 200 - "-" "WordPress/4.3.17; http://www.ikbensterdam.com"
18.188.90.158 - - [31/Oct/2018:09:48:32 +0000] "GET /wp-login.php HTTP/1.0" 200 7079 "https://www.google.com/url?48c1bb7daf35faf37570d1bad88963f8" "Mozilla/5.0 (Windows NT 5.1; rv:31.0) Gecko/20100101 Firefox/31.0"
18.188.90.158 - - [31/Oct/2018:09:48:43 +0000] "POST /wp-login.php HTTP/1.0" 200 8073 "https://www.google.com/url?48c1bb7daf35faf37570d1bad88963f8" "Mozilla/5.0 (Windows NT 5.1; rv:31.0) Gecko/20100101 Firefox/31.0"
31.170.123.73 - - [31/Oct/2018:09:53:27 +0000] "POST /wp-cron.php?doing_wp_cron=1540979607.6932070255279541015625 HTTP/1.0" 200 - "-" "WordPress/4.3.17; http://www.ikbensterdam.com"
141.8.142.146 - - [31/Oct/2018:09:53:27 +0000] "GET /robots.txt HTTP/1.0" 200 35 "-" "Mozilla/5.0 (compatible; YandexBot/3.0; +http://yandex.com/bots)"
37.9.113.118 - - [31/Oct/2018:09:53:31 +0000] "GET /wp-includes/wlwmanifest.xml HTTP/1.0" 200 1045 "-" "Mozilla/5.0 (compatible; YandexBot/3.0; +http://yandex.com/bots)"
31.170.123.73 - - [31/Oct/2018:10:25:35 +0000] "POST /wp-cron.php?doing_wp_cron=1540981535.4702579975128173828125 HTTP/1.0" 200 - "-" "WordPress/4.3.17; http://www.ikbensterdam.com"
89.248.169.130 - - [31/Oct/2018:10:25:35 +0000] "POST /xmlrpc.php HTTP/1.0" 200 403 "-" "Mozilla/5.0 (Macintosh; U; Intel Mac OS X 10.6; fr; rv:1.9.2.8) Gecko/20100722 Firefox/3.6.8"
89.248.169.130 - - [31/Oct/2018:10:25:35 +0000] "POST /xmlrpc.php HTTP/1.0" 200 403 "-" "Mozilla/5.0 (Macintosh; U; Intel Mac OS X 10.6; fr; rv:1.9.2.8) Gecko/20100722 Firefox/3.6.8"
89.248.169.130 - - [31/Oct/2018:10:25:34 +0000] "POST /xmlrpc.php HTTP/1.0" 200 403 "-" "Mozilla/5.0 (Macintosh; U; Intel Mac OS X 10.6; fr; rv:1.9.2.8) Gecko/20100722 Firefox/3.6.8"
180.76.15.14 - - [31/Oct/2018:10:36:03 +0000] "GET /wp-content/plugins/wp-postratings/postratings-css.css?ver=1.83 HTTP/1.0" 200 1058 "-" "Mozilla/5.0 (compatible; Baiduspider/2.0; +http://www.baidu.com/search/spider.html)"
52.165.148.51 - - [31/Oct/2018:10:42:32 +0000] "GET / HTTP/1.0" 301 - "-" "Mozilla/5.0 (Windows NT 10.0; Win64; x64) AppleWebKit/537.36 (KHTML, like Gecko) Chrome/65.0.3325.181 Safari/537.36"
97.74.228.245 - - [31/Oct/2018:10:59:39 +0000] "POST /xmlrpc.php HTTP/1.0" 200 403 "-" "Mozilla/5.0 (Macintosh; U; Intel Mac OS X 10.6; fr; rv:1.9.2.8) Gecko/20100722 Firefox/3.6.8"
31.170.123.73 - - [31/Oct/2018:10:59:40 +0000] "POST /wp-cron.php?doing_wp_cron=1540983579.5826940536499023437500 HTTP/1.0" 200 - "-" "WordPress/4.3.17; http://www.ikbensterdam.com"
180.76.15.160 - - [31/Oct/2018:11:09:23 +0000] "GET /cart/ HTTP/1.0" 200 72838 "-" "Mozilla/5.0 (compatible; Baiduspider/2.0; +http://www.baidu.com/search/spider.html)"
31.170.123.73 - - [31/Oct/2018:12:23:41 +0000] "POST /wp-cron.php?doing_wp_cron=1540988621.5943338871002197265625 HTTP/1.0" 200 - "-" "WordPress/4.3.17; http://www.ikbensterdam.com"
52.173.241.248 - - [31/Oct/2018:12:23:41 +0000] "GET / HTTP/1.0" 301 - "-" "Mozilla/5.0 (Windows NT 10.0; Win64; x64) AppleWebKit/537.36 (KHTML, like Gecko) Chrome/58.0.3029.110 Safari/537.36 Edge/16.16299"
31.170.123.73 - - [31/Oct/2018:13:37:39 +0000] "POST /wp-cron.php?doing_wp_cron=1540993059.6777689456939697265625 HTTP/1.0" 200 - "-" "WordPress/4.3.17; http://www.ikbensterdam.com"
97.74.228.245 - - [31/Oct/2018:13:37:39 +0000] "POST /xmlrpc.php HTTP/1.0" 200 403 "-" "Mozilla/5.0 (Macintosh; U; Intel Mac OS X 10.6; fr; rv:1.9.2.8) Gecko/20100722 Firefox/3.6.8"
31.170.123.73 - - [31/Oct/2018:14:03:53 +0000] "POST /wp-cron.php?doing_wp_cron=1540994633.0102419853210449218750 HTTP/1.0" 200 - "-" "WordPress/4.3.17; http://www.ikbensterdam.com"
52.165.148.51 - - [31/Oct/2018:14:03:52 +0000] "GET / HTTP/1.0" 301 - "-" "Mozilla/5.0 (Windows NT 10.0; Win64; x64) AppleWebKit/537.36 (KHTML, like Gecko) Chrome/65.0.3325.181 Safari/537.36"
69.12.66.241 - - [31/Oct/2018:14:30:31 +0000] "GET /wp-content/plugins/wp-option-tree/up.php HTTP/1.0" 404 35297 "http://www.ikbensterdam.com/wp-content/plugins/wp-option-tree/up.php" "Mozilla/5.0 (Windows NT 6.1; WOW64) AppleWebKit/537.36 (KHTML, like Gecko) Chrome/42.0.2311.152 Safari/537.36"
31.170.123.73 - - [31/Oct/2018:15:41:33 +0000] "POST /wp-cron.php?doing_wp_cron=1541000493.4531350135803222656250 HTTP/1.0" 200 - "-" "WordPress/4.3.17; http://www.ikbensterdam.com"
52.165.148.51 - - [31/Oct/2018:15:41:32 +0000] "GET / HTTP/1.0" 301 - "-" "Mozilla/5.0 (Windows NT 10.0; Win64; x64) AppleWebKit/537.36 (KHTML, like Gecko) Chrome/65.0.3325.181 Safari/537.36"
31.170.123.73 - - [31/Oct/2018:15:56:22 +0000] "POST /wp-cron.php?doing_wp_cron=1541001382.8048961162567138671875 HTTP/1.0" 200 - "-" "WordPress/4.3.17; http://www.ikbensterdam.com"
97.74.228.245 - - [31/Oct/2018:15:56:22 +0000] "POST /xmlrpc.php HTTP/1.0" 200 403 "-" "Mozilla/5.0 (Macintosh; U; Intel Mac OS X 10.6; fr; rv:1.9.2.8) Gecko/20100722 Firefox/3.6.8"
31.170.123.73 - - [31/Oct/2018:16:46:17 +0000] "POST /wp-cron.php?doing_wp_cron=1541004377.1440920829772949218750 HTTP/1.0" 200 - "-" "WordPress/4.3.17; http://www.ikbensterdam.com"
193.201.224.210 - - [31/Oct/2018:16:46:16 +0000] "GET /wp-content/themes/Ghost/includes/uploadify/upload_settings_image.php HTTP/1.0" 301 - "http://ikbensterdam.com/wp-content/themes/Ghost/includes/uploadify/upload_settings_image.php" "Mozilla/5.0 (Windows NT 6.1; WOW64) AppleWebKit/537.36 (KHTML, like Gecko) Chrome/42.0.2311.152 Safari/537.36"
193.201.224.210 - - [31/Oct/2018:16:46:18 +0000] "GET /wp-content/themes/Ghost/includes/uploadify/upload_settings_image.php HTTP/1.0" 404 35417 "http://ikbensterdam.com/wp-content/themes/Ghost/includes/uploadify/upload_settings_image.php" "Mozilla/5.0 (Windows NT 6.1; WOW64) AppleWebKit/537.36 (KHTML, like Gecko) Chrome/42.0.2311.152 Safari/537.36"
31.170.123.73 - - [31/Oct/2018:17:22:21 +0000] "POST /wp-cron.php?doing_wp_cron=1541006541.5957889556884765625000 HTTP/1.0" 200 - "-" "WordPress/4.3.17; http://www.ikbensterdam.com"
52.165.148.51 - - [31/Oct/2018:17:22:21 +0000] "GET / HTTP/1.0" 301 - "-" "Mozilla/5.0 (Windows NT 10.0; Win64; x64) AppleWebKit/537.36 (KHTML, like Gecko) Chrome/65.0.3325.181 Safari/537.36"
18.222.142.209 - - [31/Oct/2018:17:33:49 +0000] "GET /wp-login.php HTTP/1.0" 200 7079 "https://www.google.com/url?48c1bb7daf35faf37570d1bad88963f8" "Mozilla/5.0 (Windows NT 5.1; rv:31.0) Gecko/20100101 Firefox/31.0"
18.222.142.209 - - [31/Oct/2018:17:34:07 +0000] "POST /wp-login.php HTTP/1.0" 200 8073 "https://www.google.com/url?48c1bb7daf35faf37570d1bad88963f8" "Mozilla/5.0 (Windows NT 5.1; rv:31.0) Gecko/20100101 Firefox/31.0"
31.170.123.73 - - [31/Oct/2018:17:46:37 +0000] "POST /wp-cron.php?doing_wp_cron=1541007997.4930260181427001953125 HTTP/1.0" 200 - "-" "WordPress/4.3.17; http://www.ikbensterdam.com"
95.108.213.49 - - [31/Oct/2018:17:46:36 +0000] "GET /robots.txt HTTP/1.0" 200 35 "-" "Mozilla/5.0 (compatible; YandexBot/3.0; +http://yandex.com/bots)"
141.8.142.11 - - [31/Oct/2018:17:46:40 +0000] "GET /wp-content/uploads/2016/01/favicon.ico HTTP/1.0" 200 4286 "-" "Mozilla/5.0 (compatible; YandexBot/3.0; +http://yandex.com/bots)"
31.170.123.73 - - [31/Oct/2018:18:12:53 +0000] "POST /wp-cron.php?doing_wp_cron=1541009573.5471711158752441406250 HTTP/1.0" 200 - "-" "WordPress/4.3.17; http://www.ikbensterdam.com"
97.74.228.245 - - [31/Oct/2018:18:12:53 +0000] "POST /xmlrpc.php HTTP/1.0" 200 403 "-" "Mozilla/5.0 (Macintosh; U; Intel Mac OS X 10.6; fr; rv:1.9.2.8) Gecko/20100722 Firefox/3.6.8"
89.163.131.165 - - [31/Oct/2018:18:24:33 +0000] "HEAD / HTTP/1.0" 301 - "-" "Mozilla/5.0 (compatible; Uptimebot/1.0; +http://www.uptime.com/uptimebot)"
180.76.15.14 - - [31/Oct/2018:18:25:46 +0000] "GET / HTTP/1.0" 301 - "-" "Mozilla/5.0 (compatible; Baiduspider/2.0; +http://www.baidu.com/search/spider.html)"
180.76.15.12 - - [31/Oct/2018:18:25:47 +0000] "GET / HTTP/1.0" 200 48668 "-" "Mozilla/5.0 (compatible; Baiduspider/2.0; +http://www.baidu.com/search/spider.html)"
89.248.169.130 - - [31/Oct/2018:18:49:44 +0000] "POST /xmlrpc.php HTTP/1.0" 200 403 "-" "Mozilla/5.0 (Macintosh; U; Intel Mac OS X 10.6; fr; rv:1.9.2.8) Gecko/20100722 Firefox/3.6.8"
31.170.123.73 - - [31/Oct/2018:18:49:44 +0000] "POST /wp-cron.php?doing_wp_cron=1541011784.8587141036987304687500 HTTP/1.0" 200 - "-" "WordPress/4.3.17; http://www.ikbensterdam.com"
89.248.169.130 - - [31/Oct/2018:18:49:44 +0000] "POST /xmlrpc.php HTTP/1.0" 200 403 "-" "Mozilla/5.0 (Macintosh; U; Intel Mac OS X 10.6; fr; rv:1.9.2.8) Gecko/20100722 Firefox/3.6.8"
89.248.169.130 - - [31/Oct/2018:18:49:45 +0000] "POST /xmlrpc.php HTTP/1.0" 200 403 "-" "Mozilla/5.0 (Macintosh; U; Intel Mac OS X 10.6; fr; rv:1.9.2.8) Gecko/20100722 Firefox/3.6.8"
31.170.123.73 - - [31/Oct/2018:19:02:09 +0000] "POST /wp-cron.php?doing_wp_cron=1541012529.3822829723358154296875 HTTP/1.0" 200 - "-" "WordPress/4.3.17; http://www.ikbensterdam.com"
52.173.241.248 - - [31/Oct/2018:19:02:08 +0000] "GET / HTTP/1.0" 301 - "-" "Mozilla/5.0 (Macintosh; Intel Mac OS X 10_13_3) AppleWebKit/537.36 (KHTML, like Gecko) Chrome/65.0.3325.162 Safari/537.36"
97.74.228.245 - - [31/Oct/2018:20:27:47 +0000] "POST /xmlrpc.php HTTP/1.0" 200 403 "-" "Mozilla/5.0 (Macintosh; U; Intel Mac OS X 10.6; fr; rv:1.9.2.8) Gecko/20100722 Firefox/3.6.8"
31.170.123.73 - - [31/Oct/2018:20:27:48 +0000] "POST /wp-cron.php?doing_wp_cron=1541017668.2707679271697998046875 HTTP/1.0" 200 - "-" "WordPress/4.3.17; http://www.ikbensterdam.com"
52.165.148.51 - - [31/Oct/2018:20:42:25 +0000] "GET / HTTP/1.0" 301 - "-" "Mozilla/5.0 (Windows NT 10.0; Win64; x64) AppleWebKit/537.36 (KHTML, like Gecko) Chrome/65.0.3325.181 Safari/537.36"
31.170.123.73 - - [31/Oct/2018:21:19:24 +0000] "POST /wp-cron.php?doing_wp_cron=1541020764.9345979690551757812500 HTTP/1.0" 200 - "-" "WordPress/4.3.17; http://www.ikbensterdam.com"
104.151.22.157 - - [31/Oct/2018:21:19:24 +0000] "GET / HTTP/1.0" 301 - "ikbensterdam.com" "Mozilla/5.0 (Windows NT 10.0; Win64; x64) AppleWebKit/537.36 (KHTML, like Gecko) Chrome/62.0.3202.94 Safari/537.36"
104.151.22.157 - - [31/Oct/2018:21:19:28 +0000] "GET / HTTP/1.0" 200 48668 "ikbensterdam.com" "Mozilla/5.0 (Windows NT 10.0; Win64; x64) AppleWebKit/537.36 (KHTML, like Gecko) Chrome/62.0.3202.94 Safari/537.36"
104.151.22.157 - - [31/Oct/2018:21:19:31 +0000] "GET / HTTP/1.0" 200 48668 "http://www.ikbensterdam.com" "Mozilla/5.0 (Windows NT 10.0; Win64; x64) AppleWebKit/537.36 (KHTML, like Gecko) Chrome/62.0.3202.94 Safari/537.36"
31.170.123.73 - - [31/Oct/2018:21:28:45 +0000] "POST /wp-cron.php?doing_wp_cron=1541021325.4431619644165039062500 HTTP/1.0" 200 - "-" "WordPress/4.3.17; http://www.ikbensterdam.com"
52.53.201.78 - - [31/Oct/2018:21:28:44 +0000] "GET / HTTP/1.0" 200 48668 "-" "Mozilla/5.0 (Macintosh; Intel Mac OS X 10_12_6) AppleWebKit/537.36 (KHTML, like Gecko) Chrome/61.0.3163.100 Safari/537.36"
51.158.25.47 - - [31/Oct/2018:21:34:42 +0000] "GET /wp-content/uploads/2018/10/mod_config.php HTTP/1.0" 404 35305 "-" "Mozilla/5.0 (Windows NT 6.1.7600; WOW64; rv:26.0) Gecko/20100101 Firefox/26.0"
123.57.254.142 - - [31/Oct/2018:21:52:56 +0000] "POST /xmlrpc.php HTTP/1.0" 200 403 "-" "Mozilla/5.0 (Macintosh; U; Intel Mac OS X 10.6; fr; rv:1.9.2.8) Gecko/20100722 Firefox/3.6.8"
31.170.123.73 - - [31/Oct/2018:21:52:57 +0000] "POST /wp-cron.php?doing_wp_cron=1541022777.0209589004516601562500 HTTP/1.0" 200 - "-" "WordPress/4.3.17; http://www.ikbensterdam.com"
123.57.254.142 - - [31/Oct/2018:21:52:56 +0000] "POST /xmlrpc.php HTTP/1.0" 200 403 "-" "Mozilla/5.0 (Macintosh; U; Intel Mac OS X 10.6; fr; rv:1.9.2.8) Gecko/20100722 Firefox/3.6.8"
31.170.123.73 - - [31/Oct/2018:22:30:17 +0000] "POST /wp-cron.php?doing_wp_cron=1541025017.2334868907928466796875 HTTP/1.0" 200 - "-" "WordPress/4.3.17; http://www.ikbensterdam.com"
120.35.38.26 - - [31/Oct/2018:22:30:16 +0000] "HEAD /wp-content/themes/twentyseventeen/sidebar.php HTTP/1.0" 404 - "-" "-"
97.74.228.245 - - [31/Oct/2018:22:40:49 +0000] "POST /xmlrpc.php HTTP/1.0" 200 403 "-" "Mozilla/5.0 (Macintosh; U; Intel Mac OS X 10.6; fr; rv:1.9.2.8) Gecko/20100722 Firefox/3.6.8"
31.170.123.73 - - [31/Oct/2018:22:53:21 +0000] "POST /wp-cron.php?doing_wp_cron=1541026401.3541009426116943359375 HTTP/1.0" 200 - "-" "WordPress/4.3.17; http://www.ikbensterdam.com"
95.104.61.189 - - [31/Oct/2018:22:53:20 +0000] "GET /wp-login.php HTTP/1.0" 200 7079 "-" "Mozilla/5.0 (Windows NT 5.1; rv:29.0) Gecko/20100101 Firefox/29.0"
95.104.61.189 - - [31/Oct/2018:22:53:22 +0000] "POST /wp-login.php HTTP/1.0" 200 8073 "-" "Mozilla/5.0 (Windows NT 5.1; rv:29.0) Gecko/20100101 Firefox/29.0"
31.170.123.73 - - [31/Oct/2018:23:49:22 +0000] "POST /wp-cron.php?doing_wp_cron=1541029762.9558529853820800781250 HTTP/1.0" 200 - "-" "WordPress/4.3.17; http://www.ikbensterdam.com"
220.164.2.116 - - [31/Oct/2018:23:49:22 +0000] "GET /wp-login.php HTTP/1.0" 200 7079 "-" "Mozilla/5.0 (Windows NT 5.1; rv:29.0) Gecko/20100101 Firefox/29.0"
220.164.2.116 - - [31/Oct/2018:23:49:25 +0000] "POST /wp-login.php HTTP/1.0" 200 8073 "-" "Mozilla/5.0 (Windows NT 5.1; rv:29.0) Gecko/20100101 Firefox/29.0"
31.170.123.73 - - [01/Nov/2018:00:54:08 +0000] "POST /wp-cron.php?doing_wp_cron=1541033648.5887079238891601562500 HTTP/1.0" 200 - "-" "WordPress/4.3.17; http://www.ikbensterdam.com"
97.74.228.245 - - [01/Nov/2018:00:54:08 +0000] "POST /xmlrpc.php HTTP/1.0" 200 403 "-" "Mozilla/5.0 (Macintosh; U; Intel Mac OS X 10.6; fr; rv:1.9.2.8) Gecko/20100722 Firefox/3.6.8"
109.86.115.141 - - [01/Nov/2018:01:15:30 +0000] "GET /wp-login.php HTTP/1.0" 200 7079 "http://ikbensterdam.com/wp-login.php" "Mozilla/5.0 (Windows NT 10.0; WOW64) AppleWebKit/537.36 (KHTML, like Gecko) Chrome/62.0.3198.0 Safari/537.36 OPR/49.0.2711.0"
109.86.115.141 - - [01/Nov/2018:01:15:31 +0000] "POST /wp-login.php HTTP/1.0" 200 8040 "http://ikbensterdam.com/wp-login.php" "Mozilla/5.0 (Windows NT 10.0; WOW64) AppleWebKit/537.36 (KHTML, like Gecko) Chrome/62.0.3198.0 Safari/537.36 OPR/49.0.2711.0"
95.108.213.49 - - [01/Nov/2018:01:50:14 +0000] "GET /robots.txt HTTP/1.0" 200 35 "-" "Mozilla/5.0 (compatible; YandexBot/3.0; +http://yandex.com/bots)"
141.8.142.11 - - [01/Nov/2018:01:50:18 +0000] "GET /wp-content/uploads/2016/01/favicon.ico HTTP/1.0" 200 4286 "-" "Mozilla/5.0 (compatible; YandexBot/3.0; +http://yandex.com/bots)"
31.170.123.73 - - [01/Nov/2018:02:43:41 +0000] "POST /wp-cron.php?doing_wp_cron=1541040221.4864499568939208984375 HTTP/1.0" 200 - "-" "WordPress/4.3.17; http://www.ikbensterdam.com"
180.76.15.153 - - [01/Nov/2018:02:43:40 +0000] "GET /cart/ HTTP/1.0" 200 72838 "-" "Mozilla/5.0 (compatible; Baiduspider/2.0; +http://www.baidu.com/search/spider.html)"
193.201.224.210 - - [01/Nov/2018:02:50:05 +0000] "GET /wp-content/plugins/wp-mailinglist/vendors/uploadify/upload.php HTTP/1.0" 301 - "http://ikbensterdam.com/wp-content/plugins/wp-mailinglist/vendors/uploadify/upload.php" "Mozilla/5.0 (Windows NT 6.1; WOW64) AppleWebKit/537.36 (KHTML, like Gecko) Chrome/42.0.2311.152 Safari/537.36"
193.201.224.210 - - [01/Nov/2018:02:50:07 +0000] "GET /wp-content/plugins/wp-mailinglist/vendors/uploadify/upload.php HTTP/1.0" 404 35393 "http://ikbensterdam.com/wp-content/plugins/wp-mailinglist/vendors/uploadify/upload.php" "Mozilla/5.0 (Windows NT 6.1; WOW64) AppleWebKit/537.36 (KHTML, like Gecko) Chrome/42.0.2311.152 Safari/537.36"
