52.34.106.39 - - [03/Nov/2018:06:19:01 +0000] "GET / HTTP/1.0" 302 20 "-" "Mozilla/5.0 (Windows NT 10.0; Win64; x64) AppleWebKit/537.36 (KHTML, like Gecko) Chrome/66.0.3359.181 Safari/537.36"
52.34.106.39 - - [03/Nov/2018:06:19:01 +0000] "GET /login_page.php HTTP/1.0" 200 1375 "-" "Mozilla/5.0 (Windows NT 10.0; Win64; x64) AppleWebKit/537.36 (KHTML, like Gecko) Chrome/66.0.3359.181 Safari/537.36"
52.34.106.39 - - [03/Nov/2018:06:19:03 +0000] "GET / HTTP/1.0" 302 20 "-" "Mozilla/5.0 (Windows NT 10.0; Win64; x64) AppleWebKit/537.36 (KHTML, like Gecko) Chrome/66.0.3359.181 Safari/537.36"
52.34.106.39 - - [03/Nov/2018:06:19:03 +0000] "GET /login_page.php HTTP/1.0" 200 1375 "-" "Mozilla/5.0 (Windows NT 10.0; Win64; x64) AppleWebKit/537.36 (KHTML, like Gecko) Chrome/66.0.3359.181 Safari/537.36"
52.34.106.39 - - [03/Nov/2018:06:19:04 +0000] "GET / HTTP/1.0" 302 20 "-" "Mozilla/5.0 (Windows NT 10.0; Win64; x64) AppleWebKit/537.36 (KHTML, like Gecko) Chrome/66.0.3359.181 Safari/537.36"
52.34.106.39 - - [03/Nov/2018:06:19:04 +0000] "GET /login_page.php HTTP/1.0" 200 1375 "-" "Mozilla/5.0 (Windows NT 10.0; Win64; x64) AppleWebKit/537.36 (KHTML, like Gecko) Chrome/66.0.3359.181 Safari/537.36"
52.34.106.39 - - [03/Nov/2018:06:19:05 +0000] "GET / HTTP/1.0" 302 20 "-" "Mozilla/5.0 (Windows NT 10.0; Win64; x64) AppleWebKit/537.36 (KHTML, like Gecko) Chrome/66.0.3359.181 Safari/537.36"
52.34.106.39 - - [03/Nov/2018:06:19:05 +0000] "GET /login_page.php HTTP/1.0" 200 1375 "-" "Mozilla/5.0 (Windows NT 10.0; Win64; x64) AppleWebKit/537.36 (KHTML, like Gecko) Chrome/66.0.3359.181 Safari/537.36"
52.34.106.39 - - [03/Nov/2018:06:19:06 +0000] "GET / HTTP/1.0" 302 20 "-" "Mozilla/5.0 (Windows NT 10.0; Win64; x64) AppleWebKit/537.36 (KHTML, like Gecko) Chrome/66.0.3359.181 Safari/537.36"
52.34.106.39 - - [03/Nov/2018:06:19:06 +0000] "GET /login_page.php HTTP/1.0" 200 1375 "-" "Mozilla/5.0 (Windows NT 10.0; Win64; x64) AppleWebKit/537.36 (KHTML, like Gecko) Chrome/66.0.3359.181 Safari/537.36"
52.34.106.39 - - [03/Nov/2018:06:19:07 +0000] "GET / HTTP/1.0" 302 20 "-" "Mozilla/5.0 (Windows NT 10.0; Win64; x64) AppleWebKit/537.36 (KHTML, like Gecko) Chrome/66.0.3359.181 Safari/537.36"
52.34.106.39 - - [03/Nov/2018:06:19:07 +0000] "GET /login_page.php HTTP/1.0" 200 1375 "-" "Mozilla/5.0 (Windows NT 10.0; Win64; x64) AppleWebKit/537.36 (KHTML, like Gecko) Chrome/66.0.3359.181 Safari/537.36"
66.249.66.55 - - [03/Nov/2018:07:36:35 +0000] "GET /robots.txt HTTP/1.0" 404 208 "-" "Mozilla/5.0 (compatible; Googlebot/2.1; +http://www.google.com/bot.html)"
66.249.66.57 - - [03/Nov/2018:07:36:45 +0000] "GET / HTTP/1.0" 302 20 "-" "Mozilla/5.0 (compatible; Googlebot/2.1; +http://www.google.com/bot.html)"
66.249.66.59 - - [03/Nov/2018:07:37:21 +0000] "GET /login_page.php HTTP/1.0" 200 1375 "-" "Mozilla/5.0 (compatible; Googlebot/2.1; +http://www.google.com/bot.html)"
66.249.66.148 - - [03/Nov/2018:09:06:28 +0000] "GET /robots.txt HTTP/1.0" 404 208 "-" "Mozilla/5.0 (compatible; Googlebot/2.1; +http://www.google.com/bot.html)"
66.249.66.148 - - [03/Nov/2018:09:06:58 +0000] "GET / HTTP/1.0" 302 20 "-" "Mozilla/5.0 (compatible; Googlebot/2.1; +http://www.google.com/bot.html)"
66.249.66.152 - - [03/Nov/2018:09:07:47 +0000] "GET /login_page.php HTTP/1.0" 200 1378 "-" "Mozilla/5.0 (compatible; Googlebot/2.1; +http://www.google.com/bot.html)"
178.154.244.15 - - [03/Nov/2018:12:14:59 +0000] "GET /robots.txt HTTP/1.0" 404 208 "-" "Mozilla/5.0 (compatible; YandexBot/3.0; +http://yandex.com/bots)"
95.108.181.61 - - [03/Nov/2018:12:15:03 +0000] "GET / HTTP/1.0" 302 20 "-" "Mozilla/5.0 (compatible; YandexBot/3.0; +http://yandex.com/bots)"
95.108.181.61 - - [03/Nov/2018:12:15:04 +0000] "GET /robots.txt HTTP/1.0" 404 208 "-" "Mozilla/5.0 (compatible; YandexBot/3.0; +http://yandex.com/bots)"
95.108.181.49 - - [03/Nov/2018:12:15:06 +0000] "GET /login_page.php HTTP/1.0" 200 1465 "-" "Mozilla/5.0 (compatible; YandexBot/3.0; +http://yandex.com/bots)"
178.154.200.41 - - [03/Nov/2018:12:15:08 +0000] "GET / HTTP/1.0" 302 20 "-" "Mozilla/5.0 (compatible; YandexBot/3.0; +http://yandex.com/bots)"
37.9.113.168 - - [03/Nov/2018:12:15:11 +0000] "GET /login_page.php HTTP/1.0" 200 1467 "-" "Mozilla/5.0 (compatible; YandexBot/3.0; +http://yandex.com/bots)"
95.108.181.113 - - [03/Nov/2018:13:21:41 +0000] "GET / HTTP/1.0" 302 20 "-" "Mozilla/5.0 (compatible; YandexBot/3.0; +http://yandex.com/bots)"
178.154.244.15 - - [03/Nov/2018:13:21:45 +0000] "GET /login_page.php HTTP/1.0" 200 1378 "-" "Mozilla/5.0 (compatible; YandexBot/3.0; +http://yandex.com/bots)"
52.165.166.139 - - [03/Nov/2018:16:10:56 +0000] "GET / HTTP/1.0" 302 20 "-" "Mozilla/5.0 (Windows NT 10.0; Win64; x64) AppleWebKit/537.36 (KHTML, like Gecko) Chrome/65.0.3325.181 Safari/537.36"
123.125.71.23 - - [03/Nov/2018:16:43:18 +0000] "GET /robots.txt HTTP/1.0" 404 208 "-" "Mozilla/5.0 (compatible; Baiduspider/2.0; +http://www.baidu.com/search/spider.html)"
95.108.181.44 - - [03/Nov/2018:17:31:15 +0000] "GET /robots.txt HTTP/1.0" 404 208 "-" "Mozilla/5.0 (compatible; YandexBot/3.0; +http://yandex.com/bots)"
37.9.113.40 - - [03/Nov/2018:17:31:19 +0000] "GET /login_page.php HTTP/1.0" 200 1375 "-" "Mozilla/5.0 (compatible; YandexBot/3.0; +http://yandex.com/bots)"
52.173.241.248 - - [03/Nov/2018:17:51:22 +0000] "GET / HTTP/1.0" 302 20 "-" "Mozilla/5.0 (Windows NT 10.0; Win64; x64) AppleWebKit/537.36 (KHTML, like Gecko) Chrome/64.0.3282.186 Safari/537.36"
185.117.118.152 - - [03/Nov/2018:18:05:36 +0000] "GET /robots.txt HTTP/1.0" 404 208 "-" "Mozilla/5.0 (compatible; Uptimebot/1.0; +http://www.uptime.com/uptimebot)"
185.117.118.150 - - [03/Nov/2018:18:05:36 +0000] "HEAD / HTTP/1.0" 302 - "-" "Mozilla/5.0 (compatible; Uptimebot/1.0; +http://www.uptime.com/uptimebot)"
185.117.118.154 - - [03/Nov/2018:18:05:37 +0000] "HEAD /login_page.php HTTP/1.0" 200 - "http://orangepotion.com/" "Mozilla/5.0 (compatible; Uptimebot/1.0; +http://www.uptime.com/uptimebot)"
52.173.241.248 - - [03/Nov/2018:19:31:20 +0000] "GET / HTTP/1.0" 302 20 "-" "Mozilla/5.0 (Windows NT 10.0; Win64; x64; rv:58.0) Gecko/20100101 Firefox/58.0"
52.173.241.248 - - [03/Nov/2018:21:10:17 +0000] "GET / HTTP/1.0" 302 20 "-" "Mozilla/5.0 (Macintosh; Intel Mac OS X 10_13_3) AppleWebKit/537.36 (KHTML, like Gecko) Chrome/64.0.3282.186 Safari/537.36"
66.249.66.59 - - [03/Nov/2018:23:17:33 +0000] "GET /robots.txt HTTP/1.0" 404 208 "-" "Mozilla/5.0 (compatible; Googlebot/2.1; +http://www.google.com/bot.html)"
66.249.66.57 - - [03/Nov/2018:23:17:48 +0000] "GET /login_page.php HTTP/1.0" 200 1375 "-" "Mozilla/5.0 (Linux; Android 6.0.1; Nexus 5X Build/MMB29P) AppleWebKit/537.36 (KHTML, like Gecko) Chrome/41.0.2272.96 Mobile Safari/537.36 (compatible; Googlebot/2.1; +http://www.google.com/bot.html)"
66.249.66.55 - - [03/Nov/2018:23:17:56 +0000] "GET /css/common_config.php HTTP/1.0" 200 140 "http://orangepotion.com/login_page.php" "Mozilla/5.0 (Linux; Android 6.0.1; Nexus 5X Build/MMB29P) AppleWebKit/537.36 (KHTML, like Gecko) Chrome/41.0.2272.96 Mobile Safari/537.36 (compatible; Googlebot/2.1; +http://www.google.com/bot.html)"
66.249.66.55 - - [03/Nov/2018:23:18:20 +0000] "GET /favicon.ico HTTP/1.0" 404 209 "-" "Googlebot-Image/1.0"
66.249.66.57 - - [03/Nov/2018:23:18:38 +0000] "GET /favicon.ico HTTP/1.0" 404 209 "-" "Googlebot-Image/1.0"
66.249.66.57 - - [04/Nov/2018:00:45:38 +0000] "GET /favicon.ico HTTP/1.0" 404 209 "-" "Googlebot-Image/1.0"
178.62.74.6 - - [04/Nov/2018:01:11:21 +0000] "GET / HTTP/1.0" 302 20 "-" "Mozilla/5.0 (Windows NT 6.0) AppleWebKit/537.36 (KHTML, like Gecko) Chrome/34.0.1847.116 Safari/537.36"
178.62.74.6 - - [04/Nov/2018:01:11:22 +0000] "GET /login_page.php HTTP/1.0" 200 1375 "-" "Mozilla/5.0 (Windows NT 6.0) AppleWebKit/537.36 (KHTML, like Gecko) Chrome/34.0.1847.116 Safari/537.36"
178.62.74.6 - - [04/Nov/2018:01:11:22 +0000] "GET /my_view_page.php HTTP/1.0" 302 20 "-" "Mozilla/5.0 (Windows NT 6.0) AppleWebKit/537.36 (KHTML, like Gecko) Chrome/34.0.1847.116 Safari/537.36"
178.62.74.6 - - [04/Nov/2018:01:11:23 +0000] "GET /login_page.php?return=%2Fmy_view_page.php HTTP/1.0" 200 1374 "-" "Mozilla/5.0 (Windows NT 6.0) AppleWebKit/537.36 (KHTML, like Gecko) Chrome/34.0.1847.116 Safari/537.36"
178.62.74.6 - - [04/Nov/2018:01:11:23 +0000] "GET /signup_page.php HTTP/1.0" 200 2022 "-" "Mozilla/5.0 (Windows NT 6.0) AppleWebKit/537.36 (KHTML, like Gecko) Chrome/34.0.1847.116 Safari/537.36"
178.62.74.6 - - [04/Nov/2018:01:11:24 +0000] "GET /lost_pwd_page.php HTTP/1.0" 200 1645 "-" "Mozilla/5.0 (Windows NT 6.0) AppleWebKit/537.36 (KHTML, like Gecko) Chrome/34.0.1847.116 Safari/537.36"
86.110.117.53 - - [04/Nov/2018:02:01:05 +0000] "GET /wp-admin/setup-config.php?step=1 HTTP/1.0" 404 223 "-" "Mozilla/5.0 (X11; Linux i686) AppleWebKit/537.36 (KHTML, like Gecko) Chrome/54.0.2858.15 Safari/537.36"
