52.173.241.248 - - [05/Nov/2018:03:57:50 +0000] "GET / HTTP/1.0" 301 - "-" "Mozilla/5.0 (Windows NT 10.0; Win64; x64; rv:59.0) Gecko/20100101 Firefox/59.0"
52.165.166.139 - - [05/Nov/2018:04:03:10 +0000] "GET / HTTP/1.0" 301 - "-" "Mozilla/5.0 (Macintosh; Intel Mac OS X 10_13_3) AppleWebKit/604.5.6 (KHTML, like Gecko) Version/11.0.3 Safari/604.5.6"
39.98.62.11 - - [05/Nov/2018:13:13:44 +0000] "GET / HTTP/1.0" 301 - "-" "-"
