66.249.66.142 - - [03/Nov/2018:04:40:21 +0000] "GET /robots.txt HTTP/1.0" 404 208 "-" "Mozilla/5.0 (compatible; Googlebot/2.1; +http://www.google.com/bot.html)"
66.249.66.144 - - [03/Nov/2018:04:40:29 +0000] "GET /wp-includes/js/jquery/ui/slider.min.js?ver=1.11.4 HTTP/1.0" 200 10987 "http://gameworkforce.com/?page_id=15" "Mozilla/5.0 (Linux; Android 6.0.1; Nexus 5X Build/MMB29P) AppleWebKit/537.36 (KHTML, like Gecko) Chrome/41.0.2272.96 Mobile Safari/537.36 (compatible; Googlebot/2.1; +http://www.google.com/bot.html)"
66.249.66.142 - - [03/Nov/2018:04:40:32 +0000] "GET /wp-content/plugins/wp-job-manager/assets/js/jquery-deserialize/jquery.deserialize.js?ver=1.2.1 HTTP/1.0" 200 4095 "http://gameworkforce.com/?page_id=15" "Mozilla/5.0 (Linux; Android 6.0.1; Nexus 5X Build/MMB29P) AppleWebKit/537.36 (KHTML, like Gecko) Chrome/41.0.2272.96 Mobile Safari/537.36 (compatible; Googlebot/2.1; +http://www.google.com/bot.html)"
31.170.123.73 - - [03/Nov/2018:05:20:32 +0000] "POST /wp-cron.php?doing_wp_cron=1541222432.8822538852691650390625 HTTP/1.0" 200 - "http://gameworkforce.com/wp-cron.php?doing_wp_cron=1541222432.8822538852691650390625" "WordPress/4.9.8; http://gameworkforce.com"
66.249.66.144 - - [03/Nov/2018:05:20:32 +0000] "GET /?page_id=19 HTTP/1.0" 200 33110 "-" "Mozilla/5.0 (compatible; Googlebot/2.1; +http://www.google.com/bot.html)"
31.170.123.73 - - [03/Nov/2018:07:06:13 +0000] "POST /wp-cron.php?doing_wp_cron=1541228773.9506609439849853515625 HTTP/1.0" 200 - "http://gameworkforce.com/wp-cron.php?doing_wp_cron=1541228773.9506609439849853515625" "WordPress/4.9.8; http://gameworkforce.com"
207.46.13.48 - - [03/Nov/2018:07:06:13 +0000] "GET /?job_listing=senior-ux-developer HTTP/1.0" 200 47920 "-" "Mozilla/5.0 (compatible; bingbot/2.0; +http://www.bing.com/bingbot.htm)"
207.46.13.148 - - [03/Nov/2018:07:06:21 +0000] "GET /wp-content/themes/jobify/style.css?ver=20170821 HTTP/1.0" 200 215666 "-" "Mozilla/5.0 (compatible; bingbot/2.0; +http://www.bing.com/bingbot.htm)"
207.46.13.148 - - [03/Nov/2018:07:06:21 +0000] "GET /wp-content/plugins/woocommerce/assets/js/jquery-blockui/jquery.blockUI.min.js?ver=2.70 HTTP/1.0" 200 9566 "-" "Mozilla/5.0 (compatible; bingbot/2.0; +http://www.bing.com/bingbot.htm)"
207.46.13.148 - - [03/Nov/2018:07:06:21 +0000] "GET /wp-includes/js/jquery/ui/slider.min.js?ver=1.11.4 HTTP/1.0" 200 10987 "-" "Mozilla/5.0 (compatible; bingbot/2.0; +http://www.bing.com/bingbot.htm)"
207.46.13.148 - - [03/Nov/2018:07:06:21 +0000] "GET /wp-includes/js/underscore.min.js?ver=1.8.3 HTTP/1.0" 200 16410 "-" "Mozilla/5.0 (compatible; bingbot/2.0; +http://www.bing.com/bingbot.htm)"
207.46.13.148 - - [03/Nov/2018:07:06:21 +0000] "GET /wp-content/themes/jobify/js/jobify.min.js?ver=20170814 HTTP/1.0" 200 69401 "-" "Mozilla/5.0 (compatible; bingbot/2.0; +http://www.bing.com/bingbot.htm)"
207.46.13.148 - - [03/Nov/2018:07:06:22 +0000] "GET /wp-content/themes/jobify/inc/integrations/wp-job-manager/js/map/app.min.js?ver=20150509 HTTP/1.0" 200 58456 "-" "Mozilla/5.0 (compatible; bingbot/2.0; +http://www.bing.com/bingbot.htm)"
207.46.13.148 - - [03/Nov/2018:07:06:22 +0000] "GET /wp-content/themes/jobify/js/vendor/salvattore/salvattore.min.js?ver=4.9.8 HTTP/1.0" 200 7493 "-" "Mozilla/5.0 (compatible; bingbot/2.0; +http://www.bing.com/bingbot.htm)"
157.55.39.20 - - [03/Nov/2018:07:07:13 +0000] "GET /robots.txt HTTP/1.0" 404 208 "-" "Mozilla/5.0 (compatible; bingbot/2.0; +http://www.bing.com/bingbot.htm)"
157.55.39.234 - - [03/Nov/2018:07:07:48 +0000] "GET /wp-content/plugins/wp-job-manager/assets/js/job-application.min.js?ver=1.31.3 HTTP/1.0" 200 880 "-" "Mozilla/5.0 (compatible; bingbot/2.0; +http://www.bing.com/bingbot.htm)"
31.170.123.73 - - [03/Nov/2018:08:50:15 +0000] "POST /wp-cron.php?doing_wp_cron=1541235015.0170800685882568359375 HTTP/1.0" 200 - "http://gameworkforce.com/wp-cron.php?doing_wp_cron=1541235015.0170800685882568359375" "WordPress/4.9.8; http://gameworkforce.com"
18.222.253.196 - - [03/Nov/2018:08:50:14 +0000] "GET /wp-login.php HTTP/1.0" 200 2280 "https://www.google.com/url?5dbc53961246a3ebd5a882d37979a0c2" "Mozilla/5.0 (Windows NT 5.1; rv:31.0) Gecko/20100101 Firefox/31.0"
18.222.253.196 - - [03/Nov/2018:08:50:15 +0000] "POST /wp-login.php HTTP/1.0" 200 3271 "https://www.google.com/url?5dbc53961246a3ebd5a882d37979a0c2" "Mozilla/5.0 (Windows NT 5.1; rv:31.0) Gecko/20100101 Firefox/31.0"
185.149.101.4 - - [03/Nov/2018:09:26:50 +0000] "GET /wp-admin/wp-caches.php HTTP/1.0" 404 220 "http://site.ru" "Mozilla/5.0 (Windows; U; Windows NT 5.1; en-US) AppleWebKit/533.4 (KHTML, like Gecko) Chrome/5.0.375.99 Safari/533.4"
185.149.101.4 - - [03/Nov/2018:09:26:53 +0000] "GET /wp-admin/wp-caches.php HTTP/1.0" 404 220 "http://site.ru" "Mozilla/5.0 (Windows; U; Windows NT 5.1; en-US) AppleWebKit/533.4 (KHTML, like Gecko) Chrome/5.0.375.99 Safari/533.4"
190.113.0.192 - - [03/Nov/2018:11:40:43 +0000] "GET /sec.php HTTP/1.0" 404 205 "http://site.ru" "Mozilla/5.0 (Windows; U; Windows NT 5.1; en-US) AppleWebKit/533.4 (KHTML, like Gecko) Chrome/5.0.375.99 Safari/533.4"
69.64.70.32 - - [03/Nov/2018:14:06:38 +0000] "GET /wp-content/plugins/wp-zipy/el.php HTTP/1.0" 404 231 "http://site.ru" "Mozilla/5.0 (Windows; U; Windows NT 5.1; en-US) AppleWebKit/533.4 (KHTML, like Gecko) Chrome/5.0.375.99 Safari/533.4"
87.229.51.49 - - [03/Nov/2018:14:06:44 +0000] "GET /wp-includes/wp-caches.php HTTP/1.0" 404 223 "http://site.ru" "Mozilla/5.0 (Windows; U; Windows NT 5.1; en-US) AppleWebKit/533.4 (KHTML, like Gecko) Chrome/5.0.375.99 Safari/533.4"
87.229.51.49 - - [03/Nov/2018:14:07:14 +0000] "GET /wp-includes/wp-caches.php HTTP/1.0" 404 223 "http://site.ru" "Mozilla/5.0 (Windows; U; Windows NT 5.1; en-US) AppleWebKit/533.4 (KHTML, like Gecko) Chrome/5.0.375.99 Safari/533.4"
87.229.51.49 - - [03/Nov/2018:14:07:20 +0000] "GET /wp-includes/wp-caches.php HTTP/1.0" 404 223 "http://site.ru" "Mozilla/5.0 (Windows; U; Windows NT 5.1; en-US) AppleWebKit/533.4 (KHTML, like Gecko) Chrome/5.0.375.99 Safari/533.4"
34.221.152.227 - - [03/Nov/2018:14:55:13 +0000] "GET /wp-login.php HTTP/1.0" 200 2280 "https://www.google.com/url?5dbc53961246a3ebd5a882d37979a0c2" "Mozilla/5.0 (Windows NT 6.1; rv:33.0) Gecko/20100101 Firefox/33.0"
34.221.152.227 - - [03/Nov/2018:14:55:15 +0000] "POST /wp-login.php HTTP/1.0" 200 3271 "https://www.google.com/url?5dbc53961246a3ebd5a882d37979a0c2" "Mozilla/5.0 (Windows NT 6.1; rv:33.0) Gecko/20100101 Firefox/33.0"
31.170.123.73 - - [03/Nov/2018:14:55:17 +0000] "POST /wp-admin/admin-ajax.php?action=wp_1_wc_privacy_cleanup&nonce=8729451d29 HTTP/1.0" 200 - "http://gameworkforce.com/wp-admin/admin-ajax.php?action=wp_1_wc_privacy_cleanup&nonce=8729451d29" "WordPress/4.9.8; http://gameworkforce.com"
31.170.123.73 - - [03/Nov/2018:14:55:14 +0000] "POST /wp-cron.php?doing_wp_cron=1541256914.1320869922637939453125 HTTP/1.0" 200 - "http://gameworkforce.com/wp-cron.php?doing_wp_cron=1541256914.1320869922637939453125" "WordPress/4.9.8; http://gameworkforce.com"
77.232.66.165 - - [03/Nov/2018:16:10:37 +0000] "GET /wp-content/wp-caches.php HTTP/1.0" 404 222 "http://site.ru" "Mozilla/5.0 (Windows; U; Windows NT 5.1; en-US) AppleWebKit/533.4 (KHTML, like Gecko) Chrome/5.0.375.99 Safari/533.4"
77.232.66.165 - - [03/Nov/2018:16:10:40 +0000] "GET /wp-content/wp-caches.php HTTP/1.0" 404 222 "http://site.ru" "Mozilla/5.0 (Windows; U; Windows NT 5.1; en-US) AppleWebKit/533.4 (KHTML, like Gecko) Chrome/5.0.375.99 Safari/533.4"
66.249.66.142 - - [03/Nov/2018:16:37:59 +0000] "GET /wp-includes/js/jquery/ui/core.min.js?ver=1.11.4 HTTP/1.0" 200 4000 "http://gameworkforce.com/?job_listing_region=ontario" "Mozilla/5.0 (Linux; Android 6.0.1; Nexus 5X Build/MMB29P) AppleWebKit/537.36 (KHTML, like Gecko) Chrome/41.0.2272.96 Mobile Safari/537.36 (compatible; Googlebot/2.1; +http://www.google.com/bot.html)"
66.249.66.144 - - [03/Nov/2018:16:38:00 +0000] "GET /wp-includes/js/jquery/ui/mouse.min.js?ver=1.11.4 HTTP/1.0" 200 3148 "http://gameworkforce.com/?job_listing_region=ontario" "Mozilla/5.0 (Linux; Android 6.0.1; Nexus 5X Build/MMB29P) AppleWebKit/537.36 (KHTML, like Gecko) Chrome/41.0.2272.96 Mobile Safari/537.36 (compatible; Googlebot/2.1; +http://www.google.com/bot.html)"
66.249.66.146 - - [03/Nov/2018:16:38:03 +0000] "GET /wp-content/themes/jobify/js/jobify.min.js?ver=20170814 HTTP/1.0" 200 69401 "http://gameworkforce.com/?job_listing_region=ontario" "Mozilla/5.0 (Linux; Android 6.0.1; Nexus 5X Build/MMB29P) AppleWebKit/537.36 (KHTML, like Gecko) Chrome/41.0.2272.96 Mobile Safari/537.36 (compatible; Googlebot/2.1; +http://www.google.com/bot.html)"
66.249.66.142 - - [03/Nov/2018:16:38:08 +0000] "GET /wp-content/plugins/wp-job-manager/assets/js/jquery-chosen/chosen.jquery.min.js?ver=1.1.0 HTTP/1.0" 200 27347 "http://gameworkforce.com/?job_listing_region=ontario" "Mozilla/5.0 (Linux; Android 6.0.1; Nexus 5X Build/MMB29P) AppleWebKit/537.36 (KHTML, like Gecko) Chrome/41.0.2272.96 Mobile Safari/537.36 (compatible; Googlebot/2.1; +http://www.google.com/bot.html)"
66.249.66.144 - - [03/Nov/2018:16:38:09 +0000] "GET /wp-includes/js/underscore.min.js?ver=1.8.3 HTTP/1.0" 200 16410 "http://gameworkforce.com/?job_listing_region=ontario" "Mozilla/5.0 (Linux; Android 6.0.1; Nexus 5X Build/MMB29P) AppleWebKit/537.36 (KHTML, like Gecko) Chrome/41.0.2272.96 Mobile Safari/537.36 (compatible; Googlebot/2.1; +http://www.google.com/bot.html)"
31.170.123.73 - - [03/Nov/2018:16:39:16 +0000] "POST /wp-cron.php?doing_wp_cron=1541263156.1105639934539794921875 HTTP/1.0" 200 - "http://gameworkforce.com/wp-cron.php?doing_wp_cron=1541263156.1105639934539794921875" "WordPress/4.9.8; http://gameworkforce.com"
157.55.39.65 - - [03/Nov/2018:16:39:15 +0000] "GET /?page_id=72 HTTP/1.0" 200 72543 "-" "Mozilla/5.0 (compatible; bingbot/2.0; +http://www.bing.com/bingbot.htm)"
207.46.13.148 - - [03/Nov/2018:16:39:20 +0000] "GET /wp-content/plugins/woocommerce/assets/js/frontend/cart.min.js?ver=3.4.5 HTTP/1.0" 200 7571 "-" "Mozilla/5.0 (compatible; bingbot/2.0; +http://www.bing.com/bingbot.htm)"
157.55.39.65 - - [03/Nov/2018:16:39:25 +0000] "GET /wp-content/plugins/woocommerce/assets/js/selectWoo/selectWoo.full.min.js?ver=1.0.4 HTTP/1.0" 200 77070 "-" "Mozilla/5.0 (compatible; bingbot/2.0; +http://www.bing.com/bingbot.htm)"
157.55.39.65 - - [03/Nov/2018:16:39:25 +0000] "GET /wp-admin/js/password-strength-meter.min.js?ver=4.9.8 HTTP/1.0" 200 784 "-" "Mozilla/5.0 (compatible; bingbot/2.0; +http://www.bing.com/bingbot.htm)"
157.55.39.234 - - [03/Nov/2018:16:39:29 +0000] "GET /wp-content/plugins/woocommerce/assets/js/frontend/address-i18n.min.js?ver=3.4.5 HTTP/1.0" 200 2316 "-" "Mozilla/5.0 (compatible; bingbot/2.0; +http://www.bing.com/bingbot.htm)"
207.46.13.48 - - [03/Nov/2018:16:39:34 +0000] "GET /wp-content/plugins/woocommerce/assets/css/select2.css?ver=3.4.5 HTTP/1.0" 200 14938 "-" "Mozilla/5.0 (compatible; bingbot/2.0; +http://www.bing.com/bingbot.htm)"
207.46.13.48 - - [03/Nov/2018:16:39:34 +0000] "GET /wp-includes/js/zxcvbn-async.min.js?ver=1.0 HTTP/1.0" 200 324 "-" "Mozilla/5.0 (compatible; bingbot/2.0; +http://www.bing.com/bingbot.htm)"
207.46.13.48 - - [03/Nov/2018:16:39:34 +0000] "GET /wp-content/plugins/woocommerce/assets/js/frontend/country-select.min.js?ver=3.4.5 HTTP/1.0" 200 3134 "-" "Mozilla/5.0 (compatible; bingbot/2.0; +http://www.bing.com/bingbot.htm)"
207.46.13.48 - - [03/Nov/2018:16:39:35 +0000] "GET /wp-content/plugins/woocommerce/assets/js/frontend/password-strength-meter.min.js?ver=3.4.5 HTTP/1.0" 200 1974 "-" "Mozilla/5.0 (compatible; bingbot/2.0; +http://www.bing.com/bingbot.htm)"
104.238.96.125 - - [03/Nov/2018:16:59:36 +0000] "GET /_.php HTTP/1.0" 404 203 "http://site.ru" "Mozilla/5.0 (Windows; U; Windows NT 5.1; en-US) AppleWebKit/533.4 (KHTML, like Gecko) Chrome/5.0.375.99 Safari/533.4"
104.238.96.125 - - [03/Nov/2018:16:59:37 +0000] "GET /_.php HTTP/1.0" 404 203 "http://site.ru" "Mozilla/5.0 (Windows; U; Windows NT 5.1; en-US) AppleWebKit/533.4 (KHTML, like Gecko) Chrome/5.0.375.99 Safari/533.4"
104.238.96.125 - - [03/Nov/2018:16:59:41 +0000] "GET /_.php HTTP/1.0" 404 203 "http://site.ru" "Mozilla/5.0 (Windows; U; Windows NT 5.1; en-US) AppleWebKit/533.4 (KHTML, like Gecko) Chrome/5.0.375.99 Safari/533.4"
207.46.13.48 - - [03/Nov/2018:17:40:33 +0000] "GET /wp-content/themes/jobify/fonts/ionicons.svg?v=2.0.0 HTTP/1.0" 200 333834 "-" "Mozilla/5.0 (compatible; bingbot/2.0; +http://www.bing.com/bingbot.htm)"
207.46.13.48 - - [03/Nov/2018:17:40:34 +0000] "GET /wp-content/themes/jobify/fonts/ionicons.ttf?v=2.0.0 HTTP/1.0" 200 188508 "-" "Mozilla/5.0 (compatible; bingbot/2.0; +http://www.bing.com/bingbot.htm)"
157.55.39.65 - - [03/Nov/2018:17:40:37 +0000] "GET /wp-includes/js/zxcvbn.min.js HTTP/1.0" 200 822202 "-" "Mozilla/5.0 (compatible; bingbot/2.0; +http://www.bing.com/bingbot.htm)"
31.170.123.73 - - [03/Nov/2018:17:40:43 +0000] "POST /wp-cron.php?doing_wp_cron=1541266843.6634440422058105468750 HTTP/1.0" 200 - "http://gameworkforce.com/wp-cron.php?doing_wp_cron=1541266843.6634440422058105468750" "WordPress/4.9.8; http://gameworkforce.com"
207.46.13.148 - - [03/Nov/2018:17:40:43 +0000] "GET /?wc-ajax=get_refreshed_fragments HTTP/1.0" 200 210 "-" "Mozilla/5.0 (compatible; bingbot/2.0; +http://www.bing.com/bingbot.htm)"
66.249.66.146 - - [03/Nov/2018:19:21:38 +0000] "GET /robots.txt HTTP/1.0" 404 208 "-" "Mozilla/5.0 (compatible; Googlebot/2.1; +http://www.google.com/bot.html)"
66.249.66.142 - - [03/Nov/2018:19:21:43 +0000] "GET /wp-content/plugins/woocommerce/assets/js/js-cookie/js.cookie.min.js?ver=2.1.4 HTTP/1.0" 200 1846 "http://gameworkforce.com/?page_id=85" "Mozilla/5.0 AppleWebKit/537.36 (KHTML, like Gecko; compatible; Googlebot/2.1; +http://www.google.com/bot.html) Safari/537.36"
66.249.66.142 - - [03/Nov/2018:19:21:48 +0000] "GET /wp-content/plugins/wp-job-manager/assets/js/jquery-chosen/chosen.jquery.min.js?ver=1.1.0 HTTP/1.0" 200 27347 "http://gameworkforce.com/?page_id=85" "Mozilla/5.0 AppleWebKit/537.36 (KHTML, like Gecko; compatible; Googlebot/2.1; +http://www.google.com/bot.html) Safari/537.36"
66.249.66.142 - - [03/Nov/2018:19:21:49 +0000] "GET /wp-content/plugins/wp-job-manager/assets/js/term-multiselect.min.js?ver=1.31.0 HTTP/1.0" 200 105 "http://gameworkforce.com/?page_id=85" "Mozilla/5.0 AppleWebKit/537.36 (KHTML, like Gecko; compatible; Googlebot/2.1; +http://www.google.com/bot.html) Safari/537.36"
66.249.66.146 - - [03/Nov/2018:21:21:59 +0000] "GET /wp-includes/js/jquery/jquery.js?ver=1.12.4 HTTP/1.0" 200 97184 "http://gameworkforce.com/?p=21" "Mozilla/5.0 AppleWebKit/537.36 (KHTML, like Gecko; compatible; Googlebot/2.1; +http://www.google.com/bot.html) Safari/537.36"
66.249.66.142 - - [03/Nov/2018:21:22:01 +0000] "GET /wp-content/plugins/woocommerce/assets/css/woocommerce-layout.css?ver=3.4.2 HTTP/1.0" 200 16542 "http://gameworkforce.com/?p=21" "Mozilla/5.0 AppleWebKit/537.36 (KHTML, like Gecko; compatible; Googlebot/2.1; +http://www.google.com/bot.html) Safari/537.36"
81.88.49.33 - - [03/Nov/2018:22:11:43 +0000] "GET /xmlrpz.php HTTP/1.0" 404 208 "http://site.ru" "Mozilla/5.0 (Windows; U; Windows NT 5.1; en-US) AppleWebKit/533.4 (KHTML, like Gecko) Chrome/5.0.375.99 Safari/533.4"
81.88.49.34 - - [03/Nov/2018:22:11:47 +0000] "GET /xmlrpz.php HTTP/1.0" 404 208 "http://site.ru" "Mozilla/5.0 (Windows; U; Windows NT 5.1; en-US) AppleWebKit/533.4 (KHTML, like Gecko) Chrome/5.0.375.99 Safari/533.4"
50.62.30.5 - - [03/Nov/2018:22:14:45 +0000] "GET /wp-content/plugins/Aviliate/user.php HTTP/1.0" 404 234 "http://site.ru" "Mozilla/5.0 (Windows; U; Windows NT 5.1; en-US) AppleWebKit/533.4 (KHTML, like Gecko) Chrome/5.0.375.99 Safari/533.4"
50.62.30.5 - - [03/Nov/2018:22:14:50 +0000] "GET /wp-content/plugins/Aviliate/user.php HTTP/1.0" 404 234 "http://site.ru" "Mozilla/5.0 (Windows; U; Windows NT 5.1; en-US) AppleWebKit/533.4 (KHTML, like Gecko) Chrome/5.0.375.99 Safari/533.4"
52.173.241.248 - - [03/Nov/2018:23:01:00 +0000] "GET / HTTP/1.0" 200 34616 "-" "Mozilla/5.0 (X11; Ubuntu; Linux x86_64; rv:59.0) Gecko/20100101 Firefox/59.0"
31.170.123.73 - - [03/Nov/2018:23:01:01 +0000] "POST /wp-cron.php?doing_wp_cron=1541286061.2937169075012207031250 HTTP/1.0" 200 - "http://gameworkforce.com/wp-cron.php?doing_wp_cron=1541286061.2937169075012207031250" "WordPress/4.9.8; http://gameworkforce.com"
31.170.123.73 - - [04/Nov/2018:00:07:34 +0000] "POST /wp-cron.php?doing_wp_cron=1541290054.3201639652252197265625 HTTP/1.0" 200 - "http://gameworkforce.com/wp-cron.php?doing_wp_cron=1541290054.3201639652252197265625" "WordPress/4.9.8; http://gameworkforce.com"
62.210.83.78 - - [04/Nov/2018:00:07:33 +0000] "GET / HTTP/1.0" 200 65588 "-" "Mozilla/5.0 (Macintosh; Intel Mac OS X 10.13; rv:62.0) Gecko/20100101 Firefox/62.0"
89.253.192.158 - - [04/Nov/2018:01:05:39 +0000] "GET /wp-content/plugins/html404/wso25.php HTTP/1.0" 404 234 "http://site.ru" "Mozilla/5.0 (Windows; U; Windows NT 5.1; en-US) AppleWebKit/533.4 (KHTML, like Gecko) Chrome/5.0.375.99 Safari/533.4"
89.253.192.194 - - [04/Nov/2018:01:05:57 +0000] "GET /wp-content/plugins/html404/wso25.php HTTP/1.0" 404 234 "http://site.ru" "Mozilla/5.0 (Windows; U; Windows NT 5.1; en-US) AppleWebKit/533.4 (KHTML, like Gecko) Chrome/5.0.375.99 Safari/533.4"
81.88.49.15 - - [04/Nov/2018:01:25:23 +0000] "GET /wp-content/plugins/wp-seo/wp-seo.php HTTP/1.0" 404 234 "http://site.ru" "Mozilla/5.0 (Windows; U; Windows NT 5.1; en-US) AppleWebKit/533.4 (KHTML, like Gecko) Chrome/5.0.375.99 Safari/533.4"
31.170.123.73 - - [04/Nov/2018:02:45:43 +0000] "POST /wp-cron.php?doing_wp_cron=1541299543.2821888923645019531250 HTTP/1.0" 200 - "http://gameworkforce.com/wp-cron.php?doing_wp_cron=1541299543.2821888923645019531250" "WordPress/4.9.8; http://gameworkforce.com"
54.190.134.249 - - [04/Nov/2018:02:45:42 +0000] "GET /wp-login.php HTTP/1.0" 200 2280 "https://www.google.com/url?5dbc53961246a3ebd5a882d37979a0c2" "Mozilla/5.0 (Windows NT 6.1; WOW64; rv:29.0) Gecko/20120101 Firefox/29.0"
54.190.134.249 - - [04/Nov/2018:02:45:44 +0000] "POST /wp-login.php HTTP/1.0" 200 3271 "https://www.google.com/url?5dbc53961246a3ebd5a882d37979a0c2" "Mozilla/5.0 (Windows NT 6.1; WOW64; rv:29.0) Gecko/20120101 Firefox/29.0"
