31.170.123.73 - - [04/Nov/2018:04:05:01 +0000] "POST /wp-cron.php?doing_wp_cron=1541304301.0823090076446533203125 HTTP/1.0" 200 - "-" "WordPress/4.3.17; http://www.ikbensterdam.com"
13.66.139.1 - - [04/Nov/2018:04:05:00 +0000] "GET /robots.txt HTTP/1.0" 200 35 "-" "Mozilla/5.0 (compatible; bingbot/2.0; +http://www.bing.com/bingbot.htm)"
13.66.139.0 - - [04/Nov/2018:04:05:05 +0000] "GET / HTTP/1.0" 200 48668 "-" "Mozilla/5.0 (compatible; bingbot/2.0; +http://www.bing.com/bingbot.htm)"
40.77.193.63 - - [04/Nov/2018:04:05:15 +0000] "GET /wp-includes/js/wp-emoji-release.min.js?ver=4.3.17 HTTP/1.0" 200 15930 "-" "Mozilla/5.0 (Windows NT 6.1; WOW64) AppleWebKit/534+ (KHTML, like Gecko) BingPreview/1.0b"
40.77.195.95 - - [04/Nov/2018:04:05:16 +0000] "GET /wp-content/plugins/designthemes-core-features/shortcodes/css/animations.css?ver=4.3.17 HTTP/1.0" 200 79850 "-" "Mozilla/5.0 (Windows NT 6.1; WOW64) AppleWebKit/534+ (KHTML, like Gecko) BingPreview/1.0b"
40.77.192.68 - - [04/Nov/2018:04:05:18 +0000] "GET /wp-content/plugins/designthemes-core-features/shortcodes/css/shortcodes.css?ver=4.3.17 HTTP/1.0" 200 126661 "-" "Mozilla/5.0 (Windows NT 6.1; WOW64) AppleWebKit/534+ (KHTML, like Gecko) BingPreview/1.0b"
40.77.194.83 - - [04/Nov/2018:04:05:20 +0000] "GET /wp-content/plugins/designthemes-core-features/page-builder/css/animations.css?ver=4.3.17 HTTP/1.0" 200 79724 "-" "Mozilla/5.0 (Windows NT 6.1; WOW64) AppleWebKit/534+ (KHTML, like Gecko) BingPreview/1.0b"
40.77.253.124 - - [04/Nov/2018:04:05:22 +0000] "GET /wp-content/themes/lms/framework/woocommerce/style.css?ver=4.3.17 HTTP/1.0" 200 81958 "-" "Mozilla/5.0 (Windows NT 6.1; WOW64) AppleWebKit/534+ (KHTML, like Gecko) BingPreview/1.0b"
40.77.193.86 - - [04/Nov/2018:04:05:23 +0000] "GET /wp-content/plugins/mega_main_menu/src/css/cache.skin.css?ver=4.3.17 HTTP/1.0" 200 95131 "-" "Mozilla/5.0 (Windows NT 6.1; WOW64) AppleWebKit/534+ (KHTML, like Gecko) BingPreview/1.0b"
40.77.193.63 - - [04/Nov/2018:04:05:25 +0000] "GET /wp-content/plugins/LayerSlider/static/css/layerslider.css?ver=5.6.2 HTTP/1.0" 200 15708 "-" "Mozilla/5.0 (Windows NT 6.1; WOW64) AppleWebKit/534+ (KHTML, like Gecko) BingPreview/1.0b"
40.77.252.74 - - [04/Nov/2018:04:05:26 +0000] "GET /wp-content/themes/lms/css/buddypress.css?ver=2.4.4 HTTP/1.0" 200 50996 "-" "Mozilla/5.0 (Windows NT 6.1; WOW64) AppleWebKit/534+ (KHTML, like Gecko) BingPreview/1.0b"
40.77.192.134 - - [04/Nov/2018:04:05:27 +0000] "GET /wp-content/plugins/contact-form-7/includes/css/styles.css?ver=4.3.1 HTTP/1.0" 200 1099 "-" "Mozilla/5.0 (Windows NT 6.1; WOW64) AppleWebKit/534+ (KHTML, like Gecko) BingPreview/1.0b"
40.77.253.41 - - [04/Nov/2018:04:05:28 +0000] "GET /wp-content/plugins/responsive-maps-plugin/includes/css/resmap.min.css?ver=2.29 HTTP/1.0" 200 707 "-" "Mozilla/5.0 (Windows NT 6.1; WOW64) AppleWebKit/534+ (KHTML, like Gecko) BingPreview/1.0b"
40.77.252.213 - - [04/Nov/2018:04:05:29 +0000] "GET /wp-content/plugins/revslider/rs-plugin/css/settings.css?ver=4.6.93 HTTP/1.0" 200 55177 "-" "Mozilla/5.0 (Windows NT 6.1; WOW64) AppleWebKit/534+ (KHTML, like Gecko) BingPreview/1.0b"
40.77.252.171 - - [04/Nov/2018:04:05:31 +0000] "GET /wp-content/plugins/wp-postratings/postratings-css.css?ver=1.83 HTTP/1.0" 200 1058 "-" "Mozilla/5.0 (Windows NT 6.1; WOW64) AppleWebKit/534+ (KHTML, like Gecko) BingPreview/1.0b"
40.77.192.98 - - [04/Nov/2018:04:05:31 +0000] "GET /wp-content/plugins/yith-woocommerce-compare/assets/css/colorbox.css?ver=4.3.17 HTTP/1.0" 200 3941 "-" "Mozilla/5.0 (Windows NT 6.1; WOW64) AppleWebKit/534+ (KHTML, like Gecko) BingPreview/1.0b"
40.77.194.193 - - [04/Nov/2018:04:05:32 +0000] "GET /wp-content/plugins/yith-woocommerce-quick-view/assets/css/yith-quick-view.css?ver=4.3.17 HTTP/1.0" 200 3058 "-" "Mozilla/5.0 (Windows NT 6.1; WOW64) AppleWebKit/534+ (KHTML, like Gecko) BingPreview/1.0b"
40.77.192.236 - - [04/Nov/2018:04:05:33 +0000] "GET /wp-content/plugins/woocommerce/assets/css/prettyPhoto.css?ver=3.1.6 HTTP/1.0" 200 8677 "-" "Mozilla/5.0 (Windows NT 6.1; WOW64) AppleWebKit/534+ (KHTML, like Gecko) BingPreview/1.0b"
40.77.193.71 - - [04/Nov/2018:04:05:34 +0000] "GET /wp-content/plugins/yith-woocommerce-wishlist/assets/css/jquery.selectBox.css?ver=1.2.0 HTTP/1.0" 200 3572 "-" "Mozilla/5.0 (Windows NT 6.1; WOW64) AppleWebKit/534+ (KHTML, like Gecko) BingPreview/1.0b"
40.77.193.206 - - [04/Nov/2018:04:05:35 +0000] "GET /wp-content/plugins/yith-woocommerce-wishlist/assets/css/style.css?ver=2.0.13 HTTP/1.0" 200 14197 "-" "Mozilla/5.0 (Windows NT 6.1; WOW64) AppleWebKit/534+ (KHTML, like Gecko) BingPreview/1.0b"
40.77.193.53 - - [04/Nov/2018:04:05:36 +0000] "GET /wp-content/plugins/yith-woocommerce-wishlist/assets/css/font-awesome.min.css?ver=4.3.0 HTTP/1.0" 200 23775 "-" "Mozilla/5.0 (Windows NT 6.1; WOW64) AppleWebKit/534+ (KHTML, like Gecko) BingPreview/1.0b"
40.77.192.134 - - [04/Nov/2018:04:05:38 +0000] "GET /wp-content/plugins/mega_main_menu/framework/src/css/icomoon.css?ver=2.1.1 HTTP/1.0" 200 64663 "-" "Mozilla/5.0 (Windows NT 6.1; WOW64) AppleWebKit/534+ (KHTML, like Gecko) BingPreview/1.0b"
40.77.194.63 - - [04/Nov/2018:04:05:39 +0000] "GET /wp-content/plugins/js_composer/assets/css/js_composer.min.css?ver=4.8.0.1 HTTP/1.0" 200 720022 "-" "Mozilla/5.0 (Windows NT 6.1; WOW64) AppleWebKit/534+ (KHTML, like Gecko) BingPreview/1.0b"
40.77.192.210 - - [04/Nov/2018:04:05:39 +0000] "GET /wp-content/plugins/masterslider/public/assets/css/masterslider.main.css?ver=2.20.4 HTTP/1.0" 200 74007 "-" "Mozilla/5.0 (Windows NT 6.1; WOW64) AppleWebKit/534+ (KHTML, like Gecko) BingPreview/1.0b"
40.77.192.98 - - [04/Nov/2018:04:05:41 +0000] "GET /wp-content/uploads/masterslider/custom.css?ver=1.1 HTTP/1.0" 200 266 "-" "Mozilla/5.0 (Windows NT 6.1; WOW64) AppleWebKit/534+ (KHTML, like Gecko) BingPreview/1.0b"
40.77.194.193 - - [04/Nov/2018:04:05:42 +0000] "GET /wp-content/themes/lms/style.css?ver=4.3.17 HTTP/1.0" 200 126488 "-" "Mozilla/5.0 (Windows NT 6.1; WOW64) AppleWebKit/534+ (KHTML, like Gecko) BingPreview/1.0b"
40.77.253.123 - - [04/Nov/2018:04:05:43 +0000] "GET /wp-content/themes/lms/css/font-awesome.min.css?ver=4.3.17 HTTP/1.0" 200 27466 "-" "Mozilla/5.0 (Windows NT 6.1; WOW64) AppleWebKit/534+ (KHTML, like Gecko) BingPreview/1.0b"
40.77.195.189 - - [04/Nov/2018:04:05:44 +0000] "GET /wp-content/themes/lms/css/stroke-gap-icons.min.css?ver=4.3.17 HTTP/1.0" 200 113745 "-" "Mozilla/5.0 (Windows NT 6.1; WOW64) AppleWebKit/534+ (KHTML, like Gecko) BingPreview/1.0b"
40.77.195.36 - - [04/Nov/2018:04:05:46 +0000] "GET /wp-content/themes/lms/skins/white-gray/style.css?ver=4.3.17 HTTP/1.0" 200 47738 "-" "Mozilla/5.0 (Windows NT 6.1; WOW64) AppleWebKit/534+ (KHTML, like Gecko) BingPreview/1.0b"
40.77.193.119 - - [04/Nov/2018:04:05:47 +0000] "GET /wp-content/themes/lms/responsive.css?ver=4.3.17 HTTP/1.0" 200 118912 "-" "Mozilla/5.0 (Windows NT 6.1; WOW64) AppleWebKit/534+ (KHTML, like Gecko) BingPreview/1.0b"
40.77.193.137 - - [04/Nov/2018:04:05:56 +0000] "GET /wp-includes/js/jquery/jquery.js?ver=1.11.3 HTTP/1.0" 200 95977 "-" "Mozilla/5.0 (Windows NT 6.1; WOW64) AppleWebKit/534+ (KHTML, like Gecko) BingPreview/1.0b"
40.77.252.174 - - [04/Nov/2018:04:05:58 +0000] "GET /wp-includes/js/jquery/jquery-migrate.min.js?ver=1.2.1 HTTP/1.0" 200 7200 "-" "Mozilla/5.0 (Windows NT 6.1; WOW64) AppleWebKit/534+ (KHTML, like Gecko) BingPreview/1.0b"
40.77.192.191 - - [04/Nov/2018:04:05:59 +0000] "GET /wp-content/plugins/LayerSlider/static/js/greensock.js?ver=1.11.8 HTTP/1.0" 200 59709 "-" "Mozilla/5.0 (Windows NT 6.1; WOW64) AppleWebKit/534+ (KHTML, like Gecko) BingPreview/1.0b"
31.170.123.73 - - [04/Nov/2018:04:58:26 +0000] "POST /wp-cron.php?doing_wp_cron=1541307506.4134619235992431640625 HTTP/1.0" 200 - "-" "WordPress/4.3.17; http://www.ikbensterdam.com"
97.74.228.245 - - [04/Nov/2018:04:58:25 +0000] "POST /xmlrpc.php HTTP/1.0" 200 403 "-" "Mozilla/5.0 (Macintosh; U; Intel Mac OS X 10.6; fr; rv:1.9.2.8) Gecko/20100722 Firefox/3.6.8"
193.201.224.210 - - [04/Nov/2018:05:57:22 +0000] "GET /wp-content/plugins/reflex-gallery/admin/scripts/FileUploader/php.php HTTP/1.0" 301 - "http://ikbensterdam.com/wp-content/plugins/reflex-gallery/admin/scripts/FileUploader/php.php" "Mozilla/5.0 (Windows NT 6.1; WOW64) AppleWebKit/537.36 (KHTML, like Gecko) Chrome/42.0.2311.152 Safari/537.36"
31.170.123.73 - - [04/Nov/2018:05:57:23 +0000] "POST /wp-cron.php?doing_wp_cron=1541311042.5631649494171142578125 HTTP/1.0" 200 - "-" "WordPress/4.3.17; http://www.ikbensterdam.com"
193.201.224.210 - - [04/Nov/2018:05:57:24 +0000] "GET /wp-content/plugins/reflex-gallery/admin/scripts/FileUploader/php.php HTTP/1.0" 404 35421 "http://ikbensterdam.com/wp-content/plugins/reflex-gallery/admin/scripts/FileUploader/php.php" "Mozilla/5.0 (Windows NT 6.1; WOW64) AppleWebKit/537.36 (KHTML, like Gecko) Chrome/42.0.2311.152 Safari/537.36"
54.89.238.135 - - [04/Nov/2018:06:19:32 +0000] "GET /wp-login.php HTTP/1.0" 200 7079 "https://www.google.com/url?48c1bb7daf35faf37570d1bad88963f8" "Mozilla/5.0 (Windows NT 6.0; rv:31.0) Gecko/20100101 Firefox/31.0"
54.89.238.135 - - [04/Nov/2018:06:19:33 +0000] "POST /wp-login.php HTTP/1.0" 200 8073 "https://www.google.com/url?48c1bb7daf35faf37570d1bad88963f8" "Mozilla/5.0 (Windows NT 6.0; rv:31.0) Gecko/20100101 Firefox/31.0"
97.74.228.245 - - [04/Nov/2018:07:11:51 +0000] "POST /xmlrpc.php HTTP/1.0" 200 403 "-" "Mozilla/5.0 (Macintosh; U; Intel Mac OS X 10.6; fr; rv:1.9.2.8) Gecko/20100722 Firefox/3.6.8"
31.170.123.73 - - [04/Nov/2018:07:11:51 +0000] "POST /wp-cron.php?doing_wp_cron=1541315511.8282749652862548828125 HTTP/1.0" 200 - "-" "WordPress/4.3.17; http://www.ikbensterdam.com"
216.244.66.247 - - [04/Nov/2018:07:12:06 +0000] "GET /robots.txt HTTP/1.0" 200 35 "-" "Mozilla/5.0 (compatible; DotBot/1.1; http://www.opensiteexplorer.org/dotbot, help@moz.com)"
2a03:2880:30ff:c::face:b00c - - [04/Nov/2018:07:33:43 +0000] "GET /robots.txt HTTP/1.0" 200 35 "-" "facebookexternalhit/1.1 (+http://www.facebook.com/externalhit_uatext.php)"
52.165.166.139 - - [04/Nov/2018:07:34:19 +0000] "GET / HTTP/1.0" 301 - "-" "Mozilla/5.0 (Macintosh; Intel Mac OS X 10_13_3) AppleWebKit/537.36 (KHTML, like Gecko) Chrome/65.0.3325.162 Safari/537.36"
212.72.183.4 - - [04/Nov/2018:07:35:00 +0000] "GET /wp-admin/wp-caches.php HTTP/1.0" 301 - "http://site.ru" "Mozilla/5.0 (Windows; U; Windows NT 5.1; en-US) AppleWebKit/533.4 (KHTML, like Gecko) Chrome/5.0.375.99 Safari/533.4"
212.72.183.4 - - [04/Nov/2018:07:35:01 +0000] "GET /wp-admin/wp-caches.php HTTP/1.0" 404 35217 "http://site.ru" "Mozilla/5.0 (Windows; U; Windows NT 5.1; en-US) AppleWebKit/533.4 (KHTML, like Gecko) Chrome/5.0.375.99 Safari/533.4"
212.72.183.4 - - [04/Nov/2018:07:35:05 +0000] "GET /wp-admin/wp-caches.php HTTP/1.0" 301 - "http://site.ru" "Mozilla/5.0 (Windows; U; Windows NT 5.1; en-US) AppleWebKit/533.4 (KHTML, like Gecko) Chrome/5.0.375.99 Safari/533.4"
212.72.183.4 - - [04/Nov/2018:07:35:06 +0000] "GET /wp-admin/wp-caches.php HTTP/1.0" 404 35217 "http://site.ru" "Mozilla/5.0 (Windows; U; Windows NT 5.1; en-US) AppleWebKit/533.4 (KHTML, like Gecko) Chrome/5.0.375.99 Safari/533.4"
216.244.66.247 - - [04/Nov/2018:07:40:01 +0000] "GET /shop/feed/?product_cat=girls HTTP/1.0" 200 2545 "-" "Mozilla/5.0 (compatible; DotBot/1.1; http://www.opensiteexplorer.org/dotbot, help@moz.com)"
2a03:2880:ff:1b::face:b00c - - [04/Nov/2018:07:45:29 +0000] "GET / HTTP/1.0" 301 - "-" "Mozilla/5.0 (Windows NT 10.0; Win64; x64) AppleWebKit/537.36 (KHTML, like Gecko) Chrome/64.0.3282.140 Safari/537.36 Edge/17.17134"
2a03:2880:ff:25::face:b00c - - [04/Nov/2018:07:45:30 +0000] "GET / HTTP/1.0" 200 48668 "-" "Mozilla/5.0 (Windows NT 10.0; Win64; x64) AppleWebKit/537.36 (KHTML, like Gecko) Chrome/64.0.3282.140 Safari/537.36 Edge/17.17134"
2a03:2880:ff:25::face:b00c - - [04/Nov/2018:07:45:31 +0000] "GET /wp-content/plugins/designthemes-core-features/shortcodes/css/animations.css?ver=4.3.17 HTTP/1.0" 200 79850 "http://www.ikbensterdam.com/" "Mozilla/5.0 (Windows NT 10.0; Win64; x64) AppleWebKit/537.36 (KHTML, like Gecko) Chrome/64.0.3282.140 Safari/537.36 Edge/17.17134"
2a03:2880:ff:25::face:b00c - - [04/Nov/2018:07:45:32 +0000] "GET /wp-content/themes/lms/css/buddypress.css?ver=2.4.4 HTTP/1.0" 200 50996 "http://www.ikbensterdam.com/" "Mozilla/5.0 (Windows NT 10.0; Win64; x64) AppleWebKit/537.36 (KHTML, like Gecko) Chrome/64.0.3282.140 Safari/537.36 Edge/17.17134"
2a03:2880:ff:25::face:b00c - - [04/Nov/2018:07:45:32 +0000] "GET /wp-content/plugins/contact-form-7/includes/css/styles.css?ver=4.3.1 HTTP/1.0" 200 1099 "http://www.ikbensterdam.com/" "Mozilla/5.0 (Windows NT 10.0; Win64; x64) AppleWebKit/537.36 (KHTML, like Gecko) Chrome/64.0.3282.140 Safari/537.36 Edge/17.17134"
2a03:2880:ff:25::face:b00c - - [04/Nov/2018:07:45:32 +0000] "GET /wp-content/plugins/responsive-maps-plugin/includes/css/resmap.min.css?ver=2.29 HTTP/1.0" 200 707 "http://www.ikbensterdam.com/" "Mozilla/5.0 (Windows NT 10.0; Win64; x64) AppleWebKit/537.36 (KHTML, like Gecko) Chrome/64.0.3282.140 Safari/537.36 Edge/17.17134"
2a03:2880:ff:23::face:b00c - - [04/Nov/2018:07:45:32 +0000] "GET /wp-content/plugins/designthemes-core-features/page-builder/css/animations.css?ver=4.3.17 HTTP/1.0" 200 79724 "http://www.ikbensterdam.com/" "Mozilla/5.0 (Windows NT 10.0; Win64; x64) AppleWebKit/537.36 (KHTML, like Gecko) Chrome/64.0.3282.140 Safari/537.36 Edge/17.17134"
2a03:2880:ff:8::face:b00c - - [04/Nov/2018:07:45:32 +0000] "GET /wp-content/plugins/mega_main_menu/src/css/cache.skin.css?ver=4.3.17 HTTP/1.0" 200 95131 "http://www.ikbensterdam.com/" "Mozilla/5.0 (Windows NT 10.0; Win64; x64) AppleWebKit/537.36 (KHTML, like Gecko) Chrome/64.0.3282.140 Safari/537.36 Edge/17.17134"
2a03:2880:ff:11::face:b00c - - [04/Nov/2018:07:45:32 +0000] "GET /wp-content/themes/lms/framework/woocommerce/style.css?ver=4.3.17 HTTP/1.0" 200 81958 "http://www.ikbensterdam.com/" "Mozilla/5.0 (Windows NT 10.0; Win64; x64) AppleWebKit/537.36 (KHTML, like Gecko) Chrome/64.0.3282.140 Safari/537.36 Edge/17.17134"
2a03:2880:ff:23::face:b00c - - [04/Nov/2018:07:45:32 +0000] "GET /wp-content/plugins/wp-postratings/postratings-css.css?ver=1.83 HTTP/1.0" 200 1058 "http://www.ikbensterdam.com/" "Mozilla/5.0 (Windows NT 10.0; Win64; x64) AppleWebKit/537.36 (KHTML, like Gecko) Chrome/64.0.3282.140 Safari/537.36 Edge/17.17134"
2a03:2880:ff:25::face:b00c - - [04/Nov/2018:07:45:32 +0000] "GET /wp-content/plugins/revslider/rs-plugin/css/settings.css?ver=4.6.93 HTTP/1.0" 200 55177 "http://www.ikbensterdam.com/" "Mozilla/5.0 (Windows NT 10.0; Win64; x64) AppleWebKit/537.36 (KHTML, like Gecko) Chrome/64.0.3282.140 Safari/537.36 Edge/17.17134"
2a03:2880:ff:19::face:b00c - - [04/Nov/2018:07:45:32 +0000] "GET /wp-content/plugins/designthemes-core-features/shortcodes/css/shortcodes.css?ver=4.3.17 HTTP/1.0" 200 126661 "http://www.ikbensterdam.com/" "Mozilla/5.0 (Windows NT 10.0; Win64; x64) AppleWebKit/537.36 (KHTML, like Gecko) Chrome/64.0.3282.140 Safari/537.36 Edge/17.17134"
2a03:2880:ff:14::face:b00c - - [04/Nov/2018:07:45:32 +0000] "GET /wp-content/plugins/LayerSlider/static/css/layerslider.css?ver=5.6.2 HTTP/1.0" 200 15708 "http://www.ikbensterdam.com/" "Mozilla/5.0 (Windows NT 10.0; Win64; x64) AppleWebKit/537.36 (KHTML, like Gecko) Chrome/64.0.3282.140 Safari/537.36 Edge/17.17134"
2a03:2880:ff:8::face:b00c - - [04/Nov/2018:07:45:32 +0000] "GET /wp-content/plugins/yith-woocommerce-compare/assets/css/colorbox.css?ver=4.3.17 HTTP/1.0" 200 3941 "http://www.ikbensterdam.com/" "Mozilla/5.0 (Windows NT 10.0; Win64; x64) AppleWebKit/537.36 (KHTML, like Gecko) Chrome/64.0.3282.140 Safari/537.36 Edge/17.17134"
2a03:2880:ff:23::face:b00c - - [04/Nov/2018:07:45:32 +0000] "GET /wp-content/plugins/yith-woocommerce-quick-view/assets/css/yith-quick-view.css?ver=4.3.17 HTTP/1.0" 200 3058 "http://www.ikbensterdam.com/" "Mozilla/5.0 (Windows NT 10.0; Win64; x64) AppleWebKit/537.36 (KHTML, like Gecko) Chrome/64.0.3282.140 Safari/537.36 Edge/17.17134"
2a03:2880:ff:11::face:b00c - - [04/Nov/2018:07:45:32 +0000] "GET /wp-content/plugins/yith-woocommerce-wishlist/assets/css/jquery.selectBox.css?ver=1.2.0 HTTP/1.0" 200 3572 "http://www.ikbensterdam.com/" "Mozilla/5.0 (Windows NT 10.0; Win64; x64) AppleWebKit/537.36 (KHTML, like Gecko) Chrome/64.0.3282.140 Safari/537.36 Edge/17.17134"
2a03:2880:ff:25::face:b00c - - [04/Nov/2018:07:45:32 +0000] "GET /wp-content/plugins/woocommerce/assets/css/prettyPhoto.css?ver=3.1.6 HTTP/1.0" 200 8677 "http://www.ikbensterdam.com/" "Mozilla/5.0 (Windows NT 10.0; Win64; x64) AppleWebKit/537.36 (KHTML, like Gecko) Chrome/64.0.3282.140 Safari/537.36 Edge/17.17134"
2a03:2880:ff:14::face:b00c - - [04/Nov/2018:07:45:32 +0000] "GET /wp-content/plugins/yith-woocommerce-wishlist/assets/css/style.css?ver=2.0.13 HTTP/1.0" 200 14197 "http://www.ikbensterdam.com/" "Mozilla/5.0 (Windows NT 10.0; Win64; x64) AppleWebKit/537.36 (KHTML, like Gecko) Chrome/64.0.3282.140 Safari/537.36 Edge/17.17134"
2a03:2880:ff:8::face:b00c - - [04/Nov/2018:07:45:32 +0000] "GET /wp-content/plugins/yith-woocommerce-wishlist/assets/css/font-awesome.min.css?ver=4.3.0 HTTP/1.0" 200 23775 "http://www.ikbensterdam.com/" "Mozilla/5.0 (Windows NT 10.0; Win64; x64) AppleWebKit/537.36 (KHTML, like Gecko) Chrome/64.0.3282.140 Safari/537.36 Edge/17.17134"
2a03:2880:ff:19::face:b00c - - [04/Nov/2018:07:45:32 +0000] "GET /wp-content/plugins/mega_main_menu/framework/src/css/icomoon.css?ver=2.1.1 HTTP/1.0" 200 64663 "http://www.ikbensterdam.com/" "Mozilla/5.0 (Windows NT 10.0; Win64; x64) AppleWebKit/537.36 (KHTML, like Gecko) Chrome/64.0.3282.140 Safari/537.36 Edge/17.17134"
2a03:2880:ff:23::face:b00c - - [04/Nov/2018:07:45:32 +0000] "GET /wp-content/plugins/js_composer/assets/css/js_composer.min.css?ver=4.8.0.1 HTTP/1.0" 200 720022 "http://www.ikbensterdam.com/" "Mozilla/5.0 (Windows NT 10.0; Win64; x64) AppleWebKit/537.36 (KHTML, like Gecko) Chrome/64.0.3282.140 Safari/537.36 Edge/17.17134"
2a03:2880:ff:11::face:b00c - - [04/Nov/2018:07:45:32 +0000] "GET /wp-content/plugins/masterslider/public/assets/css/masterslider.main.css?ver=2.20.4 HTTP/1.0" 200 74007 "http://www.ikbensterdam.com/" "Mozilla/5.0 (Windows NT 10.0; Win64; x64) AppleWebKit/537.36 (KHTML, like Gecko) Chrome/64.0.3282.140 Safari/537.36 Edge/17.17134"
2a03:2880:ff:25::face:b00c - - [04/Nov/2018:07:45:32 +0000] "GET /wp-content/uploads/masterslider/custom.css?ver=1.1 HTTP/1.0" 200 266 "http://www.ikbensterdam.com/" "Mozilla/5.0 (Windows NT 10.0; Win64; x64) AppleWebKit/537.36 (KHTML, like Gecko) Chrome/64.0.3282.140 Safari/537.36 Edge/17.17134"
2a03:2880:ff:14::face:b00c - - [04/Nov/2018:07:45:32 +0000] "GET /wp-content/themes/lms/style.css?ver=4.3.17 HTTP/1.0" 200 126488 "http://www.ikbensterdam.com/" "Mozilla/5.0 (Windows NT 10.0; Win64; x64) AppleWebKit/537.36 (KHTML, like Gecko) Chrome/64.0.3282.140 Safari/537.36 Edge/17.17134"
2a03:2880:ff:8::face:b00c - - [04/Nov/2018:07:45:32 +0000] "GET /wp-content/themes/lms/css/font-awesome.min.css?ver=4.3.17 HTTP/1.0" 200 27466 "http://www.ikbensterdam.com/" "Mozilla/5.0 (Windows NT 10.0; Win64; x64) AppleWebKit/537.36 (KHTML, like Gecko) Chrome/64.0.3282.140 Safari/537.36 Edge/17.17134"
2a03:2880:ff:19::face:b00c - - [04/Nov/2018:07:45:32 +0000] "GET /wp-content/themes/lms/css/stroke-gap-icons.min.css?ver=4.3.17 HTTP/1.0" 200 113745 "http://www.ikbensterdam.com/" "Mozilla/5.0 (Windows NT 10.0; Win64; x64) AppleWebKit/537.36 (KHTML, like Gecko) Chrome/64.0.3282.140 Safari/537.36 Edge/17.17134"
2a03:2880:ff:11::face:b00c - - [04/Nov/2018:07:45:32 +0000] "GET /wp-content/themes/lms/skins/white-gray/style.css?ver=4.3.17 HTTP/1.0" 200 47738 "http://www.ikbensterdam.com/" "Mozilla/5.0 (Windows NT 10.0; Win64; x64) AppleWebKit/537.36 (KHTML, like Gecko) Chrome/64.0.3282.140 Safari/537.36 Edge/17.17134"
2a03:2880:ff:25::face:b00c - - [04/Nov/2018:07:45:32 +0000] "GET /wp-content/themes/lms/responsive.css?ver=4.3.17 HTTP/1.0" 200 118912 "http://www.ikbensterdam.com/" "Mozilla/5.0 (Windows NT 10.0; Win64; x64) AppleWebKit/537.36 (KHTML, like Gecko) Chrome/64.0.3282.140 Safari/537.36 Edge/17.17134"
2a03:2880:ff:8::face:b00c - - [04/Nov/2018:07:45:33 +0000] "GET /wp-content/plugins/js_composer/assets/lib/prettyphoto/css/prettyPhoto.css?ver=4.8.0.1 HTTP/1.0" 200 27154 "http://www.ikbensterdam.com/" "Mozilla/5.0 (Windows NT 10.0; Win64; x64) AppleWebKit/537.36 (KHTML, like Gecko) Chrome/64.0.3282.140 Safari/537.36 Edge/17.17134"
2a03:2880:ff:11::face:b00c - - [04/Nov/2018:07:45:33 +0000] "GET /wp-content/plugins/js_composer/assets/lib/owl-carousel2-dist/assets/owl.carousel.css?ver=4.8.0.1 HTTP/1.0" 200 4578 "http://www.ikbensterdam.com/" "Mozilla/5.0 (Windows NT 10.0; Win64; x64) AppleWebKit/537.36 (KHTML, like Gecko) Chrome/64.0.3282.140 Safari/537.36 Edge/17.17134"
2a03:2880:ff:25::face:b00c - - [04/Nov/2018:07:45:33 +0000] "GET /wp-content/plugins/js_composer/assets/lib/owl-carousel2-dist/assets/owl.theme.default.css?ver=4.8.0.1 HTTP/1.0" 200 1394 "http://www.ikbensterdam.com/" "Mozilla/5.0 (Windows NT 10.0; Win64; x64) AppleWebKit/537.36 (KHTML, like Gecko) Chrome/64.0.3282.140 Safari/537.36 Edge/17.17134"
2a03:2880:ff:14::face:b00c - - [04/Nov/2018:07:45:33 +0000] "GET /wp-content/plugins/js_composer/assets/lib/bower/animate-css/animate.min.css?ver=4.8.0.1 HTTP/1.0" 200 53431 "http://www.ikbensterdam.com/" "Mozilla/5.0 (Windows NT 10.0; Win64; x64) AppleWebKit/537.36 (KHTML, like Gecko) Chrome/64.0.3282.140 Safari/537.36 Edge/17.17134"
2a03:2880:ff:23::face:b00c - - [04/Nov/2018:07:45:33 +0000] "GET /wp-content/themes/lms/css/prettyPhoto.css HTTP/1.0" 200 19891 "http://www.ikbensterdam.com/" "Mozilla/5.0 (Windows NT 10.0; Win64; x64) AppleWebKit/537.36 (KHTML, like Gecko) Chrome/64.0.3282.140 Safari/537.36 Edge/17.17134"
2a03:2880:ff:19::face:b00c - - [04/Nov/2018:07:45:33 +0000] "GET /wp-content/themes/lms/css/reset.css HTTP/1.0" 200 1364 "http://www.ikbensterdam.com/" "Mozilla/5.0 (Windows NT 10.0; Win64; x64) AppleWebKit/537.36 (KHTML, like Gecko) Chrome/64.0.3282.140 Safari/537.36 Edge/17.17134"
2a03:2880:ff:8::face:b00c - - [04/Nov/2018:07:45:33 +0000] "GET /wp-content/themes/lms/css/print.css HTTP/1.0" 200 697 "http://www.ikbensterdam.com/" "Mozilla/5.0 (Windows NT 10.0; Win64; x64) AppleWebKit/537.36 (KHTML, like Gecko) Chrome/64.0.3282.140 Safari/537.36 Edge/17.17134"
2a03:2880:ff:11::face:b00c - - [04/Nov/2018:07:45:33 +0000] "GET /wp-includes/js/jquery/jquery.js?ver=1.11.3 HTTP/1.0" 200 95977 "http://www.ikbensterdam.com/" "Mozilla/5.0 (Windows NT 10.0; Win64; x64) AppleWebKit/537.36 (KHTML, like Gecko) Chrome/64.0.3282.140 Safari/537.36 Edge/17.17134"
2a03:2880:ff:25::face:b00c - - [04/Nov/2018:07:45:33 +0000] "GET /wp-includes/js/jquery/jquery-migrate.min.js?ver=1.2.1 HTTP/1.0" 200 7200 "http://www.ikbensterdam.com/" "Mozilla/5.0 (Windows NT 10.0; Win64; x64) AppleWebKit/537.36 (KHTML, like Gecko) Chrome/64.0.3282.140 Safari/537.36 Edge/17.17134"
2a03:2880:ff:14::face:b00c - - [04/Nov/2018:07:45:33 +0000] "GET /wp-content/plugins/LayerSlider/static/js/greensock.js?ver=1.11.8 HTTP/1.0" 200 59709 "http://www.ikbensterdam.com/" "Mozilla/5.0 (Windows NT 10.0; Win64; x64) AppleWebKit/537.36 (KHTML, like Gecko) Chrome/64.0.3282.140 Safari/537.36 Edge/17.17134"
2a03:2880:ff:23::face:b00c - - [04/Nov/2018:07:45:33 +0000] "GET /wp-content/plugins/LayerSlider/static/js/layerslider.transitions.js?ver=5.6.2 HTTP/1.0" 200 21095 "http://www.ikbensterdam.com/" "Mozilla/5.0 (Windows NT 10.0; Win64; x64) AppleWebKit/537.36 (KHTML, like Gecko) Chrome/64.0.3282.140 Safari/537.36 Edge/17.17134"
2a03:2880:ff:19::face:b00c - - [04/Nov/2018:07:45:33 +0000] "GET /wp-content/plugins/LayerSlider/static/js/layerslider.kreaturamedia.jquery.js?ver=5.6.2 HTTP/1.0" 200 55315 "http://www.ikbensterdam.com/" "Mozilla/5.0 (Windows NT 10.0; Win64; x64) AppleWebKit/537.36 (KHTML, like Gecko) Chrome/64.0.3282.140 Safari/537.36 Edge/17.17134"
2a03:2880:ff:8::face:b00c - - [04/Nov/2018:07:45:33 +0000] "GET /wp-content/plugins/buddypress/bp-core/js/confirm.min.js?ver=2.4.4 HTTP/1.0" 200 220 "http://www.ikbensterdam.com/" "Mozilla/5.0 (Windows NT 10.0; Win64; x64) AppleWebKit/537.36 (KHTML, like Gecko) Chrome/64.0.3282.140 Safari/537.36 Edge/17.17134"
2a03:2880:ff:25::face:b00c - - [04/Nov/2018:07:45:33 +0000] "GET /wp-content/plugins/buddypress/bp-core/js/widget-members.min.js?ver=2.4.4 HTTP/1.0" 200 1070 "http://www.ikbensterdam.com/" "Mozilla/5.0 (Windows NT 10.0; Win64; x64) AppleWebKit/537.36 (KHTML, like Gecko) Chrome/64.0.3282.140 Safari/537.36 Edge/17.17134"
2a03:2880:ff:14::face:b00c - - [04/Nov/2018:07:45:33 +0000] "GET /wp-content/plugins/buddypress/bp-core/js/jquery-query.min.js?ver=2.4.4 HTTP/1.0" 200 218 "http://www.ikbensterdam.com/" "Mozilla/5.0 (Windows NT 10.0; Win64; x64) AppleWebKit/537.36 (KHTML, like Gecko) Chrome/64.0.3282.140 Safari/537.36 Edge/17.17134"
2a03:2880:ff:23::face:b00c - - [04/Nov/2018:07:45:33 +0000] "GET /wp-content/plugins/buddypress/bp-core/js/jquery-cookie.min.js?ver=2.4.4 HTTP/1.0" 200 1362 "http://www.ikbensterdam.com/" "Mozilla/5.0 (Windows NT 10.0; Win64; x64) AppleWebKit/537.36 (KHTML, like Gecko) Chrome/64.0.3282.140 Safari/537.36 Edge/17.17134"
2a03:2880:ff:19::face:b00c - - [04/Nov/2018:07:45:33 +0000] "GET /wp-content/plugins/buddypress/bp-core/js/jquery-scroll-to.min.js?ver=2.4.4 HTTP/1.0" 200 2290 "http://www.ikbensterdam.com/" "Mozilla/5.0 (Windows NT 10.0; Win64; x64) AppleWebKit/537.36 (KHTML, like Gecko) Chrome/64.0.3282.140 Safari/537.36 Edge/17.17134"
2a03:2880:ff:8::face:b00c - - [04/Nov/2018:07:45:33 +0000] "GET /wp-content/plugins/buddypress/bp-templates/bp-legacy/js/buddypress.min.js?ver=2.4.4 HTTP/1.0" 200 34751 "http://www.ikbensterdam.com/" "Mozilla/5.0 (Windows NT 10.0; Win64; x64) AppleWebKit/537.36 (KHTML, like Gecko) Chrome/64.0.3282.140 Safari/537.36 Edge/17.17134"
2a03:2880:ff:11::face:b00c - - [04/Nov/2018:07:45:33 +0000] "GET /wp-content/plugins/revslider/rs-plugin/js/jquery.themepunch.tools.min.js?ver=4.6.93 HTTP/1.0" 200 100482 "http://www.ikbensterdam.com/" "Mozilla/5.0 (Windows NT 10.0; Win64; x64) AppleWebKit/537.36 (KHTML, like Gecko) Chrome/64.0.3282.140 Safari/537.36 Edge/17.17134"
2a03:2880:ff:25::face:b00c - - [04/Nov/2018:07:45:33 +0000] "GET /wp-content/plugins/revslider/rs-plugin/js/jquery.themepunch.revolution.min.js?ver=4.6.93 HTTP/1.0" 200 110031 "http://www.ikbensterdam.com/" "Mozilla/5.0 (Windows NT 10.0; Win64; x64) AppleWebKit/537.36 (KHTML, like Gecko) Chrome/64.0.3282.140 Safari/537.36 Edge/17.17134"
2a03:2880:ff:14::face:b00c - - [04/Nov/2018:07:45:33 +0000] "GET /wp-content/plugins/woocommerce/assets/js/frontend/add-to-cart.min.js?ver=2.4.13 HTTP/1.0" 200 1734 "http://www.ikbensterdam.com/" "Mozilla/5.0 (Windows NT 10.0; Win64; x64) AppleWebKit/537.36 (KHTML, like Gecko) Chrome/64.0.3282.140 Safari/537.36 Edge/17.17134"
2a03:2880:ff:19::face:b00c - - [04/Nov/2018:07:45:33 +0000] "GET /wp-content/plugins/js_composer/assets/js/vendors/woocommerce-add-to-cart.js?ver=4.8.0.1 HTTP/1.0" 200 895 "http://www.ikbensterdam.com/" "Mozilla/5.0 (Windows NT 10.0; Win64; x64) AppleWebKit/537.36 (KHTML, like Gecko) Chrome/64.0.3282.140 Safari/537.36 Edge/17.17134"
2a03:2880:ff:23::face:b00c - - [04/Nov/2018:07:45:33 +0000] "GET /wp-content/themes/lms/framework/js/public/modernizr.min.js?ver=4.3.17 HTTP/1.0" 200 15418 "http://www.ikbensterdam.com/" "Mozilla/5.0 (Windows NT 10.0; Win64; x64) AppleWebKit/537.36 (KHTML, like Gecko) Chrome/64.0.3282.140 Safari/537.36 Edge/17.17134"
2a03:2880:ff:23::face:b00c - - [04/Nov/2018:07:45:33 +0000] "GET /wp-includes/js/jquery/ui/core.min.js?ver=1.11.4 HTTP/1.0" 200 3997 "http://www.ikbensterdam.com/" "Mozilla/5.0 (Windows NT 10.0; Win64; x64) AppleWebKit/537.36 (KHTML, like Gecko) Chrome/64.0.3282.140 Safari/537.36 Edge/17.17134"
2a03:2880:ff:23::face:b00c - - [04/Nov/2018:07:45:34 +0000] "GET /wp-content/themes/lms/fonts/fontawesome-webfont.woff2?v=4.5.0 HTTP/1.0" 200 66624 "http://www.ikbensterdam.com/wp-content/themes/lms/css/font-awesome.min.css?ver=4.3.17" "Mozilla/5.0 (Windows NT 10.0; Win64; x64) AppleWebKit/537.36 (KHTML, like Gecko) Chrome/64.0.3282.140 Safari/537.36 Edge/17.17134"
2a03:2880:ff:25::face:b00c - - [04/Nov/2018:07:45:34 +0000] "GET /wp-content/uploads/2016/01/logo-white.png HTTP/1.0" 200 5255 "http://www.ikbensterdam.com/" "Mozilla/5.0 (Windows NT 10.0; Win64; x64) AppleWebKit/537.36 (KHTML, like Gecko) Chrome/64.0.3282.140 Safari/537.36 Edge/17.17134"
2a03:2880:ff:19::face:b00c - - [04/Nov/2018:07:45:34 +0000] "GET /wp-includes/js/jquery/ui/datepicker.min.js?ver=1.11.4 HTTP/1.0" 200 36534 "http://www.ikbensterdam.com/" "Mozilla/5.0 (Windows NT 10.0; Win64; x64) AppleWebKit/537.36 (KHTML, like Gecko) Chrome/64.0.3282.140 Safari/537.36 Edge/17.17134"
2a03:2880:ff:11::face:b00c - - [04/Nov/2018:07:45:34 +0000] "GET /wp-content/plugins/designthemes-core-features/shortcodes/js/inview.js?ver=4.3.17 HTTP/1.0" 200 2095 "http://www.ikbensterdam.com/" "Mozilla/5.0 (Windows NT 10.0; Win64; x64) AppleWebKit/537.36 (KHTML, like Gecko) Chrome/64.0.3282.140 Safari/537.36 Edge/17.17134"
2a03:2880:ff:8::face:b00c - - [04/Nov/2018:07:45:34 +0000] "GET /wp-content/plugins/designthemes-core-features/shortcodes/js/jquery.tabs.min.js?ver=4.3.17 HTTP/1.0" 200 4896 "http://www.ikbensterdam.com/" "Mozilla/5.0 (Windows NT 10.0; Win64; x64) AppleWebKit/537.36 (KHTML, like Gecko) Chrome/64.0.3282.140 Safari/537.36 Edge/17.17134"
2a03:2880:ff:14::face:b00c - - [04/Nov/2018:07:45:34 +0000] "GET /wp-content/plugins/designthemes-core-features/shortcodes/js/jquery-ui-timepicker-addon.js?ver=4.3.17 HTTP/1.0" 200 73093 "http://www.ikbensterdam.com/" "Mozilla/5.0 (Windows NT 10.0; Win64; x64) AppleWebKit/537.36 (KHTML, like Gecko) Chrome/64.0.3282.140 Safari/537.36 Edge/17.17134"
2a03:2880:ff:23::face:b00c - - [04/Nov/2018:07:45:34 +0000] "GET /wp-content/plugins/designthemes-core-features/shortcodes/js/jquery.carouFredSel-6.2.1-packed.js?ver=4.3.17 HTTP/1.0" 200 54795 "http://www.ikbensterdam.com/" "Mozilla/5.0 (Windows NT 10.0; Win64; x64) AppleWebKit/537.36 (KHTML, like Gecko) Chrome/64.0.3282.140 Safari/537.36 Edge/17.17134"
2a03:2880:ff:25::face:b00c - - [04/Nov/2018:07:45:34 +0000] "GET /wp-content/plugins/designthemes-core-features/shortcodes/js/jquery.viewport.js?ver=4.3.17 HTTP/1.0" 200 1969 "http://www.ikbensterdam.com/" "Mozilla/5.0 (Windows NT 10.0; Win64; x64) AppleWebKit/537.36 (KHTML, like Gecko) Chrome/64.0.3282.140 Safari/537.36 Edge/17.17134"
2a03:2880:ff:19::face:b00c - - [04/Nov/2018:07:45:34 +0000] "GET /wp-content/plugins/designthemes-core-features/shortcodes/js/jquery.tipTip.minified.js?ver=4.3.17 HTTP/1.0" 200 5271 "http://www.ikbensterdam.com/" "Mozilla/5.0 (Windows NT 10.0; Win64; x64) AppleWebKit/537.36 (KHTML, like Gecko) Chrome/64.0.3282.140 Safari/537.36 Edge/17.17134"
2a03:2880:ff:8::face:b00c - - [04/Nov/2018:07:45:34 +0000] "GET /wp-content/plugins/designthemes-core-features/shortcodes/js/countTo.js?ver=4.3.17 HTTP/1.0" 200 2655 "http://www.ikbensterdam.com/" "Mozilla/5.0 (Windows NT 10.0; Win64; x64) AppleWebKit/537.36 (KHTML, like Gecko) Chrome/64.0.3282.140 Safari/537.36 Edge/17.17134"
2a03:2880:ff:11::face:b00c - - [04/Nov/2018:07:45:34 +0000] "GET /wp-content/plugins/designthemes-core-features/shortcodes/js/jquery.parallax-1.1.3.js?ver=4.3.17 HTTP/1.0" 200 1770 "http://www.ikbensterdam.com/" "Mozilla/5.0 (Windows NT 10.0; Win64; x64) AppleWebKit/537.36 (KHTML, like Gecko) Chrome/64.0.3282.140 Safari/537.36 Edge/17.17134"
2a03:2880:ff:14::face:b00c - - [04/Nov/2018:07:45:34 +0000] "GET /wp-content/plugins/designthemes-core-features/shortcodes/js/jquery.donutchart.js?ver=4.3.17 HTTP/1.0" 200 3608 "http://www.ikbensterdam.com/" "Mozilla/5.0 (Windows NT 10.0; Win64; x64) AppleWebKit/537.36 (KHTML, like Gecko) Chrome/64.0.3282.140 Safari/537.36 Edge/17.17134"
2a03:2880:ff:19::face:b00c - - [04/Nov/2018:07:45:34 +0000] "GET /wp-content/plugins/designthemes-core-features/shortcodes/js/shortcodes.js?ver=4.3.17 HTTP/1.0" 200 13996 "http://www.ikbensterdam.com/" "Mozilla/5.0 (Windows NT 10.0; Win64; x64) AppleWebKit/537.36 (KHTML, like Gecko) Chrome/64.0.3282.140 Safari/537.36 Edge/17.17134"
2a03:2880:ff:23::face:b00c - - [04/Nov/2018:07:45:34 +0000] "GET /wp-content/plugins/designthemes-core-features/custom-post-types/js/jquery.knob.custom.js?ver=4.3.17 HTTP/1.0" 200 816 "http://www.ikbensterdam.com/" "Mozilla/5.0 (Windows NT 10.0; Win64; x64) AppleWebKit/537.36 (KHTML, like Gecko) Chrome/64.0.3282.140 Safari/537.36 Edge/17.17134"
2a03:2880:ff:25::face:b00c - - [04/Nov/2018:07:45:34 +0000] "GET /wp-content/plugins/designthemes-core-features/custom-post-types/js/jquery.knob.js?ver=4.3.17 HTTP/1.0" 200 20457 "http://www.ikbensterdam.com/" "Mozilla/5.0 (Windows NT 10.0; Win64; x64) AppleWebKit/537.36 (KHTML, like Gecko) Chrome/64.0.3282.140 Safari/537.36 Edge/17.17134"
2a03:2880:ff:11::face:b00c - - [04/Nov/2018:07:45:34 +0000] "GET /wp-content/plugins/designthemes-core-features/custom-post-types/js/dt.custom.js?ver=4.3.17 HTTP/1.0" 200 6314 "http://www.ikbensterdam.com/" "Mozilla/5.0 (Windows NT 10.0; Win64; x64) AppleWebKit/537.36 (KHTML, like Gecko) Chrome/64.0.3282.140 Safari/537.36 Edge/17.17134"
2a03:2880:ff:8::face:b00c - - [04/Nov/2018:07:45:34 +0000] "GET /wp-content/plugins/designthemes-core-features/page-builder/js/jquery.inview.js?ver=4.3.17 HTTP/1.0" 200 2097 "http://www.ikbensterdam.com/" "Mozilla/5.0 (Windows NT 10.0; Win64; x64) AppleWebKit/537.36 (KHTML, like Gecko) Chrome/64.0.3282.140 Safari/537.36 Edge/17.17134"
2a03:2880:ff:14::face:b00c - - [04/Nov/2018:07:45:34 +0000] "GET /wp-content/plugins/designthemes-core-features/custom-post-types/js/jquery.print.js?ver=4.3.17 HTTP/1.0" 200 5496 "http://www.ikbensterdam.com/" "Mozilla/5.0 (Windows NT 10.0; Win64; x64) AppleWebKit/537.36 (KHTML, like Gecko) Chrome/64.0.3282.140 Safari/537.36 Edge/17.17134"
2a03:2880:ff:19::face:b00c - - [04/Nov/2018:07:45:34 +0000] "GET /wp-content/uploads/2016/01/favicon.ico HTTP/1.0" 200 4286 "http://www.ikbensterdam.com/" "Mozilla/5.0 (Windows NT 10.0; Win64; x64) AppleWebKit/537.36 (KHTML, like Gecko) Chrome/64.0.3282.140 Safari/537.36 Edge/17.17134"
2a03:2880:ff:25::face:b00c - - [04/Nov/2018:07:45:34 +0000] "GET /wp-content/plugins/designthemes-core-features/page-builder/js/custom-public.js?ver=4.3.17 HTTP/1.0" 200 820 "http://www.ikbensterdam.com/" "Mozilla/5.0 (Windows NT 10.0; Win64; x64) AppleWebKit/537.36 (KHTML, like Gecko) Chrome/64.0.3282.140 Safari/537.36 Edge/17.17134"
2a03:2880:ff:23::face:b00c - - [04/Nov/2018:07:45:34 +0000] "GET /wp-includes/js/comment-reply.min.js?ver=4.3.17 HTTP/1.0" 200 757 "http://www.ikbensterdam.com/" "Mozilla/5.0 (Windows NT 10.0; Win64; x64) AppleWebKit/537.36 (KHTML, like Gecko) Chrome/64.0.3282.140 Safari/537.36 Edge/17.17134"
2a03:2880:ff:8::face:b00c - - [04/Nov/2018:07:45:34 +0000] "GET /wp-content/plugins/contact-form-7/includes/js/scripts.js?ver=4.3.1 HTTP/1.0" 200 11819 "http://www.ikbensterdam.com/" "Mozilla/5.0 (Windows NT 10.0; Win64; x64) AppleWebKit/537.36 (KHTML, like Gecko) Chrome/64.0.3282.140 Safari/537.36 Edge/17.17134"
2a03:2880:ff:11::face:b00c - - [04/Nov/2018:07:45:34 +0000] "GET /wp-content/plugins/woocommerce/assets/js/jquery-blockui/jquery.blockUI.min.js?ver=2.70 HTTP/1.0" 200 9565 "http://www.ikbensterdam.com/" "Mozilla/5.0 (Windows NT 10.0; Win64; x64) AppleWebKit/537.36 (KHTML, like Gecko) Chrome/64.0.3282.140 Safari/537.36 Edge/17.17134"
2a03:2880:ff:14::face:b00c - - [04/Nov/2018:07:45:34 +0000] "GET /wp-content/plugins/contact-form-7/includes/js/jquery.form.min.js?ver=3.51.0-2014.06.20 HTTP/1.0" 200 15248 "http://www.ikbensterdam.com/" "Mozilla/5.0 (Windows NT 10.0; Win64; x64) AppleWebKit/537.36 (KHTML, like Gecko) Chrome/64.0.3282.140 Safari/537.36 Edge/17.17134"
2a03:2880:ff:19::face:b00c - - [04/Nov/2018:07:45:34 +0000] "GET /wp-content/plugins/woocommerce/assets/js/frontend/woocommerce.min.js?ver=2.4.13 HTTP/1.0" 200 277 "http://www.ikbensterdam.com/" "Mozilla/5.0 (Windows NT 10.0; Win64; x64) AppleWebKit/537.36 (KHTML, like Gecko) Chrome/64.0.3282.140 Safari/537.36 Edge/17.17134"
2a03:2880:ff:25::face:b00c - - [04/Nov/2018:07:45:34 +0000] "GET /wp-content/plugins/woocommerce/assets/js/jquery-cookie/jquery.cookie.min.js?ver=1.4.1 HTTP/1.0" 200 1414 "http://www.ikbensterdam.com/" "Mozilla/5.0 (Windows NT 10.0; Win64; x64) AppleWebKit/537.36 (KHTML, like Gecko) Chrome/64.0.3282.140 Safari/537.36 Edge/17.17134"
2a03:2880:ff:23::face:b00c - - [04/Nov/2018:07:45:34 +0000] "GET /wp-content/plugins/woocommerce/assets/js/frontend/cart-fragments.min.js?ver=2.4.13 HTTP/1.0" 200 1589 "http://www.ikbensterdam.com/" "Mozilla/5.0 (Windows NT 10.0; Win64; x64) AppleWebKit/537.36 (KHTML, like Gecko) Chrome/64.0.3282.140 Safari/537.36 Edge/17.17134"
2a03:2880:ff:14::face:b00c - - [04/Nov/2018:07:45:34 +0000] "GET /wp-content/plugins/wp-postratings/postratings-js.js?ver=1.83 HTTP/1.0" 200 3329 "http://www.ikbensterdam.com/" "Mozilla/5.0 (Windows NT 10.0; Win64; x64) AppleWebKit/537.36 (KHTML, like Gecko) Chrome/64.0.3282.140 Safari/537.36 Edge/17.17134"
2a03:2880:ff:8::face:b00c - - [04/Nov/2018:07:45:34 +0000] "GET /wp-content/plugins/yith-woocommerce-compare/assets/js/jquery.colorbox-min.js?ver=1.4.21 HTTP/1.0" 200 11825 "http://www.ikbensterdam.com/" "Mozilla/5.0 (Windows NT 10.0; Win64; x64) AppleWebKit/537.36 (KHTML, like Gecko) Chrome/64.0.3282.140 Safari/537.36 Edge/17.17134"
2a03:2880:ff:11::face:b00c - - [04/Nov/2018:07:45:34 +0000] "GET /wp-content/plugins/yith-woocommerce-compare/assets/js/woocompare.js?ver=2.0.6 HTTP/1.0" 200 8744 "http://www.ikbensterdam.com/" "Mozilla/5.0 (Windows NT 10.0; Win64; x64) AppleWebKit/537.36 (KHTML, like Gecko) Chrome/64.0.3282.140 Safari/537.36 Edge/17.17134"
2a03:2880:ff:19::face:b00c - - [04/Nov/2018:07:45:34 +0000] "GET /wp-content/plugins/yith-woocommerce-quick-view/assets/js/frontend.js?ver=1.0 HTTP/1.0" 200 4460 "http://www.ikbensterdam.com/" "Mozilla/5.0 (Windows NT 10.0; Win64; x64) AppleWebKit/537.36 (KHTML, like Gecko) Chrome/64.0.3282.140 Safari/537.36 Edge/17.17134"
2a03:2880:ff:23::face:b00c - - [04/Nov/2018:07:45:34 +0000] "GET /wp-content/plugins/woocommerce/assets/js/prettyPhoto/jquery.prettyPhoto.min.js?ver=3.1.5 HTTP/1.0" 200 21313 "http://www.ikbensterdam.com/" "Mozilla/5.0 (Windows NT 10.0; Win64; x64) AppleWebKit/537.36 (KHTML, like Gecko) Chrome/64.0.3282.140 Safari/537.36 Edge/17.17134"
2a03:2880:ff:25::face:b00c - - [04/Nov/2018:07:45:34 +0000] "GET /wp-content/plugins/woocommerce/assets/js/prettyPhoto/jquery.prettyPhoto.init.min.js?ver=2.4.13 HTTP/1.0" 200 317 "http://www.ikbensterdam.com/" "Mozilla/5.0 (Windows NT 10.0; Win64; x64) AppleWebKit/537.36 (KHTML, like Gecko) Chrome/64.0.3282.140 Safari/537.36 Edge/17.17134"
2a03:2880:ff:14::face:b00c - - [04/Nov/2018:07:45:34 +0000] "GET /wp-content/plugins/yith-woocommerce-wishlist/assets/js/jquery.selectBox.min.js?ver=1.2.0 HTTP/1.0" 200 15736 "http://www.ikbensterdam.com/" "Mozilla/5.0 (Windows NT 10.0; Win64; x64) AppleWebKit/537.36 (KHTML, like Gecko) Chrome/64.0.3282.140 Safari/537.36 Edge/17.17134"
2a03:2880:ff:8::face:b00c - - [04/Nov/2018:07:45:34 +0000] "GET /wp-content/plugins/yith-woocommerce-wishlist/assets/js/jquery.yith-wcwl.js?ver=2.0.13 HTTP/1.0" 200 9960 "http://www.ikbensterdam.com/" "Mozilla/5.0 (Windows NT 10.0; Win64; x64) AppleWebKit/537.36 (KHTML, like Gecko) Chrome/64.0.3282.140 Safari/537.36 Edge/17.17134"
2a03:2880:ff:11::face:b00c - - [04/Nov/2018:07:45:34 +0000] "GET /wp-content/plugins/mega_main_menu/src/js/frontend.js?ver=4.3.17 HTTP/1.0" 200 11211 "http://www.ikbensterdam.com/" "Mozilla/5.0 (Windows NT 10.0; Win64; x64) AppleWebKit/537.36 (KHTML, like Gecko) Chrome/64.0.3282.140 Safari/537.36 Edge/17.17134"
2a03:2880:ff:23::face:b00c - - [04/Nov/2018:07:45:35 +0000] "GET /wp-content/themes/lms/framework/js/public/jquery.ui.totop.min.js?ver=4.3.17 HTTP/1.0" 200 1334 "http://www.ikbensterdam.com/" "Mozilla/5.0 (Windows NT 10.0; Win64; x64) AppleWebKit/537.36 (KHTML, like Gecko) Chrome/64.0.3282.140 Safari/537.36 Edge/17.17134"
2a03:2880:ff:25::face:b00c - - [04/Nov/2018:07:45:35 +0000] "GET /wp-content/themes/lms/framework/js/public/easing.js?ver=4.3.17 HTTP/1.0" 200 4900 "http://www.ikbensterdam.com/" "Mozilla/5.0 (Windows NT 10.0; Win64; x64) AppleWebKit/537.36 (KHTML, like Gecko) Chrome/64.0.3282.140 Safari/537.36 Edge/17.17134"
2a03:2880:ff:19::face:b00c - - [04/Nov/2018:07:45:35 +0000] "GET /wp-content/themes/lms/framework/js/public/jquery.smartresize.js?ver=4.3.17 HTTP/1.0" 200 1035 "http://www.ikbensterdam.com/" "Mozilla/5.0 (Windows NT 10.0; Win64; x64) AppleWebKit/537.36 (KHTML, like Gecko) Chrome/64.0.3282.140 Safari/537.36 Edge/17.17134"
2a03:2880:ff:11::face:b00c - - [04/Nov/2018:07:45:35 +0000] "GET /wp-content/themes/lms/framework/js/public/jquery.prettyPhoto.js?ver=4.3.17 HTTP/1.0" 200 36212 "http://www.ikbensterdam.com/" "Mozilla/5.0 (Windows NT 10.0; Win64; x64) AppleWebKit/537.36 (KHTML, like Gecko) Chrome/64.0.3282.140 Safari/537.36 Edge/17.17134"
2a03:2880:ff:8::face:b00c - - [04/Nov/2018:07:45:35 +0000] "GET /wp-content/themes/lms/framework/js/public/jquery.nicescroll.min.js?ver=4.3.17 HTTP/1.0" 200 50330 "http://www.ikbensterdam.com/" "Mozilla/5.0 (Windows NT 10.0; Win64; x64) AppleWebKit/537.36 (KHTML, like Gecko) Chrome/64.0.3282.140 Safari/537.36 Edge/17.17134"
2a03:2880:ff:14::face:b00c - - [04/Nov/2018:07:45:35 +0000] "GET /wp-content/themes/lms/framework/js/public/jquery.sticky.js?ver=4.3.17 HTTP/1.0" 200 5064 "http://www.ikbensterdam.com/" "Mozilla/5.0 (Windows NT 10.0; Win64; x64) AppleWebKit/537.36 (KHTML, like Gecko) Chrome/64.0.3282.140 Safari/537.36 Edge/17.17134"
2a03:2880:ff:23::face:b00c - - [04/Nov/2018:07:45:35 +0000] "GET /wp-content/themes/lms/framework/js/public/jquery.isotope.min.js?ver=4.3.17 HTTP/1.0" 200 16860 "http://www.ikbensterdam.com/" "Mozilla/5.0 (Windows NT 10.0; Win64; x64) AppleWebKit/537.36 (KHTML, like Gecko) Chrome/64.0.3282.140 Safari/537.36 Edge/17.17134"
2a03:2880:ff:19::face:b00c - - [04/Nov/2018:07:45:35 +0000] "GET /wp-content/themes/lms/framework/js/public/jquery.bxslider.js?ver=4.3.17 HTTP/1.0" 200 50786 "http://www.ikbensterdam.com/" "Mozilla/5.0 (Windows NT 10.0; Win64; x64) AppleWebKit/537.36 (KHTML, like Gecko) Chrome/64.0.3282.140 Safari/537.36 Edge/17.17134"
2a03:2880:ff:25::face:b00c - - [04/Nov/2018:07:45:35 +0000] "GET /wp-content/themes/lms/framework/js/public/jquery.fitvids.js?ver=4.3.17 HTTP/1.0" 200 2944 "http://www.ikbensterdam.com/" "Mozilla/5.0 (Windows NT 10.0; Win64; x64) AppleWebKit/537.36 (KHTML, like Gecko) Chrome/64.0.3282.140 Safari/537.36 Edge/17.17134"
2a03:2880:ff:11::face:b00c - - [04/Nov/2018:07:45:35 +0000] "GET /wp-content/themes/lms/framework/js/public/toucheffects.js?ver=4.3.17 HTTP/1.0" 200 2180 "http://www.ikbensterdam.com/" "Mozilla/5.0 (Windows NT 10.0; Win64; x64) AppleWebKit/537.36 (KHTML, like Gecko) Chrome/64.0.3282.140 Safari/537.36 Edge/17.17134"
2a03:2880:ff:14::face:b00c - - [04/Nov/2018:07:45:35 +0000] "GET /wp-content/themes/lms/framework/js/public/jquery.tablesorter.min.js?ver=4.3.17 HTTP/1.0" 200 16520 "http://www.ikbensterdam.com/" "Mozilla/5.0 (Windows NT 10.0; Win64; x64) AppleWebKit/537.36 (KHTML, like Gecko) Chrome/64.0.3282.140 Safari/537.36 Edge/17.17134"
2a03:2880:ff:23::face:b00c - - [04/Nov/2018:07:45:35 +0000] "GET /wp-content/themes/lms/framework/js/public/ajax-courses.js?ver=4.3.17 HTTP/1.0" 200 8855 "http://www.ikbensterdam.com/" "Mozilla/5.0 (Windows NT 10.0; Win64; x64) AppleWebKit/537.36 (KHTML, like Gecko) Chrome/64.0.3282.140 Safari/537.36 Edge/17.17134"
2a03:2880:ff:19::face:b00c - - [04/Nov/2018:07:45:35 +0000] "GET /wp-content/plugins/js_composer/assets/js/js_composer_front.js?ver=4.8.0.1 HTTP/1.0" 200 28144 "http://www.ikbensterdam.com/" "Mozilla/5.0 (Windows NT 10.0; Win64; x64) AppleWebKit/537.36 (KHTML, like Gecko) Chrome/64.0.3282.140 Safari/537.36 Edge/17.17134"
2a03:2880:ff:25::face:b00c - - [04/Nov/2018:07:45:35 +0000] "GET /wp-content/themes/lms/framework/js/public/custom.js?ver=4.3.17 HTTP/1.0" 200 11856 "http://www.ikbensterdam.com/" "Mozilla/5.0 (Windows NT 10.0; Win64; x64) AppleWebKit/537.36 (KHTML, like Gecko) Chrome/64.0.3282.140 Safari/537.36 Edge/17.17134"
2a03:2880:ff:11::face:b00c - - [04/Nov/2018:07:45:35 +0000] "GET /wp-content/plugins/js_composer/assets/lib/prettyphoto/js/jquery.prettyPhoto.js?ver=4.8.0.1 HTTP/1.0" 200 35269 "http://www.ikbensterdam.com/" "Mozilla/5.0 (Windows NT 10.0; Win64; x64) AppleWebKit/537.36 (KHTML, like Gecko) Chrome/64.0.3282.140 Safari/537.36 Edge/17.17134"
2a03:2880:ff:14::face:b00c - - [04/Nov/2018:07:45:35 +0000] "GET /wp-content/plugins/js_composer/assets/lib/owl-carousel2-dist/owl.carousel.js?ver=4.8.0.1 HTTP/1.0" 200 81021 "http://www.ikbensterdam.com/" "Mozilla/5.0 (Windows NT 10.0; Win64; x64) AppleWebKit/537.36 (KHTML, like Gecko) Chrome/64.0.3282.140 Safari/537.36 Edge/17.17134"
2a03:2880:ff:8::face:b00c - - [04/Nov/2018:07:45:35 +0000] "GET /wp-content/plugins/js_composer/assets/lib/bower/imagesloaded/imagesloaded.pkgd.min.js?ver=4.3.17 HTTP/1.0" 200 6949 "http://www.ikbensterdam.com/" "Mozilla/5.0 (Windows NT 10.0; Win64; x64) AppleWebKit/537.36 (KHTML, like Gecko) Chrome/64.0.3282.140 Safari/537.36 Edge/17.17134"
2a03:2880:ff:23::face:b00c - - [04/Nov/2018:07:45:35 +0000] "GET /wp-includes/js/underscore.min.js?ver=1.6.0 HTTP/1.0" 200 14643 "http://www.ikbensterdam.com/" "Mozilla/5.0 (Windows NT 10.0; Win64; x64) AppleWebKit/537.36 (KHTML, like Gecko) Chrome/64.0.3282.140 Safari/537.36 Edge/17.17134"
2a03:2880:ff:25::face:b00c - - [04/Nov/2018:07:45:35 +0000] "GET /wp-content/plugins/js_composer/assets/lib/waypoints/waypoints.min.js?ver=4.8.0.1 HTTP/1.0" 200 8044 "http://www.ikbensterdam.com/" "Mozilla/5.0 (Windows NT 10.0; Win64; x64) AppleWebKit/537.36 (KHTML, like Gecko) Chrome/64.0.3282.140 Safari/537.36 Edge/17.17134"
2a03:2880:ff:19::face:b00c - - [04/Nov/2018:07:45:35 +0000] "GET /wp-content/plugins/js_composer/assets/js/components/vc_grid_style_all.js?ver=4.8.0.1 HTTP/1.0" 200 2637 "http://www.ikbensterdam.com/" "Mozilla/5.0 (Windows NT 10.0; Win64; x64) AppleWebKit/537.36 (KHTML, like Gecko) Chrome/64.0.3282.140 Safari/537.36 Edge/17.17134"
2a03:2880:ff:11::face:b00c - - [04/Nov/2018:07:45:35 +0000] "GET /wp-content/plugins/js_composer/assets/js/components/vc_grid_style_load_more.js?ver=4.8.0.1 HTTP/1.0" 200 3727 "http://www.ikbensterdam.com/" "Mozilla/5.0 (Windows NT 10.0; Win64; x64) AppleWebKit/537.36 (KHTML, like Gecko) Chrome/64.0.3282.140 Safari/537.36 Edge/17.17134"
2a03:2880:ff:8::face:b00c - - [04/Nov/2018:07:45:35 +0000] "GET /wp-content/plugins/js_composer/assets/js/components/vc_grid_style_lazy.js?ver=4.8.0.1 HTTP/1.0" 200 4105 "http://www.ikbensterdam.com/" "Mozilla/5.0 (Windows NT 10.0; Win64; x64) AppleWebKit/537.36 (KHTML, like Gecko) Chrome/64.0.3282.140 Safari/537.36 Edge/17.17134"
2a03:2880:ff:14::face:b00c - - [04/Nov/2018:07:45:35 +0000] "GET /wp-content/plugins/js_composer/assets/js/components/vc_grid_style_pagination.js?ver=4.8.0.1 HTTP/1.0" 200 7239 "http://www.ikbensterdam.com/" "Mozilla/5.0 (Windows NT 10.0; Win64; x64) AppleWebKit/537.36 (KHTML, like Gecko) Chrome/64.0.3282.140 Safari/537.36 Edge/17.17134"
2a03:2880:ff:23::face:b00c - - [04/Nov/2018:07:45:35 +0000] "GET /wp-content/plugins/js_composer/assets/js/components/vc_grid.js?ver=4.8.0.1 HTTP/1.0" 200 7759 "http://www.ikbensterdam.com/" "Mozilla/5.0 (Windows NT 10.0; Win64; x64) AppleWebKit/537.36 (KHTML, like Gecko) Chrome/64.0.3282.140 Safari/537.36 Edge/17.17134"
2a03:2880:ff:25::face:b00c - - [04/Nov/2018:07:45:35 +0000] "GET /wp-content/plugins/woocommerce/assets/js/frontend/add-to-cart-variation.min.js?ver=2.4.13 HTTP/1.0" 200 8290 "http://www.ikbensterdam.com/" "Mozilla/5.0 (Windows NT 10.0; Win64; x64) AppleWebKit/537.36 (KHTML, like Gecko) Chrome/64.0.3282.140 Safari/537.36 Edge/17.17134"
2a03:2880:ff:19::face:b00c - - [04/Nov/2018:07:45:35 +0000] "GET /wp-content/themes/lms/images/logo@2x.png HTTP/1.0" 200 6589 "http://www.ikbensterdam.com/" "Mozilla/5.0 (Windows NT 10.0; Win64; x64) AppleWebKit/537.36 (KHTML, like Gecko) Chrome/64.0.3282.140 Safari/537.36 Edge/17.17134"
2a03:2880:ff:8::face:b00c - - [04/Nov/2018:07:45:35 +0000] "GET /wp-content/themes/lms/images/footer-logo@2x.png HTTP/1.0" 200 6589 "http://www.ikbensterdam.com/" "Mozilla/5.0 (Windows NT 10.0; Win64; x64) AppleWebKit/537.36 (KHTML, like Gecko) Chrome/64.0.3282.140 Safari/537.36 Edge/17.17134"
2a03:2880:ff:14::face:b00c - - [04/Nov/2018:07:45:35 +0000] "GET /wp-content/uploads/2014/04/2.jpg HTTP/1.0" 200 210081 "http://www.ikbensterdam.com/" "Mozilla/5.0 (Windows NT 10.0; Win64; x64) AppleWebKit/537.36 (KHTML, like Gecko) Chrome/64.0.3282.140 Safari/537.36 Edge/17.17134"
2a03:2880:ff:11::face:b00c - - [04/Nov/2018:07:45:35 +0000] "GET /wp-includes/js/wp-emoji-release.min.js?ver=4.3.17 HTTP/1.0" 200 15930 "http://www.ikbensterdam.com/" "Mozilla/5.0 (Windows NT 10.0; Win64; x64) AppleWebKit/537.36 (KHTML, like Gecko) Chrome/64.0.3282.140 Safari/537.36 Edge/17.17134"
2a03:2880:ff:23::face:b00c - - [04/Nov/2018:07:45:35 +0000] "GET /wp-content/plugins/wp-postratings/images/stars/rating_over.gif HTTP/1.0" 200 920 "http://www.ikbensterdam.com/" "Mozilla/5.0 (Windows NT 10.0; Win64; x64) AppleWebKit/537.36 (KHTML, like Gecko) Chrome/64.0.3282.140 Safari/537.36 Edge/17.17134"
2a03:2880:ff:14::face:b00c - - [04/Nov/2018:07:45:36 +0000] "GET /wp-content/plugins/revslider/rs-plugin/assets/loader.gif HTTP/1.0" 200 2545 "http://www.ikbensterdam.com/wp-content/plugins/revslider/rs-plugin/css/settings.css?ver=4.6.93" "Mozilla/5.0 (Windows NT 10.0; Win64; x64) AppleWebKit/537.36 (KHTML, like Gecko) Chrome/64.0.3282.140 Safari/537.36 Edge/17.17134"
2a03:2880:ff:14::face:b00c - - [04/Nov/2018:07:45:36 +0000] "GET /wp-content/plugins/revslider/rs-plugin/assets/small_right.png HTTP/1.0" 200 668 "http://www.ikbensterdam.com/wp-content/plugins/revslider/rs-plugin/css/settings.css?ver=4.6.93" "Mozilla/5.0 (Windows NT 10.0; Win64; x64) AppleWebKit/537.36 (KHTML, like Gecko) Chrome/64.0.3282.140 Safari/537.36 Edge/17.17134"
2a03:2880:ff:14::face:b00c - - [04/Nov/2018:07:45:36 +0000] "GET /wp-content/plugins/revslider/rs-plugin/assets/small_left.png HTTP/1.0" 200 670 "http://www.ikbensterdam.com/wp-content/plugins/revslider/rs-plugin/css/settings.css?ver=4.6.93" "Mozilla/5.0 (Windows NT 10.0; Win64; x64) AppleWebKit/537.36 (KHTML, like Gecko) Chrome/64.0.3282.140 Safari/537.36 Edge/17.17134"
2a03:2880:ff:23::face:b00c - - [04/Nov/2018:07:45:36 +0000] "POST /?wc-ajax=get_refreshed_fragments HTTP/1.0" 200 476 "http://www.ikbensterdam.com/" "Mozilla/5.0 (Windows NT 10.0; Win64; x64) AppleWebKit/537.36 (KHTML, like Gecko) Chrome/64.0.3282.140 Safari/537.36 Edge/17.17134"
2a03:2880:ff:14::face:b00c - - [04/Nov/2018:07:45:36 +0000] "GET /wp-content/themes/lms/images/ui.totop.png HTTP/1.0" 200 336 "http://www.ikbensterdam.com/wp-content/themes/lms/style.css?ver=4.3.17" "Mozilla/5.0 (Windows NT 10.0; Win64; x64) AppleWebKit/537.36 (KHTML, like Gecko) Chrome/64.0.3282.140 Safari/537.36 Edge/17.17134"
2a03:2880:ff:11::face:b00c - - [04/Nov/2018:07:45:36 +0000] "POST /wp-admin/admin-ajax.php HTTP/1.0" 200 3633 "http://www.ikbensterdam.com/" "Mozilla/5.0 (Windows NT 10.0; Win64; x64) AppleWebKit/537.36 (KHTML, like Gecko) Chrome/64.0.3282.140 Safari/537.36 Edge/17.17134"
2a03:2880:ff:25::face:b00c - - [04/Nov/2018:07:45:36 +0000] "POST /wp-admin/admin-ajax.php HTTP/1.0" 200 3535 "http://www.ikbensterdam.com/" "Mozilla/5.0 (Windows NT 10.0; Win64; x64) AppleWebKit/537.36 (KHTML, like Gecko) Chrome/64.0.3282.140 Safari/537.36 Edge/17.17134"
2a03:2880:ff:8::face:b00c - - [04/Nov/2018:07:45:36 +0000] "POST /wp-admin/admin-ajax.php HTTP/1.0" 200 3523 "http://www.ikbensterdam.com/" "Mozilla/5.0 (Windows NT 10.0; Win64; x64) AppleWebKit/537.36 (KHTML, like Gecko) Chrome/64.0.3282.140 Safari/537.36 Edge/17.17134"
2a03:2880:ff:19::face:b00c - - [04/Nov/2018:07:45:36 +0000] "POST /wp-admin/admin-ajax.php HTTP/1.0" 200 3556 "http://www.ikbensterdam.com/" "Mozilla/5.0 (Windows NT 10.0; Win64; x64) AppleWebKit/537.36 (KHTML, like Gecko) Chrome/64.0.3282.140 Safari/537.36 Edge/17.17134"
2a03:2880:ff:8::face:b00c - - [04/Nov/2018:07:45:37 +0000] "GET /wp-admin/css/color-picker.min.css?ver=4.3.17 HTTP/1.0" 200 2081 "http://www.ikbensterdam.com/" "Mozilla/5.0 (Windows NT 10.0; Win64; x64) AppleWebKit/537.36 (KHTML, like Gecko) Chrome/64.0.3282.140 Safari/537.36 Edge/17.17134"
2a03:2880:ff:11::face:b00c - - [04/Nov/2018:07:45:37 +0000] "GET /wp-content/plugins/designthemes-core-features/custom-post-types/css/styles.css?ver=4.3.17 HTTP/1.0" 200 8441 "http://www.ikbensterdam.com/" "Mozilla/5.0 (Windows NT 10.0; Win64; x64) AppleWebKit/537.36 (KHTML, like Gecko) Chrome/64.0.3282.140 Safari/537.36 Edge/17.17134"
2a03:2880:ff:25::face:b00c - - [04/Nov/2018:07:45:37 +0000] "GET /wp-content/plugins/designthemes-core-features/shortcodes/tinymce/css/styles.css?ver=1.0 HTTP/1.0" 200 5983 "http://www.ikbensterdam.com/" "Mozilla/5.0 (Windows NT 10.0; Win64; x64) AppleWebKit/537.36 (KHTML, like Gecko) Chrome/64.0.3282.140 Safari/537.36 Edge/17.17134"
2a03:2880:ff:14::face:b00c - - [04/Nov/2018:07:45:37 +0000] "GET /wp-content/plugins/designthemes-core-features/custom-post-types/css/chosen.css?ver=4.3.17 HTTP/1.0" 200 12927 "http://www.ikbensterdam.com/" "Mozilla/5.0 (Windows NT 10.0; Win64; x64) AppleWebKit/537.36 (KHTML, like Gecko) Chrome/64.0.3282.140 Safari/537.36 Edge/17.17134"
2a03:2880:ff:23::face:b00c - - [04/Nov/2018:07:45:37 +0000] "GET /wp-content/uploads/2014/04/2-1024x685.jpg HTTP/1.0" 200 117685 "http://www.ikbensterdam.com/" "Mozilla/5.0 (Windows NT 10.0; Win64; x64) AppleWebKit/537.36 (KHTML, like Gecko) Chrome/64.0.3282.140 Safari/537.36 Edge/17.17134"
2a03:2880:ff:19::face:b00c - - [04/Nov/2018:07:45:37 +0000] "GET /wp-content/uploads/2014/04/tumblr-1024x680.jpg HTTP/1.0" 200 75228 "http://www.ikbensterdam.com/" "Mozilla/5.0 (Windows NT 10.0; Win64; x64) AppleWebKit/537.36 (KHTML, like Gecko) Chrome/64.0.3282.140 Safari/537.36 Edge/17.17134"
2a03:2880:ff:14::face:b00c - - [04/Nov/2018:07:45:37 +0000] "GET /wp-content/uploads/2016/01/mockup-a356d246.jpg HTTP/1.0" 200 66899 "http://www.ikbensterdam.com/" "Mozilla/5.0 (Windows NT 10.0; Win64; x64) AppleWebKit/537.36 (KHTML, like Gecko) Chrome/64.0.3282.140 Safari/537.36 Edge/17.17134"
2a03:2880:ff:25::face:b00c - - [04/Nov/2018:07:45:37 +0000] "GET /wp-content/uploads/2013/12/keyboard-1024x683.jpg HTTP/1.0" 200 167757 "http://www.ikbensterdam.com/" "Mozilla/5.0 (Windows NT 10.0; Win64; x64) AppleWebKit/537.36 (KHTML, like Gecko) Chrome/64.0.3282.140 Safari/537.36 Edge/17.17134"
87.236.194.255 - - [04/Nov/2018:07:47:14 +0000] "GET /wp-admin/wp-caches.php HTTP/1.0" 301 - "http://site.ru" "Mozilla/5.0 (Windows; U; Windows NT 5.1; en-US) AppleWebKit/533.4 (KHTML, like Gecko) Chrome/5.0.375.99 Safari/533.4"
87.236.194.255 - - [04/Nov/2018:07:47:15 +0000] "GET /wp-admin/wp-caches.php HTTP/1.0" 404 35217 "http://site.ru" "Mozilla/5.0 (Windows; U; Windows NT 5.1; en-US) AppleWebKit/533.4 (KHTML, like Gecko) Chrome/5.0.375.99 Safari/533.4"
89.248.169.130 - - [04/Nov/2018:07:58:09 +0000] "POST /xmlrpc.php HTTP/1.0" 200 403 "-" "Mozilla/5.0 (Macintosh; U; Intel Mac OS X 10.6; fr; rv:1.9.2.8) Gecko/20100722 Firefox/3.6.8"
89.248.169.130 - - [04/Nov/2018:07:58:09 +0000] "POST /xmlrpc.php HTTP/1.0" 200 403 "-" "Mozilla/5.0 (Macintosh; U; Intel Mac OS X 10.6; fr; rv:1.9.2.8) Gecko/20100722 Firefox/3.6.8"
31.170.123.73 - - [04/Nov/2018:07:58:09 +0000] "POST /wp-cron.php?doing_wp_cron=1541318289.6021668910980224609375 HTTP/1.0" 200 - "-" "WordPress/4.3.17; http://www.ikbensterdam.com"
89.248.169.130 - - [04/Nov/2018:07:58:09 +0000] "POST /xmlrpc.php HTTP/1.0" 200 403 "-" "Mozilla/5.0 (Macintosh; U; Intel Mac OS X 10.6; fr; rv:1.9.2.8) Gecko/20100722 Firefox/3.6.8"
31.170.123.73 - - [04/Nov/2018:09:29:57 +0000] "POST /wp-cron.php?doing_wp_cron=1541323797.6555509567260742187500 HTTP/1.0" 200 - "-" "WordPress/4.3.17; http://www.ikbensterdam.com"
97.74.228.245 - - [04/Nov/2018:09:29:56 +0000] "POST /xmlrpc.php HTTP/1.0" 200 403 "-" "Mozilla/5.0 (Macintosh; U; Intel Mac OS X 10.6; fr; rv:1.9.2.8) Gecko/20100722 Firefox/3.6.8"
31.170.123.73 - - [04/Nov/2018:10:21:49 +0000] "POST /wp-cron.php?doing_wp_cron=1541326909.1689050197601318359375 HTTP/1.0" 200 - "-" "WordPress/4.3.17; http://www.ikbensterdam.com"
2001:41d0:1:86b8::1 - - [04/Nov/2018:10:21:48 +0000] "GET /?feed=rss2 HTTP/1.0" 301 - "" "Mozilla/5.0 (Windows; U; Windows NT 5.1; en-GB; rv:1.8.1.3) Gecko/20070309 Firefox/2.0.0.3"
2001:41d0:1:86b8::1 - - [04/Nov/2018:10:21:49 +0000] "GET /feed/ HTTP/1.0" 200 25911 "" "Mozilla/5.0 (Windows; U; Windows NT 5.1; en-GB; rv:1.8.1.3) Gecko/20070309 Firefox/2.0.0.3"
31.170.123.73 - - [04/Nov/2018:11:48:25 +0000] "POST /wp-cron.php?doing_wp_cron=1541332105.5070579051971435546875 HTTP/1.0" 200 - "-" "WordPress/4.3.17; http://www.ikbensterdam.com"
97.74.228.245 - - [04/Nov/2018:11:48:24 +0000] "POST /xmlrpc.php HTTP/1.0" 200 403 "-" "Mozilla/5.0 (Macintosh; U; Intel Mac OS X 10.6; fr; rv:1.9.2.8) Gecko/20100722 Firefox/3.6.8"
123.57.254.142 - - [04/Nov/2018:12:43:42 +0000] "POST /xmlrpc.php HTTP/1.0" 200 403 "-" "Mozilla/5.0 (Macintosh; U; Intel Mac OS X 10.6; fr; rv:1.9.2.8) Gecko/20100722 Firefox/3.6.8"
31.170.123.73 - - [04/Nov/2018:12:43:42 +0000] "POST /wp-cron.php?doing_wp_cron=1541335422.6840019226074218750000 HTTP/1.0" 200 - "-" "WordPress/4.3.17; http://www.ikbensterdam.com"
123.57.254.142 - - [04/Nov/2018:12:43:42 +0000] "POST /xmlrpc.php HTTP/1.0" 200 403 "-" "Mozilla/5.0 (Macintosh; U; Intel Mac OS X 10.6; fr; rv:1.9.2.8) Gecko/20100722 Firefox/3.6.8"
31.170.123.73 - - [04/Nov/2018:12:50:02 +0000] "POST /wp-cron.php?doing_wp_cron=1541335802.0811541080474853515625 HTTP/1.0" 200 - "-" "WordPress/4.3.17; http://www.ikbensterdam.com"
154.118.255.235 - - [04/Nov/2018:12:50:01 +0000] "GET / HTTP/1.0" 301 - "-" "-"
154.118.255.235 - - [04/Nov/2018:12:50:12 +0000] "GET / HTTP/1.0" 200 48668 "-" "-"
31.170.123.73 - - [04/Nov/2018:13:46:27 +0000] "POST /wp-cron.php?doing_wp_cron=1541339187.2592461109161376953125 HTTP/1.0" 200 - "-" "WordPress/4.3.17; http://www.ikbensterdam.com"
185.86.164.106 - - [04/Nov/2018:13:46:26 +0000] "GET /wp-login.php HTTP/1.0" 200 7079 "-" "Mozilla/5.0 (Windows NT 10.0; WOW64) AppleWebKit/537.36 (KHTML, like Gecko) Chrome/51.0.2704.103 Safari/537.36"
185.86.164.106 - - [04/Nov/2018:13:46:28 +0000] "POST /wp-login.php HTTP/1.0" 200 8022 "http://www.ikbensterdam.com/wp-login.php" "Mozilla/5.0 (Windows NT 10.0; WOW64) AppleWebKit/537.36 (KHTML, like Gecko) Chrome/51.0.2704.103 Safari/537.36"
31.170.123.73 - - [04/Nov/2018:14:15:12 +0000] "POST /wp-cron.php?doing_wp_cron=1541340912.7194020748138427734375 HTTP/1.0" 200 - "-" "WordPress/4.3.17; http://www.ikbensterdam.com"
97.74.228.245 - - [04/Nov/2018:14:15:12 +0000] "POST /xmlrpc.php HTTP/1.0" 200 403 "-" "Mozilla/5.0 (Macintosh; U; Intel Mac OS X 10.6; fr; rv:1.9.2.8) Gecko/20100722 Firefox/3.6.8"
31.170.123.73 - - [04/Nov/2018:16:26:37 +0000] "POST /wp-cron.php?doing_wp_cron=1541348797.4084448814392089843750 HTTP/1.0" 200 - "-" "WordPress/4.3.17; http://www.ikbensterdam.com"
97.74.228.245 - - [04/Nov/2018:16:26:36 +0000] "POST /xmlrpc.php HTTP/1.0" 200 403 "-" "Mozilla/5.0 (Macintosh; U; Intel Mac OS X 10.6; fr; rv:1.9.2.8) Gecko/20100722 Firefox/3.6.8"
31.170.123.73 - - [04/Nov/2018:17:24:04 +0000] "POST /wp-cron.php?doing_wp_cron=1541352244.0016980171203613281250 HTTP/1.0" 200 - "-" "WordPress/4.3.17; http://www.ikbensterdam.com"
80.90.55.173 - - [04/Nov/2018:17:24:03 +0000] "HEAD / HTTP/1.0" 200 - "-" "Mozilla/5.0 (compatible; Uptimebot/1.0; +http://www.uptime.com/uptimebot)"
89.248.169.130 - - [04/Nov/2018:17:24:30 +0000] "POST /xmlrpc.php HTTP/1.0" 200 403 "-" "Mozilla/5.0 (Macintosh; U; Intel Mac OS X 10.6; fr; rv:1.9.2.8) Gecko/20100722 Firefox/3.6.8"
89.248.169.130 - - [04/Nov/2018:17:24:30 +0000] "POST /xmlrpc.php HTTP/1.0" 200 403 "-" "Mozilla/5.0 (Macintosh; U; Intel Mac OS X 10.6; fr; rv:1.9.2.8) Gecko/20100722 Firefox/3.6.8"
89.248.169.130 - - [04/Nov/2018:17:24:31 +0000] "POST /xmlrpc.php HTTP/1.0" 200 403 "-" "Mozilla/5.0 (Macintosh; U; Intel Mac OS X 10.6; fr; rv:1.9.2.8) Gecko/20100722 Firefox/3.6.8"
31.170.123.73 - - [04/Nov/2018:17:31:26 +0000] "POST /wp-cron.php?doing_wp_cron=1541352686.7955379486083984375000 HTTP/1.0" 200 - "-" "WordPress/4.3.17; http://www.ikbensterdam.com"
180.76.15.139 - - [04/Nov/2018:17:31:26 +0000] "GET /shop/ HTTP/1.0" 200 45081 "-" "Mozilla/5.0 (compatible; Baiduspider/2.0; +http://www.baidu.com/search/spider.html)"
89.163.131.167 - - [04/Nov/2018:17:47:21 +0000] "HEAD / HTTP/1.0" 200 - "-" "Mozilla/5.0 (compatible; Uptimebot/1.0; +http://www.uptime.com/uptimebot)"
180.76.15.139 - - [04/Nov/2018:18:04:46 +0000] "GET /wp-content/themes/lms/css/stroke-gap-icons.min.css?ver=4.3.17 HTTP/1.0" 200 113745 "-" "Mozilla/5.0 (compatible; Baiduspider/2.0; +http://www.baidu.com/search/spider.html)"
31.170.123.73 - - [04/Nov/2018:18:24:03 +0000] "POST /wp-cron.php?doing_wp_cron=1541355843.6274158954620361328125 HTTP/1.0" 200 - "-" "WordPress/4.3.17; http://www.ikbensterdam.com"
24.183.25.14 - - [04/Nov/2018:18:24:03 +0000] "GET /wp-config.php_old HTTP/1.0" 301 - "http://ikbensterdam.com/wp-config.php_old" "Mozilla/4.0 (compatible; MSIE 6.0; Windows NT 5.1; SV1)"
24.183.25.14 - - [04/Nov/2018:18:24:06 +0000] "GET /wp-config.php_old HTTP/1.0" 404 35193 "http://www.ikbensterdam.com/wp-config.php_old" "Mozilla/4.0 (compatible; MSIE 6.0; Windows NT 5.1; SV1)"
31.170.123.73 - - [04/Nov/2018:18:35:42 +0000] "POST /wp-cron.php?doing_wp_cron=1541356542.6833779811859130859375 HTTP/1.0" 200 - "-" "WordPress/4.3.17; http://www.ikbensterdam.com"
97.74.228.245 - - [04/Nov/2018:18:35:42 +0000] "POST /xmlrpc.php HTTP/1.0" 200 403 "-" "Mozilla/5.0 (Macintosh; U; Intel Mac OS X 10.6; fr; rv:1.9.2.8) Gecko/20100722 Firefox/3.6.8"
69.12.66.241 - - [04/Nov/2018:19:05:50 +0000] "GET /wp-content/plugins/vcrm/x.php?xi HTTP/1.0" 404 35265 "http://www.ikbensterdam.com/wp-content/plugins/vcrm/x.php?xi" "Mozilla/5.0 (Windows NT 6.1; WOW64) AppleWebKit/537.36 (KHTML, like Gecko) Chrome/42.0.2311.152 Safari/537.36"
31.170.123.73 - - [04/Nov/2018:19:05:51 +0000] "POST /wp-cron.php?doing_wp_cron=1541358351.0340740680694580078125 HTTP/1.0" 200 - "-" "WordPress/4.3.17; http://www.ikbensterdam.com"
31.170.123.73 - - [04/Nov/2018:20:46:23 +0000] "POST /wp-cron.php?doing_wp_cron=1541364383.7121100425720214843750 HTTP/1.0" 200 - "-" "WordPress/4.3.17; http://www.ikbensterdam.com"
80.90.55.171 - - [04/Nov/2018:20:46:23 +0000] "HEAD / HTTP/1.0" 200 - "-" "Mozilla/5.0 (compatible; Uptimebot/1.0; +http://www.uptime.com/uptimebot)"
97.74.228.245 - - [04/Nov/2018:20:46:48 +0000] "POST /xmlrpc.php HTTP/1.0" 200 403 "-" "Mozilla/5.0 (Macintosh; U; Intel Mac OS X 10.6; fr; rv:1.9.2.8) Gecko/20100722 Firefox/3.6.8"
31.170.123.73 - - [04/Nov/2018:21:11:27 +0000] "POST /wp-cron.php?doing_wp_cron=1541365887.7271668910980224609375 HTTP/1.0" 200 - "-" "WordPress/4.3.17; http://www.ikbensterdam.com"
69.16.254.229 - - [04/Nov/2018:21:11:27 +0000] "GET /wp-content/plugins/wp-seo/wp-seo.php HTTP/1.0" 301 - "http://site.ru" "Mozilla/5.0 (Windows; U; Windows NT 5.1; en-US) AppleWebKit/533.4 (KHTML, like Gecko) Chrome/5.0.375.99 Safari/533.4"
69.16.254.229 - - [04/Nov/2018:21:11:28 +0000] "GET /wp-content/plugins/wp-seo/wp-seo.php HTTP/1.0" 301 - "http://site.ru" "Mozilla/5.0 (Windows; U; Windows NT 5.1; en-US) AppleWebKit/533.4 (KHTML, like Gecko) Chrome/5.0.375.99 Safari/533.4"
69.16.254.229 - - [04/Nov/2018:21:11:31 +0000] "GET /wp-content/plugins/wp-seo/wp-seo.php HTTP/1.0" 404 35281 "http://site.ru" "Mozilla/5.0 (Windows; U; Windows NT 5.1; en-US) AppleWebKit/533.4 (KHTML, like Gecko) Chrome/5.0.375.99 Safari/533.4"
69.16.254.229 - - [04/Nov/2018:21:11:31 +0000] "GET /wp-content/plugins/wp-seo/wp-seo.php HTTP/1.0" 404 35281 "http://site.ru" "Mozilla/5.0 (Windows; U; Windows NT 5.1; en-US) AppleWebKit/533.4 (KHTML, like Gecko) Chrome/5.0.375.99 Safari/533.4"
31.170.123.73 - - [04/Nov/2018:22:34:49 +0000] "POST /wp-cron.php?doing_wp_cron=1541370889.0018498897552490234375 HTTP/1.0" 200 - "-" "WordPress/4.3.17; http://www.ikbensterdam.com"
198.23.202.38 - - [04/Nov/2018:22:34:48 +0000] "GET /robots.txt HTTP/1.0" 200 35 "-" "Mozilla/5.0 (Windows NT 10.0; Win64; x64; rv:50.0) Gecko/20100101 Firefox/50.0"
198.23.202.38 - - [04/Nov/2018:22:34:49 +0000] "GET /?author=1 HTTP/1.0" 301 - "-" "Mozilla/5.0 (Windows NT 10.0; Win64; x64; rv:50.0) Gecko/20100101 Firefox/50.0"
198.23.202.38 - - [04/Nov/2018:22:34:50 +0000] "POST /xmlrpc.php HTTP/1.0" 200 86001 "-" "Mozilla/5.0 (Windows NT 10.0; Win64; x64; rv:50.0) Gecko/20100101 Firefox/50.0"
198.23.202.38 - - [04/Nov/2018:22:34:53 +0000] "POST /xmlrpc.php HTTP/1.0" 200 86001 "-" "Mozilla/5.0 (Windows NT 10.0; Win64; x64; rv:50.0) Gecko/20100101 Firefox/50.0"
178.137.82.233 - - [04/Nov/2018:22:48:23 +0000] "GET /forums/ HTTP/1.0" 301 - "-" "Mozilla/5.0 (Windows NT 8.0; WOW64; rv:41.0) Gecko/20100101 Firefox/41.0"
31.170.123.73 - - [04/Nov/2018:22:56:57 +0000] "POST /wp-cron.php?doing_wp_cron=1541372217.9558649063110351562500 HTTP/1.0" 200 - "-" "WordPress/4.3.17; http://www.ikbensterdam.com"
97.74.228.245 - - [04/Nov/2018:22:56:57 +0000] "POST /xmlrpc.php HTTP/1.0" 200 403 "-" "Mozilla/5.0 (Macintosh; U; Intel Mac OS X 10.6; fr; rv:1.9.2.8) Gecko/20100722 Firefox/3.6.8"
220.164.2.100 - - [04/Nov/2018:23:29:53 +0000] "GET /wp-login.php HTTP/1.0" 200 7079 "-" "Mozilla/5.0 (Windows NT 5.1; rv:29.0) Gecko/20100101 Firefox/29.0"
220.164.2.100 - - [04/Nov/2018:23:29:56 +0000] "POST /wp-login.php HTTP/1.0" 200 8073 "-" "Mozilla/5.0 (Windows NT 5.1; rv:29.0) Gecko/20100101 Firefox/29.0"
31.170.123.73 - - [04/Nov/2018:23:44:58 +0000] "POST /wp-cron.php?doing_wp_cron=1541375098.8489789962768554687500 HTTP/1.0" 200 - "-" "WordPress/4.3.17; http://www.ikbensterdam.com"
222.243.211.200 - - [04/Nov/2018:23:44:58 +0000] "GET /wp-login.php HTTP/1.0" 200 7079 "-" "Mozilla/5.0 (Windows NT 5.1; rv:29.0) Gecko/20100101 Firefox/29.0"
222.243.211.200 - - [04/Nov/2018:23:45:00 +0000] "POST /wp-login.php HTTP/1.0" 200 8073 "-" "Mozilla/5.0 (Windows NT 5.1; rv:29.0) Gecko/20100101 Firefox/29.0"
185.117.118.152 - - [04/Nov/2018:23:51:48 +0000] "HEAD / HTTP/1.0" 200 - "-" "Mozilla/5.0 (compatible; Uptimebot/1.0; +http://www.uptime.com/uptimebot)"
31.170.123.73 - - [05/Nov/2018:00:41:39 +0000] "POST /wp-cron.php?doing_wp_cron=1541378499.0952949523925781250000 HTTP/1.0" 200 - "-" "WordPress/4.3.17; http://www.ikbensterdam.com"
88.86.220.60 - - [05/Nov/2018:00:41:38 +0000] "POST /wp-login.php HTTP/1.0" 200 8073 "-" "Opera/9.80 (Windows NT 6.0) Presto/2.12.388 Version/12.14"
31.170.123.73 - - [05/Nov/2018:00:56:35 +0000] "POST /wp-cron.php?doing_wp_cron=1541379395.1078639030456542968750 HTTP/1.0" 200 - "-" "WordPress/4.3.17; http://www.ikbensterdam.com"
185.85.239.110 - - [05/Nov/2018:00:56:34 +0000] "GET /wp-login.php HTTP/1.0" 200 7079 "-" "Mozilla/5.0 (Windows NT 10.0; WOW64) AppleWebKit/537.36 (KHTML, like Gecko) Chrome/51.0.2704.103 Safari/537.36"
185.85.239.110 - - [05/Nov/2018:00:56:35 +0000] "POST /wp-login.php HTTP/1.0" 200 8022 "http://www.ikbensterdam.com/wp-login.php" "Mozilla/5.0 (Windows NT 10.0; WOW64) AppleWebKit/537.36 (KHTML, like Gecko) Chrome/51.0.2704.103 Safari/537.36"
97.74.228.245 - - [05/Nov/2018:01:10:06 +0000] "POST /xmlrpc.php HTTP/1.0" 200 403 "-" "Mozilla/5.0 (Macintosh; U; Intel Mac OS X 10.6; fr; rv:1.9.2.8) Gecko/20100722 Firefox/3.6.8"
1.214.161.53 - - [05/Nov/2018:01:27:54 +0000] "GET /wp-login.php HTTP/1.0" 200 7079 "-" "Mozilla/5.0 (Windows NT 5.1; rv:29.0) Gecko/20100101 Firefox/29.0"
1.214.161.53 - - [05/Nov/2018:01:27:56 +0000] "POST /wp-login.php HTTP/1.0" 200 8073 "-" "Mozilla/5.0 (Windows NT 5.1; rv:29.0) Gecko/20100101 Firefox/29.0"
182.76.224.174 - - [05/Nov/2018:01:46:21 +0000] "POST /wp-login.php HTTP/1.0" 200 8073 "-" "Opera/9.80 (Windows NT 6.0) Presto/2.12.388 Version/12.14"
89.248.169.130 - - [05/Nov/2018:02:36:35 +0000] "POST /xmlrpc.php HTTP/1.0" 200 403 "-" "Mozilla/5.0 (Macintosh; U; Intel Mac OS X 10.6; fr; rv:1.9.2.8) Gecko/20100722 Firefox/3.6.8"
89.248.169.130 - - [05/Nov/2018:02:36:35 +0000] "POST /xmlrpc.php HTTP/1.0" 200 403 "-" "Mozilla/5.0 (Macintosh; U; Intel Mac OS X 10.6; fr; rv:1.9.2.8) Gecko/20100722 Firefox/3.6.8"
89.248.169.130 - - [05/Nov/2018:02:36:35 +0000] "POST /xmlrpc.php HTTP/1.0" 200 403 "-" "Mozilla/5.0 (Macintosh; U; Intel Mac OS X 10.6; fr; rv:1.9.2.8) Gecko/20100722 Firefox/3.6.8"
31.170.123.73 - - [05/Nov/2018:02:36:35 +0000] "POST /wp-cron.php?doing_wp_cron=1541385395.7804379463195800781250 HTTP/1.0" 200 - "-" "WordPress/4.3.17; http://www.ikbensterdam.com"
89.248.169.130 - - [05/Nov/2018:02:36:35 +0000] "POST /xmlrpc.php HTTP/1.0" 200 403 "-" "Mozilla/5.0 (Macintosh; U; Intel Mac OS X 10.6; fr; rv:1.9.2.8) Gecko/20100722 Firefox/3.6.8"
180.76.15.163 - - [05/Nov/2018:02:37:40 +0000] "GET /wp-content/plugins/yith-woocommerce-compare/assets/css/colorbox.css?ver=4.3.17 HTTP/1.0" 200 3941 "-" "Mozilla/5.0 (compatible; Baiduspider/2.0; +http://www.baidu.com/search/spider.html)"
180.76.15.20 - - [05/Nov/2018:02:37:42 +0000] "GET /robots.txt HTTP/1.0" 200 35 "-" "Mozilla/5.0 (Windows NT 5.1; rv:6.0.2) Gecko/20100101 Firefox/6.0.2"
180.76.15.138 - - [05/Nov/2018:02:37:42 +0000] "GET /robots.txt HTTP/1.0" 200 35 "-" "Mozilla/5.0 (Windows NT 5.1; rv:6.0.2) Gecko/20100101 Firefox/6.0.2"
31.170.123.73 - - [05/Nov/2018:02:55:35 +0000] "POST /wp-cron.php?doing_wp_cron=1541386535.7511990070343017578125 HTTP/1.0" 200 - "-" "WordPress/4.3.17; http://www.ikbensterdam.com"
193.201.224.210 - - [05/Nov/2018:02:55:35 +0000] "GET /wp-content/themes/ThisWay/includes/uploadify/upload_settings_image.php HTTP/1.0" 301 - "http://ikbensterdam.com/wp-content/themes/ThisWay/includes/uploadify/upload_settings_image.php" "Mozilla/5.0 (Windows NT 6.1; WOW64) AppleWebKit/537.36 (KHTML, like Gecko) Chrome/42.0.2311.152 Safari/537.36"
193.201.224.210 - - [05/Nov/2018:02:55:36 +0000] "GET /wp-content/themes/ThisWay/includes/uploadify/upload_settings_image.php HTTP/1.0" 404 35425 "http://ikbensterdam.com/wp-content/themes/ThisWay/includes/uploadify/upload_settings_image.php" "Mozilla/5.0 (Windows NT 6.1; WOW64) AppleWebKit/537.36 (KHTML, like Gecko) Chrome/42.0.2311.152 Safari/537.36"
