46.165.230.5 - - [06/Nov/2018:03:01:07 +0000] "GET / HTTP/1.0" 200 11888 "-" "Mozilla/5.0 (Windows NT 5.1; Win64; x64) AppleWebKit/537.36 (KHTML, like Gecko) Chrome/51.0.2704.79 Safari/537.36 Edge/14.14393"
46.165.230.5 - - [06/Nov/2018:03:01:08 +0000] "GET /?email-subscribe=giammanco407%40aol.com& HTTP/1.0" 200 11888 "http://looklala.com/" "Mozilla/5.0 (Windows NT 5.1; Win64; x64) AppleWebKit/537.36 (KHTML, like Gecko) Chrome/51.0.2704.79 Safari/537.36 Edge/14.14393"
18.223.195.193 - - [06/Nov/2018:03:11:59 +0000] "GET / HTTP/1.0" 200 11888 "-" "Mozilla/5.0 (Windows NT 6.1; Win64; x64; rv:47.0) Trident/5.0 Chrome/51.0.2704.106 Safari/537.36 OPR/38.0.2220.41"
37.187.129.166 - - [06/Nov/2018:03:40:34 +0000] "GET / HTTP/1.0" 200 11888 "-" "Mozilla/5.0 (Windows NT 6.0; Win64; x64) AppleWebKit/537.36 (KHTML, like Gecko) Chrome/60.0.3112.90 Safari/537.36"
51.15.123.230 - - [06/Nov/2018:03:40:35 +0000] "GET /?email-subscribe=nikowright43%40yahoo.com& HTTP/1.0" 200 11888 "http://looklala.com/" "Mozilla/5.0 (Windows NT 6.0; Win64; x64) AppleWebKit/537.36 (KHTML, like Gecko) Chrome/60.0.3112.90 Safari/537.36"
18.222.199.103 - - [06/Nov/2018:03:41:14 +0000] "GET / HTTP/1.0" 200 11888 "-" "Mozilla/5.0 (X11; Linux x86_64) Trident/5.0 Chrome/51.0.2704.106 Safari/537.36 OPR/38.0.2220.41"
42.236.99.154 - - [06/Nov/2018:04:09:55 +0000] "GET / HTTP/1.0" 200 11888 "http://looklala.com/" "Mozilla/5.0 (Windows NT 6.1; WOW64) AppleWebKit/537.36 (KHTML, like Gecko) Chrome/50.0.2661.102 Safari/537.36; 360Spider"
42.236.99.72 - - [06/Nov/2018:04:10:16 +0000] "GET / HTTP/1.0" 200 11888 "http://www.looklala.com/" "Mozilla/5.0 (Windows NT 6.1; WOW64) AppleWebKit/537.36 (KHTML, like Gecko) Chrome/50.0.2661.102 Safari/537.36; 360Spider"
18.191.244.114 - - [06/Nov/2018:04:11:13 +0000] "GET / HTTP/1.0" 200 11888 "-" "Mozilla/5.0 (X11; Linux x86_64) Trident/5.0 Chrome/67.0.3396.79 Safari/537.36"
85.248.227.163 - - [06/Nov/2018:04:36:45 +0000] "GET / HTTP/1.0" 200 11888 "-" "Mozilla/5.0 (compatible; MSIE 10.0; Windows NT 6.2; WOW64; Trident/6.0)"
85.248.227.163 - - [06/Nov/2018:04:36:45 +0000] "GET /?email-subscribe=xxshopexx%40aol.com& HTTP/1.0" 200 11888 "http://looklala.com/" "Mozilla/5.0 (compatible; MSIE 10.0; Windows NT 6.2; WOW64; Trident/6.0)"
18.223.195.193 - - [06/Nov/2018:04:40:23 +0000] "GET / HTTP/1.0" 200 11888 "-" "Mozilla/5.0 (Windows NT 6.1; Win64; x64; rv:47.0) Gecko/20100101 Safari/602.1"
42.236.46.85 - - [06/Nov/2018:04:41:24 +0000] "GET /robots.txt HTTP/1.0" 404 208 "http://www.looklala.com/robots.txt" "Mozilla/5.0 (Windows NT 6.1; WOW64) AppleWebKit/537.36 (KHTML, like Gecko) Chrome/50.0.2661.102 Safari/537.36; 360Spider"
18.217.34.193 - - [06/Nov/2018:05:11:18 +0000] "GET / HTTP/1.0" 200 11888 "-" "Mozilla/5.0 (X11; Linux x86_64) Gecko/20100101 Chrome/67.0.3396.79 Safari/537.36"
18.220.209.234 - - [06/Nov/2018:05:41:06 +0000] "GET / HTTP/1.0" 200 11888 "-" "Mozilla/5.0 (Macintosh; Intel Mac OS X x.y; rv:42.0) Trident/5.0 Firefox/42.0"
42.236.99.166 - - [06/Nov/2018:05:45:11 +0000] "GET /robots.txt HTTP/1.0" 404 208 "http://www.looklala.com/robots.txt" "Mozilla/5.0 (Windows NT 6.1; WOW64) AppleWebKit/537.36 (KHTML, like Gecko) Chrome/50.0.2661.102 Safari/537.36; 360Spider"
42.236.103.66 - - [06/Nov/2018:05:45:11 +0000] "GET /robots.txt HTTP/1.0" 404 208 "http://looklala.com/robots.txt" "Mozilla/5.0 (Windows NT 6.1; WOW64) AppleWebKit/537.36 (KHTML, like Gecko) Chrome/50.0.2661.102 Safari/537.36; 360Spider"
42.236.99.166 - - [06/Nov/2018:05:45:11 +0000] "GET /robots.txt HTTP/1.0" 404 208 "http://looklala.com/robots.txt" "Mozilla/5.0 (Windows NT 6.1; WOW64) AppleWebKit/537.36 (KHTML, like Gecko) Chrome/50.0.2661.102 Safari/537.36; 360Spider"
180.76.15.144 - - [06/Nov/2018:05:56:16 +0000] "GET /?content/2065.html HTTP/1.0" 200 11888 "-" "Mozilla/5.0 (compatible; Baiduspider/2.0; +http://www.baidu.com/search/spider.html)"
18.223.115.234 - - [06/Nov/2018:06:16:40 +0000] "GET / HTTP/1.0" 200 11888 "-" "Mozilla/5.0 (Windows NT 6.1; Win64; x64; rv:47.0) Trident/5.0 Chrome/51.0.2704.106 Safari/537.36 OPR/38.0.2220.41"
180.76.15.147 - - [06/Nov/2018:06:29:36 +0000] "GET /?content/17457.html HTTP/1.0" 200 11888 "-" "Mozilla/5.0 (compatible; Baiduspider/2.0; +http://www.baidu.com/search/spider.html)"
185.220.101.21 - - [06/Nov/2018:06:32:33 +0000] "GET / HTTP/1.0" 200 11888 "-" "Mozilla/5.0 (Windows NT 6.1; WOW64; rv:54.0) Gecko/20100101 Firefox/54.0"
185.220.101.21 - - [06/Nov/2018:06:32:33 +0000] "GET /?email-subscribe=poogurt%40yahoo.com& HTTP/1.0" 200 11888 "http://looklala.com/" "Mozilla/5.0 (Windows NT 6.1; WOW64; rv:54.0) Gecko/20100101 Firefox/54.0"
18.223.239.51 - - [06/Nov/2018:06:42:05 +0000] "GET / HTTP/1.0" 200 11888 "-" "Mozilla/5.0 (X11; Linux x86_64) Gecko/20100101 Chrome/67.0.3396.79 Safari/537.36"
157.55.39.38 - - [06/Nov/2018:07:02:55 +0000] "GET /robots.txt HTTP/1.0" 404 208 "-" "Mozilla/5.0 (compatible; bingbot/2.0; +http://www.bing.com/bingbot.htm)"
180.76.15.159 - - [06/Nov/2018:07:02:56 +0000] "GET / HTTP/1.0" 200 11888 "-" "Mozilla/5.0 (compatible; Baiduspider/2.0; +http://www.baidu.com/search/spider.html)"
40.77.167.10 - - [06/Nov/2018:07:02:59 +0000] "GET / HTTP/1.0" 200 11888 "-" "Mozilla/5.0 (compatible; bingbot/2.0; +http://www.bing.com/bingbot.htm)"
18.191.165.74 - - [06/Nov/2018:07:11:38 +0000] "GET / HTTP/1.0" 200 11888 "-" "Mozilla/5.0 (Macintosh; Intel Mac OS X x.y; rv:42.0) Trident/5.0 Chrome/67.0.3396.79 Safari/537.36"
51.15.43.205 - - [06/Nov/2018:07:32:09 +0000] "GET / HTTP/1.0" 200 11888 "-" "Mozilla/5.0 (Windows NT 6.1; Win64; x64) AppleWebKit/537.36 (KHTML, like Gecko) Chrome/42.0.2311.135 Safari/537.36 Edge/12.10240"
51.15.43.205 - - [06/Nov/2018:07:32:09 +0000] "GET /?email-subscribe=nikowright43%40yahoo.com& HTTP/1.0" 200 11888 "http://looklala.com/" "Mozilla/5.0 (Windows NT 6.1; Win64; x64) AppleWebKit/537.36 (KHTML, like Gecko) Chrome/42.0.2311.135 Safari/537.36 Edge/12.10240"
18.223.247.156 - - [06/Nov/2018:07:41:35 +0000] "GET / HTTP/1.0" 200 11888 "-" "Mozilla/5.0 (Macintosh; Intel Mac OS X x.y; rv:42.0) Gecko/20100101 Chrome/51.0.2704.106 Safari/537.36 OPR/38.0.2220.41"
109.70.100.19 - - [06/Nov/2018:07:51:04 +0000] "GET / HTTP/1.0" 200 11888 "-" "Mozilla/5.0 (Windows NT 5.1; WOW64; rv:52.0) Gecko/20100101 Firefox/52.0"
109.70.100.19 - - [06/Nov/2018:07:51:05 +0000] "GET /?email-subscribe=karl.goodwin404%40gmail.com& HTTP/1.0" 200 11888 "http://looklala.com/" "Mozilla/5.0 (Windows NT 5.1; WOW64; rv:52.0) Gecko/20100101 Firefox/52.0"
95.168.216.16 - - [06/Nov/2018:08:00:18 +0000] "GET / HTTP/1.0" 200 11888 "-" "Mozilla/5.0 (Macintosh; Intel Mac OS X 10_11_4) AppleWebKit/601.5.17 (KHTML, like Gecko) Version/9.1 Safari/601.5.17"
95.168.216.16 - - [06/Nov/2018:08:00:18 +0000] "GET /?email-subscribe=robert.frederking%40gmail.com& HTTP/1.0" 200 11888 "http://looklala.com/" "Mozilla/5.0 (Macintosh; Intel Mac OS X 10_11_4) AppleWebKit/601.5.17 (KHTML, like Gecko) Version/9.1 Safari/601.5.17"
18.221.249.123 - - [06/Nov/2018:08:15:25 +0000] "GET / HTTP/1.0" 200 11888 "-" "Mozilla/5.0 (Macintosh; Intel Mac OS X x.y; rv:42.0) Gecko/20100101 Chrome/67.0.3396.79 Safari/537.36"
18.221.39.211 - - [06/Nov/2018:08:16:31 +0000] "GET / HTTP/1.0" 200 11888 "-" "Mozilla/5.0 (Macintosh; Intel Mac OS X x.y; rv:42.0) AppleWebKit/537.36 (KHTML, like Gecko) Chrome/51.0.2704.106 Safari/537.36 OPR/38.0.2220.41"
18.222.69.217 - - [06/Nov/2018:08:41:46 +0000] "GET / HTTP/1.0" 200 11888 "-" "Mozilla/5.0 (Macintosh; Intel Mac OS X x.y; rv:42.0) AppleWebKit/537.36 (KHTML, like Gecko) Chrome/67.0.3396.79 Safari/537.36"
220.243.135.237 - - [06/Nov/2018:08:43:32 +0000] "GET / HTTP/1.0" 200 11888 "-" "Mozilla/5.0 (Linux; Android 6.0; Nexus 5 Build/MRA58N) AppleWebKit/537.36 (KHTML, like Gecko) Chrome/60.0.6726.591 Mobile Safari/537.36"
5.79.86.15 - - [06/Nov/2018:09:04:29 +0000] "GET / HTTP/1.0" 200 11888 "-" "Mozilla/5.0 (Windows NT 10.0; Win64; x64) AppleWebKit/537.36 (KHTML, like Gecko) Chrome/60.0.3112.78 Safari/537.36 OPR/47.0.2631.39"
5.79.86.15 - - [06/Nov/2018:09:04:30 +0000] "GET /?email-subscribe=crookedicat%40yahoo.com& HTTP/1.0" 200 11888 "http://looklala.com/" "Mozilla/5.0 (Windows NT 10.0; Win64; x64) AppleWebKit/537.36 (KHTML, like Gecko) Chrome/60.0.3112.78 Safari/537.36 OPR/47.0.2631.39"
185.222.202.125 - - [06/Nov/2018:09:05:03 +0000] "GET / HTTP/1.0" 200 11888 "-" "Mozilla/5.0 (Macintosh; Intel Mac OS X 10_10_5) AppleWebKit/603.3.8 (KHTML, like Gecko) Version/10.1.2 Safari/603.3.8"
217.170.197.83 - - [06/Nov/2018:09:05:06 +0000] "GET /?email-subscribe=crookedicat%40yahoo.com& HTTP/1.0" 200 11888 "http://looklala.com/" "Mozilla/5.0 (Macintosh; Intel Mac OS X 10_10_5) AppleWebKit/603.3.8 (KHTML, like Gecko) Version/10.1.2 Safari/603.3.8"
18.217.24.3 - - [06/Nov/2018:09:11:15 +0000] "GET / HTTP/1.0" 200 11888 "-" "Mozilla/5.0 (Macintosh; Intel Mac OS X x.y; rv:42.0) Gecko/20100101 Firefox/42.0"
18.191.165.74 - - [06/Nov/2018:09:41:04 +0000] "GET / HTTP/1.0" 200 11888 "-" "Mozilla/5.0 (Macintosh; Intel Mac OS X x.y; rv:42.0) Trident/5.0 Safari/602.1"
62.149.29.46 - - [06/Nov/2018:09:44:08 +0000] "GET / HTTP/1.0" 200 11888 "http://looklala.com/" "Mozilla/5.0 (Macintosh; U; Intel Mac OS X 10_47_90) AppleWebKit/533.06.59 (KHTML, like Gecko) Chrome/57.5.1806.6178 Safari/530.67 Edge/34.73479"
62.149.29.46 - - [06/Nov/2018:09:44:08 +0000] "GET //blog/ HTTP/1.0" 404 203 "http://looklala.com/" "Mozilla/5.0 (Macintosh; U; Intel Mac OS X 10_47_90) AppleWebKit/533.06.59 (KHTML, like Gecko) Chrome/57.5.1806.6178 Safari/530.67 Edge/34.73479"
199.249.230.73 - - [06/Nov/2018:09:46:31 +0000] "GET / HTTP/1.0" 200 11888 "-" "Mozilla/5.0 (Windows NT 6.3; WOW64) AppleWebKit/537.36 (KHTML, like Gecko) Chrome/51.0.2704.106 Safari/537.36"
199.249.230.73 - - [06/Nov/2018:09:46:32 +0000] "GET /?email-subscribe=baileydoit%40gmail.com& HTTP/1.0" 200 11888 "http://looklala.com/" "Mozilla/5.0 (Windows NT 6.3; WOW64) AppleWebKit/537.36 (KHTML, like Gecko) Chrome/51.0.2704.106 Safari/537.36"
185.220.100.252 - - [06/Nov/2018:10:11:54 +0000] "GET / HTTP/1.0" 200 11888 "-" "Mozilla/5.0 (Macintosh; Intel Mac OS X 10_12_6) AppleWebKit/603.3.8 (KHTML, like Gecko) Version/10.1.2 Safari/603.3.8"
185.220.100.252 - - [06/Nov/2018:10:11:55 +0000] "GET /?email-subscribe=hearnrick%40yahoo.com& HTTP/1.0" 200 11888 "http://looklala.com/" "Mozilla/5.0 (Macintosh; Intel Mac OS X 10_12_6) AppleWebKit/603.3.8 (KHTML, like Gecko) Version/10.1.2 Safari/603.3.8"
18.223.195.193 - - [06/Nov/2018:10:12:21 +0000] "GET / HTTP/1.0" 200 11888 "-" "Mozilla/5.0 (Macintosh; Intel Mac OS X x.y; rv:42.0) Trident/5.0 Safari/602.1"
52.165.166.139 - - [06/Nov/2018:10:13:53 +0000] "GET / HTTP/1.0" 200 11888 "-" "Mozilla/5.0 (Macintosh; Intel Mac OS X 10_13_3) AppleWebKit/537.36 (KHTML, like Gecko) Chrome/64.0.3282.186 Safari/537.36"
52.165.166.139 - - [06/Nov/2018:10:19:16 +0000] "GET / HTTP/1.0" 200 11888 "-" "Mozilla/5.0 (Windows NT 6.1; Win64; x64) AppleWebKit/537.36 (KHTML, like Gecko) Chrome/64.0.3282.186 Safari/537.36"
18.222.143.109 - - [06/Nov/2018:10:42:28 +0000] "GET / HTTP/1.0" 200 11888 "-" "Mozilla/5.0 (Windows NT 6.1; Win64; x64; rv:47.0) AppleWebKit/537.36 (KHTML, like Gecko) Chrome/51.0.2704.106 Safari/537.36 OPR/38.0.2220.41"
180.76.15.160 - - [06/Nov/2018:11:10:46 +0000] "GET /?content/10928.html HTTP/1.0" 200 11888 "-" "Mozilla/5.0 (compatible; Baiduspider/2.0; +http://www.baidu.com/search/spider.html)"
18.217.89.105 - - [06/Nov/2018:11:12:30 +0000] "GET / HTTP/1.0" 200 11888 "-" "Mozilla/5.0 (Windows NT 6.1; Win64; x64; rv:47.0) Gecko/20100101 Firefox/42.0"
18.188.177.91 - - [06/Nov/2018:11:41:36 +0000] "GET / HTTP/1.0" 200 11888 "-" "Mozilla/5.0 (X11; Linux x86_64) AppleWebKit/537.36 (KHTML, like Gecko) Firefox/42.0"
180.76.15.22 - - [06/Nov/2018:11:44:06 +0000] "GET /?content/22313.html HTTP/1.0" 200 11888 "-" "Mozilla/5.0 (compatible; Baiduspider/2.0; +http://www.baidu.com/search/spider.html)"
18.188.208.82 - - [06/Nov/2018:12:13:18 +0000] "GET / HTTP/1.0" 200 11888 "-" "Mozilla/5.0 (X11; Linux x86_64) Gecko/20100101 Chrome/51.0.2704.106 Safari/537.36 OPR/38.0.2220.41"
185.220.101.12 - - [06/Nov/2018:12:14:19 +0000] "GET / HTTP/1.0" 200 11888 "-" "Mozilla/5.0 (Windows NT 6.3; Win64; x64) AppleWebKit/537.36 (KHTML, like Gecko) Chrome/52.0.2743.116 Safari/537.36 Edge/15.15063"
185.220.101.12 - - [06/Nov/2018:12:14:20 +0000] "GET /?email-subscribe=jmakowski208%40gmail.com& HTTP/1.0" 200 11888 "http://looklala.com/" "Mozilla/5.0 (Windows NT 6.3; Win64; x64) AppleWebKit/537.36 (KHTML, like Gecko) Chrome/52.0.2743.116 Safari/537.36 Edge/15.15063"
3.16.46.187 - - [06/Nov/2018:12:41:56 +0000] "GET / HTTP/1.0" 200 11888 "-" "Mozilla/5.0 (Windows NT 6.1; Win64; x64; rv:47.0) Trident/5.0 Firefox/42.0"
18.217.120.202 - - [06/Nov/2018:13:12:03 +0000] "GET / HTTP/1.0" 200 11888 "-" "Mozilla/5.0 (X11; Linux x86_64) AppleWebKit/537.36 (KHTML, like Gecko) Safari/602.1"
185.222.202.133 - - [06/Nov/2018:13:24:32 +0000] "GET / HTTP/1.0" 200 11888 "-" "Mozilla/5.0 (Windows NT 10.0; Win64; x64; rv:57.0) Gecko/20100101 Firefox/57.0"
185.222.202.133 - - [06/Nov/2018:13:24:32 +0000] "GET /?email-subscribe=sturso%40comcast.net& HTTP/1.0" 200 11888 "http://looklala.com/" "Mozilla/5.0 (Windows NT 10.0; Win64; x64; rv:57.0) Gecko/20100101 Firefox/57.0"
209.17.96.50 - - [06/Nov/2018:13:34:01 +0000] "GET / HTTP/1.0" 200 11888 "-" "Mozilla/5.0 (compatible; Nimbostratus-Bot/v1.3.2; http://cloudsystemnetworks.com)"
18.188.69.31 - - [06/Nov/2018:13:43:13 +0000] "GET / HTTP/1.0" 200 11888 "-" "Mozilla/5.0 (Windows NT 6.1; Win64; x64; rv:47.0) AppleWebKit/537.36 (KHTML, like Gecko) Firefox/42.0"
13.58.214.240 - - [06/Nov/2018:14:13:44 +0000] "GET / HTTP/1.0" 200 11888 "-" "Mozilla/5.0 (Windows NT 6.1; Win64; x64; rv:47.0) Trident/5.0 Chrome/67.0.3396.79 Safari/537.36"
185.220.101.44 - - [06/Nov/2018:14:19:35 +0000] "GET / HTTP/1.0" 200 11888 "-" "Mozilla/5.0 (Windows NT 10.0; Win64; x64) AppleWebKit/537.36 (KHTML, like Gecko) Chrome/59.0.3071.115 Safari/537.36"
216.218.222.12 - - [06/Nov/2018:14:19:37 +0000] "GET /?email-subscribe=karl.goodwin404%40gmail.com& HTTP/1.0" 200 11888 "http://looklala.com/" "Mozilla/5.0 (Windows NT 10.0; Win64; x64) AppleWebKit/537.36 (KHTML, like Gecko) Chrome/59.0.3071.115 Safari/537.36"
185.220.101.45 - - [06/Nov/2018:14:21:10 +0000] "GET / HTTP/1.0" 200 11888 "-" "Mozilla/5.0 (Windows NT 10.0; WOW64; rv:59.0) Gecko/20100101 Firefox/59.0"
185.220.101.45 - - [06/Nov/2018:14:21:10 +0000] "GET /?email-subscribe=rhotaling1%40gmail.com& HTTP/1.0" 200 11888 "http://looklala.com/" "Mozilla/5.0 (Windows NT 10.0; WOW64; rv:59.0) Gecko/20100101 Firefox/59.0"
66.70.174.17 - - [06/Nov/2018:14:41:14 +0000] "GET / HTTP/1.0" 200 11888 "-" "Mozilla/5.0 (Windows NT 6.1; Win64; x64) AppleWebKit/537.36 (KHTML, like Gecko) Chrome/66.0.3359.117 Safari/537.36"
195.189.96.147 - - [06/Nov/2018:14:41:15 +0000] "GET /?email-subscribe=austin%40findsdrealestate.com& HTTP/1.0" 200 11888 "http://looklala.com/" "Mozilla/5.0 (Windows NT 6.1; Win64; x64) AppleWebKit/537.36 (KHTML, like Gecko) Chrome/66.0.3359.117 Safari/537.36"
162.247.74.202 - - [06/Nov/2018:14:41:54 +0000] "GET / HTTP/1.0" 200 11888 "-" "Mozilla/5.0 (Windows NT 6.3; WOW64; rv:52.0) Gecko/20100101 Firefox/52.0"
162.247.74.202 - - [06/Nov/2018:14:41:55 +0000] "GET /?email-subscribe=jimm8228%40aol.com& HTTP/1.0" 200 11888 "http://looklala.com/" "Mozilla/5.0 (Windows NT 6.3; WOW64; rv:52.0) Gecko/20100101 Firefox/52.0"
18.221.68.148 - - [06/Nov/2018:14:42:14 +0000] "GET / HTTP/1.0" 200 11888 "-" "Mozilla/5.0 (X11; Linux x86_64) Gecko/20100101 Firefox/42.0"
176.10.99.200 - - [06/Nov/2018:14:57:20 +0000] "GET / HTTP/1.0" 200 11888 "-" "Mozilla/5.0 (Windows NT 6.1; WOW64; rv:44.0) Gecko/20100101 Firefox/44.0"
176.10.99.200 - - [06/Nov/2018:14:57:20 +0000] "GET /?email-subscribe=d.rudek%40web.de& HTTP/1.0" 200 11888 "http://looklala.com/" "Mozilla/5.0 (Windows NT 6.1; WOW64; rv:44.0) Gecko/20100101 Firefox/44.0"
176.10.104.240 - - [06/Nov/2018:15:00:59 +0000] "GET / HTTP/1.0" 200 11888 "-" "Mozilla/5.0 (Windows NT 10.0; Win64; x64; rv:61.0) Gecko/20100101 Firefox/61.0"
176.10.104.240 - - [06/Nov/2018:15:01:00 +0000] "GET /?email-subscribe=karl.goodwin404%40gmail.com& HTTP/1.0" 200 11888 "http://looklala.com/" "Mozilla/5.0 (Windows NT 10.0; Win64; x64; rv:61.0) Gecko/20100101 Firefox/61.0"
37.187.129.166 - - [06/Nov/2018:15:08:51 +0000] "GET / HTTP/1.0" 200 11888 "-" "Mozilla/5.0 (Windows NT 6.1; WOW64; rv:56.0) Gecko/20100101 Firefox/56.0"
37.187.129.166 - - [06/Nov/2018:15:08:52 +0000] "GET /?email-subscribe=d.leuschner%40freenet.de& HTTP/1.0" 200 11888 "http://looklala.com/" "Mozilla/5.0 (Windows NT 6.1; WOW64; rv:56.0) Gecko/20100101 Firefox/56.0"
18.222.199.103 - - [06/Nov/2018:15:11:28 +0000] "GET / HTTP/1.0" 200 11888 "-" "Mozilla/5.0 (X11; Linux x86_64) Gecko/20100101 Chrome/51.0.2704.106 Safari/537.36 OPR/38.0.2220.41"
185.24.218.173 - - [06/Nov/2018:15:26:58 +0000] "GET / HTTP/1.0" 200 11888 "-" "Mozilla/5.0 (Windows NT 6.1; WOW64; Trident/7.0; rv:11.0) like Gecko"
18.218.156.196 - - [06/Nov/2018:15:42:39 +0000] "GET / HTTP/1.0" 200 11888 "-" "Mozilla/5.0 (X11; Linux x86_64) Trident/5.0 Chrome/51.0.2704.106 Safari/537.36 OPR/38.0.2220.41"
178.154.200.6 - - [06/Nov/2018:15:44:50 +0000] "GET /robots.txt HTTP/1.0" 404 208 "-" "Mozilla/5.0 (compatible; YandexBot/3.0; +http://yandex.com/bots)"
141.8.142.120 - - [06/Nov/2018:15:44:50 +0000] "GET /robots.txt HTTP/1.0" 404 208 "-" "Mozilla/5.0 (compatible; YandexBot/3.0; +http://yandex.com/bots)"
178.154.244.10 - - [06/Nov/2018:15:44:54 +0000] "GET / HTTP/1.0" 200 11888 "-" "Mozilla/5.0 (compatible; YandexBot/3.0; +http://yandex.com/bots)"
141.8.142.120 - - [06/Nov/2018:15:44:54 +0000] "GET / HTTP/1.0" 200 11888 "-" "Mozilla/5.0 (compatible; YandexBot/3.0; +http://yandex.com/bots)"
95.128.43.164 - - [06/Nov/2018:15:51:38 +0000] "GET / HTTP/1.0" 200 11888 "-" "Mozilla/5.0 (Windows NT 6.1; Win64; x64) AppleWebKit/537.36 (KHTML, like Gecko) Chrome/57.0.2987.133 Safari/537.36"
95.128.43.164 - - [06/Nov/2018:15:51:39 +0000] "GET /?email-subscribe=karl.goodwin404%40gmail.com& HTTP/1.0" 200 11888 "http://looklala.com/" "Mozilla/5.0 (Windows NT 6.1; Win64; x64) AppleWebKit/537.36 (KHTML, like Gecko) Chrome/57.0.2987.133 Safari/537.36"
18.221.249.123 - - [06/Nov/2018:16:13:15 +0000] "GET / HTTP/1.0" 200 11888 "-" "Mozilla/5.0 (Windows NT 6.1; Win64; x64; rv:47.0) AppleWebKit/537.36 (KHTML, like Gecko) Chrome/67.0.3396.79 Safari/537.36"
190.2.148.176 - - [06/Nov/2018:16:16:28 +0000] "GET / HTTP/1.0" 200 11888 "-" "Mozilla/5.0 (Windows NT 5.1) AppleWebKit/537.36 (KHTML, like Gecko) Chrome/27.0.1453.94 Safari/537.36"
185.220.102.6 - - [06/Nov/2018:16:36:12 +0000] "GET / HTTP/1.0" 200 11888 "-" "Mozilla/5.0 (Windows NT 6.0; Win64; x64) AppleWebKit/537.36 (KHTML, like Gecko) Chrome/46.0.2486.0 Safari/537.36 Edge/13.10586"
185.220.102.6 - - [06/Nov/2018:16:36:13 +0000] "GET /?email-subscribe=nlsilva64%40yahoo.com& HTTP/1.0" 200 11888 "http://looklala.com/" "Mozilla/5.0 (Windows NT 6.0; Win64; x64) AppleWebKit/537.36 (KHTML, like Gecko) Chrome/46.0.2486.0 Safari/537.36 Edge/13.10586"
18.217.24.3 - - [06/Nov/2018:16:42:14 +0000] "GET / HTTP/1.0" 200 11888 "-" "Mozilla/5.0 (X11; Linux x86_64) AppleWebKit/537.36 (KHTML, like Gecko) Chrome/67.0.3396.79 Safari/537.36"
178.17.171.102 - - [06/Nov/2018:16:44:47 +0000] "GET / HTTP/1.0" 200 11888 "-" "Mozilla/5.0 (Macintosh; Intel Mac OS X 10_12_6) AppleWebKit/603.3.8 (KHTML, like Gecko)"
178.17.171.102 - - [06/Nov/2018:16:44:48 +0000] "GET /?email-subscribe=paulinemphelps%40aol.com& HTTP/1.0" 200 11888 "http://looklala.com/" "Mozilla/5.0 (Macintosh; Intel Mac OS X 10_12_6) AppleWebKit/603.3.8 (KHTML, like Gecko)"
185.220.101.8 - - [06/Nov/2018:16:46:31 +0000] "GET / HTTP/1.0" 200 11888 "-" "Mozilla/5.0 (Windows NT 6.1; WOW64) AppleWebKit/537.36 (KHTML, like Gecko) Chrome/46.0.2490.80 Safari/537.36"
185.220.101.8 - - [06/Nov/2018:16:46:32 +0000] "GET /?email-subscribe=tlr2211%40yahoo.com& HTTP/1.0" 200 11888 "http://looklala.com/" "Mozilla/5.0 (Windows NT 6.1; WOW64) AppleWebKit/537.36 (KHTML, like Gecko) Chrome/46.0.2490.80 Safari/537.36"
137.74.169.241 - - [06/Nov/2018:16:49:55 +0000] "GET / HTTP/1.0" 200 11888 "-" "Mozilla/5.0 (Windows NT 10.0; Win64; x64) AppleWebKit/537.36 (KHTML, like Gecko) Chrome/65.0.3325.181 Safari/537.36"
137.74.169.241 - - [06/Nov/2018:16:49:56 +0000] "GET /?email-subscribe=tlr2211%40yahoo.com& HTTP/1.0" 200 11888 "http://looklala.com/" "Mozilla/5.0 (Windows NT 10.0; Win64; x64) AppleWebKit/537.36 (KHTML, like Gecko) Chrome/65.0.3325.181 Safari/537.36"
192.160.102.166 - - [06/Nov/2018:16:59:17 +0000] "GET / HTTP/1.0" 200 11888 "-" "Mozilla/5.0 (compatible; MSIE 9.0; Windows NT 6.1; WOW64; Trident/5.0)"
192.160.102.166 - - [06/Nov/2018:16:59:18 +0000] "GET /?email-subscribe=tlr2211%40yahoo.com& HTTP/1.0" 200 11888 "http://looklala.com/" "Mozilla/5.0 (compatible; MSIE 9.0; Windows NT 6.1; WOW64; Trident/5.0)"
52.14.98.62 - - [06/Nov/2018:17:12:34 +0000] "GET / HTTP/1.0" 200 11888 "-" "Mozilla/5.0 (Macintosh; Intel Mac OS X x.y; rv:42.0) Trident/5.0 Chrome/51.0.2704.106 Safari/537.36 OPR/38.0.2220.41"
77.247.181.165 - - [06/Nov/2018:17:19:22 +0000] "GET / HTTP/1.0" 200 11888 "-" "Mozilla/5.0 (Macintosh; Intel Mac OS X 10_13_4) AppleWebKit/605.1.15 (KHTML, like Gecko) Version/11.1 Safari/605.1.15"
77.247.181.165 - - [06/Nov/2018:17:19:23 +0000] "GET /?email-subscribe=jessieb526%40yahoo.com& HTTP/1.0" 200 11888 "http://looklala.com/" "Mozilla/5.0 (Macintosh; Intel Mac OS X 10_13_4) AppleWebKit/605.1.15 (KHTML, like Gecko) Version/11.1 Safari/605.1.15"
18.85.22.239 - - [06/Nov/2018:17:23:32 +0000] "GET / HTTP/1.0" 200 11888 "-" "Mozilla/5.0 (Windows NT 10.0; WOW64; Trident/7.0; Touch; rv:11.0) like Gecko"
18.85.22.239 - - [06/Nov/2018:17:23:34 +0000] "GET /?email-subscribe=jessicasaar2002%40yahoo.com& HTTP/1.0" 200 11888 "http://looklala.com/" "Mozilla/5.0 (Windows NT 10.0; WOW64; Trident/7.0; Touch; rv:11.0) like Gecko"
34.209.147.91 - - [06/Nov/2018:17:31:42 +0000] "GET / HTTP/1.0" 200 11888 "-" "Mozilla/5.0 (Macintosh; Intel Mac OS X 10_10_3) AppleWebKit/537.36 (KHTML, like Gecko) Chrome/44.0.2403.89 Safari/537.36"
18.191.230.117 - - [06/Nov/2018:17:42:17 +0000] "GET / HTTP/1.0" 200 11888 "-" "Mozilla/5.0 (X11; Linux x86_64) AppleWebKit/537.36 (KHTML, like Gecko) Safari/602.1"
3.16.46.187 - - [06/Nov/2018:18:11:30 +0000] "GET / HTTP/1.0" 200 11888 "-" "Mozilla/5.0 (Windows NT 6.1; Win64; x64; rv:47.0) AppleWebKit/537.36 (KHTML, like Gecko) Safari/602.1"
37.187.94.86 - - [06/Nov/2018:18:15:25 +0000] "GET / HTTP/1.0" 200 11888 "-" "Mozilla/5.0 (Windows NT 6.1; Win64; x64) AppleWebKit/537.36 (KHTML, like Gecko) Chrome/66.0.3359.117 Safari/537.36"
37.187.94.86 - - [06/Nov/2018:18:15:25 +0000] "GET /?email-subscribe=jamieyoo%40yahoo.com& HTTP/1.0" 200 11888 "http://looklala.com/" "Mozilla/5.0 (Windows NT 6.1; Win64; x64) AppleWebKit/537.36 (KHTML, like Gecko) Chrome/66.0.3359.117 Safari/537.36"
106.38.241.110 - - [06/Nov/2018:18:15:40 +0000] "GET /robots.txt HTTP/1.0" 404 208 "-" "Sogou web spider/4.0(+http://www.sogou.com/docs/help/webmasters.htm#07)"
106.38.241.110 - - [06/Nov/2018:18:20:22 +0000] "GET / HTTP/1.0" 200 11888 "-" "Sogou web spider/4.0(+http://www.sogou.com/docs/help/webmasters.htm#07)"
185.220.102.4 - - [06/Nov/2018:18:39:28 +0000] "GET / HTTP/1.0" 200 11888 "-" "Mozilla/5.0 (Windows NT 6.1; Win64; x64) AppleWebKit/537.36 (KHTML, like Gecko) Chrome/62.0.3202.89 Safari/537.36"
185.220.102.4 - - [06/Nov/2018:18:39:29 +0000] "GET /?email-subscribe=larsonsautomotive%40att.net& HTTP/1.0" 200 11888 "http://looklala.com/" "Mozilla/5.0 (Windows NT 6.1; Win64; x64) AppleWebKit/537.36 (KHTML, like Gecko) Chrome/62.0.3202.89 Safari/537.36"
52.53.201.78 - - [06/Nov/2018:18:43:11 +0000] "GET / HTTP/1.0" 200 11888 "-" "Mozilla/5.0 (Macintosh; Intel Mac OS X 10_12_6) AppleWebKit/537.36 (KHTML, like Gecko) Chrome/61.0.3163.100 Safari/537.36"
3.16.42.80 - - [06/Nov/2018:18:45:01 +0000] "GET / HTTP/1.0" 200 11888 "-" "Mozilla/5.0 (Macintosh; Intel Mac OS X x.y; rv:42.0) AppleWebKit/537.36 (KHTML, like Gecko) Chrome/51.0.2704.106 Safari/537.36 OPR/38.0.2220.41"
190.2.148.176 - - [06/Nov/2018:18:45:38 +0000] "GET / HTTP/1.0" 200 11888 "-" "Mozilla/5.0 (Windows NT 5.1) AppleWebKit/537.36 (KHTML, like Gecko) Chrome/27.0.1453.94 Safari/537.36"
18.222.207.230 - - [06/Nov/2018:18:46:01 +0000] "GET / HTTP/1.0" 200 11888 "-" "Mozilla/5.0 (X11; Linux x86_64) Gecko/20100101 Firefox/42.0"
185.222.202.125 - - [06/Nov/2018:18:46:04 +0000] "GET / HTTP/1.0" 200 11888 "-" "Mozilla/5.0 (Windows NT 10.0; Win64; x64) AppleWebKit/537.36 (KHTML, like Gecko) Chrome/52.0.2743.116 Safari/537.36 Edge/15.15063"
185.222.202.125 - - [06/Nov/2018:18:46:05 +0000] "GET /?email-subscribe=bobbymak%40aol.com& HTTP/1.0" 200 11888 "http://looklala.com/" "Mozilla/5.0 (Windows NT 10.0; Win64; x64) AppleWebKit/537.36 (KHTML, like Gecko) Chrome/52.0.2743.116 Safari/537.36 Edge/15.15063"
185.220.101.21 - - [06/Nov/2018:18:52:09 +0000] "GET / HTTP/1.0" 200 11888 "-" "Mozilla/5.0 (Windows NT 6.1; WOW64; rv:54.0) Gecko/20100101 Firefox/54.0"
185.220.101.21 - - [06/Nov/2018:18:52:10 +0000] "GET /?email-subscribe=rockofg1999%40yahoo.com& HTTP/1.0" 200 11888 "http://looklala.com/" "Mozilla/5.0 (Windows NT 6.1; WOW64; rv:54.0) Gecko/20100101 Firefox/54.0"
178.20.55.16 - - [06/Nov/2018:18:54:10 +0000] "GET / HTTP/1.0" 200 11888 "-" "Mozilla/5.0 (Macintosh; Intel Mac OS X 10_12_3) AppleWebKit/602.4.8 (KHTML, like Gecko) Version/10.0.3 Safari/602.4.8"
178.20.55.16 - - [06/Nov/2018:18:54:11 +0000] "GET /?email-subscribe=ccl9901%40yahoo.com& HTTP/1.0" 200 11888 "http://looklala.com/" "Mozilla/5.0 (Macintosh; Intel Mac OS X 10_12_3) AppleWebKit/602.4.8 (KHTML, like Gecko) Version/10.0.3 Safari/602.4.8"
123.125.125.74 - - [06/Nov/2018:19:03:25 +0000] "GET /robots.txt HTTP/1.0" 404 208 "-" "Sogou web spider/4.0(+http://www.sogou.com/docs/help/webmasters.htm#07)"
91.134.147.249 - - [06/Nov/2018:19:12:36 +0000] "GET / HTTP/1.0" 200 11888 "-" "Mozilla/5.0 (Windows NT 6.0; Win64; x64) AppleWebKit/537.36 (KHTML, like Gecko) Chrome/46.0.2486.0 Safari/537.36 Edge/13.10586"
91.134.147.249 - - [06/Nov/2018:19:12:37 +0000] "GET /?email-subscribe=bfreedman76%40gmail.com& HTTP/1.0" 200 11888 "http://looklala.com/" "Mozilla/5.0 (Windows NT 6.0; Win64; x64) AppleWebKit/537.36 (KHTML, like Gecko) Chrome/46.0.2486.0 Safari/537.36 Edge/13.10586"
18.220.11.248 - - [06/Nov/2018:19:13:24 +0000] "GET / HTTP/1.0" 200 11888 "-" "Mozilla/5.0 (X11; Linux x86_64) AppleWebKit/537.36 (KHTML, like Gecko) Chrome/51.0.2704.106 Safari/537.36 OPR/38.0.2220.41"
37.128.222.30 - - [06/Nov/2018:19:15:57 +0000] "GET / HTTP/1.0" 200 11888 "-" "Mozilla/5.0 (Windows NT 10.0; Win64; x64) AppleWebKit/537.36 (KHTML, like Gecko) Chrome/55.0.2883.87 Safari/537.36"
37.128.222.30 - - [06/Nov/2018:19:15:58 +0000] "GET /?email-subscribe=colossalrobotchicken%40yahoo.com& HTTP/1.0" 200 11888 "http://looklala.com/" "Mozilla/5.0 (Windows NT 10.0; Win64; x64) AppleWebKit/537.36 (KHTML, like Gecko) Chrome/55.0.2883.87 Safari/537.36"
106.120.173.118 - - [06/Nov/2018:19:17:04 +0000] "GET /robots.txt HTTP/1.0" 404 208 "-" "Sogou web spider/4.0(+http://www.sogou.com/docs/help/webmasters.htm#07)"
106.120.173.118 - - [06/Nov/2018:19:21:56 +0000] "GET / HTTP/1.0" 200 11888 "-" "Sogou web spider/4.0(+http://www.sogou.com/docs/help/webmasters.htm#07)"
195.135.194.134 - - [06/Nov/2018:19:23:51 +0000] "GET / HTTP/1.0" 200 11888 "-" "Mozilla/5.0 (Windows NT 10.0; Win64; x64; rv:57.0) Gecko/20100101 Firefox/57.0"
18.216.20.127 - - [06/Nov/2018:19:41:29 +0000] "GET / HTTP/1.0" 200 11888 "-" "Mozilla/5.0 (Macintosh; Intel Mac OS X x.y; rv:42.0) AppleWebKit/537.36 (KHTML, like Gecko) Firefox/42.0"
66.70.174.22 - - [06/Nov/2018:19:52:12 +0000] "GET / HTTP/1.0" 200 11888 "-" "Mozilla/5.0 (Windows NT 6.2; Win64; x64) AppleWebKit/537.36 (KHTML, like Gecko) Chrome/57.0.2987.133 Safari/537.36"
66.70.174.22 - - [06/Nov/2018:19:52:13 +0000] "GET /?email-subscribe=jessicasaar2002%40yahoo.com& HTTP/1.0" 200 11888 "http://looklala.com/" "Mozilla/5.0 (Windows NT 6.2; Win64; x64) AppleWebKit/537.36 (KHTML, like Gecko) Chrome/57.0.2987.133 Safari/537.36"
5.199.130.127 - - [06/Nov/2018:20:09:16 +0000] "GET / HTTP/1.0" 200 11888 "-" "Mozilla/5.0 (Windows NT 6.1; WOW64) AppleWebKit/537.36 (KHTML, like Gecko) Chrome/46.0.2490.80 Safari/537.36"
5.199.130.127 - - [06/Nov/2018:20:09:17 +0000] "GET /?email-subscribe=harlleezimmer7691%40yahoo.com& HTTP/1.0" 200 11888 "http://looklala.com/" "Mozilla/5.0 (Windows NT 6.1; WOW64) AppleWebKit/537.36 (KHTML, like Gecko) Chrome/46.0.2490.80 Safari/537.36"
18.191.154.160 - - [06/Nov/2018:20:13:04 +0000] "GET / HTTP/1.0" 200 11888 "-" "Mozilla/5.0 (Windows NT 6.1; Win64; x64; rv:47.0) AppleWebKit/537.36 (KHTML, like Gecko) Safari/602.1"
18.191.84.64 - - [06/Nov/2018:20:45:40 +0000] "GET / HTTP/1.0" 200 11888 "-" "Mozilla/5.0 (Macintosh; Intel Mac OS X x.y; rv:42.0) AppleWebKit/537.36 (KHTML, like Gecko) Firefox/42.0"
18.222.199.103 - - [06/Nov/2018:20:47:31 +0000] "GET / HTTP/1.0" 200 11888 "-" "Mozilla/5.0 (X11; Linux x86_64) Trident/5.0 Safari/602.1"
198.98.54.86 - - [06/Nov/2018:21:07:49 +0000] "GET / HTTP/1.0" 200 11888 "-" "Mozilla/5.0 (Windows NT 6.1) AppleWebKit/537.36 (KHTML, like Gecko) Chrome/39.0.2171.95 Safari/537.36"
198.98.54.86 - - [06/Nov/2018:21:07:50 +0000] "GET /?email-subscribe=kari_clouse%40yahoo.com& HTTP/1.0" 200 11888 "http://looklala.com/" "Mozilla/5.0 (Windows NT 6.1) AppleWebKit/537.36 (KHTML, like Gecko) Chrome/39.0.2171.95 Safari/537.36"
185.220.102.4 - - [06/Nov/2018:21:09:40 +0000] "GET / HTTP/1.0" 200 11888 "-" "Mozilla/5.0 (Windows NT 6.1; WOW64; Trident/7.0; rv:11.0) like Gecko"
185.220.102.4 - - [06/Nov/2018:21:09:41 +0000] "GET /?email-subscribe=theresadelbou%40yahoo.com& HTTP/1.0" 200 11888 "http://looklala.com/" "Mozilla/5.0 (Windows NT 6.1; WOW64; Trident/7.0; rv:11.0) like Gecko"
220.181.108.99 - - [06/Nov/2018:21:11:38 +0000] "GET /robots.txt HTTP/1.0" 404 208 "-" "Mozilla/5.0 (compatible; Baiduspider/2.0; +http://www.baidu.com/search/spider.html)"
123.125.71.109 - - [06/Nov/2018:21:11:50 +0000] "GET /looklala/13/favicon.ico HTTP/1.0" 404 221 "-" "Mozilla/5.0 (compatible; Baiduspider/2.0; +http://www.baidu.com/search/spider.html)"
18.220.11.248 - - [06/Nov/2018:21:12:34 +0000] "GET / HTTP/1.0" 200 11888 "-" "Mozilla/5.0 (Macintosh; Intel Mac OS X x.y; rv:42.0) AppleWebKit/537.36 (KHTML, like Gecko) Chrome/51.0.2704.106 Safari/537.36 OPR/38.0.2220.41"
79.137.79.167 - - [06/Nov/2018:21:16:29 +0000] "GET / HTTP/1.0" 200 11888 "-" "Mozilla/5.0 (Windows NT 6.3; WOW64; Trident/7.0; rv:11.0) like Gecko"
79.137.79.167 - - [06/Nov/2018:21:16:29 +0000] "GET /?email-subscribe=soheilaval%40yahoo.com& HTTP/1.0" 200 11888 "http://looklala.com/" "Mozilla/5.0 (Windows NT 6.3; WOW64; Trident/7.0; rv:11.0) like Gecko"
158.69.193.32 - - [06/Nov/2018:21:16:42 +0000] "GET / HTTP/1.0" 200 11888 "-" "Mozilla/5.0 (Windows NT 10.0; Win64; x64) AppleWebKit/537.36 (KHTML, like Gecko) Chrome/61.0.3163.100 Safari/537.36"
158.69.193.32 - - [06/Nov/2018:21:16:43 +0000] "GET /?email-subscribe=mattjharlan%40gmail.com& HTTP/1.0" 200 11888 "http://looklala.com/" "Mozilla/5.0 (Windows NT 10.0; Win64; x64) AppleWebKit/537.36 (KHTML, like Gecko) Chrome/61.0.3163.100 Safari/537.36"
2a01:4f8:13b:1cf0::2 - - [06/Nov/2018:21:21:24 +0000] "GET /robots.txt HTTP/1.0" 404 208 "-" "Mozilla/5.0 (compatible; BLEXBot/1.0; +http://webmeup-crawler.com/)"
2a01:4f8:13b:1cf0::2 - - [06/Nov/2018:21:21:24 +0000] "GET /robots.txt HTTP/1.0" 404 208 "-" "Mozilla/5.0 (compatible; BLEXBot/1.0; +http://webmeup-crawler.com/)"
2a01:4f8:13b:1cf0::2 - - [06/Nov/2018:21:21:24 +0000] "GET / HTTP/1.0" 200 11888 "-" "Mozilla/5.0 (compatible; BLEXBot/1.0; +http://webmeup-crawler.com/)"
18.191.114.91 - - [06/Nov/2018:21:42:44 +0000] "GET / HTTP/1.0" 200 11888 "-" "Mozilla/5.0 (Windows NT 6.1; Win64; x64; rv:47.0) AppleWebKit/537.36 (KHTML, like Gecko) Chrome/51.0.2704.106 Safari/537.36 OPR/38.0.2220.41"
198.20.103.243 - - [06/Nov/2018:21:43:43 +0000] "GET / HTTP/1.0" 200 11888 "-" "Mozilla/5.0 (Windows NT 10.0; WOW64) AppleWebKit/537.36 (KHTML, like Gecko) Chrome/66.0.3359.117 Safari/537.36"
176.10.99.200 - - [06/Nov/2018:21:46:07 +0000] "GET / HTTP/1.0" 200 11888 "-" "Mozilla/5.0 (Windows NT 6.3; WOW64; rv:54.0) Gecko/20100101 Firefox/54.0"
176.10.99.200 - - [06/Nov/2018:21:46:07 +0000] "GET /?email-subscribe=dbryner%40aol.com& HTTP/1.0" 200 11888 "http://looklala.com/" "Mozilla/5.0 (Windows NT 6.3; WOW64; rv:54.0) Gecko/20100101 Firefox/54.0"
18.191.114.91 - - [06/Nov/2018:22:13:09 +0000] "GET / HTTP/1.0" 200 11888 "-" "Mozilla/5.0 (X11; Linux x86_64) AppleWebKit/537.36 (KHTML, like Gecko) Safari/602.1"
178.17.166.146 - - [06/Nov/2018:22:16:11 +0000] "GET / HTTP/1.0" 200 11888 "-" "Mozilla/5.0 (Windows NT 6.3; WOW64; rv:50.0) Gecko/20100101 Firefox/50.0"
185.220.101.13 - - [06/Nov/2018:22:16:13 +0000] "GET /?email-subscribe=charlan10%40yahoo.com& HTTP/1.0" 200 11888 "http://looklala.com/" "Mozilla/5.0 (Windows NT 6.3; WOW64; rv:50.0) Gecko/20100101 Firefox/50.0"
207.244.70.35 - - [06/Nov/2018:22:28:26 +0000] "GET / HTTP/1.0" 200 11888 "-" "Mozilla/5.0 (Windows NT 5.1; Win64; x64) AppleWebKit/537.36 (KHTML, like Gecko) Chrome/55.0.2883.87 Safari/537.36"
207.244.70.35 - - [06/Nov/2018:22:28:27 +0000] "GET /?email-subscribe=dhughes10%40aol.com& HTTP/1.0" 200 11888 "http://looklala.com/" "Mozilla/5.0 (Windows NT 5.1; Win64; x64) AppleWebKit/537.36 (KHTML, like Gecko) Chrome/55.0.2883.87 Safari/537.36"
192.160.102.166 - - [06/Nov/2018:22:28:47 +0000] "GET / HTTP/1.0" 200 11888 "-" "Mozilla/5.0 (Windows NT 10.0; Win64; x64) AppleWebKit/537.36 (KHTML, like Gecko) Chrome/52.0.2743.116 Safari/537.36 Edge/15.15063"
192.160.102.166 - - [06/Nov/2018:22:28:49 +0000] "GET /?email-subscribe=muried%40aol.com& HTTP/1.0" 200 11888 "http://looklala.com/" "Mozilla/5.0 (Windows NT 10.0; Win64; x64) AppleWebKit/537.36 (KHTML, like Gecko) Chrome/52.0.2743.116 Safari/537.36 Edge/15.15063"
185.193.125.190 - - [06/Nov/2018:22:32:10 +0000] "GET / HTTP/1.0" 200 11888 "-" "Mozilla/5.0 (Windows NT 6.3; Win64; x64) AppleWebKit/537.36 (KHTML, like Gecko) Chrome/52.0.2743.116 Safari/537.36 Edge/15.15063"
185.193.125.190 - - [06/Nov/2018:22:32:10 +0000] "GET /?email-subscribe=robyn_black%40yahoo.com& HTTP/1.0" 200 11888 "http://looklala.com/" "Mozilla/5.0 (Windows NT 6.3; Win64; x64) AppleWebKit/537.36 (KHTML, like Gecko) Chrome/52.0.2743.116 Safari/537.36 Edge/15.15063"
46.183.221.155 - - [06/Nov/2018:22:36:07 +0000] "GET / HTTP/1.0" 200 11888 "-" "Mozilla/5.0 (Windows NT 10.0; Win64; x64) AppleWebKit/537.36 (KHTML, like Gecko) Chrome/52.0.2743.116 Safari/537.36 Edge/15.15063"
46.183.221.155 - - [06/Nov/2018:22:36:08 +0000] "GET /?email-subscribe=aleecya.white%40yahoo.com& HTTP/1.0" 200 11888 "http://looklala.com/" "Mozilla/5.0 (Windows NT 10.0; Win64; x64) AppleWebKit/537.36 (KHTML, like Gecko) Chrome/52.0.2743.116 Safari/537.36 Edge/15.15063"
213.61.215.54 - - [06/Nov/2018:22:39:51 +0000] "GET / HTTP/1.0" 200 11888 "-" "Mozilla/5.0 (Windows NT 10.0; Win64; x64) AppleWebKit/537.36 (KHTML, like Gecko) Chrome/52.0.2743.116 Safari/537.36 Edge/15.15063"
213.61.215.54 - - [06/Nov/2018:22:39:52 +0000] "GET /?email-subscribe=ccl9901%40yahoo.com& HTTP/1.0" 200 11888 "http://looklala.com/" "Mozilla/5.0 (Windows NT 10.0; Win64; x64) AppleWebKit/537.36 (KHTML, like Gecko) Chrome/52.0.2743.116 Safari/537.36 Edge/15.15063"
18.223.185.60 - - [06/Nov/2018:22:42:10 +0000] "GET / HTTP/1.0" 200 11888 "-" "Mozilla/5.0 (Windows NT 6.1; Win64; x64; rv:47.0) AppleWebKit/537.36 (KHTML, like Gecko) Safari/602.1"
162.247.74.202 - - [06/Nov/2018:22:49:44 +0000] "GET / HTTP/1.0" 200 11888 "-" "Mozilla/5.0 (Windows NT 10.0; Win64; x64; rv:57.0) Gecko/20100101 Firefox/57.0"
162.247.74.202 - - [06/Nov/2018:22:49:45 +0000] "GET /?email-subscribe=srendonmd%40gmail.com& HTTP/1.0" 200 11888 "http://looklala.com/" "Mozilla/5.0 (Windows NT 10.0; Win64; x64; rv:57.0) Gecko/20100101 Firefox/57.0"
18.218.156.196 - - [06/Nov/2018:23:11:48 +0000] "GET / HTTP/1.0" 200 11888 "-" "Mozilla/5.0 (Macintosh; Intel Mac OS X x.y; rv:42.0) Gecko/20100101 Chrome/51.0.2704.106 Safari/537.36 OPR/38.0.2220.41"
178.17.174.232 - - [06/Nov/2018:23:16:05 +0000] "GET / HTTP/1.0" 200 11888 "-" "Mozilla/5.0 (Windows NT 6.1; Win64; x64) AppleWebKit/537.36 (KHTML, like Gecko) Chrome/42.0.2311.135 Safari/537.36 Edge/12.10240"
178.17.174.232 - - [06/Nov/2018:23:16:06 +0000] "GET /?email-subscribe=tyminter2003%40gmail.com& HTTP/1.0" 200 11888 "http://looklala.com/" "Mozilla/5.0 (Windows NT 6.1; Win64; x64) AppleWebKit/537.36 (KHTML, like Gecko) Chrome/42.0.2311.135 Safari/537.36 Edge/12.10240"
94.230.208.148 - - [06/Nov/2018:23:17:52 +0000] "GET / HTTP/1.0" 200 11888 "-" "Mozilla/5.0 (Windows NT 6.3; WOW64; rv:50.0) Gecko/20100101 Firefox/50.0"
94.230.208.148 - - [06/Nov/2018:23:17:52 +0000] "GET /?email-subscribe=hockeygirly18%40sbcglobal.net& HTTP/1.0" 200 11888 "http://looklala.com/" "Mozilla/5.0 (Windows NT 6.3; WOW64; rv:50.0) Gecko/20100101 Firefox/50.0"
178.239.176.73 - - [06/Nov/2018:23:38:30 +0000] "GET / HTTP/1.0" 200 11888 "-" "Mozilla/5.0 (Windows NT 6.1; WOW64) AppleWebKit/537.36 (KHTML, like Gecko) Chrome/48.0.2564.109 Safari/537.36"
178.239.176.73 - - [06/Nov/2018:23:38:31 +0000] "GET /?email-subscribe=dfosterling%40gmail.com& HTTP/1.0" 200 11888 "http://looklala.com/" "Mozilla/5.0 (Windows NT 6.1; WOW64) AppleWebKit/537.36 (KHTML, like Gecko) Chrome/48.0.2564.109 Safari/537.36"
18.223.247.156 - - [06/Nov/2018:23:42:18 +0000] "GET / HTTP/1.0" 200 11888 "-" "Mozilla/5.0 (Windows NT 6.1; Win64; x64; rv:47.0) AppleWebKit/537.36 (KHTML, like Gecko) Chrome/51.0.2704.106 Safari/537.36 OPR/38.0.2220.41"
199.249.230.71 - - [06/Nov/2018:23:42:58 +0000] "GET / HTTP/1.0" 200 11888 "-" "Mozilla/5.0 (X11; Ubuntu; Linux x86_64; rv:15.0) Gecko/20100101 Firefox/15.0"
51.15.72.211 - - [06/Nov/2018:23:42:59 +0000] "GET /?email-subscribe=ndsmom09%40gmail.com& HTTP/1.0" 200 11888 "http://looklala.com/" "Mozilla/5.0 (X11; Ubuntu; Linux x86_64; rv:15.0) Gecko/20100101 Firefox/15.0"
176.10.99.200 - - [06/Nov/2018:23:54:36 +0000] "GET / HTTP/1.0" 200 11888 "-" "Mozilla/5.0 (Unknown; Linux) AppleWebKit/538.1 (KHTML, like Gecko) Chrome/v1.0.0 Safari/538.1"
176.10.99.200 - - [06/Nov/2018:23:54:37 +0000] "GET /?email-subscribe=felixburgos%40gmail.com& HTTP/1.0" 200 11888 "http://looklala.com/" "Mozilla/5.0 (Unknown; Linux) AppleWebKit/538.1 (KHTML, like Gecko) Chrome/v1.0.0 Safari/538.1"
89.248.162.130 - - [06/Nov/2018:23:57:27 +0000] "GET / HTTP/1.0" 200 11888 "-" "Mozilla/5.0 (Windows NT 10.0; Win64; x64) AppleWebKit/537.36 (KHTML, like Gecko) Chrome/64.0.3282.186 Safari/537.36"
89.248.162.130 - - [06/Nov/2018:23:57:28 +0000] "GET /?email-subscribe=dhughes10%40aol.com& HTTP/1.0" 200 11888 "http://looklala.com/" "Mozilla/5.0 (Windows NT 10.0; Win64; x64) AppleWebKit/537.36 (KHTML, like Gecko) Chrome/64.0.3282.186 Safari/537.36"
158.174.122.218 - - [07/Nov/2018:00:00:48 +0000] "GET / HTTP/1.0" 200 11888 "-" "Mozilla/5.0 (Windows NT 10.0; WOW64; rv:48.0) Gecko/20100101 Firefox/48.0"
158.174.122.218 - - [07/Nov/2018:00:00:49 +0000] "GET /?email-subscribe=gainerstuff%40gmail.com& HTTP/1.0" 200 11888 "http://looklala.com/" "Mozilla/5.0 (Windows NT 10.0; WOW64; rv:48.0) Gecko/20100101 Firefox/48.0"
171.25.193.77 - - [07/Nov/2018:00:05:47 +0000] "GET / HTTP/1.0" 200 11888 "-" "Mozilla/5.0 (Windows NT 10.0; Win64; x64) AppleWebKit/537.36 (KHTML, like Gecko) Chrome/66.0.3359.181 Safari/537.36"
171.25.193.77 - - [07/Nov/2018:00:05:48 +0000] "GET /?email-subscribe=anthonyg937%40gmail.com& HTTP/1.0" 200 11888 "http://looklala.com/" "Mozilla/5.0 (Windows NT 10.0; Win64; x64) AppleWebKit/537.36 (KHTML, like Gecko) Chrome/66.0.3359.181 Safari/537.36"
87.116.176.105 - - [07/Nov/2018:00:10:43 +0000] "GET /wp-login.php HTTP/1.0" 404 210 "-" "Mozilla/5.0 (Windows NT 6.1; WOW64; rv:40.0) Gecko/20100101 Firefox/40.1"
87.116.176.105 - - [07/Nov/2018:00:10:43 +0000] "GET / HTTP/1.0" 200 11888 "-" "Mozilla/5.0 (Windows NT 6.1; WOW64; rv:40.0) Gecko/20100101 Firefox/40.1"
18.221.249.123 - - [07/Nov/2018:00:12:02 +0000] "GET / HTTP/1.0" 200 11888 "-" "Mozilla/5.0 (Macintosh; Intel Mac OS X x.y; rv:42.0) Trident/5.0 Firefox/42.0"
185.220.101.33 - - [07/Nov/2018:00:34:32 +0000] "GET / HTTP/1.0" 200 11888 "-" "Mozilla/5.0 (compatible; MSIE 9.0; Windows NT 6.1; WOW64; Trident/5.0)"
185.220.101.33 - - [07/Nov/2018:00:34:33 +0000] "GET /?email-subscribe=jecathey50%40gmail.com& HTTP/1.0" 200 11888 "http://looklala.com/" "Mozilla/5.0 (compatible; MSIE 9.0; Windows NT 6.1; WOW64; Trident/5.0)"
18.217.120.202 - - [07/Nov/2018:00:42:09 +0000] "GET / HTTP/1.0" 200 11888 "-" "Mozilla/5.0 (Macintosh; Intel Mac OS X x.y; rv:42.0) Gecko/20100101 Firefox/42.0"
18.222.207.230 - - [07/Nov/2018:01:12:18 +0000] "GET / HTTP/1.0" 200 11888 "-" "Mozilla/5.0 (X11; Linux x86_64) Trident/5.0 Chrome/51.0.2704.106 Safari/537.36 OPR/38.0.2220.41"
166.70.207.2 - - [07/Nov/2018:01:15:44 +0000] "GET / HTTP/1.0" 200 11888 "-" "Mozilla/5.0 (Macintosh; Intel Mac OS X 10_12_1) AppleWebKit/602.2.14 (KHTML, like Gecko) Version/10.0.1 Safari/602.2.14"
62.210.129.246 - - [07/Nov/2018:01:15:45 +0000] "GET /?email-subscribe=ponze98%40yahoo.com& HTTP/1.0" 200 11888 "http://looklala.com/" "Mozilla/5.0 (Macintosh; Intel Mac OS X 10_12_1) AppleWebKit/602.2.14 (KHTML, like Gecko) Version/10.0.1 Safari/602.2.14"
62.102.148.67 - - [07/Nov/2018:01:28:29 +0000] "GET / HTTP/1.0" 200 11888 "-" "Mozilla/5.0 (Windows NT 10.0; Win64; x64; rv:61.0) Gecko/20100101 Firefox/61.0"
62.102.148.67 - - [07/Nov/2018:01:28:30 +0000] "GET /?email-subscribe=ponze98%40yahoo.com& HTTP/1.0" 200 11888 "http://looklala.com/" "Mozilla/5.0 (Windows NT 10.0; Win64; x64; rv:61.0) Gecko/20100101 Firefox/61.0"
18.223.247.156 - - [07/Nov/2018:01:42:05 +0000] "GET / HTTP/1.0" 200 11888 "-" "Mozilla/5.0 (Windows NT 6.1; Win64; x64; rv:47.0) Gecko/20100101 Safari/602.1"
18.217.89.105 - - [07/Nov/2018:02:12:59 +0000] "GET / HTTP/1.0" 200 11888 "-" "Mozilla/5.0 (Macintosh; Intel Mac OS X x.y; rv:42.0) AppleWebKit/537.36 (KHTML, like Gecko) Firefox/42.0"
62.210.129.246 - - [07/Nov/2018:02:21:05 +0000] "GET / HTTP/1.0" 200 11888 "-" "Mozilla/5.0 (Windows NT 6.2; Win64; x64) AppleWebKit/537.36 (KHTML, like Gecko) Chrome/60.0.3112.90 Safari/537.36"
62.210.129.246 - - [07/Nov/2018:02:21:05 +0000] "GET /?email-subscribe=myfatalthoughts%40gmail.com& HTTP/1.0" 200 11888 "http://looklala.com/" "Mozilla/5.0 (Windows NT 6.2; Win64; x64) AppleWebKit/537.36 (KHTML, like Gecko) Chrome/60.0.3112.90 Safari/537.36"
185.220.101.45 - - [07/Nov/2018:02:21:13 +0000] "GET / HTTP/1.0" 200 11888 "-" "Mozilla/5.0 (Windows NT 6.3; WOW64; Trident/7.0; rv:11.0) like Gecko"
185.220.101.45 - - [07/Nov/2018:02:21:13 +0000] "GET /?email-subscribe=karl.goodwin404%40gmail.com& HTTP/1.0" 200 11888 "http://looklala.com/" "Mozilla/5.0 (Windows NT 6.3; WOW64; Trident/7.0; rv:11.0) like Gecko"
84.210.74.191 - - [07/Nov/2018:02:39:16 +0000] "GET /wp-login.php HTTP/1.0" 404 210 "-" "Mozilla/5.0 (Windows NT 6.1; WOW64; rv:40.0) Gecko/20100101 Firefox/40.1"
84.210.74.191 - - [07/Nov/2018:02:39:16 +0000] "GET / HTTP/1.0" 200 11888 "-" "Mozilla/5.0 (Windows NT 6.1; WOW64; rv:40.0) Gecko/20100101 Firefox/40.1"
18.222.207.230 - - [07/Nov/2018:02:43:58 +0000] "GET / HTTP/1.0" 200 11888 "-" "Mozilla/5.0 (X11; Linux x86_64) AppleWebKit/537.36 (KHTML, like Gecko) Chrome/51.0.2704.106 Safari/537.36 OPR/38.0.2220.41"
