189.76.15.204 - - [02/Nov/2018:03:17:44 +0000] "GET /wp-login.php HTTP/1.1" 200 2862 "-" "Mozilla/5.0 (Windows NT 6.1; WOW64; rv:40.0) Gecko/20100101 Firefox/40.1"
189.76.15.204 - - [02/Nov/2018:03:17:44 +0000] "GET / HTTP/1.1" 301 5 "-" "Mozilla/5.0 (Windows NT 6.1; WOW64; rv:40.0) Gecko/20100101 Firefox/40.1"
189.76.15.204 - - [02/Nov/2018:03:17:46 +0000] "GET / HTTP/1.1" 200 77201 "-" "Mozilla/5.0 (Windows NT 6.1; WOW64; rv:40.0) Gecko/20100101 Firefox/40.1"
189.76.15.204 - - [02/Nov/2018:03:18:08 +0000] "GET /wp-login.php HTTP/1.1" 200 2880 "-" "Mozilla/5.0 (Windows NT 6.1; WOW64; rv:40.0) Gecko/20100101 Firefox/40.1"
189.76.15.204 - - [02/Nov/2018:03:18:09 +0000] "GET / HTTP/1.1" 200 77249 "-" "Mozilla/5.0 (Windows NT 6.1; WOW64; rv:40.0) Gecko/20100101 Firefox/40.1"
2a01:cb19:68b:4c00:40b0:decb:47ce:deed - - [02/Nov/2018:03:47:27 +0000] "GET /wp-login.php HTTP/1.1" 200 2862 "-" "Mozilla/5.0 (Windows NT 6.1; WOW64; rv:40.0) Gecko/20100101 Firefox/40.1"
2a01:cb19:68b:4c00:40b0:decb:47ce:deed - - [02/Nov/2018:03:47:27 +0000] "GET / HTTP/1.1" 301 5 "-" "Mozilla/5.0 (Windows NT 6.1; WOW64; rv:40.0) Gecko/20100101 Firefox/40.1"
2a01:cb19:68b:4c00:40b0:decb:47ce:deed - - [02/Nov/2018:03:47:28 +0000] "GET / HTTP/1.1" 200 77431 "-" "Mozilla/5.0 (Windows NT 6.1; WOW64; rv:40.0) Gecko/20100101 Firefox/40.1"
2a01:cb19:68b:4c00:40b0:decb:47ce:deed - - [02/Nov/2018:03:48:06 +0000] "GET /wp-login.php HTTP/1.1" 200 2856 "-" "Mozilla/5.0 (Windows NT 6.1; WOW64; rv:40.0) Gecko/20100101 Firefox/40.1"
2a01:cb19:68b:4c00:40b0:decb:47ce:deed - - [02/Nov/2018:03:48:07 +0000] "GET / HTTP/1.1" 200 77044 "-" "Mozilla/5.0 (Windows NT 6.1; WOW64; rv:40.0) Gecko/20100101 Firefox/40.1"
54.89.238.135 - - [02/Nov/2018:04:03:07 +0000] "GET /wp-login.php HTTP/1.1" 200 1628 "https://www.google.com/url?f56203b63b529ba33edb8360c0052b8c" "Mozilla/5.0 (Windows NT 6.1; rv:28.0) Gecko/20100101 Firefox/28.0"
54.89.238.135 - - [02/Nov/2018:04:03:08 +0000] "POST /wp-login.php HTTP/1.1" 200 1907 "https://www.google.com/url?f56203b63b529ba33edb8360c0052b8c" "Mozilla/5.0 (Windows NT 6.1; rv:28.0) Gecko/20100101 Firefox/28.0"
195.176.3.19 - - [02/Nov/2018:04:25:26 +0000] "GET /wp-login.php HTTP/1.1" 200 2904 "-" "Mozilla/5.0 (Windows NT 10.0; Win64; x64) AppleWebKit/537.36 (KHTML, like Gecko) Chrome/69.0.3497.81 Safari/537.36"
195.176.3.19 - - [02/Nov/2018:04:25:27 +0000] "POST /wp-login.php HTTP/1.0" 200 3072 "-" "Mozilla/5.0 (Windows NT 10.0; Win64; x64) AppleWebKit/537.36 (KHTML, like Gecko) Chrome/69.0.3497.81 Safari/537.36"
52.165.148.51 - - [02/Nov/2018:04:32:21 +0000] "GET / HTTP/1.1" 200 687 "-" "Mozilla/5.0 (Windows NT 10.0; Win64; x64) AppleWebKit/537.36 (KHTML, like Gecko) Chrome/65.0.3325.181 Safari/537.36"
178.154.244.10 - - [02/Nov/2018:04:35:28 +0000] "GET / HTTP/1.1" 200 19577 "-" "Mozilla/5.0 (compatible; YandexBot/3.0; +http://yandex.com/bots)"
178.154.244.10 - - [02/Nov/2018:04:35:53 +0000] "GET /2014/11/ HTTP/1.1" 200 12887 "-" "Mozilla/5.0 (compatible; YandexBot/3.0; +http://yandex.com/bots)"
97.74.228.115 - - [02/Nov/2018:04:36:26 +0000] "POST /xmlrpc.php HTTP/1.1" 200 415 "-" "Mozilla/5.0 (Macintosh; U; Intel Mac OS X 10.6; fr; rv:1.9.2.8) Gecko/20100722 Firefox/3.6.8"
78.109.23.2 - - [02/Nov/2018:04:39:00 +0000] "GET / HTTP/1.1" 200 19824 "http://burger-imperia.com/" "Mozilla/5.0 (X11; Linux x86_64) AppleWebKit/537.36 (KHTML, like Gecko) Chrome/37.0.2062.120 Safari/537.36"
89.163.131.167 - - [02/Nov/2018:04:47:04 +0000] "HEAD / HTTP/1.1" 200 0 "-" "Mozilla/5.0 (compatible; Uptimebot/1.0; +http://www.uptime.com/uptimebot)"
165.227.210.10 - - [02/Nov/2018:04:50:24 +0000] "GET / HTTP/1.1" 301 5 "http://www.supermonkeystar.com" "Mozilla/5.0 (X11; Datanyze; Linux x86_64) AppleWebKit/537.36 (KHTML, like Gecko) Chrome/65.0.3325.181 Safari/537.36"
165.227.210.10 - - [02/Nov/2018:04:50:27 +0000] "GET / HTTP/1.1" 200 19616 "http://www.supermonkeystar.com/" "Mozilla/5.0 (X11; Datanyze; Linux x86_64) AppleWebKit/537.36 (KHTML, like Gecko) Chrome/65.0.3325.181 Safari/537.36"
165.227.210.10 - - [02/Nov/2018:04:50:29 +0000] "GET /wp-content/plugins/contact-form-7/includes/js/scripts.js?ver=4.8 HTTP/1.1" 200 13338 "-" "Mozilla/5.0 (X11; Datanyze; Linux x86_64) AppleWebKit/537.36 (KHTML, like Gecko) Chrome/65.0.3325.181 Safari/537.36"
165.227.210.10 - - [02/Nov/2018:04:50:29 +0000] "GET /wp-includes/js/jquery/jquery-migrate.min.js?ver=1.4.1 HTTP/1.1" 200 10056 "-" "Mozilla/5.0 (X11; Datanyze; Linux x86_64) AppleWebKit/537.36 (KHTML, like Gecko) Chrome/65.0.3325.181 Safari/537.36"
165.227.210.10 - - [02/Nov/2018:04:50:29 +0000] "GET /wp-content/themes/dikka-installable/assets/js/smartmenus.min.js?ver=4.7.11 HTTP/1.1" 200 23651 "-" "Mozilla/5.0 (X11; Datanyze; Linux x86_64) AppleWebKit/537.36 (KHTML, like Gecko) Chrome/65.0.3325.181 Safari/537.36"
165.227.210.10 - - [02/Nov/2018:04:50:29 +0000] "GET /wp-content/themes/dikka-installable/assets/js/utils.js?ver=4.7.11 HTTP/1.1" 200 40711 "-" "Mozilla/5.0 (X11; Datanyze; Linux x86_64) AppleWebKit/537.36 (KHTML, like Gecko) Chrome/65.0.3325.181 Safari/537.36"
165.227.210.10 - - [02/Nov/2018:04:50:29 +0000] "GET /wp-content/plugins/revslider/public/assets/js/jquery.themepunch.revolution.min.js?ver=5.2.6 HTTP/1.1" 200 56422 "-" "Mozilla/5.0 (X11; Datanyze; Linux x86_64) AppleWebKit/537.36 (KHTML, like Gecko) Chrome/65.0.3325.181 Safari/537.36"
165.227.210.10 - - [02/Nov/2018:04:50:29 +0000] "GET /wp-content/themes/dikka-installable/assets/js/queryloader.min.js?ver=4.7.11 HTTP/1.1" 200 11561 "-" "Mozilla/5.0 (X11; Datanyze; Linux x86_64) AppleWebKit/537.36 (KHTML, like Gecko) Chrome/65.0.3325.181 Safari/537.36"
165.227.210.10 - - [02/Nov/2018:04:50:29 +0000] "GET /wp-content/plugins/youtube-embed-plus/scripts/ytprefs.min.js?ver=4.7.11 HTTP/1.1" 200 7410 "-" "Mozilla/5.0 (X11; Datanyze; Linux x86_64) AppleWebKit/537.36 (KHTML, like Gecko) Chrome/65.0.3325.181 Safari/537.36"
165.227.210.10 - - [02/Nov/2018:04:50:29 +0000] "GET /wp-content/themes/dikka-installable/assets/js/isotope-min.js?ver=4.7.11 HTTP/1.1" 200 15768 "-" "Mozilla/5.0 (X11; Datanyze; Linux x86_64) AppleWebKit/537.36 (KHTML, like Gecko) Chrome/65.0.3325.181 Safari/537.36"
165.227.210.10 - - [02/Nov/2018:04:50:29 +0000] "GET /wp-content/themes/dikka-installable/assets/js/wow.js?ver=1 HTTP/1.1" 200 7057 "-" "Mozilla/5.0 (X11; Datanyze; Linux x86_64) AppleWebKit/537.36 (KHTML, like Gecko) Chrome/65.0.3325.181 Safari/537.36"
165.227.210.10 - - [02/Nov/2018:04:50:29 +0000] "GET /wp-content/themes/dikka-installable/assets/js/bootstrap.min.js?ver=4.7.11 HTTP/1.1" 200 29110 "-" "Mozilla/5.0 (X11; Datanyze; Linux x86_64) AppleWebKit/537.36 (KHTML, like Gecko) Chrome/65.0.3325.181 Safari/537.36"
165.227.210.10 - - [02/Nov/2018:04:50:29 +0000] "GET /wp-content/themes/dikka-installable/assets/js/owl.carousel.min.js?ver=4.7.11 HTTP/1.1" 200 40401 "-" "Mozilla/5.0 (X11; Datanyze; Linux x86_64) AppleWebKit/537.36 (KHTML, like Gecko) Chrome/65.0.3325.181 Safari/537.36"
165.227.210.10 - - [02/Nov/2018:04:50:29 +0000] "GET /wp-content/themes/dikka-installable/assets/js/main.js?ver=4.7.11 HTTP/1.1" 200 23522 "-" "Mozilla/5.0 (X11; Datanyze; Linux x86_64) AppleWebKit/537.36 (KHTML, like Gecko) Chrome/65.0.3325.181 Safari/537.36"
165.227.210.10 - - [02/Nov/2018:04:50:29 +0000] "GET /wp-content/themes/dikka-installable/assets/js/nivo-lightbox.min.js?ver=4.7.11 HTTP/1.1" 200 7621 "-" "Mozilla/5.0 (X11; Datanyze; Linux x86_64) AppleWebKit/537.36 (KHTML, like Gecko) Chrome/65.0.3325.181 Safari/537.36"
165.227.210.10 - - [02/Nov/2018:04:50:29 +0000] "GET /wp-content/themes/dikka-installable/assets/js/ytplayer.js?ver=4.7.11 HTTP/1.1" 200 54838 "-" "Mozilla/5.0 (X11; Datanyze; Linux x86_64) AppleWebKit/537.36 (KHTML, like Gecko) Chrome/65.0.3325.181 Safari/537.36"
165.227.210.10 - - [02/Nov/2018:04:50:29 +0000] "GET /wp-content/themes/dikka-installable/assets/js/SmoothScroll.js?ver=4.7.11 HTTP/1.1" 200 7394 "-" "Mozilla/5.0 (X11; Datanyze; Linux x86_64) AppleWebKit/537.36 (KHTML, like Gecko) Chrome/65.0.3325.181 Safari/537.36"
165.227.210.10 - - [02/Nov/2018:04:50:29 +0000] "GET /wp-content/themes/dikka-installable/assets/js/retina.min.js?ver=4.7.11 HTTP/1.1" 200 2575 "-" "Mozilla/5.0 (X11; Datanyze; Linux x86_64) AppleWebKit/537.36 (KHTML, like Gecko) Chrome/65.0.3325.181 Safari/537.36"
165.227.210.10 - - [02/Nov/2018:04:50:29 +0000] "GET /wp-includes/js/jquery.magnific-popup.min.js HTTP/1.1" 200 20216 "-" "Mozilla/5.0 (X11; Datanyze; Linux x86_64) AppleWebKit/537.36 (KHTML, like Gecko) Chrome/65.0.3325.181 Safari/537.36"
165.227.210.10 - - [02/Nov/2018:04:50:29 +0000] "GET /wp-content/plugins/revslider/public/assets/js/jquery.themepunch.tools.min.js?ver=5.2.6 HTTP/1.1" 200 107147 "-" "Mozilla/5.0 (X11; Datanyze; Linux x86_64) AppleWebKit/537.36 (KHTML, like Gecko) Chrome/65.0.3325.181 Safari/537.36"
165.227.210.10 - - [02/Nov/2018:04:50:29 +0000] "GET /wp-includes/js/jquery/jquery.js?ver=1.12.4 HTTP/1.1" 200 97184 "-" "Mozilla/5.0 (X11; Datanyze; Linux x86_64) AppleWebKit/537.36 (KHTML, like Gecko) Chrome/65.0.3325.181 Safari/537.36"
165.227.210.10 - - [02/Nov/2018:04:50:46 +0000] "GET /robots.txt HTTP/1.1" 200 92 "-" "Mozilla/5.0 (compatible; MSIE 9.0; Windows NT 6.1; WOW64; Trident/5.0)"
3.121.115.28 - - [02/Nov/2018:05:47:19 +0000] "GET /robots.txt HTTP/1.1" 200 92 "-" "Mozilla/5.0 (compatible; tracemyfile/1.0; +bot@tracemyfile.com)"
3.121.115.28 - - [02/Nov/2018:05:47:19 +0000] "GET /wp-content/plugins/mailchimp-for-wp/assets/css/form-themes.min.css HTTP/1.1" 200 1852 "-" "Mozilla/5.0 (compatible; tracemyfile/1.0)"
40.77.167.121 - - [02/Nov/2018:05:59:45 +0000] "GET /feed/ HTTP/1.1" 200 22795 "-" "Mozilla/5.0 (iPhone; CPU iPhone OS 7_0 like Mac OS X) AppleWebKit/537.51.1 (KHTML, like Gecko) Version/7.0 Mobile/11A465 Safari/9537.53 (compatible; bingbot/2.0; +http://www.bing.com/bingbot.htm)"
207.46.13.81 - - [02/Nov/2018:05:59:54 +0000] "GET /robots.txt HTTP/1.1" 200 92 "-" "Mozilla/5.0 (compatible; bingbot/2.0; +http://www.bing.com/bingbot.htm)"
97.74.228.115 - - [02/Nov/2018:06:30:29 +0000] "POST /xmlrpc.php HTTP/1.1" 200 415 "-" "Mozilla/5.0 (Macintosh; U; Intel Mac OS X 10.6; fr; rv:1.9.2.8) Gecko/20100722 Firefox/3.6.8"
66.249.66.142 - - [02/Nov/2018:06:36:40 +0000] "GET /robots.txt HTTP/1.1" 200 92 "-" "Mozilla/5.0 (compatible; Googlebot/2.1; +http://www.google.com/bot.html)"
66.249.66.138 - - [02/Nov/2018:06:37:04 +0000] "GET / HTTP/1.1" 200 19885 "-" "Mozilla/5.0 (compatible; Googlebot/2.1; +http://www.google.com/bot.html)"
54.172.235.59 - - [02/Nov/2018:06:58:36 +0000] "GET /feed/ HTTP/1.1" 304 0 "https://www.google.com/" "Mozilla/6.0 (Windows NT 6.2; WOW64; rv:16.0.1) Gecko/20121011 Firefox/16.0.1"
134.249.54.255 - - [02/Nov/2018:07:00:29 +0000] "GET / HTTP/1.1" 200 1079 "https://pornhive.org/" "Mozilla/4.0 (compatible; MSIE 6.0; Windows NT 5.1; .NET CLR 1.1.4322; FDM)"
134.249.54.255 - - [02/Nov/2018:07:00:30 +0000] "GET / HTTP/1.1" 200 1091 "https://pornhive.org/" "Mozilla/4.0 (compatible; MSIE 6.0; Windows NT 5.1; .NET CLR 1.1.4322; FDM)"
134.249.54.255 - - [02/Nov/2018:07:00:31 +0000] "GET / HTTP/1.1" 200 77412 "https://pornhive.org/" "Mozilla/4.0 (compatible; MSIE 6.0; Windows NT 5.1; .NET CLR 1.1.4322; FDM)"
220.181.125.138 - - [02/Nov/2018:07:00:44 +0000] "GET /robots.txt HTTP/1.1" 200 78 "-" "Sogou web spider/4.0(+http://www.sogou.com/docs/help/webmasters.htm#07)"
207.46.13.81 - - [02/Nov/2018:07:36:47 +0000] "GET /audio-2/feed/ HTTP/1.1" 200 768 "-" "Mozilla/5.0 (compatible; bingbot/2.0; +http://www.bing.com/bingbot.htm)"
18.195.116.186 - - [02/Nov/2018:07:56:50 +0000] "GET /wp-content/themes/dikka-installable/assets/css/woocommerce-ux.css HTTP/1.1" 200 15927 "-" "Mozilla/5.0 (compatible; tracemyfile/1.0)"
40.77.167.80 - - [02/Nov/2018:08:17:13 +0000] "GET /tag/post-format-gallery/feed/ HTTP/1.1" 200 4879 "-" "Mozilla/5.0 (compatible; bingbot/2.0; +http://www.bing.com/bingbot.htm)"
84.209.48.106 - - [02/Nov/2018:08:20:26 +0000] "GET / HTTP/1.1" 200 19223 "-" "Mozilla/5.0 (Windows NT 6.1; Win64; x64) AppleWebKit/537.36 (KHTML, like Gecko) Chrome/46.0.2486.0 Safari/537.36 Edge/13.10586"
84.209.48.106 - - [02/Nov/2018:08:20:28 +0000] "POST / HTTP/1.1" 200 20270 "http://supermonkeystar.com/" "Mozilla/5.0 (Windows NT 6.1; Win64; x64) AppleWebKit/537.36 (KHTML, like Gecko) Chrome/46.0.2486.0 Safari/537.36 Edge/13.10586"
97.74.228.115 - - [02/Nov/2018:08:29:53 +0000] "POST /xmlrpc.php HTTP/1.1" 200 415 "-" "Mozilla/5.0 (Macintosh; U; Intel Mac OS X 10.6; fr; rv:1.9.2.8) Gecko/20100722 Firefox/3.6.8"
207.46.13.81 - - [02/Nov/2018:08:39:26 +0000] "GET /category/video-3/feed/ HTTP/1.1" 200 7708 "-" "Mozilla/5.0 (compatible; bingbot/2.0; +http://www.bing.com/bingbot.htm)"
106.201.12.67 - - [02/Nov/2018:08:42:47 +0000] "GET / HTTP/1.1" 200 1091 "http://supermonkeystar.com" "Mozilla/4.0 (compatible; MSIE 6.0; Windows NT 5.1; SV1; .NET CLR 2.0.50727; .NET CLR 1.1.4322)"
106.201.12.67 - - [02/Nov/2018:08:42:48 +0000] "GET / HTTP/1.1" 200 76988 "http://supermonkeystar.com" "Mozilla/4.0 (compatible; MSIE 6.0; Windows NT 5.1; SV1; .NET CLR 2.0.50727; .NET CLR 1.1.4322)"
209.17.97.26 - - [02/Nov/2018:08:46:10 +0000] "GET / HTTP/1.1" 200 77257 "-" "Mozilla/5.0 (compatible; Nimbostratus-Bot/v1.3.2; http://cloudsystemnetworks.com)"
18.207.203.70 - - [02/Nov/2018:08:48:56 +0000] "GET /wp-login.php HTTP/1.1" 200 1452 "https://www.google.com/url?f56203b63b529ba33edb8360c0052b8c" "Mozilla/5.0 (Windows NT 5.1; rv:29.0) Gecko/20120101 Firefox/29.0"
18.207.203.70 - - [02/Nov/2018:08:48:57 +0000] "POST /wp-login.php HTTP/1.1" 200 2027 "https://www.google.com/url?f56203b63b529ba33edb8360c0052b8c" "Mozilla/5.0 (Windows NT 5.1; rv:29.0) Gecko/20120101 Firefox/29.0"
217.69.143.53 - - [02/Nov/2018:09:21:58 +0000] "GET /robots.txt HTTP/1.0" 200 67 "-" "Mozilla/5.0 (compatible; Linux x86_64; Mail.RU_Bot/Img/2.0; +http://go.mail.ru/help/robots)"
217.69.143.56 - - [02/Nov/2018:09:22:00 +0000] "GET /wp-content/uploads/2014/12/Combo_Purple_RGB.png HTTP/1.1" 304 0 "http://go.mail.ru/search_images" "Mozilla/5.0 (compatible; Linux x86_64; Mail.RU_Bot/Img/2.0; +http://go.mail.ru/help/robots)"
197.231.221.211 - - [02/Nov/2018:09:29:45 +0000] "GET / HTTP/1.1" 200 19409 "-" "Mozilla/5.0 (Macintosh; Intel Mac OS X 10_12_6) AppleWebKit/603.3.8 (KHTML, like Gecko)"
89.234.157.254 - - [02/Nov/2018:09:29:48 +0000] "POST / HTTP/1.1" 200 20042 "http://supermonkeystar.com/" "Mozilla/5.0 (Macintosh; Intel Mac OS X 10_12_6) AppleWebKit/603.3.8 (KHTML, like Gecko)"
83.151.250.67 - - [02/Nov/2018:10:02:22 +0000] "GET /wp-config.php.old HTTP/1.1" 404 10379 "http://supermonkeystar.com/wp-config.php.old" "Mozilla/4.0 (compatible; MSIE 6.0; Windows NT 5.1; SV1)"
192.95.30.29 - - [02/Nov/2018:10:22:56 +0000] "GET /tbl_status.php HTTP/1.1" 301 5 "-" "Mozilla/5.0 (Windows NT 6.1; Trident/7.0; rv:11.0) like Gecko"
192.95.30.29 - - [02/Nov/2018:10:22:57 +0000] "GET /tbl_status.php HTTP/1.1" 404 9956 "-" "Mozilla/5.0 (Windows NT 6.1; Trident/7.0; rv:11.0) like Gecko"
97.74.228.115 - - [02/Nov/2018:10:28:26 +0000] "POST /xmlrpc.php HTTP/1.1" 200 415 "-" "Mozilla/5.0 (Macintosh; U; Intel Mac OS X 10.6; fr; rv:1.9.2.8) Gecko/20100722 Firefox/3.6.8"
222.186.20.54 - - [02/Nov/2018:10:57:20 +0000] "GET /HitCount.asp?lx=Qianbo_about&id=1%20and%201=2%20union%20select%20password%20from%20qianbo_admin HTTP/1.1" 404 30749 "-" "Mozilla/5.0 (compatible; MSIE 9.0; Windows NT 6.1; WOW64; Trident/5.0)"
222.186.20.54 - - [02/Nov/2018:10:57:22 +0000] "GET /news/html/?0'union/**/select/**/1/**/from/**/(select/**/count(*),concat(floor(rand(0)*2),0x3a,(select/**/concat(user,0x3a,password)/**/from/**/pwn_base_admin/**/limit/**/0,1),0x3a)a/**/from/**/information_schema.tables/**/group/**/by/**/a)b/**/where'1'='1.html HTTP/1.1" 404 30532 "-" "Mozilla/5.0 (compatible; MSIE 9.0; Windows NT 6.1; WOW64; Trident/5.0)"
110.83.60.116 - - [02/Nov/2018:11:34:12 +0000] "HEAD /wp-content/themes/twentyseventeen/search.php HTTP/1.1" 200 0 "-" "-"
66.249.66.142 - - [02/Nov/2018:12:18:48 +0000] "GET /wp-content/plugins/merobuilder/css/front.css?ver=1.5.3 HTTP/1.1" 200 393 "http://supermonkeystar.com/?source=user_profile----------------------------" "Mozilla/5.0 AppleWebKit/537.36 (KHTML, like Gecko; compatible; Googlebot/2.1; +http://www.google.com/bot.html) Safari/537.36"
66.249.66.142 - - [02/Nov/2018:12:18:48 +0000] "GET /wp-content/plugins/revslider/public/assets/css/settings.css?ver=5.2.6 HTTP/1.1" 200 9663 "http://supermonkeystar.com/?source=user_profile----------------------------" "Mozilla/5.0 AppleWebKit/537.36 (KHTML, like Gecko; compatible; Googlebot/2.1; +http://www.google.com/bot.html) Safari/537.36"
66.249.66.142 - - [02/Nov/2018:12:18:50 +0000] "GET /wp-content/themes/dikka-installable/assets/css/owl.carousel.css?ver=4.7.10 HTTP/1.1" 200 1909 "http://supermonkeystar.com/?source=user_profile----------------------------" "Mozilla/5.0 AppleWebKit/537.36 (KHTML, like Gecko; compatible; Googlebot/2.1; +http://www.google.com/bot.html) Safari/537.36"
66.249.66.140 - - [02/Nov/2018:12:18:54 +0000] "GET /wp-admin/admin-ajax.php?action=siteorigin_panels_post_css&post=1546&layout=32891747&ver=1.5.3 HTTP/1.1" 200 391 "http://supermonkeystar.com/?source=user_profile----------------------------" "Mozilla/5.0 AppleWebKit/537.36 (KHTML, like Gecko; compatible; Googlebot/2.1; +http://www.google.com/bot.html) Safari/537.36"
66.249.66.138 - - [02/Nov/2018:12:19:02 +0000] "GET /wp-includes/js/wp-emoji-release.min.js?ver=4.7.10 HTTP/1.1" 200 4736 "http://supermonkeystar.com/?source=user_profile----------------------------" "Mozilla/5.0 AppleWebKit/537.36 (KHTML, like Gecko; compatible; Googlebot/2.1; +http://www.google.com/bot.html) Safari/537.36"
66.249.66.138 - - [02/Nov/2018:12:19:03 +0000] "GET /wp-content/plugins/revslider/public/assets/js/extensions/revolution.extension.layeranimation.min.js HTTP/1.1" 200 10530 "http://supermonkeystar.com/?source=user_profile----------------------------" "Mozilla/5.0 AppleWebKit/537.36 (KHTML, like Gecko; compatible; Googlebot/2.1; +http://www.google.com/bot.html) Safari/537.36"
66.249.66.142 - - [02/Nov/2018:12:19:03 +0000] "GET /wp-content/plugins/revslider/public/assets/js/extensions/revolution.extension.actions.min.js HTTP/1.1" 200 2539 "http://supermonkeystar.com/?source=user_profile----------------------------" "Mozilla/5.0 AppleWebKit/537.36 (KHTML, like Gecko; compatible; Googlebot/2.1; +http://www.google.com/bot.html) Safari/537.36"
66.249.66.142 - - [02/Nov/2018:12:19:04 +0000] "GET /wp-content/plugins/revslider/public/assets/js/extensions/revolution.extension.slideanims.min.js HTTP/1.1" 200 7766 "http://supermonkeystar.com/?source=user_profile----------------------------" "Mozilla/5.0 AppleWebKit/537.36 (KHTML, like Gecko; compatible; Googlebot/2.1; +http://www.google.com/bot.html) Safari/537.36"
97.74.228.115 - - [02/Nov/2018:12:40:25 +0000] "POST /xmlrpc.php HTTP/1.1" 200 415 "-" "Mozilla/5.0 (Macintosh; U; Intel Mac OS X 10.6; fr; rv:1.9.2.8) Gecko/20100722 Firefox/3.6.8"
95.108.181.75 - - [02/Nov/2018:12:58:58 +0000] "GET /robots.txt HTTP/1.1" 200 78 "-" "Mozilla/5.0 (compatible; YandexBot/3.0; +http://yandex.com/bots)"
95.108.181.102 - - [02/Nov/2018:12:59:02 +0000] "GET / HTTP/1.1" 200 19759 "-" "Mozilla/5.0 (compatible; YandexBot/3.0; +http://yandex.com/bots)"
31.170.123.73 - - [02/Nov/2018:13:06:13 +0000] "POST /wp-cron.php?doing_wp_cron=1541163972.9286999702453613281250 HTTP/1.1" 499 0 "http://supermonkeystar.com/wp-cron.php?doing_wp_cron=1541163972.9286999702453613281250" "WordPress/4.7.11; http://supermonkeystar.com"
3.16.1.170 - - [02/Nov/2018:13:06:13 +0000] "GET /wp-login.php HTTP/1.1" 200 1453 "https://www.google.com/url?f56203b63b529ba33edb8360c0052b8c" "Mozilla/5.0 (Windows NT 5.1; WOW64; rv:29.0) Gecko/20120101 Firefox/29.0"
3.16.1.170 - - [02/Nov/2018:13:06:14 +0000] "POST /wp-login.php HTTP/1.1" 200 1922 "https://www.google.com/url?f56203b63b529ba33edb8360c0052b8c" "Mozilla/5.0 (Windows NT 5.1; WOW64; rv:29.0) Gecko/20120101 Firefox/29.0"
31.170.123.73 - - [02/Nov/2018:13:13:29 +0000] "POST /wp-cron.php?doing_wp_cron=1541164409.3841140270233154296875 HTTP/1.1" 200 40 "http://supermonkeystar.com/wp-cron.php?doing_wp_cron=1541164409.3841140270233154296875" "WordPress/4.7.11; http://supermonkeystar.com"
52.53.201.78 - - [02/Nov/2018:13:13:29 +0000] "GET / HTTP/1.1" 301 5 "-" "Mozilla/5.0 (Macintosh; Intel Mac OS X 10_12_6) AppleWebKit/537.36 (KHTML, like Gecko) Chrome/61.0.3163.100 Safari/537.36"
52.53.201.78 - - [02/Nov/2018:13:13:32 +0000] "GET / HTTP/1.1" 200 19747 "http://www.supermonkeystar.com/" "Mozilla/5.0 (Macintosh; Intel Mac OS X 10_12_6) AppleWebKit/537.36 (KHTML, like Gecko) Chrome/61.0.3163.100 Safari/537.36"
178.137.82.233 - - [02/Nov/2018:13:14:37 +0000] "GET /groups/ HTTP/1.0" 404 29898 "-" "Mozilla/5.0 (Windows NT 10.1; rv:40.1) Gecko/20100101 Firefox/40.1"
95.108.181.61 - - [02/Nov/2018:13:17:45 +0000] "GET /robots.txt HTTP/1.1" 200 78 "-" "Mozilla/5.0 (compatible; YandexBot/3.0; +http://yandex.com/bots)"
178.154.171.84 - - [02/Nov/2018:13:17:49 +0000] "GET / HTTP/1.1" 301 5 "-" "Mozilla/5.0 (compatible; YandexBot/3.0; +http://yandex.com/bots)"
95.108.181.61 - - [02/Nov/2018:13:17:50 +0000] "GET / HTTP/1.1" 200 18951 "-" "Mozilla/5.0 (compatible; YandexBot/3.0; +http://yandex.com/bots)"
163.172.67.180 - - [02/Nov/2018:13:33:25 +0000] "GET / HTTP/1.1" 200 19704 "-" "Mozilla/5.0 (Windows NT 6.1; Trident/7.0; rv:11.0) like Gecko"
163.172.67.180 - - [02/Nov/2018:13:33:28 +0000] "POST / HTTP/1.1" 200 20107 "http://supermonkeystar.com/" "Mozilla/5.0 (Windows NT 6.1; Trident/7.0; rv:11.0) like Gecko"
109.86.115.141 - - [02/Nov/2018:13:38:27 +0000] "GET /wp-login.php HTTP/1.1" 200 2893 "http://supermonkeystar.com/wp-login.php" "Mozilla/5.0 (Windows NT 10.0; WOW64) AppleWebKit/537.36 (KHTML, like Gecko) Chrome/62.0.3198.0 Safari/537.36 OPR/49.0.2711.0"
109.86.115.141 - - [02/Nov/2018:13:38:27 +0000] "POST /wp-login.php HTTP/1.1" 200 3871 "http://supermonkeystar.com/wp-login.php" "Mozilla/5.0 (Windows NT 10.0; WOW64) AppleWebKit/537.36 (KHTML, like Gecko) Chrome/62.0.3198.0 Safari/537.36 OPR/49.0.2711.0"
78.109.23.2 - - [02/Nov/2018:14:28:01 +0000] "GET / HTTP/1.1" 200 19220 "-" "Mozilla/5.0 (Windows NT 6.1; WOW64) AppleWebKit/537.36 (KHTML, like Gecko) Chrome/43.0.2357.65 Safari/537.36"
197.231.221.211 - - [02/Nov/2018:14:28:04 +0000] "POST / HTTP/1.1" 200 19134 "http://supermonkeystar.com/" "Mozilla/5.0 (Windows NT 6.1; WOW64) AppleWebKit/537.36 (KHTML, like Gecko) Chrome/43.0.2357.65 Safari/537.36"
97.74.228.115 - - [02/Nov/2018:14:38:13 +0000] "POST /xmlrpc.php HTTP/1.1" 200 415 "-" "Mozilla/5.0 (Macintosh; U; Intel Mac OS X 10.6; fr; rv:1.9.2.8) Gecko/20100722 Firefox/3.6.8"
185.56.80.242 - - [02/Nov/2018:15:02:09 +0000] "GET / HTTP/1.1" 200 20089 "-" "Mozilla/5.0 (Windows NT 10.0; Win64; x64) AppleWebKit/537.36 (KHTML, like Gecko) Chrome/52.0.2743.116 Safari/537.36 Edge/15.15063"
46.165.230.5 - - [02/Nov/2018:15:02:11 +0000] "POST / HTTP/1.1" 200 20226 "http://supermonkeystar.com/" "Mozilla/5.0 (Windows NT 10.0; Win64; x64) AppleWebKit/537.36 (KHTML, like Gecko) Chrome/52.0.2743.116 Safari/537.36 Edge/15.15063"
178.137.165.225 - - [02/Nov/2018:15:03:39 +0000] "GET / HTTP/1.1" 200 77405 "http://artclipart.ru/" "Mozilla/4.0 (compatible; MSIE 6.0; Windows NT 5.1; SV1)"
178.137.165.225 - - [02/Nov/2018:15:03:41 +0000] "GET / HTTP/1.1" 200 77210 "http://artclipart.ru/" "Mozilla/4.0 (compatible; MSIE 6.0; Windows NT 5.1; SV1)"
35.204.244.230 - - [02/Nov/2018:15:03:44 +0000] "GET /wp-content/themes/dikka-installable/assets/images/icons/credit-cards/visa.png HTTP/1.1" 404 16751 "-" "Mozilla/5.0 (compatible; tracemyfile/1.0)"
178.255.215.79 - - [02/Nov/2018:15:30:24 +0000] "GET /robots.txt HTTP/1.1" 200 92 "-" "Mozilla/5.0 (compatible; Exabot/3.0; +http://www.exabot.com/go/robot)"
178.255.215.79 - - [02/Nov/2018:15:30:25 +0000] "GET / HTTP/1.1" 301 0 "-" "Mozilla/5.0 (compatible; Exabot/3.0; +http://www.exabot.com/go/robot)"
178.154.244.10 - - [02/Nov/2018:15:31:32 +0000] "GET / HTTP/1.1" 200 19588 "-" "Mozilla/5.0 (compatible; YandexBot/3.0; +http://yandex.com/bots)"
37.9.113.40 - - [02/Nov/2018:15:31:35 +0000] "GET /?p=1 HTTP/1.1" 301 5 "-" "Mozilla/5.0 (compatible; YandexBot/3.0; +http://yandex.com/bots)"
178.154.171.60 - - [02/Nov/2018:15:31:59 +0000] "GET /hello-world/ HTTP/1.1" 200 12601 "-" "Mozilla/5.0 (compatible; YandexBot/3.0; +http://yandex.com/bots)"
35.204.41.108 - - [02/Nov/2018:15:37:11 +0000] "GET /wp-content/themes/dikka-installable/assets/images/icons/credit-cards/laser.png HTTP/1.1" 404 16698 "-" "Mozilla/5.0 (compatible; tracemyfile/1.0)"
185.56.80.242 - - [02/Nov/2018:15:37:31 +0000] "GET / HTTP/1.1" 200 19189 "-" "Mozilla/5.0 (Windows NT 6.3; Win64; x64) AppleWebKit/537.36 (KHTML, like Gecko) Chrome/42.0.2311.135 Safari/537.36 Edge/12.10240"
92.63.103.241 - - [02/Nov/2018:15:37:35 +0000] "POST / HTTP/1.1" 200 20489 "http://supermonkeystar.com/" "Mozilla/5.0 (Windows NT 6.3; Win64; x64) AppleWebKit/537.36 (KHTML, like Gecko) Chrome/42.0.2311.135 Safari/537.36 Edge/12.10240"
37.233.102.65 - - [02/Nov/2018:15:50:52 +0000] "GET / HTTP/1.1" 200 19687 "-" "Mozilla/5.0 (Windows NT 6.1; WOW64; rv:47.0) Gecko/20100101 Firefox/47.0"
37.233.102.65 - - [02/Nov/2018:15:50:53 +0000] "POST / HTTP/1.1" 200 19969 "http://supermonkeystar.com/" "Mozilla/5.0 (Windows NT 6.1; WOW64; rv:47.0) Gecko/20100101 Firefox/47.0"
220.181.125.138 - - [02/Nov/2018:15:56:41 +0000] "GET /robots.txt HTTP/1.1" 200 78 "-" "Sogou web spider/4.0(+http://www.sogou.com/docs/help/webmasters.htm#07)"
220.181.125.138 - - [02/Nov/2018:15:56:47 +0000] "GET / HTTP/1.1" 301 5 "-" "Sogou web spider/4.0(+http://www.sogou.com/docs/help/webmasters.htm#07)"
220.181.125.138 - - [02/Nov/2018:15:57:04 +0000] "GET / HTTP/1.1" 200 19854 "-" "Sogou web spider/4.0(+http://www.sogou.com/docs/help/webmasters.htm#07)"
134.249.54.255 - - [02/Nov/2018:16:00:46 +0000] "GET / HTTP/1.1" 200 77244 "http://zameskino.ru/" "Mozilla/4.0 (compatible; MSIE 6.0; Windows NT 5.1; TheFreeDictionary.com; .NET CLR 1.1.4322; .NET CLR 1.0.3705; .NET CLR 2.0.50727)"
134.249.54.255 - - [02/Nov/2018:16:00:48 +0000] "GET / HTTP/1.1" 200 77295 "http://zameskino.ru/" "Mozilla/4.0 (compatible; MSIE 6.0; Windows NT 5.1; TheFreeDictionary.com; .NET CLR 1.1.4322; .NET CLR 1.0.3705; .NET CLR 2.0.50727)"
178.148.222.29 - - [02/Nov/2018:16:15:26 +0000] "GET /wp-login.php HTTP/1.1" 200 2903 "-" "Mozilla/5.0 (Windows NT 6.1; WOW64; rv:40.0) Gecko/20100101 Firefox/40.1"
178.148.222.29 - - [02/Nov/2018:16:15:27 +0000] "GET / HTTP/1.1" 301 5 "-" "Mozilla/5.0 (Windows NT 6.1; WOW64; rv:40.0) Gecko/20100101 Firefox/40.1"
178.148.222.29 - - [02/Nov/2018:16:15:28 +0000] "GET / HTTP/1.1" 200 77253 "-" "Mozilla/5.0 (Windows NT 6.1; WOW64; rv:40.0) Gecko/20100101 Firefox/40.1"
178.148.222.29 - - [02/Nov/2018:16:15:29 +0000] "GET /wp-login.php HTTP/1.1" 200 2899 "-" "Mozilla/5.0 (Windows NT 6.1; WOW64; rv:40.0) Gecko/20100101 Firefox/40.1"
178.148.222.29 - - [02/Nov/2018:16:15:30 +0000] "GET / HTTP/1.1" 200 77410 "-" "Mozilla/5.0 (Windows NT 6.1; WOW64; rv:40.0) Gecko/20100101 Firefox/40.1"
157.55.39.42 - - [02/Nov/2018:16:28:42 +0000] "GET /robots.txt HTTP/1.1" 200 92 "-" "Mozilla/5.0 (compatible; bingbot/2.0; +http://www.bing.com/bingbot.htm)"
40.77.167.121 - - [02/Nov/2018:16:28:53 +0000] "GET /category/standard/feed/ HTTP/1.1" 200 5248 "-" "Mozilla/5.0 (compatible; bingbot/2.0; +http://www.bing.com/bingbot.htm)"
162.247.74.74 - - [02/Nov/2018:16:57:07 +0000] "GET / HTTP/1.1" 200 19852 "-" "Mozilla/5.0 (Windows NT 6.0; WOW64; rv:50.0) Gecko/20100101 Firefox/50.0"
162.247.74.74 - - [02/Nov/2018:16:57:09 +0000] "POST / HTTP/1.1" 200 20394 "http://supermonkeystar.com/" "Mozilla/5.0 (Windows NT 6.0; WOW64; rv:50.0) Gecko/20100101 Firefox/50.0"
185.220.101.45 - - [02/Nov/2018:17:39:02 +0000] "GET / HTTP/1.1" 200 19896 "-" "Mozilla/5.0 (Windows NT 5.1; Win64; x64) AppleWebKit/537.36 (KHTML, like Gecko) Chrome/52.0.2743.116 Safari/537.36 Edge/15.15063"
185.220.101.45 - - [02/Nov/2018:17:39:05 +0000] "POST / HTTP/1.1" 200 19941 "http://supermonkeystar.com/" "Mozilla/5.0 (Windows NT 5.1; Win64; x64) AppleWebKit/537.36 (KHTML, like Gecko) Chrome/52.0.2743.116 Safari/537.36 Edge/15.15063"
13.59.56.171 - - [02/Nov/2018:17:41:54 +0000] "GET /wp-login.php HTTP/1.1" 200 1459 "https://www.google.com/url?f56203b63b529ba33edb8360c0052b8c" "Mozilla/5.0 (Windows NT 5.1; rv:33.0) Gecko/20100101 Firefox/33.0"
13.59.56.171 - - [02/Nov/2018:17:42:11 +0000] "POST /wp-login.php HTTP/1.1" 200 2001 "https://www.google.com/url?f56203b63b529ba33edb8360c0052b8c" "Mozilla/5.0 (Windows NT 5.1; rv:33.0) Gecko/20100101 Firefox/33.0"
123.125.71.12 - - [02/Nov/2018:17:45:52 +0000] "GET /robots.txt HTTP/1.1" 200 92 "-" "Mozilla/5.0 (compatible; Baiduspider/2.0; +http://www.baidu.com/search/spider.html)"
178.255.215.79 - - [02/Nov/2018:17:47:33 +0000] "GET /robots.txt HTTP/1.1" 200 92 "-" "Mozilla/5.0 (compatible; Exabot/3.0; +http://www.exabot.com/go/robot)"
178.255.215.79 - - [02/Nov/2018:17:47:34 +0000] "GET / HTTP/1.1" 200 20279 "-" "Mozilla/5.0 (compatible; Exabot/3.0; +http://www.exabot.com/go/robot)"
178.255.215.79 - - [02/Nov/2018:17:48:37 +0000] "GET /feed/ HTTP/1.1" 200 22846 "-" "Mozilla/5.0 (compatible; Exabot/3.0; +http://www.exabot.com/go/robot)"
178.255.215.79 - - [02/Nov/2018:17:48:39 +0000] "GET /comments/feed/ HTTP/1.1" 200 730 "-" "Mozilla/5.0 (compatible; Exabot/3.0; +http://www.exabot.com/go/robot)"
178.255.215.79 - - [02/Nov/2018:17:48:42 +0000] "GET /home/feed/ HTTP/1.1" 200 726 "-" "Mozilla/5.0 (compatible; Exabot/3.0; +http://www.exabot.com/go/robot)"
2a01:4f8:201:1153::2 - - [02/Nov/2018:17:52:31 +0000] "GET /wp-content/wp-object-cache.php?ver=123 HTTP/1.1" 404 30717 "supermonkeystar.com" "en.support.wordpress.com"
212.178.211.132 - - [02/Nov/2018:17:52:45 +0000] "GET /login.php?login=cmd HTTP/1.1" 404 30634 "supermonkeystar.com" "Mozilla/5.1 (Windows NT 6.0; WOW64) AppleWebKit/537.37 (KHTML, like Gecko) Chrome/58.0.1145.75 Safari/537.37"
123.125.67.164 - - [02/Nov/2018:18:10:04 +0000] "GET /robots.txt HTTP/1.1" 200 92 "-" "Mozilla/5.0 (Windows NT 10.0; WOW64) AppleWebKit/537.36 (KHTML, like Gecko) Chrome/45.0.2454.93 Safari/537.36"
35.204.141.80 - - [02/Nov/2018:19:01:18 +0000] "GET /wp-content/themes/dikka-installable/assets/images/icons/credit-cards/mastercard.png HTTP/1.1" 404 16825 "-" "Mozilla/5.0 (compatible; tracemyfile/1.0)"
185.165.169.165 - - [02/Nov/2018:19:17:31 +0000] "GET / HTTP/1.1" 200 19643 "-" "Mozilla/5.0 (Windows NT 10.0; Win64; x64) AppleWebKit/537.36 (KHTML, like Gecko) Chrome/66.0.3359.117 Safari/537.36"
185.165.169.165 - - [02/Nov/2018:19:17:33 +0000] "POST / HTTP/1.1" 200 20085 "http://supermonkeystar.com/" "Mozilla/5.0 (Windows NT 10.0; Win64; x64) AppleWebKit/537.36 (KHTML, like Gecko) Chrome/66.0.3359.117 Safari/537.36"
54.209.248.245 - - [02/Nov/2018:19:34:19 +0000] "GET /feed/ HTTP/1.1" 304 0 "https://www.google.com/" "Mozilla/5.0 (Macintosh; U; Intel Mac OS X 10.6; en-US; rv:1.9.2.13; ) Gecko/20101203"
35.204.99.231 - - [02/Nov/2018:19:45:47 +0000] "GET /wp-content/themes/dikka-installable/assets/images/icons/credit-cards/maestro.png HTTP/1.1" 404 17022 "-" "Mozilla/5.0 (compatible; tracemyfile/1.0)"
109.70.100.18 - - [02/Nov/2018:19:51:28 +0000] "GET / HTTP/1.1" 200 19733 "-" "Mozilla/5.0 (Windows NT 10.0; WOW64; rv:48.0) Gecko/20100101 Firefox/48.0"
109.70.100.18 - - [02/Nov/2018:19:51:30 +0000] "POST / HTTP/1.1" 200 19462 "http://supermonkeystar.com/" "Mozilla/5.0 (Windows NT 10.0; WOW64; rv:48.0) Gecko/20100101 Firefox/48.0"
79.137.68.85 - - [02/Nov/2018:19:59:36 +0000] "GET / HTTP/1.1" 200 20201 "-" "Mozilla/5.0 (compatible; MSIE 10.0; Windows NT 6.1; Trident/6.0)"
91.121.112.181 - - [02/Nov/2018:20:12:38 +0000] "GET / HTTP/1.1" 200 19889 "-" "Mozilla/5.0 (Windows NT 6.1; WOW64) AppleWebKit/537.36 (KHTML, like Gecko) Chrome/46.0.2490.80 Safari/537.36"
185.117.215.9 - - [02/Nov/2018:20:12:46 +0000] "POST / HTTP/1.1" 200 20203 "http://supermonkeystar.com/" "Mozilla/5.0 (Windows NT 6.1; WOW64) AppleWebKit/537.36 (KHTML, like Gecko) Chrome/46.0.2490.80 Safari/537.36"
193.90.12.118 - - [02/Nov/2018:20:18:18 +0000] "GET /wp-login.php HTTP/1.1" 200 2875 "-" "Mozilla/5.0 (Windows NT 10.0; Win64; x64; rv:62.0) Gecko/20100101 Firefox/62.0"
193.90.12.118 - - [02/Nov/2018:20:18:19 +0000] "POST /wp-login.php HTTP/1.0" 200 3072 "-" "Mozilla/5.0 (Windows NT 10.0; Win64; x64; rv:62.0) Gecko/20100101 Firefox/62.0"
120.35.38.212 - - [02/Nov/2018:20:29:47 +0000] "HEAD /wp-content/themes/twentyseventeen/comments.php HTTP/1.1" 200 0 "-" "-"
95.163.255.109 - - [02/Nov/2018:20:43:44 +0000] "GET /robots.txt HTTP/1.1" 200 92 "-" "Mozilla/5.0 (compatible; Linux x86_64; Mail.RU_Bot/2.0; +http://go.mail.ru/help/robots)"
95.163.255.109 - - [02/Nov/2018:20:43:45 +0000] "GET /post_tag-sitemap.xml HTTP/1.1" 200 463 "-" "Mozilla/5.0 (compatible; Linux x86_64; Mail.RU_Bot/2.0; +http://go.mail.ru/help/robots)"
163.172.132.199 - - [02/Nov/2018:20:55:25 +0000] "GET / HTTP/1.1" 200 20197 "-" "Mozilla/5.0 (Windows NT 10.0; Win64; x64; rv:57.0) Gecko/20100101 Firefox/57.0"
199.249.230.65 - - [02/Nov/2018:20:55:27 +0000] "POST / HTTP/1.1" 200 20459 "http://supermonkeystar.com/" "Mozilla/5.0 (Windows NT 10.0; Win64; x64; rv:57.0) Gecko/20100101 Firefox/57.0"
185.220.101.34 - - [02/Nov/2018:21:07:45 +0000] "GET / HTTP/1.1" 200 19597 "-" "Mozilla/5.0 (Windows NT 10.0; WOW64) AppleWebKit/537.36 (KHTML, like Gecko) Chrome/55.0.2883.87 Safari/537.36 OPR/42.0.2393.94"
185.220.101.34 - - [02/Nov/2018:21:07:47 +0000] "POST / HTTP/1.1" 200 19684 "http://supermonkeystar.com/" "Mozilla/5.0 (Windows NT 10.0; WOW64) AppleWebKit/537.36 (KHTML, like Gecko) Chrome/55.0.2883.87 Safari/537.36 OPR/42.0.2393.94"
185.56.80.242 - - [02/Nov/2018:21:15:56 +0000] "GET / HTTP/1.1" 200 20004 "-" "Mozilla/5.0 (Windows NT 6.1; Win64; x64) AppleWebKit/537.36 (KHTML, like Gecko) Chrome/52.0.2743.116 Safari/537.36 Edge/15.15063"
185.56.80.242 - - [02/Nov/2018:21:16:00 +0000] "POST / HTTP/1.1" 200 19951 "http://supermonkeystar.com/" "Mozilla/5.0 (Windows NT 6.1; Win64; x64) AppleWebKit/537.36 (KHTML, like Gecko) Chrome/52.0.2743.116 Safari/537.36 Edge/15.15063"
141.8.142.120 - - [02/Nov/2018:21:23:24 +0000] "GET /robots.txt HTTP/1.1" 200 78 "-" "Mozilla/5.0 (compatible; YandexBot/3.0; +http://yandex.com/bots)"
178.154.244.10 - - [02/Nov/2018:21:23:28 +0000] "GET /2014/11/ HTTP/1.1" 200 13061 "-" "Mozilla/5.0 (compatible; YandexBot/3.0; +http://yandex.com/bots)"
141.8.142.120 - - [02/Nov/2018:21:25:23 +0000] "GET /wp-includes/wlwmanifest.xml HTTP/1.1" 200 503 "-" "Mozilla/5.0 (compatible; YandexBot/3.0; +http://yandex.com/bots)"
180.76.15.22 - - [02/Nov/2018:21:32:25 +0000] "GET / HTTP/1.1" 301 5 "-" "Mozilla/5.0 (compatible; Baiduspider/2.0; +http://www.baidu.com/search/spider.html)"
180.76.15.163 - - [02/Nov/2018:21:32:26 +0000] "GET / HTTP/1.1" 200 20070 "-" "Mozilla/5.0 (compatible; Baiduspider/2.0; +http://www.baidu.com/search/spider.html)"
162.247.74.202 - - [02/Nov/2018:21:32:42 +0000] "GET / HTTP/1.1" 200 19892 "-" "Mozilla/5.0 (Windows NT 10.0; Win64; x64; rv:61.0) Gecko/20100101 Firefox/61.0"
185.56.80.242 - - [02/Nov/2018:21:32:45 +0000] "POST / HTTP/1.1" 200 20398 "http://supermonkeystar.com/" "Mozilla/5.0 (Windows NT 10.0; Win64; x64; rv:61.0) Gecko/20100101 Firefox/61.0"
79.137.68.85 - - [02/Nov/2018:22:00:49 +0000] "GET / HTTP/1.1" 200 19844 "-" "Mozilla/5.0 (Windows NT 10.0; Win64; x64) AppleWebKit/537.36 (KHTML, like Gecko) Chrome/52.0.2743.116 Safari/537.36 Edge/15.15063"
79.137.68.85 - - [02/Nov/2018:22:00:50 +0000] "POST / HTTP/1.1" 200 20139 "http://supermonkeystar.com/" "Mozilla/5.0 (Windows NT 10.0; Win64; x64) AppleWebKit/537.36 (KHTML, like Gecko) Chrome/52.0.2743.116 Safari/537.36 Edge/15.15063"
185.253.98.173 - - [02/Nov/2018:22:19:52 +0000] "GET /jquery-file-upload/server/php/index.php HTTP/1.1" 301 5 "-" "Mozilla/5.0 (Windows NT 6.1; WOW64; rv:54.0) Gecko/20100101 Firefox/54.0"
185.253.98.173 - - [02/Nov/2018:22:19:54 +0000] "GET /assets/global/plugins/jquery-file-upload/server/php/index.php HTTP/1.1" 301 5 "-" "Mozilla/5.0 (Windows NT 6.1; WOW64; rv:54.0) Gecko/20100101 Firefox/54.0"
185.253.98.173 - - [02/Nov/2018:22:19:55 +0000] "GET /assets/plugins/jquery-file-upload/server/php/index.php HTTP/1.1" 301 5 "-" "Mozilla/5.0 (Windows NT 6.1; WOW64; rv:54.0) Gecko/20100101 Firefox/54.0"
185.253.98.173 - - [02/Nov/2018:22:19:57 +0000] "GET /assets/jquery-file-upload/server/php/index.php HTTP/1.1" 301 5 "-" "Mozilla/5.0 (Windows NT 6.1; WOW64; rv:54.0) Gecko/20100101 Firefox/54.0"
185.253.98.173 - - [02/Nov/2018:22:19:58 +0000] "GET /phpformbuilder/plugins/jQuery-File-Upload/server/php/index.php HTTP/1.1" 301 5 "-" "Mozilla/5.0 (Windows NT 6.1; WOW64; rv:54.0) Gecko/20100101 Firefox/54.0"
185.253.98.173 - - [02/Nov/2018:22:20:00 +0000] "GET /public/assets/backend/global/plugins/jquery-file-upload/server/php/index.php HTTP/1.1" 301 5 "-" "Mozilla/5.0 (Windows NT 6.1; WOW64; rv:54.0) Gecko/20100101 Firefox/54.0"
173.239.37.134 - - [02/Nov/2018:22:24:07 +0000] "GET /robots.txt HTTP/1.1" 200 78 "-" "Mozilla/5.0 (Windows NT 10.0; Win64; x64; rv:50.0) Gecko/20100101 Firefox/50.0"
173.239.37.134 - - [02/Nov/2018:22:24:08 +0000] "GET /?author=1 HTTP/1.1" 301 5 "-" "Mozilla/5.0 (Windows NT 10.0; Win64; x64; rv:50.0) Gecko/20100101 Firefox/50.0"
173.239.37.134 - - [02/Nov/2018:22:24:09 +0000] "GET /wp-json/wp/v2/users/ HTTP/1.1" 200 595 "-" "Mozilla/5.0 (Windows NT 10.0; Win64; x64; rv:50.0) Gecko/20100101 Firefox/50.0"
173.239.37.134 - - [02/Nov/2018:22:24:10 +0000] "POST /xmlrpc.php HTTP/1.1" 200 86030 "-" "Mozilla/5.0 (Windows NT 10.0; Win64; x64; rv:50.0) Gecko/20100101 Firefox/50.0"
173.239.37.134 - - [02/Nov/2018:22:25:11 +0000] "POST /xmlrpc.php HTTP/1.1" 408 0 "-" "Mozilla/5.0 (Windows NT 10.0; Win64; x64; rv:50.0) Gecko/20100101 Firefox/50.0"
54.81.141.240 - - [02/Nov/2018:22:27:23 +0000] "GET /wp-login.php HTTP/1.1" 200 1492 "https://www.google.com/url?f56203b63b529ba33edb8360c0052b8c" "Mozilla/5.0 (Windows NT 5.1; rv:33.0) Gecko/20100101 Firefox/33.0"
54.81.141.240 - - [02/Nov/2018:22:27:25 +0000] "POST /wp-login.php HTTP/1.1" 200 1861 "https://www.google.com/url?f56203b63b529ba33edb8360c0052b8c" "Mozilla/5.0 (Windows NT 5.1; rv:33.0) Gecko/20100101 Firefox/33.0"
185.117.118.153 - - [02/Nov/2018:22:36:47 +0000] "HEAD / HTTP/1.1" 200 0 "-" "Mozilla/5.0 (compatible; Uptimebot/1.0; +http://www.uptime.com/uptimebot)"
185.56.80.242 - - [02/Nov/2018:22:43:00 +0000] "GET / HTTP/1.1" 200 19942 "-" "Mozilla/5.0 (Windows NT 6.3; Win64; x64) AppleWebKit/537.36 (KHTML, like Gecko) Chrome/57.0.2987.133 Safari/537.36"
185.56.80.242 - - [02/Nov/2018:22:43:03 +0000] "POST / HTTP/1.1" 200 19715 "http://supermonkeystar.com/" "Mozilla/5.0 (Windows NT 6.3; Win64; x64) AppleWebKit/537.36 (KHTML, like Gecko) Chrome/57.0.2987.133 Safari/537.36"
54.36.150.87 - - [02/Nov/2018:22:49:45 +0000] "GET /robots.txt HTTP/1.1" 200 92 "-" "Mozilla/5.0 (compatible; AhrefsBot/5.2; +http://ahrefs.com/robot/)"
176.8.88.12 - - [02/Nov/2018:22:50:26 +0000] "GET / HTTP/1.1" 200 1079 "https://bpro1.top/" "Mozilla/4.0 (compatible; MSIE 6.0; Windows NT 5.1; SV1)"
176.8.88.12 - - [02/Nov/2018:22:50:27 +0000] "GET / HTTP/1.1" 200 66740 "https://bpro1.top/" "Mozilla/4.0 (compatible; MSIE 6.0; Windows NT 5.1; SV1)"
185.220.101.30 - - [02/Nov/2018:22:58:54 +0000] "GET / HTTP/1.1" 200 19929 "-" "Mozilla/5.0 (Windows NT 6.1) AppleWebKit/537.36 (KHTML, like Gecko) Chrome/39.0.2171.95 Safari/537.36"
209.141.61.45 - - [02/Nov/2018:22:58:57 +0000] "POST / HTTP/1.1" 200 20109 "http://supermonkeystar.com/" "Mozilla/5.0 (Windows NT 6.1) AppleWebKit/537.36 (KHTML, like Gecko) Chrome/39.0.2171.95 Safari/537.36"
54.36.148.147 - - [02/Nov/2018:23:12:46 +0000] "GET / HTTP/1.1" 301 5 "-" "Mozilla/5.0 (compatible; AhrefsBot/5.2; +http://ahrefs.com/robot/)"
216.160.239.174 - - [02/Nov/2018:23:23:01 +0000] "GET /robots.txt HTTP/1.1" 200 92 "-" "Mozilla/5.0 (compatible; Gowikibot/1.0; +http://www.gowikibot.com)"
134.249.54.255 - - [03/Nov/2018:00:18:43 +0000] "GET / HTTP/1.1" 200 1080 "https://xn----7sbbahaq9bb5afgiqfliv4m.xn--p1ai/" "Mozilla/4.0 (compatible; MSIE 6.0; Windows NT 5.1; Maxthon; .NET CLR 1.1.4322)"
134.249.54.255 - - [03/Nov/2018:00:18:44 +0000] "GET / HTTP/1.1" 200 77279 "https://xn----7sbbahaq9bb5afgiqfliv4m.xn--p1ai/" "Mozilla/4.0 (compatible; MSIE 6.0; Windows NT 5.1; Maxthon; .NET CLR 1.1.4322)"
185.193.125.168 - - [03/Nov/2018:00:18:51 +0000] "GET / HTTP/1.1" 200 20280 "-" "Mozilla/5.0 (Windows NT 6.1; WOW64; rv:39.0) Gecko/20100101 Firefox/39.0"
185.193.125.168 - - [03/Nov/2018:00:18:53 +0000] "POST / HTTP/1.1" 200 19595 "http://supermonkeystar.com/" "Mozilla/5.0 (Windows NT 6.1; WOW64; rv:39.0) Gecko/20100101 Firefox/39.0"
180.76.15.9 - - [03/Nov/2018:00:19:15 +0000] "GET /wp-content/plugins/merobuilder/css/front.css?ver=1.5.3 HTTP/1.1" 200 393 "-" "Mozilla/5.0 (compatible; Baiduspider/2.0; +http://www.baidu.com/search/spider.html)"
40.77.167.80 - - [03/Nov/2018:00:31:29 +0000] "GET /tag/zoom/feed/ HTTP/1.1" 200 2768 "-" "Mozilla/5.0 (compatible; bingbot/2.0; +http://www.bing.com/bingbot.htm)"
94.168.35.70 - - [03/Nov/2018:00:59:02 +0000] "GET / HTTP/1.1" 200 20184 "-" "Mozilla/5.0 (Windows NT 6.2; Win64; x64) AppleWebKit/537.36 (KHTML, like Gecko) Chrome/55.0.2883.87 Safari/537.36"
66.70.174.11 - - [03/Nov/2018:00:59:05 +0000] "POST / HTTP/1.1" 200 20239 "http://supermonkeystar.com/" "Mozilla/5.0 (Windows NT 6.2; Win64; x64) AppleWebKit/537.36 (KHTML, like Gecko) Chrome/55.0.2883.87 Safari/537.36"
178.137.165.225 - - [03/Nov/2018:01:22:00 +0000] "GET / HTTP/1.1" 499 0 "https://nakozhe.com/" "Mozilla/4.0 (compatible; MSIE 6.0; Windows NT 5.1; SV1)"
31.170.123.73 - - [03/Nov/2018:01:22:00 +0000] "POST /wp-cron.php?doing_wp_cron=1541208119.7026679515838623046875 HTTP/1.1" 499 0 "http://supermonkeystar.com/wp-cron.php?doing_wp_cron=1541208119.7026679515838623046875" "WordPress/4.7.11; http://supermonkeystar.com"
176.8.88.12 - - [03/Nov/2018:01:49:47 +0000] "GET / HTTP/1.1" 499 0 "https://pills24h.com/" "Mozilla/4.0 (compatible; MSIE 6.0; Windows NT 5.1; SV1; .NET CLR 1.1.4322)"
31.170.123.73 - - [03/Nov/2018:01:49:48 +0000] "POST /wp-cron.php?doing_wp_cron=1541209787.5057880878448486328125 HTTP/1.1" 499 0 "http://supermonkeystar.com/wp-cron.php?doing_wp_cron=1541209787.5057880878448486328125" "WordPress/4.7.11; http://supermonkeystar.com"
176.8.88.12 - - [03/Nov/2018:01:49:48 +0000] "GET / HTTP/1.1" 200 1068 "https://pills24h.com/" "Mozilla/4.0 (compatible; MSIE 6.0; Windows NT 5.1; SV1; .NET CLR 1.1.4322)"
35.204.4.50 - - [03/Nov/2018:02:31:20 +0000] "GET /wp-content/themes/dikka-installable/assets/images/icons/credit-cards/amex.png HTTP/1.1" 404 17138 "-" "Mozilla/5.0 (compatible; tracemyfile/1.0)"
199.249.230.71 - - [03/Nov/2018:02:47:30 +0000] "GET / HTTP/1.1" 200 19647 "-" "Mozilla/5.0 (Windows NT 6.1; Win64; x64) AppleWebKit/537.36 (KHTML, like Gecko) Chrome/54.0.2840.99 Safari/537.36"
87.118.112.63 - - [03/Nov/2018:02:47:33 +0000] "POST / HTTP/1.1" 200 19782 "http://supermonkeystar.com/" "Mozilla/5.0 (Windows NT 6.1; Win64; x64) AppleWebKit/537.36 (KHTML, like Gecko) Chrome/54.0.2840.99 Safari/537.36"
