37.187.94.86 - - [02/Nov/2018:03:08:51 +0000] "GET / HTTP/1.1" 200 3826 "-" "Mozilla/5.0 (Windows NT 10.0; Win64; x64; rv:57.0) Gecko/20100101 Firefox/57.0"
37.187.94.86 - - [02/Nov/2018:03:08:51 +0000] "GET /?email-subscribe=roksolanah%40yahoo.com& HTTP/1.1" 200 3826 "http://looklala.com/" "Mozilla/5.0 (Windows NT 10.0; Win64; x64; rv:57.0) Gecko/20100101 Firefox/57.0"
189.76.15.204 - - [02/Nov/2018:03:16:31 +0000] "GET /wp-login.php HTTP/1.1" 404 210 "-" "Mozilla/5.0 (Windows NT 6.1; WOW64; rv:40.0) Gecko/20100101 Firefox/40.1"
189.76.15.204 - - [02/Nov/2018:03:16:31 +0000] "GET / HTTP/1.1" 200 11888 "-" "Mozilla/5.0 (Windows NT 6.1; WOW64; rv:40.0) Gecko/20100101 Firefox/40.1"
18.191.165.74 - - [02/Nov/2018:03:19:49 +0000] "GET / HTTP/1.1" 200 3826 "-" "Mozilla/5.0 (Macintosh; Intel Mac OS X x.y; rv:42.0) Trident/5.0 Firefox/42.0"
2a01:cb19:68b:4c00:40b0:decb:47ce:deed - - [02/Nov/2018:03:48:23 +0000] "GET /wp-login.php HTTP/1.1" 404 210 "-" "Mozilla/5.0 (Windows NT 6.1; WOW64; rv:40.0) Gecko/20100101 Firefox/40.1"
2a01:cb19:68b:4c00:40b0:decb:47ce:deed - - [02/Nov/2018:03:48:23 +0000] "GET / HTTP/1.1" 200 11888 "-" "Mozilla/5.0 (Windows NT 6.1; WOW64; rv:40.0) Gecko/20100101 Firefox/40.1"
18.217.34.193 - - [02/Nov/2018:03:49:35 +0000] "GET / HTTP/1.1" 200 3826 "-" "Mozilla/5.0 (Windows NT 6.1; Win64; x64; rv:47.0) Trident/5.0 Safari/602.1"
42.236.99.65 - - [02/Nov/2018:04:10:11 +0000] "GET / HTTP/1.1" 200 3826 "http://looklala.com/" "Mozilla/5.0 (Windows NT 6.1; WOW64) AppleWebKit/537.36 (KHTML, like Gecko) Chrome/50.0.2661.102 Safari/537.36; 360Spider"
18.220.65.247 - - [02/Nov/2018:04:19:49 +0000] "GET / HTTP/1.1" 200 3826 "-" "Mozilla/5.0 (Macintosh; Intel Mac OS X x.y; rv:42.0) Trident/5.0 Chrome/67.0.3396.79 Safari/537.36"
18.216.244.161 - - [02/Nov/2018:04:51:05 +0000] "GET / HTTP/1.1" 200 3826 "-" "Mozilla/5.0 (Macintosh; Intel Mac OS X x.y; rv:42.0) Trident/5.0 Chrome/67.0.3396.79 Safari/537.36"
77.247.181.165 - - [02/Nov/2018:04:59:53 +0000] "GET / HTTP/1.1" 200 3826 "-" "Mozilla/5.0 (Windows NT 6.3; Win64; x64) AppleWebKit/537.36 (KHTML, like Gecko) Chrome/55.0.2883.87 Safari/537.36"
77.247.181.165 - - [02/Nov/2018:04:59:54 +0000] "GET /?email-subscribe=christine_eng86%40yahoo.com& HTTP/1.1" 200 3826 "http://looklala.com/" "Mozilla/5.0 (Windows NT 6.3; Win64; x64) AppleWebKit/537.36 (KHTML, like Gecko) Chrome/55.0.2883.87 Safari/537.36"
18.188.206.157 - - [02/Nov/2018:05:18:10 +0000] "GET / HTTP/1.1" 200 3826 "-" "Mozilla/5.0 (Macintosh; Intel Mac OS X x.y; rv:42.0) AppleWebKit/537.36 (KHTML, like Gecko) Chrome/51.0.2704.106 Safari/537.36 OPR/38.0.2220.41"
51.15.65.25 - - [02/Nov/2018:05:29:52 +0000] "GET / HTTP/1.1" 200 3826 "-" "Mozilla/5.0 (Windows NT 10.0; WOW64; rv:59.0) Gecko/20100101 Firefox/59.0"
51.15.65.25 - - [02/Nov/2018:05:29:52 +0000] "GET /?email-subscribe=christine_eng86%40yahoo.com& HTTP/1.1" 200 3826 "http://looklala.com/" "Mozilla/5.0 (Windows NT 10.0; WOW64; rv:59.0) Gecko/20100101 Firefox/59.0"
52.53.201.78 - - [02/Nov/2018:05:48:38 +0000] "GET / HTTP/1.1" 200 3826 "-" "Mozilla/5.0 (Macintosh; Intel Mac OS X 10_12_6) AppleWebKit/537.36 (KHTML, like Gecko) Chrome/61.0.3163.100 Safari/537.36"
18.223.115.234 - - [02/Nov/2018:05:49:05 +0000] "GET / HTTP/1.1" 200 3826 "-" "Mozilla/5.0 (Windows NT 6.1; Win64; x64; rv:47.0) Gecko/20100101 Chrome/51.0.2704.106 Safari/537.36 OPR/38.0.2220.41"
18.191.154.160 - - [02/Nov/2018:06:11:55 +0000] "GET / HTTP/1.1" 200 3826 "-" "Mozilla/5.0 (Windows NT 6.1; Win64; x64; rv:47.0) Trident/5.0 Safari/602.1"
180.153.236.117 - - [02/Nov/2018:06:14:55 +0000] "GET / HTTP/1.1" 200 3826 "http://www.looklala.com/" "Mozilla/5.0(compatible;MSIE9.0;WindowsNT6.1;Trident/5.0)"
197.231.221.211 - - [02/Nov/2018:06:18:48 +0000] "GET / HTTP/1.1" 200 3826 "-" "Mozilla/5.0 (Windows NT 6.1; Win64; x64) AppleWebKit/537.36 (KHTML, like Gecko) Chrome/55.0.2883.87 Safari/537.36"
197.231.221.211 - - [02/Nov/2018:06:18:48 +0000] "GET /?email-subscribe=jmsanders100%40gmail.com& HTTP/1.1" 200 3826 "http://looklala.com/" "Mozilla/5.0 (Windows NT 6.1; Win64; x64) AppleWebKit/537.36 (KHTML, like Gecko) Chrome/55.0.2883.87 Safari/537.36"
78.109.23.2 - - [02/Nov/2018:08:04:32 +0000] "GET / HTTP/1.1" 200 3826 "-" "Mozilla/5.0 (Windows NT 10.0; WOW64; rv:50.0) Gecko/20100101 Firefox/50.0"
78.109.23.2 - - [02/Nov/2018:08:04:32 +0000] "GET /?email-subscribe=christine_eng86%40yahoo.com& HTTP/1.1" 200 3826 "http://looklala.com/" "Mozilla/5.0 (Windows NT 10.0; WOW64; rv:50.0) Gecko/20100101 Firefox/50.0"
220.181.125.86 - - [02/Nov/2018:08:04:58 +0000] "GET /robots.txt HTTP/1.1" 404 208 "-" "Sogou web spider/4.0(+http://www.sogou.com/docs/help/webmasters.htm#07)"
220.181.125.86 - - [02/Nov/2018:08:05:01 +0000] "GET / HTTP/1.1" 304 0 "-" "Sogou web spider/4.0(+http://www.sogou.com/docs/help/webmasters.htm#07)"
158.69.192.239 - - [02/Nov/2018:08:18:06 +0000] "GET / HTTP/1.1" 200 3826 "-" "Mozilla/5.0 (Windows NT 10.0; Win64; x64) AppleWebKit/537.36 (KHTML, like Gecko) Chrome/59.0.3071.115 Safari/537.36"
158.69.192.239 - - [02/Nov/2018:08:18:07 +0000] "GET /?email-subscribe=james.pettyes%40sbcglobal.net& HTTP/1.1" 200 3826 "http://looklala.com/" "Mozilla/5.0 (Windows NT 10.0; Win64; x64) AppleWebKit/537.36 (KHTML, like Gecko) Chrome/59.0.3071.115 Safari/537.36"
178.154.244.10 - - [02/Nov/2018:08:22:53 +0000] "GET /robots.txt HTTP/1.1" 404 208 "-" "Mozilla/5.0 (compatible; YandexBot/3.0; +http://yandex.com/bots)"
178.154.244.10 - - [02/Nov/2018:08:22:57 +0000] "GET /img/favicons/apple-touch-icon.png HTTP/1.1" 200 2641 "-" "Mozilla/5.0 (compatible; YandexBot/3.0; +http://yandex.com/bots)"
171.25.193.235 - - [02/Nov/2018:08:24:03 +0000] "GET / HTTP/1.1" 200 3826 "-" "Mozilla/5.0 (Windows NT 6.3; Win64; x64) AppleWebKit/537.36 (KHTML, like Gecko) Chrome/55.0.2883.87 Safari/537.36"
171.25.193.235 - - [02/Nov/2018:08:24:04 +0000] "GET /?email-subscribe=rogeliolozanojr%40yahoo.com& HTTP/1.1" 200 3826 "http://looklala.com/" "Mozilla/5.0 (Windows NT 6.3; Win64; x64) AppleWebKit/537.36 (KHTML, like Gecko) Chrome/55.0.2883.87 Safari/537.36"
158.174.122.218 - - [02/Nov/2018:08:45:01 +0000] "GET / HTTP/1.1" 200 3826 "-" "Mozilla/5.0 (Windows NT 10.0; WOW64) AppleWebKit/537.36 (KHTML, like Gecko) Chrome/55.0.2883.87 Safari/537.36 OPR/42.0.2393.94"
158.174.122.218 - - [02/Nov/2018:08:45:01 +0000] "GET /?email-subscribe=dhiaaudish%40yahoo.com& HTTP/1.1" 200 3826 "http://looklala.com/" "Mozilla/5.0 (Windows NT 10.0; WOW64) AppleWebKit/537.36 (KHTML, like Gecko) Chrome/55.0.2883.87 Safari/537.36 OPR/42.0.2393.94"
185.220.101.22 - - [02/Nov/2018:08:51:40 +0000] "GET / HTTP/1.1" 200 3826 "-" "Mozilla/5.0 (Windows NT 10.0; WOW64; rv:54.0) Gecko/20100101 Firefox/54.0"
45.32.116.97 - - [02/Nov/2018:08:51:45 +0000] "GET /?email-subscribe=stacie.glessner%40gmail.com& HTTP/1.1" 200 3826 "http://looklala.com/" "Mozilla/5.0 (Windows NT 10.0; WOW64; rv:54.0) Gecko/20100101 Firefox/54.0"
185.220.101.8 - - [02/Nov/2018:10:08:32 +0000] "GET / HTTP/1.1" 200 3826 "-" "Mozilla/5.0 (X11; Ubuntu; Linux x86_64; rv:15.0) Gecko/20100101 Firefox/15.0"
104.244.78.163 - - [02/Nov/2018:10:08:37 +0000] "GET /?email-subscribe=piotr.tomis%40turek.com.pl& HTTP/1.1" 200 3826 "http://looklala.com/" "Mozilla/5.0 (X11; Ubuntu; Linux x86_64; rv:15.0) Gecko/20100101 Firefox/15.0"
216.218.222.14 - - [02/Nov/2018:10:10:57 +0000] "GET / HTTP/1.1" 200 3826 "-" "Mozilla/5.0 (Windows NT 6.0; Win64; x64) AppleWebKit/537.36 (KHTML, like Gecko) Chrome/55.0.2883.87 Safari/537.36"
216.218.222.14 - - [02/Nov/2018:10:10:59 +0000] "GET /?email-subscribe=bricerice2%40gmail.com& HTTP/1.1" 200 3826 "http://looklala.com/" "Mozilla/5.0 (Windows NT 6.0; Win64; x64) AppleWebKit/537.36 (KHTML, like Gecko) Chrome/55.0.2883.87 Safari/537.36"
18.188.206.157 - - [02/Nov/2018:10:17:41 +0000] "GET / HTTP/1.1" 200 3826 "-" "Mozilla/5.0 (X11; Linux x86_64) AppleWebKit/537.36 (KHTML, like Gecko) Safari/602.1"
192.42.116.18 - - [02/Nov/2018:10:22:57 +0000] "GET / HTTP/1.1" 200 3826 "-" "Mozilla/5.0 (Windows NT 6.3; WOW64; rv:46.0) Gecko/20100101 Firefox/46.0"
192.42.116.18 - - [02/Nov/2018:10:22:58 +0000] "GET /?email-subscribe=nikowright43%40yahoo.com& HTTP/1.1" 200 3826 "http://looklala.com/" "Mozilla/5.0 (Windows NT 6.3; WOW64; rv:46.0) Gecko/20100101 Firefox/46.0"
179.43.134.157 - - [02/Nov/2018:10:26:52 +0000] "GET / HTTP/1.1" 200 3826 "-" "Mozilla/5.0 (Windows NT 10.0; Win64; x64) AppleWebKit/537.36 (KHTML, like Gecko) Chrome/66.0.3359.181 Safari/537.36"
179.43.134.157 - - [02/Nov/2018:10:26:53 +0000] "GET /?email-subscribe=svenja.dettmer%40gmx.de& HTTP/1.1" 200 3826 "http://looklala.com/" "Mozilla/5.0 (Windows NT 10.0; Win64; x64) AppleWebKit/537.36 (KHTML, like Gecko) Chrome/66.0.3359.181 Safari/537.36"
18.223.247.156 - - [02/Nov/2018:10:42:29 +0000] "GET / HTTP/1.1" 200 3826 "-" "Mozilla/5.0 (Macintosh; Intel Mac OS X x.y; rv:42.0) Gecko/20100101 Firefox/42.0"
173.79.165.247 - - [02/Nov/2018:10:44:58 +0000] "GET / HTTP/1.1" 200 3826 "-" "Mozilla/5.0 (compatible; MSIE 9.0; Windows NT 6.1; WOW64; Trident/5.0)"
185.193.125.168 - - [02/Nov/2018:10:44:59 +0000] "GET /?email-subscribe=shannfoley%40aol.com& HTTP/1.1" 200 3826 "http://looklala.com/" "Mozilla/5.0 (compatible; MSIE 9.0; Windows NT 6.1; WOW64; Trident/5.0)"
104.192.74.198 - - [02/Nov/2018:10:53:46 +0000] "GET / HTTP/1.1" 200 3826 "http://looklala.com" "Mozilla/5.0 (Macintosh; Intel Mac OS X 10_12_1) AppleWebKit/537.36 (KHTML, like Gecko) Chrome/58.0.3029.110 Safari/537.36"
104.192.74.198 - - [02/Nov/2018:10:53:48 +0000] "GET / HTTP/1.1" 200 3826 "-" "Mozilla/5.0 (X11; Linux x86_64) AppleWebKit/537.36 (KHTML, like Gecko) HeadlessChrome/70.0.3538.77 Safari/537.36"
104.192.74.198 - - [02/Nov/2018:10:53:48 +0000] "GET /css/jpreloader.css HTTP/1.1" 200 838 "http://looklala.com/" "Mozilla/5.0 (X11; Linux x86_64) AppleWebKit/537.36 (KHTML, like Gecko) HeadlessChrome/70.0.3538.77 Safari/537.36"
104.192.74.198 - - [02/Nov/2018:10:53:48 +0000] "GET /css/base.css HTTP/1.1" 200 5047 "http://looklala.com/" "Mozilla/5.0 (X11; Linux x86_64) AppleWebKit/537.36 (KHTML, like Gecko) HeadlessChrome/70.0.3538.77 Safari/537.36"
104.192.74.198 - - [02/Nov/2018:10:53:48 +0000] "GET /css/jquery.vegas.css HTTP/1.1" 200 432 "http://looklala.com/" "Mozilla/5.0 (X11; Linux x86_64) AppleWebKit/537.36 (KHTML, like Gecko) HeadlessChrome/70.0.3538.77 Safari/537.36"
104.192.74.198 - - [02/Nov/2018:10:53:48 +0000] "GET /fonts/font-awesome/css/font-awesome.min.css HTTP/1.1" 200 4995 "http://looklala.com/" "Mozilla/5.0 (X11; Linux x86_64) AppleWebKit/537.36 (KHTML, like Gecko) HeadlessChrome/70.0.3538.77 Safari/537.36"
104.192.74.198 - - [02/Nov/2018:10:53:48 +0000] "GET /css/theme/bw.css HTTP/1.1" 200 476 "http://looklala.com/" "Mozilla/5.0 (X11; Linux x86_64) AppleWebKit/537.36 (KHTML, like Gecko) HeadlessChrome/70.0.3538.77 Safari/537.36"
104.192.74.198 - - [02/Nov/2018:10:53:48 +0000] "GET /js/jquery.min.js HTTP/1.1" 200 38129 "http://looklala.com/" "Mozilla/5.0 (X11; Linux x86_64) AppleWebKit/537.36 (KHTML, like Gecko) HeadlessChrome/70.0.3538.77 Safari/537.36"
104.192.74.198 - - [02/Nov/2018:10:53:48 +0000] "GET /js/jpreloader.min.js HTTP/1.1" 200 1460 "http://looklala.com/" "Mozilla/5.0 (X11; Linux x86_64) AppleWebKit/537.36 (KHTML, like Gecko) HeadlessChrome/70.0.3538.77 Safari/537.36"
104.192.74.198 - - [02/Nov/2018:10:53:48 +0000] "GET /js/pagescroller.js HTTP/1.1" 200 1881 "http://looklala.com/" "Mozilla/5.0 (X11; Linux x86_64) AppleWebKit/537.36 (KHTML, like Gecko) HeadlessChrome/70.0.3538.77 Safari/537.36"
104.192.74.198 - - [02/Nov/2018:10:53:48 +0000] "GET /js/vegas.js HTTP/1.1" 200 3945 "http://looklala.com/" "Mozilla/5.0 (X11; Linux x86_64) AppleWebKit/537.36 (KHTML, like Gecko) HeadlessChrome/70.0.3538.77 Safari/537.36"
104.192.74.198 - - [02/Nov/2018:10:53:48 +0000] "GET /js/waypoints.min.js HTTP/1.1" 200 2930 "http://looklala.com/" "Mozilla/5.0 (X11; Linux x86_64) AppleWebKit/537.36 (KHTML, like Gecko) HeadlessChrome/70.0.3538.77 Safari/537.36"
104.192.74.198 - - [02/Nov/2018:10:53:48 +0000] "GET /js/jquery.easing.1.3.js HTTP/1.1" 200 2217 "http://looklala.com/" "Mozilla/5.0 (X11; Linux x86_64) AppleWebKit/537.36 (KHTML, like Gecko) HeadlessChrome/70.0.3538.77 Safari/537.36"
104.192.74.198 - - [02/Nov/2018:10:53:48 +0000] "GET /js/validate.min.js HTTP/1.1" 200 7344 "http://looklala.com/" "Mozilla/5.0 (X11; Linux x86_64) AppleWebKit/537.36 (KHTML, like Gecko) HeadlessChrome/70.0.3538.77 Safari/537.36"
104.192.74.198 - - [02/Nov/2018:10:53:49 +0000] "GET /js/script.js HTTP/1.1" 200 3200 "http://looklala.com/" "Mozilla/5.0 (X11; Linux x86_64) AppleWebKit/537.36 (KHTML, like Gecko) HeadlessChrome/70.0.3538.77 Safari/537.36"
104.192.74.198 - - [02/Nov/2018:10:53:49 +0000] "GET /img/pre-load.gif HTTP/1.1" 200 7198 "http://looklala.com/css/jpreloader.css" "Mozilla/5.0 (X11; Linux x86_64) AppleWebKit/537.36 (KHTML, like Gecko) HeadlessChrome/70.0.3538.77 Safari/537.36"
104.192.74.198 - - [02/Nov/2018:10:53:49 +0000] "GET /img/top.png HTTP/1.1" 200 1867 "http://looklala.com/css/base.css" "Mozilla/5.0 (X11; Linux x86_64) AppleWebKit/537.36 (KHTML, like Gecko) HeadlessChrome/70.0.3538.77 Safari/537.36"
104.192.74.198 - - [02/Nov/2018:10:53:49 +0000] "GET /img/logo-white.png HTTP/1.1" 200 5255 "http://looklala.com/css/base.css" "Mozilla/5.0 (X11; Linux x86_64) AppleWebKit/537.36 (KHTML, like Gecko) HeadlessChrome/70.0.3538.77 Safari/537.36"
104.192.74.198 - - [02/Nov/2018:10:53:49 +0000] "GET /fonts/font-awesome/font/fontawesome-webfontf77b.html?v=3.2.1 HTTP/1.1" 200 3124 "http://looklala.com/fonts/font-awesome/css/font-awesome.min.css" "Mozilla/5.0 (X11; Linux x86_64) AppleWebKit/537.36 (KHTML, like Gecko) HeadlessChrome/70.0.3538.77 Safari/537.36"
104.192.74.198 - - [02/Nov/2018:10:53:49 +0000] "GET /img/load.gif HTTP/1.1" 200 1998 "http://looklala.com/css/jpreloader.css" "Mozilla/5.0 (X11; Linux x86_64) AppleWebKit/537.36 (KHTML, like Gecko) HeadlessChrome/70.0.3538.77 Safari/537.36"
104.192.74.198 - - [02/Nov/2018:10:53:50 +0000] "GET /fonts/font-awesome/font/fontawesome-webfontf77b.ttf?v=3.2.1 HTTP/1.1" 200 79076 "http://looklala.com/fonts/font-awesome/css/font-awesome.min.css" "Mozilla/5.0 (X11; Linux x86_64) AppleWebKit/537.36 (KHTML, like Gecko) HeadlessChrome/70.0.3538.77 Safari/537.36"
104.192.74.198 - - [02/Nov/2018:10:53:52 +0000] "GET /img/logo-black.png HTTP/1.1" 200 3125 "http://looklala.com/css/base.css" "Mozilla/5.0 (X11; Linux x86_64) AppleWebKit/537.36 (KHTML, like Gecko) HeadlessChrome/70.0.3538.77 Safari/537.36"
104.192.74.198 - - [02/Nov/2018:10:53:55 +0000] "GET /img/mark.png HTTP/1.1" 200 2000 "http://looklala.com/" "Mozilla/5.0 (X11; Linux x86_64) AppleWebKit/537.36 (KHTML, like Gecko) HeadlessChrome/70.0.3538.77 Safari/537.36"
104.192.74.198 - - [02/Nov/2018:10:53:58 +0000] "GET /img/bg-color/3.jpg HTTP/1.1" 200 30170 "http://looklala.com/" "Mozilla/5.0 (X11; Linux x86_64) AppleWebKit/537.36 (KHTML, like Gecko) HeadlessChrome/70.0.3538.77 Safari/537.36"
180.76.15.136 - - [02/Nov/2018:11:00:43 +0000] "GET /?content/5503.html HTTP/1.1" 200 3826 "-" "Mozilla/5.0 (compatible; Baiduspider/2.0; +http://www.baidu.com/search/spider.html)"
18.188.69.31 - - [02/Nov/2018:11:16:14 +0000] "GET / HTTP/1.1" 200 3826 "-" "Mozilla/5.0 (Macintosh; Intel Mac OS X x.y; rv:42.0) AppleWebKit/537.36 (KHTML, like Gecko) Chrome/67.0.3396.79 Safari/537.36"
171.25.193.25 - - [02/Nov/2018:11:17:48 +0000] "GET / HTTP/1.1" 200 3826 "-" "Mozilla/5.0 (Windows NT 6.1; WOW64) AppleWebKit/537.36 (KHTML, like Gecko) Chrome/55.0.2883.87 Safari/537.36 OPR/42.0.2393.94"
171.25.193.25 - - [02/Nov/2018:11:17:49 +0000] "GET /?email-subscribe=sff0259%40yahoo.com& HTTP/1.1" 200 3826 "http://looklala.com/" "Mozilla/5.0 (Windows NT 6.1; WOW64) AppleWebKit/537.36 (KHTML, like Gecko) Chrome/55.0.2883.87 Safari/537.36 OPR/42.0.2393.94"
185.220.101.46 - - [02/Nov/2018:12:07:15 +0000] "GET / HTTP/1.1" 200 3826 "-" "Mozilla/5.0 (Windows NT 6.1; Win64; x64) AppleWebKit/537.36 (KHTML, like Gecko) Chrome/61.0.3163.100 Safari/537.36"
37.128.222.30 - - [02/Nov/2018:12:10:09 +0000] "GET / HTTP/1.1" 200 3826 "-" "Mozilla/5.0 (Windows NT 10.0; Win64; x64) AppleWebKit/537.36 (KHTML, like Gecko) Chrome/61.0.3163.100 Safari/537.36"
92.63.103.241 - - [02/Nov/2018:12:10:11 +0000] "GET /?email-subscribe=zlee3232%40gmail.com& HTTP/1.1" 200 3826 "http://looklala.com/" "Mozilla/5.0 (Windows NT 10.0; Win64; x64) AppleWebKit/537.36 (KHTML, like Gecko) Chrome/61.0.3163.100 Safari/537.36"
18.217.89.105 - - [02/Nov/2018:12:13:25 +0000] "GET / HTTP/1.1" 200 3826 "-" "Mozilla/5.0 (X11; Linux x86_64) AppleWebKit/537.36 (KHTML, like Gecko) Firefox/42.0"
109.70.100.19 - - [02/Nov/2018:12:37:30 +0000] "GET / HTTP/1.1" 200 3826 "-" "Mozilla/5.0 (Windows NT 6.1; WOW64) AppleWebKit/537.36 (KHTML, like Gecko) Chrome/46.0.2490.80 Safari/537.36"
185.56.80.242 - - [02/Nov/2018:12:37:34 +0000] "GET /?email-subscribe=tsehlert%40yahoo.com& HTTP/1.1" 200 3826 "http://looklala.com/" "Mozilla/5.0 (Windows NT 6.1; WOW64) AppleWebKit/537.36 (KHTML, like Gecko) Chrome/46.0.2490.80 Safari/537.36"
94.230.208.147 - - [02/Nov/2018:12:43:23 +0000] "GET / HTTP/1.1" 200 3826 "-" "Mozilla/5.0 (Windows NT 10.0; Win64; x64) AppleWebKit/537.36 (KHTML, like Gecko) Chrome/62.0.3202.89 Safari/537.36"
94.230.208.147 - - [02/Nov/2018:12:43:24 +0000] "GET /?email-subscribe=sff0259%40yahoo.com& HTTP/1.1" 200 3826 "http://looklala.com/" "Mozilla/5.0 (Windows NT 10.0; Win64; x64) AppleWebKit/537.36 (KHTML, like Gecko) Chrome/62.0.3202.89 Safari/537.36"
192.42.116.22 - - [02/Nov/2018:12:59:23 +0000] "GET / HTTP/1.1" 200 3826 "-" "Mozilla/5.0 (Windows NT 6.1; WOW64) AppleWebKit/537.36 (KHTML, like Gecko) Chrome/46.0.2490.80 Safari/537.36"
192.42.116.22 - - [02/Nov/2018:12:59:24 +0000] "GET /?email-subscribe=lucysheik%40yahoo.com& HTTP/1.1" 200 3826 "http://looklala.com/" "Mozilla/5.0 (Windows NT 6.1; WOW64) AppleWebKit/537.36 (KHTML, like Gecko) Chrome/46.0.2490.80 Safari/537.36"
13.58.250.246 - - [02/Nov/2018:13:06:13 +0000] "GET / HTTP/1.1" 200 11888 "-" "B2B Bot"
195.176.3.24 - - [02/Nov/2018:13:10:58 +0000] "GET / HTTP/1.1" 200 3826 "-" "Mozilla/5.0 (Windows NT 10.0; Win64; x64) AppleWebKit/537.36 (KHTML, like Gecko) Chrome/55.0.2883.87 Safari/537.36"
195.176.3.24 - - [02/Nov/2018:13:10:59 +0000] "GET /?email-subscribe=lucysheik%40yahoo.com& HTTP/1.1" 200 3826 "http://looklala.com/" "Mozilla/5.0 (Windows NT 10.0; Win64; x64) AppleWebKit/537.36 (KHTML, like Gecko) Chrome/55.0.2883.87 Safari/537.36"
18.223.247.156 - - [02/Nov/2018:13:13:52 +0000] "GET / HTTP/1.1" 200 3826 "-" "Mozilla/5.0 (Macintosh; Intel Mac OS X x.y; rv:42.0) Gecko/20100101 Chrome/51.0.2704.106 Safari/537.36 OPR/38.0.2220.41"
209.17.97.74 - - [02/Nov/2018:13:14:46 +0000] "GET / HTTP/1.1" 200 11888 "-" "Mozilla/5.0 (compatible; Nimbostratus-Bot/v1.3.2; http://cloudsystemnetworks.com)"
185.56.80.242 - - [02/Nov/2018:13:18:11 +0000] "GET / HTTP/1.1" 200 3826 "-" "Mozilla/5.0 (Macintosh; Intel Mac OS X 10_11_5) AppleWebKit/601.6.17 (KHTML, like Gecko) Version/9.1.1 Safari/601.6.17"
185.56.80.242 - - [02/Nov/2018:13:18:12 +0000] "GET /?email-subscribe=christine_eng86%40yahoo.com& HTTP/1.1" 200 3826 "http://looklala.com/" "Mozilla/5.0 (Macintosh; Intel Mac OS X 10_11_5) AppleWebKit/601.6.17 (KHTML, like Gecko) Version/9.1.1 Safari/601.6.17"
180.76.15.153 - - [02/Nov/2018:13:22:20 +0000] "GET /?content/13805.html HTTP/1.1" 200 3826 "-" "Mozilla/5.0 (compatible; Baiduspider/2.0; +http://www.baidu.com/search/spider.html)"
158.174.122.218 - - [02/Nov/2018:13:23:37 +0000] "GET / HTTP/1.1" 200 3826 "-" "Mozilla/5.0 (Windows NT 6.2; Win64; x64) AppleWebKit/537.36 (KHTML, like Gecko) Chrome/52.0.2743.116 Safari/537.36 Edge/15.15063"
158.174.122.218 - - [02/Nov/2018:13:23:38 +0000] "GET /?email-subscribe=hobieann58%40yahoo.com& HTTP/1.1" 200 3826 "http://looklala.com/" "Mozilla/5.0 (Windows NT 6.2; Win64; x64) AppleWebKit/537.36 (KHTML, like Gecko) Chrome/52.0.2743.116 Safari/537.36 Edge/15.15063"
13.58.214.240 - - [02/Nov/2018:13:46:06 +0000] "GET / HTTP/1.1" 200 3826 "-" "Mozilla/5.0 (Windows NT 6.1; Win64; x64; rv:47.0) Gecko/20100101 Chrome/67.0.3396.79 Safari/537.36"
195.254.134.194 - - [02/Nov/2018:14:04:03 +0000] "GET / HTTP/1.1" 200 3826 "-" "Mozilla/5.0 (Windows NT 6.3; WOW64; rv:41.0) Gecko/20100101 Firefox/41.0"
195.254.134.194 - - [02/Nov/2018:14:04:04 +0000] "GET /?email-subscribe=kylillimom%40yahoo.com& HTTP/1.1" 200 3826 "http://looklala.com/" "Mozilla/5.0 (Windows NT 6.3; WOW64; rv:41.0) Gecko/20100101 Firefox/41.0"
65.19.167.130 - - [02/Nov/2018:14:13:23 +0000] "GET / HTTP/1.1" 200 3826 "-" "Mozilla/5.0 (Windows NT 10.0; Win64; x64) AppleWebKit/537.36 (KHTML, like Gecko) Chrome/55.0.2883.87 Safari/537.36"
65.19.167.130 - - [02/Nov/2018:14:13:25 +0000] "GET /?email-subscribe=lucysheik%40yahoo.com& HTTP/1.1" 200 3826 "http://looklala.com/" "Mozilla/5.0 (Windows NT 10.0; Win64; x64) AppleWebKit/537.36 (KHTML, like Gecko) Chrome/55.0.2883.87 Safari/537.36"
18.188.69.31 - - [02/Nov/2018:14:17:47 +0000] "GET / HTTP/1.1" 200 3826 "-" "Mozilla/5.0 (X11; Linux x86_64) Trident/5.0 Chrome/51.0.2704.106 Safari/537.36 OPR/38.0.2220.41"
185.227.68.250 - - [02/Nov/2018:14:27:21 +0000] "GET / HTTP/1.1" 200 3826 "-" "Mozilla/5.0 (Windows NT 5.1; Win64; x64) AppleWebKit/537.36 (KHTML, like Gecko) Chrome/46.0.2486.0 Safari/537.36 Edge/13.10586"
185.227.68.250 - - [02/Nov/2018:14:27:22 +0000] "GET /?email-subscribe=andrewderringer%40comcast.net& HTTP/1.1" 200 3826 "http://looklala.com/" "Mozilla/5.0 (Windows NT 5.1; Win64; x64) AppleWebKit/537.36 (KHTML, like Gecko) Chrome/46.0.2486.0 Safari/537.36 Edge/13.10586"
51.15.49.134 - - [02/Nov/2018:14:46:05 +0000] "GET / HTTP/1.1" 200 3826 "-" "Mozilla/5.0 (Windows NT 6.0; WOW64; rv:50.0) Gecko/20100101 Firefox/50.0"
51.15.49.134 - - [02/Nov/2018:14:46:06 +0000] "GET /?email-subscribe=chrischen.pdp%40gmail.com& HTTP/1.1" 200 3826 "http://looklala.com/" "Mozilla/5.0 (Windows NT 6.0; WOW64; rv:50.0) Gecko/20100101 Firefox/50.0"
18.188.208.82 - - [02/Nov/2018:14:48:19 +0000] "GET / HTTP/1.1" 200 3826 "-" "Mozilla/5.0 (Windows NT 6.1; Win64; x64; rv:47.0) Trident/5.0 Chrome/51.0.2704.106 Safari/537.36 OPR/38.0.2220.41"
18.218.79.145 - - [02/Nov/2018:15:16:57 +0000] "GET / HTTP/1.1" 200 3826 "-" "Mozilla/5.0 (X11; Linux x86_64) Gecko/20100101 Firefox/42.0"
163.172.67.180 - - [02/Nov/2018:15:23:57 +0000] "GET / HTTP/1.1" 200 3826 "-" "Mozilla/5.0 (Windows NT 6.1; Win64; x64) AppleWebKit/537.36 (KHTML, like Gecko) Chrome/51.0.2704.79 Safari/537.36 Edge/14.14393"
185.24.218.182 - - [02/Nov/2018:15:24:03 +0000] "GET /?email-subscribe=gcannon12%40gmail.com& HTTP/1.1" 200 3826 "http://looklala.com/" "Mozilla/5.0 (Windows NT 6.1; Win64; x64) AppleWebKit/537.36 (KHTML, like Gecko) Chrome/51.0.2704.79 Safari/537.36 Edge/14.14393"
199.249.230.71 - - [02/Nov/2018:15:34:32 +0000] "GET / HTTP/1.1" 200 3826 "-" "Mozilla/5.0 (Windows NT 10.0; WOW64; rv:50.0) Gecko/20100101 Firefox/50.0"
199.249.230.71 - - [02/Nov/2018:15:34:33 +0000] "GET /?email-subscribe=lucysheik%40yahoo.com& HTTP/1.1" 200 3826 "http://looklala.com/" "Mozilla/5.0 (Windows NT 10.0; WOW64; rv:50.0) Gecko/20100101 Firefox/50.0"
185.220.102.6 - - [02/Nov/2018:15:45:24 +0000] "GET / HTTP/1.1" 200 3826 "-" "Mozilla/5.0 (Windows NT 6.1; WOW64) AppleWebKit/537.36 (KHTML, like Gecko) Chrome/51.0.2704.106 Safari/537.36"
185.220.102.6 - - [02/Nov/2018:15:45:25 +0000] "GET /?email-subscribe=martybaker%40worldnet.att.net& HTTP/1.1" 200 3826 "http://looklala.com/" "Mozilla/5.0 (Windows NT 6.1; WOW64) AppleWebKit/537.36 (KHTML, like Gecko) Chrome/51.0.2704.106 Safari/537.36"
18.222.143.109 - - [02/Nov/2018:15:49:05 +0000] "GET / HTTP/1.1" 200 3826 "-" "Mozilla/5.0 (Windows NT 6.1; Win64; x64; rv:47.0) AppleWebKit/537.36 (KHTML, like Gecko) Safari/602.1"
51.15.43.205 - - [02/Nov/2018:15:52:34 +0000] "GET / HTTP/1.1" 200 3826 "-" "Mozilla/5.0 (X11; Linux x86_64; rv:45.0) Gecko/20100101 Thunderbird/45.3.0"
51.15.43.205 - - [02/Nov/2018:15:52:35 +0000] "GET /?email-subscribe=deanna.rode%40gmail.com& HTTP/1.1" 200 3826 "http://looklala.com/" "Mozilla/5.0 (X11; Linux x86_64; rv:45.0) Gecko/20100101 Thunderbird/45.3.0"
18.220.11.248 - - [02/Nov/2018:16:07:11 +0000] "GET / HTTP/1.1" 200 3826 "-" "Mozilla/5.0 (Windows NT 6.1; Win64; x64; rv:47.0) AppleWebKit/537.36 (KHTML, like Gecko) Chrome/67.0.3396.79 Safari/537.36"
178.148.222.29 - - [02/Nov/2018:16:14:39 +0000] "GET /wp-login.php HTTP/1.1" 404 210 "-" "Mozilla/5.0 (Windows NT 6.1; WOW64; rv:40.0) Gecko/20100101 Firefox/40.1"
178.148.222.29 - - [02/Nov/2018:16:14:39 +0000] "GET / HTTP/1.1" 200 11888 "-" "Mozilla/5.0 (Windows NT 6.1; WOW64; rv:40.0) Gecko/20100101 Firefox/40.1"
95.130.9.90 - - [02/Nov/2018:16:17:21 +0000] "GET / HTTP/1.1" 200 3826 "-" "Mozilla/5.0 (Windows NT 10.0; Win64; x64) AppleWebKit/537.36 (KHTML, like Gecko) Chrome/60.0.3112.90 Safari/537.36"
95.130.9.90 - - [02/Nov/2018:16:17:22 +0000] "GET /?email-subscribe=mikalpham%40gmail.com& HTTP/1.1" 200 3826 "http://looklala.com/" "Mozilla/5.0 (Windows NT 10.0; Win64; x64) AppleWebKit/537.36 (KHTML, like Gecko) Chrome/60.0.3112.90 Safari/537.36"
185.220.101.30 - - [02/Nov/2018:16:24:10 +0000] "GET / HTTP/1.1" 200 3826 "-" "Mozilla/5.0 (compatible; MSIE 10.0; Windows NT 6.1; WOW64; Trident/6.0)"
185.220.101.30 - - [02/Nov/2018:16:24:11 +0000] "GET /?email-subscribe=tthomas15%40cinci.rr.com& HTTP/1.1" 200 3826 "http://looklala.com/" "Mozilla/5.0 (compatible; MSIE 10.0; Windows NT 6.1; WOW64; Trident/6.0)"
180.76.15.34 - - [02/Nov/2018:16:33:56 +0000] "GET /?content/10191.html HTTP/1.1" 200 3826 "-" "Mozilla/5.0 (compatible; Baiduspider/2.0; +http://www.baidu.com/search/spider.html)"
18.217.89.105 - - [02/Nov/2018:16:39:36 +0000] "GET / HTTP/1.1" 200 3826 "-" "Mozilla/5.0 (Windows NT 6.1; Win64; x64; rv:47.0) Gecko/20100101 Safari/602.1"
185.94.190.211 - - [02/Nov/2018:16:51:57 +0000] "GET / HTTP/1.1" 200 3826 "-" "Mozilla/5.0 (Windows NT 6.3; WOW64; Trident/7.0; rv:11.0) like Gecko"
185.94.190.211 - - [02/Nov/2018:16:51:58 +0000] "GET /?email-subscribe=nvillelamagana%40arteshs.org& HTTP/1.1" 200 3826 "http://looklala.com/" "Mozilla/5.0 (Windows NT 6.3; WOW64; Trident/7.0; rv:11.0) like Gecko"
80.245.107.8 - - [02/Nov/2018:16:54:21 +0000] "HEAD /1.zip HTTP/1.1" 404 0 "-" "Mozilla/4.0 (compatible; MSIE 8.0; Windows NT 6.1; Trident/4.0)"
80.245.107.8 - - [02/Nov/2018:16:54:22 +0000] "HEAD /1.rar HTTP/1.1" 404 0 "-" "Mozilla/4.0 (compatible; MSIE 8.0; Windows NT 6.1; Trident/4.0)"
80.245.107.8 - - [02/Nov/2018:16:54:23 +0000] "HEAD /2.zip HTTP/1.1" 404 0 "-" "Mozilla/4.0 (compatible; MSIE 8.0; Windows NT 6.1; Trident/4.0)"
80.245.107.8 - - [02/Nov/2018:16:54:23 +0000] "HEAD /2.rar HTTP/1.1" 404 0 "-" "Mozilla/4.0 (compatible; MSIE 8.0; Windows NT 6.1; Trident/4.0)"
80.245.107.8 - - [02/Nov/2018:16:54:24 +0000] "HEAD /db.rar HTTP/1.1" 404 0 "-" "Mozilla/4.0 (compatible; MSIE 8.0; Windows NT 6.1; Trident/4.0)"
80.245.107.8 - - [02/Nov/2018:16:54:25 +0000] "HEAD /db.zip HTTP/1.1" 404 0 "-" "Mozilla/4.0 (compatible; MSIE 8.0; Windows NT 6.1; Trident/4.0)"
80.245.107.8 - - [02/Nov/2018:16:54:26 +0000] "HEAD /wz.rar HTTP/1.1" 404 0 "-" "Mozilla/4.0 (compatible; MSIE 8.0; Windows NT 6.1; Trident/4.0)"
80.245.107.8 - - [02/Nov/2018:16:54:28 +0000] "HEAD /wz.zip HTTP/1.1" 404 0 "-" "Mozilla/4.0 (compatible; MSIE 8.0; Windows NT 6.1; Trident/4.0)"
80.245.107.8 - - [02/Nov/2018:16:54:28 +0000] "HEAD /gg.rar HTTP/1.1" 404 0 "-" "Mozilla/4.0 (compatible; MSIE 8.0; Windows NT 6.1; Trident/4.0)"
80.245.107.8 - - [02/Nov/2018:16:54:29 +0000] "HEAD /vip.rar HTTP/1.1" 404 0 "-" "Mozilla/4.0 (compatible; MSIE 8.0; Windows NT 6.1; Trident/4.0)"
80.245.107.8 - - [02/Nov/2018:16:54:30 +0000] "HEAD /fdsa.rar HTTP/1.1" 404 0 "-" "Mozilla/4.0 (compatible; MSIE 8.0; Windows NT 6.1; Trident/4.0)"
80.245.107.8 - - [02/Nov/2018:16:54:30 +0000] "HEAD /fdsa.zip HTTP/1.1" 404 0 "-" "Mozilla/4.0 (compatible; MSIE 8.0; Windows NT 6.1; Trident/4.0)"
80.245.107.8 - - [02/Nov/2018:16:54:31 +0000] "HEAD /root.rar HTTP/1.1" 404 0 "-" "Mozilla/4.0 (compatible; MSIE 8.0; Windows NT 6.1; Trident/4.0)"
80.245.107.8 - - [02/Nov/2018:16:54:31 +0000] "HEAD /root.zip HTTP/1.1" 404 0 "-" "Mozilla/4.0 (compatible; MSIE 8.0; Windows NT 6.1; Trident/4.0)"
80.245.107.8 - - [02/Nov/2018:16:54:32 +0000] "HEAD /admin.rar HTTP/1.1" 404 0 "-" "Mozilla/4.0 (compatible; MSIE 8.0; Windows NT 6.1; Trident/4.0)"
80.245.107.8 - - [02/Nov/2018:16:54:32 +0000] "HEAD /admin.zip HTTP/1.1" 404 0 "-" "Mozilla/4.0 (compatible; MSIE 8.0; Windows NT 6.1; Trident/4.0)"
80.245.107.8 - - [02/Nov/2018:16:54:33 +0000] "HEAD /data.rar HTTP/1.1" 404 0 "-" "Mozilla/4.0 (compatible; MSIE 8.0; Windows NT 6.1; Trident/4.0)"
80.245.107.8 - - [02/Nov/2018:16:54:33 +0000] "HEAD /data.zip HTTP/1.1" 404 0 "-" "Mozilla/4.0 (compatible; MSIE 8.0; Windows NT 6.1; Trident/4.0)"
80.245.107.8 - - [02/Nov/2018:16:54:34 +0000] "HEAD /wwwroot.rar HTTP/1.1" 404 0 "-" "Mozilla/4.0 (compatible; MSIE 8.0; Windows NT 6.1; Trident/4.0)"
80.245.107.8 - - [02/Nov/2018:16:54:34 +0000] "HEAD /wwwroot.zip HTTP/1.1" 404 0 "-" "Mozilla/4.0 (compatible; MSIE 8.0; Windows NT 6.1; Trident/4.0)"
80.245.107.8 - - [02/Nov/2018:16:54:34 +0000] "HEAD /www.rar HTTP/1.1" 404 0 "-" "Mozilla/4.0 (compatible; MSIE 8.0; Windows NT 6.1; Trident/4.0)"
80.245.107.8 - - [02/Nov/2018:16:54:35 +0000] "HEAD /www.zip HTTP/1.1" 404 0 "-" "Mozilla/4.0 (compatible; MSIE 8.0; Windows NT 6.1; Trident/4.0)"
80.245.107.8 - - [02/Nov/2018:16:54:35 +0000] "HEAD /web.rar HTTP/1.1" 404 0 "-" "Mozilla/4.0 (compatible; MSIE 8.0; Windows NT 6.1; Trident/4.0)"
80.245.107.8 - - [02/Nov/2018:16:54:36 +0000] "HEAD /web.zip HTTP/1.1" 404 0 "-" "Mozilla/4.0 (compatible; MSIE 8.0; Windows NT 6.1; Trident/4.0)"
80.245.107.8 - - [02/Nov/2018:16:54:36 +0000] "HEAD /wangzhan.rar HTTP/1.1" 404 0 "-" "Mozilla/4.0 (compatible; MSIE 8.0; Windows NT 6.1; Trident/4.0)"
80.245.107.8 - - [02/Nov/2018:16:54:36 +0000] "HEAD /wangzhan.zip HTTP/1.1" 404 0 "-" "Mozilla/4.0 (compatible; MSIE 8.0; Windows NT 6.1; Trident/4.0)"
80.245.107.8 - - [02/Nov/2018:16:54:37 +0000] "HEAD /flashfxp.zip HTTP/1.1" 404 0 "-" "Mozilla/4.0 (compatible; MSIE 8.0; Windows NT 6.1; Trident/4.0)"
80.245.107.8 - - [02/Nov/2018:16:54:37 +0000] "HEAD /flashfxp.rar HTTP/1.1" 404 0 "-" "Mozilla/4.0 (compatible; MSIE 8.0; Windows NT 6.1; Trident/4.0)"
80.245.107.8 - - [02/Nov/2018:16:54:37 +0000] "HEAD /\xD0\xC2\xBD\xA8\xCE\xC4\xBC\xFE\xBC\xD0.rar HTTP/1.1" 404 0 "-" "Mozilla/4.0 (compatible; MSIE 8.0; Windows NT 6.1; Trident/4.0)"
80.245.107.8 - - [02/Nov/2018:16:54:38 +0000] "HEAD /\xD0\xC2\xBD\xA8\xCE\xC4\xBC\xFE\xBC\xD0.zip HTTP/1.1" 404 0 "-" "Mozilla/4.0 (compatible; MSIE 8.0; Windows NT 6.1; Trident/4.0)"
80.245.107.8 - - [02/Nov/2018:16:54:38 +0000] "HEAD //robots.txt/1.php HTTP/1.1" 404 0 "-" "Mozilla/4.0 (compatible; MSIE 8.0; Windows NT 6.1; Trident/4.0)"
80.245.107.8 - - [02/Nov/2018:16:54:39 +0000] "HEAD //robots.txt/1.asp HTTP/1.1" 404 0 "-" "Mozilla/4.0 (compatible; MSIE 8.0; Windows NT 6.1; Trident/4.0)"
80.245.107.8 - - [02/Nov/2018:16:54:39 +0000] "HEAD /www.looklala.com.rar HTTP/1.1" 404 0 "-" "Mozilla/4.0 (compatible; MSIE 8.0; Windows NT 6.1; Trident/4.0)"
80.245.107.8 - - [02/Nov/2018:16:54:40 +0000] "HEAD /www.looklala.com.zip HTTP/1.1" 404 0 "-" "Mozilla/4.0 (compatible; MSIE 8.0; Windows NT 6.1; Trident/4.0)"
80.245.107.8 - - [02/Nov/2018:16:54:40 +0000] "HEAD /www_looklala_com.rar HTTP/1.1" 404 0 "-" "Mozilla/4.0 (compatible; MSIE 8.0; Windows NT 6.1; Trident/4.0)"
80.245.107.8 - - [02/Nov/2018:16:54:40 +0000] "HEAD /www_looklala_com.zip HTTP/1.1" 404 0 "-" "Mozilla/4.0 (compatible; MSIE 8.0; Windows NT 6.1; Trident/4.0)"
80.245.107.8 - - [02/Nov/2018:16:54:41 +0000] "HEAD /wwwlooklalacom.rar HTTP/1.1" 404 0 "-" "Mozilla/4.0 (compatible; MSIE 8.0; Windows NT 6.1; Trident/4.0)"
80.245.107.8 - - [02/Nov/2018:16:54:41 +0000] "HEAD /wwwlooklalacom.zip HTTP/1.1" 404 0 "-" "Mozilla/4.0 (compatible; MSIE 8.0; Windows NT 6.1; Trident/4.0)"
80.245.107.8 - - [02/Nov/2018:16:54:41 +0000] "HEAD /looklala.com.rar HTTP/1.1" 404 0 "-" "Mozilla/4.0 (compatible; MSIE 8.0; Windows NT 6.1; Trident/4.0)"
80.245.107.8 - - [02/Nov/2018:16:54:42 +0000] "HEAD /looklala.com.zip HTTP/1.1" 404 0 "-" "Mozilla/4.0 (compatible; MSIE 8.0; Windows NT 6.1; Trident/4.0)"
80.245.107.8 - - [02/Nov/2018:16:54:42 +0000] "HEAD /looklala.rar HTTP/1.1" 404 0 "-" "Mozilla/4.0 (compatible; MSIE 8.0; Windows NT 6.1; Trident/4.0)"
80.245.107.8 - - [02/Nov/2018:16:54:43 +0000] "HEAD /looklala.zip HTTP/1.1" 404 0 "-" "Mozilla/4.0 (compatible; MSIE 8.0; Windows NT 6.1; Trident/4.0)"
185.220.101.32 - - [02/Nov/2018:16:57:26 +0000] "GET / HTTP/1.1" 200 3826 "-" "Mozilla/5.0 (Windows NT 10.0; Win64; x64) AppleWebKit/537.36 (KHTML, like Gecko) Chrome/55.0.2883.87 Safari/537.36"
185.220.101.33 - - [02/Nov/2018:16:57:28 +0000] "GET /?email-subscribe=ali.majaz%40gmail.com& HTTP/1.1" 200 3826 "http://looklala.com/" "Mozilla/5.0 (Windows NT 10.0; Win64; x64) AppleWebKit/537.36 (KHTML, like Gecko) Chrome/55.0.2883.87 Safari/537.36"
18.223.180.147 - - [02/Nov/2018:17:11:08 +0000] "GET / HTTP/1.1" 200 3826 "-" "Mozilla/5.0 (X11; Linux x86_64) AppleWebKit/537.36 (KHTML, like Gecko) Chrome/51.0.2704.106 Safari/537.36 OPR/38.0.2220.41"
180.76.15.5 - - [02/Nov/2018:17:40:36 +0000] "GET /?content/2289.html HTTP/1.1" 200 3826 "-" "Mozilla/5.0 (compatible; Baiduspider/2.0; +http://www.baidu.com/search/spider.html)"
52.14.98.62 - - [02/Nov/2018:17:42:24 +0000] "GET / HTTP/1.1" 200 3826 "-" "Mozilla/5.0 (X11; Linux x86_64) AppleWebKit/537.36 (KHTML, like Gecko) Chrome/51.0.2704.106 Safari/537.36 OPR/38.0.2220.41"
185.100.86.182 - - [02/Nov/2018:17:50:59 +0000] "GET / HTTP/1.1" 200 3826 "-" "Mozilla/5.0 (Windows NT 10.0; WOW64; rv:54.0) Gecko/20100101 Firefox/54.0"
185.100.86.182 - - [02/Nov/2018:17:51:01 +0000] "GET /?email-subscribe=nikowright43%40yahoo.com& HTTP/1.1" 200 3826 "http://looklala.com/" "Mozilla/5.0 (Windows NT 10.0; WOW64; rv:54.0) Gecko/20100101 Firefox/54.0"
207.244.70.35 - - [02/Nov/2018:17:55:46 +0000] "GET / HTTP/1.1" 200 3826 "-" "Mozilla/5.0 (Windows NT 10.0; Win64; x64; rv:57.0) Gecko/20100101 Firefox/57.0"
207.244.70.35 - - [02/Nov/2018:17:55:47 +0000] "GET /?email-subscribe=harshmanda%40aol.com& HTTP/1.1" 200 3826 "http://looklala.com/" "Mozilla/5.0 (Windows NT 10.0; Win64; x64; rv:57.0) Gecko/20100101 Firefox/57.0"
192.42.116.26 - - [02/Nov/2018:18:02:15 +0000] "GET / HTTP/1.1" 200 3826 "-" "Mozilla/5.0 (Windows NT 6.1; WOW64) AppleWebKit/537.36 (KHTML, like Gecko) Chrome/56.0.2924.87 Safari/537.36"
192.42.116.26 - - [02/Nov/2018:18:02:16 +0000] "GET /?email-subscribe=bettyburk1%40gmail.com& HTTP/1.1" 200 3826 "http://looklala.com/" "Mozilla/5.0 (Windows NT 6.1; WOW64) AppleWebKit/537.36 (KHTML, like Gecko) Chrome/56.0.2924.87 Safari/537.36"
185.220.101.29 - - [02/Nov/2018:18:04:11 +0000] "GET / HTTP/1.1" 200 3826 "-" "Mozilla/5.0 (Windows NT 6.1; WOW64) AppleWebKit/537.36 (KHTML, like Gecko) Chrome/46.0.2490.80 Safari/537.36"
46.20.35.114 - - [02/Nov/2018:18:04:19 +0000] "GET /?email-subscribe=austinsinbox%40gmail.com& HTTP/1.1" 200 3826 "http://looklala.com/" "Mozilla/5.0 (Windows NT 6.1; WOW64) AppleWebKit/537.36 (KHTML, like Gecko) Chrome/46.0.2490.80 Safari/537.36"
80.245.107.8 - - [02/Nov/2018:18:05:37 +0000] "HEAD /1.zip HTTP/1.1" 404 0 "-" "Mozilla/4.0 (compatible; MSIE 8.0; Windows NT 6.1; Trident/4.0)"
80.245.107.8 - - [02/Nov/2018:18:05:38 +0000] "HEAD /1.rar HTTP/1.1" 404 0 "-" "Mozilla/4.0 (compatible; MSIE 8.0; Windows NT 6.1; Trident/4.0)"
80.245.107.8 - - [02/Nov/2018:18:05:38 +0000] "HEAD /2.zip HTTP/1.1" 404 0 "-" "Mozilla/4.0 (compatible; MSIE 8.0; Windows NT 6.1; Trident/4.0)"
80.245.107.8 - - [02/Nov/2018:18:05:38 +0000] "HEAD /2.rar HTTP/1.1" 404 0 "-" "Mozilla/4.0 (compatible; MSIE 8.0; Windows NT 6.1; Trident/4.0)"
80.245.107.8 - - [02/Nov/2018:18:05:39 +0000] "HEAD /db.rar HTTP/1.1" 404 0 "-" "Mozilla/4.0 (compatible; MSIE 8.0; Windows NT 6.1; Trident/4.0)"
80.245.107.8 - - [02/Nov/2018:18:05:39 +0000] "HEAD /db.zip HTTP/1.1" 404 0 "-" "Mozilla/4.0 (compatible; MSIE 8.0; Windows NT 6.1; Trident/4.0)"
80.245.107.8 - - [02/Nov/2018:18:05:39 +0000] "HEAD /wz.rar HTTP/1.1" 404 0 "-" "Mozilla/4.0 (compatible; MSIE 8.0; Windows NT 6.1; Trident/4.0)"
80.245.107.8 - - [02/Nov/2018:18:05:40 +0000] "HEAD /wz.zip HTTP/1.1" 404 0 "-" "Mozilla/4.0 (compatible; MSIE 8.0; Windows NT 6.1; Trident/4.0)"
80.245.107.8 - - [02/Nov/2018:18:05:40 +0000] "HEAD /gg.rar HTTP/1.1" 404 0 "-" "Mozilla/4.0 (compatible; MSIE 8.0; Windows NT 6.1; Trident/4.0)"
80.245.107.8 - - [02/Nov/2018:18:05:40 +0000] "HEAD /vip.rar HTTP/1.1" 404 0 "-" "Mozilla/4.0 (compatible; MSIE 8.0; Windows NT 6.1; Trident/4.0)"
80.245.107.8 - - [02/Nov/2018:18:05:40 +0000] "HEAD /fdsa.rar HTTP/1.1" 404 0 "-" "Mozilla/4.0 (compatible; MSIE 8.0; Windows NT 6.1; Trident/4.0)"
80.245.107.8 - - [02/Nov/2018:18:05:41 +0000] "HEAD /fdsa.zip HTTP/1.1" 404 0 "-" "Mozilla/4.0 (compatible; MSIE 8.0; Windows NT 6.1; Trident/4.0)"
80.245.107.8 - - [02/Nov/2018:18:05:41 +0000] "HEAD /root.rar HTTP/1.1" 404 0 "-" "Mozilla/4.0 (compatible; MSIE 8.0; Windows NT 6.1; Trident/4.0)"
80.245.107.8 - - [02/Nov/2018:18:05:41 +0000] "HEAD /root.zip HTTP/1.1" 404 0 "-" "Mozilla/4.0 (compatible; MSIE 8.0; Windows NT 6.1; Trident/4.0)"
80.245.107.8 - - [02/Nov/2018:18:05:42 +0000] "HEAD /admin.rar HTTP/1.1" 404 0 "-" "Mozilla/4.0 (compatible; MSIE 8.0; Windows NT 6.1; Trident/4.0)"
80.245.107.8 - - [02/Nov/2018:18:05:42 +0000] "HEAD /admin.zip HTTP/1.1" 404 0 "-" "Mozilla/4.0 (compatible; MSIE 8.0; Windows NT 6.1; Trident/4.0)"
80.245.107.8 - - [02/Nov/2018:18:05:42 +0000] "HEAD /data.rar HTTP/1.1" 404 0 "-" "Mozilla/4.0 (compatible; MSIE 8.0; Windows NT 6.1; Trident/4.0)"
80.245.107.8 - - [02/Nov/2018:18:05:43 +0000] "HEAD /data.zip HTTP/1.1" 404 0 "-" "Mozilla/4.0 (compatible; MSIE 8.0; Windows NT 6.1; Trident/4.0)"
80.245.107.8 - - [02/Nov/2018:18:05:43 +0000] "HEAD /wwwroot.rar HTTP/1.1" 404 0 "-" "Mozilla/4.0 (compatible; MSIE 8.0; Windows NT 6.1; Trident/4.0)"
80.245.107.8 - - [02/Nov/2018:18:05:43 +0000] "HEAD /wwwroot.zip HTTP/1.1" 404 0 "-" "Mozilla/4.0 (compatible; MSIE 8.0; Windows NT 6.1; Trident/4.0)"
80.245.107.8 - - [02/Nov/2018:18:05:44 +0000] "HEAD /www.rar HTTP/1.1" 404 0 "-" "Mozilla/4.0 (compatible; MSIE 8.0; Windows NT 6.1; Trident/4.0)"
80.245.107.8 - - [02/Nov/2018:18:05:44 +0000] "HEAD /www.zip HTTP/1.1" 404 0 "-" "Mozilla/4.0 (compatible; MSIE 8.0; Windows NT 6.1; Trident/4.0)"
80.245.107.8 - - [02/Nov/2018:18:05:44 +0000] "HEAD /web.rar HTTP/1.1" 404 0 "-" "Mozilla/4.0 (compatible; MSIE 8.0; Windows NT 6.1; Trident/4.0)"
80.245.107.8 - - [02/Nov/2018:18:05:44 +0000] "HEAD /web.zip HTTP/1.1" 404 0 "-" "Mozilla/4.0 (compatible; MSIE 8.0; Windows NT 6.1; Trident/4.0)"
80.245.107.8 - - [02/Nov/2018:18:05:45 +0000] "HEAD /wangzhan.rar HTTP/1.1" 404 0 "-" "Mozilla/4.0 (compatible; MSIE 8.0; Windows NT 6.1; Trident/4.0)"
80.245.107.8 - - [02/Nov/2018:18:05:45 +0000] "HEAD /wangzhan.zip HTTP/1.1" 404 0 "-" "Mozilla/4.0 (compatible; MSIE 8.0; Windows NT 6.1; Trident/4.0)"
80.245.107.8 - - [02/Nov/2018:18:05:45 +0000] "HEAD /flashfxp.zip HTTP/1.1" 404 0 "-" "Mozilla/4.0 (compatible; MSIE 8.0; Windows NT 6.1; Trident/4.0)"
80.245.107.8 - - [02/Nov/2018:18:05:46 +0000] "HEAD /flashfxp.rar HTTP/1.1" 404 0 "-" "Mozilla/4.0 (compatible; MSIE 8.0; Windows NT 6.1; Trident/4.0)"
80.245.107.8 - - [02/Nov/2018:18:05:46 +0000] "HEAD /\xD0\xC2\xBD\xA8\xCE\xC4\xBC\xFE\xBC\xD0.rar HTTP/1.1" 404 0 "-" "Mozilla/4.0 (compatible; MSIE 8.0; Windows NT 6.1; Trident/4.0)"
80.245.107.8 - - [02/Nov/2018:18:05:46 +0000] "HEAD /\xD0\xC2\xBD\xA8\xCE\xC4\xBC\xFE\xBC\xD0.zip HTTP/1.1" 404 0 "-" "Mozilla/4.0 (compatible; MSIE 8.0; Windows NT 6.1; Trident/4.0)"
80.245.107.8 - - [02/Nov/2018:18:05:46 +0000] "HEAD //robots.txt/1.php HTTP/1.1" 404 0 "-" "Mozilla/4.0 (compatible; MSIE 8.0; Windows NT 6.1; Trident/4.0)"
80.245.107.8 - - [02/Nov/2018:18:05:47 +0000] "HEAD //robots.txt/1.asp HTTP/1.1" 404 0 "-" "Mozilla/4.0 (compatible; MSIE 8.0; Windows NT 6.1; Trident/4.0)"
80.245.107.8 - - [02/Nov/2018:18:05:47 +0000] "HEAD /www.looklala.com.rar HTTP/1.1" 404 0 "-" "Mozilla/4.0 (compatible; MSIE 8.0; Windows NT 6.1; Trident/4.0)"
80.245.107.8 - - [02/Nov/2018:18:05:47 +0000] "HEAD /www.looklala.com.zip HTTP/1.1" 404 0 "-" "Mozilla/4.0 (compatible; MSIE 8.0; Windows NT 6.1; Trident/4.0)"
80.245.107.8 - - [02/Nov/2018:18:05:48 +0000] "HEAD /www_looklala_com.rar HTTP/1.1" 404 0 "-" "Mozilla/4.0 (compatible; MSIE 8.0; Windows NT 6.1; Trident/4.0)"
80.245.107.8 - - [02/Nov/2018:18:05:48 +0000] "HEAD /www_looklala_com.zip HTTP/1.1" 404 0 "-" "Mozilla/4.0 (compatible; MSIE 8.0; Windows NT 6.1; Trident/4.0)"
80.245.107.8 - - [02/Nov/2018:18:05:48 +0000] "HEAD /wwwlooklalacom.rar HTTP/1.1" 404 0 "-" "Mozilla/4.0 (compatible; MSIE 8.0; Windows NT 6.1; Trident/4.0)"
80.245.107.8 - - [02/Nov/2018:18:05:48 +0000] "HEAD /wwwlooklalacom.zip HTTP/1.1" 404 0 "-" "Mozilla/4.0 (compatible; MSIE 8.0; Windows NT 6.1; Trident/4.0)"
80.245.107.8 - - [02/Nov/2018:18:05:49 +0000] "HEAD /looklala.com.rar HTTP/1.1" 404 0 "-" "Mozilla/4.0 (compatible; MSIE 8.0; Windows NT 6.1; Trident/4.0)"
80.245.107.8 - - [02/Nov/2018:18:05:49 +0000] "HEAD /looklala.com.zip HTTP/1.1" 404 0 "-" "Mozilla/4.0 (compatible; MSIE 8.0; Windows NT 6.1; Trident/4.0)"
80.245.107.8 - - [02/Nov/2018:18:05:49 +0000] "HEAD /looklala.rar HTTP/1.1" 404 0 "-" "Mozilla/4.0 (compatible; MSIE 8.0; Windows NT 6.1; Trident/4.0)"
80.245.107.8 - - [02/Nov/2018:18:05:49 +0000] "HEAD /looklala.zip HTTP/1.1" 404 0 "-" "Mozilla/4.0 (compatible; MSIE 8.0; Windows NT 6.1; Trident/4.0)"
195.176.3.23 - - [02/Nov/2018:18:09:59 +0000] "GET / HTTP/1.1" 200 3826 "-" "Mozilla/5.0 (compatible; MSIE 10.0; Windows NT 6.1; WOW64; Trident/6.0)"
195.176.3.23 - - [02/Nov/2018:18:10:00 +0000] "GET /?email-subscribe=harshmanda%40aol.com& HTTP/1.1" 200 3826 "http://looklala.com/" "Mozilla/5.0 (compatible; MSIE 10.0; Windows NT 6.1; WOW64; Trident/6.0)"
185.24.218.178 - - [02/Nov/2018:18:11:45 +0000] "GET / HTTP/1.1" 200 3826 "-" "Mozilla/5.0 (Windows NT 6.2; WOW64; Trident/7.0; rv:11.0) like Gecko"
185.24.218.178 - - [02/Nov/2018:18:11:47 +0000] "GET /?email-subscribe=marcaptin%40yahoo.com& HTTP/1.1" 200 3826 "http://looklala.com/" "Mozilla/5.0 (Windows NT 6.2; WOW64; Trident/7.0; rv:11.0) like Gecko"
180.76.15.34 - - [02/Nov/2018:18:13:56 +0000] "GET /?content/5678.html HTTP/1.1" 200 3826 "-" "Mozilla/5.0 (compatible; Baiduspider/2.0; +http://www.baidu.com/search/spider.html)"
18.220.65.247 - - [02/Nov/2018:18:14:54 +0000] "GET / HTTP/1.1" 200 3826 "-" "Mozilla/5.0 (X11; Linux x86_64) Trident/5.0 Chrome/67.0.3396.79 Safari/537.36"
66.222.153.25 - - [02/Nov/2018:18:19:43 +0000] "GET / HTTP/1.1" 200 3826 "-" "Mozilla/5.0 (Windows NT 6.1) AppleWebKit/537.36 (KHTML, like Gecko) Chrome/39.0.2171.95 Safari/537.36"
66.222.153.25 - - [02/Nov/2018:18:19:44 +0000] "GET /?email-subscribe=christierocio%40aol.com& HTTP/1.1" 200 3826 "http://looklala.com/" "Mozilla/5.0 (Windows NT 6.1) AppleWebKit/537.36 (KHTML, like Gecko) Chrome/39.0.2171.95 Safari/537.36"
18.222.238.207 - - [02/Nov/2018:18:46:47 +0000] "GET / HTTP/1.1" 200 3826 "-" "Mozilla/5.0 (X11; Linux x86_64) AppleWebKit/537.36 (KHTML, like Gecko) Firefox/42.0"
180.76.15.34 - - [02/Nov/2018:18:47:16 +0000] "GET /?content/20250.html HTTP/1.1" 200 3826 "-" "Mozilla/5.0 (compatible; Baiduspider/2.0; +http://www.baidu.com/search/spider.html)"
198.98.54.86 - - [02/Nov/2018:18:54:04 +0000] "GET / HTTP/1.1" 200 3826 "-" "Mozilla/5.0 (Windows NT 5.1; rv:7.0.1) Gecko/20100101 Firefox/7.0.1"
198.98.54.86 - - [02/Nov/2018:18:54:05 +0000] "GET /?email-subscribe=yush_21%40yahoo.com& HTTP/1.1" 200 3826 "http://looklala.com/" "Mozilla/5.0 (Windows NT 5.1; rv:7.0.1) Gecko/20100101 Firefox/7.0.1"
18.223.115.234 - - [02/Nov/2018:19:19:02 +0000] "GET / HTTP/1.1" 200 3826 "-" "Mozilla/5.0 (Windows NT 6.1; Win64; x64; rv:47.0) AppleWebKit/537.36 (KHTML, like Gecko) Safari/602.1"
180.76.15.158 - - [02/Nov/2018:19:20:36 +0000] "GET /?content/8667.html HTTP/1.1" 200 3826 "-" "Mozilla/5.0 (compatible; Baiduspider/2.0; +http://www.baidu.com/search/spider.html)"
51.15.80.14 - - [02/Nov/2018:19:24:52 +0000] "GET / HTTP/1.1" 200 3826 "-" "Mozilla/5.0 (compatible; MSIE 10.0; Windows NT 6.2; WOW64; Trident/6.0)"
51.15.80.14 - - [02/Nov/2018:19:24:53 +0000] "GET /?email-subscribe=sff0259%40yahoo.com& HTTP/1.1" 200 3826 "http://looklala.com/" "Mozilla/5.0 (compatible; MSIE 10.0; Windows NT 6.2; WOW64; Trident/6.0)"
18.217.89.105 - - [02/Nov/2018:19:47:19 +0000] "GET / HTTP/1.1" 200 3826 "-" "Mozilla/5.0 (Windows NT 6.1; Win64; x64; rv:47.0) AppleWebKit/537.36 (KHTML, like Gecko) Safari/602.1"
185.220.101.32 - - [02/Nov/2018:20:13:55 +0000] "GET / HTTP/1.1" 200 3826 "-" "Mozilla/5.0 (Windows NT 6.1; WOW64; rv:39.0) Gecko/20100101 Firefox/39.0"
185.220.101.32 - - [02/Nov/2018:20:13:56 +0000] "GET /?email-subscribe=kevin%40lascala.ca& HTTP/1.1" 200 3826 "http://looklala.com/" "Mozilla/5.0 (Windows NT 6.1; WOW64; rv:39.0) Gecko/20100101 Firefox/39.0"
18.223.239.51 - - [02/Nov/2018:20:16:17 +0000] "GET / HTTP/1.1" 200 3826 "-" "Mozilla/5.0 (Windows NT 6.1; Win64; x64; rv:47.0) Trident/5.0 Firefox/42.0"
166.70.207.2 - - [02/Nov/2018:20:16:42 +0000] "GET / HTTP/1.1" 200 3826 "-" "Mozilla/5.0 (Windows NT 10.0; WOW64; rv:48.0) Gecko/20100101 Firefox/48.0"
166.70.207.2 - - [02/Nov/2018:20:16:44 +0000] "GET /?email-subscribe=kevin%40lascala.ca& HTTP/1.1" 200 3826 "http://looklala.com/" "Mozilla/5.0 (Windows NT 10.0; WOW64; rv:48.0) Gecko/20100101 Firefox/48.0"
185.56.80.242 - - [02/Nov/2018:20:26:17 +0000] "GET / HTTP/1.1" 200 3826 "-" "Mozilla/5.0 (Windows NT 6.3; Win64; x64) AppleWebKit/537.36 (KHTML, like Gecko) Chrome/51.0.2704.79 Safari/537.36 Edge/14.14393"
180.76.15.26 - - [02/Nov/2018:20:27:16 +0000] "GET /?content/22409.html HTTP/1.1" 200 3826 "-" "Mozilla/5.0 (compatible; Baiduspider/2.0; +http://www.baidu.com/search/spider.html)"
220.181.108.94 - - [02/Nov/2018:20:33:25 +0000] "GET /looklala/13/favicon.ico HTTP/1.1" 404 215 "-" "Mozilla/5.0 (compatible; Baiduspider/2.0; +http://www.baidu.com/search/spider.html)"
54.36.148.110 - - [02/Nov/2018:20:33:46 +0000] "GET / HTTP/1.1" 200 3826 "-" "Mozilla/5.0 (compatible; AhrefsBot/5.2; +http://ahrefs.com/robot/)"
35.192.84.7 - - [02/Nov/2018:20:37:24 +0000] "GET /robots.txt HTTP/1.1" 404 204 "-" "ltx71 - (http://ltx71.com/)"
35.192.84.7 - - [02/Nov/2018:20:38:10 +0000] "GET / HTTP/1.1" 200 3826 "-" "ltx71 - (http://ltx71.com/)"
18.223.180.147 - - [02/Nov/2018:20:47:43 +0000] "GET / HTTP/1.1" 200 3826 "-" "Mozilla/5.0 (Windows NT 6.1; Win64; x64; rv:47.0) AppleWebKit/537.36 (KHTML, like Gecko) Safari/602.1"
185.220.102.4 - - [02/Nov/2018:20:55:34 +0000] "GET / HTTP/1.1" 200 3826 "-" "Mozilla/5.0 (Macintosh; Intel Mac OS X 10_11_3) AppleWebKit/601.4.4 (KHTML, like Gecko) Version/9.0.3 Safari/601.4.4"
185.220.102.4 - - [02/Nov/2018:20:55:34 +0000] "GET /?email-subscribe=leopacha%40gmail.com& HTTP/1.1" 200 3826 "http://looklala.com/" "Mozilla/5.0 (Macintosh; Intel Mac OS X 10_11_3) AppleWebKit/601.4.4 (KHTML, like Gecko) Version/9.0.3 Safari/601.4.4"
104.244.76.13 - - [02/Nov/2018:21:00:04 +0000] "GET / HTTP/1.1" 200 3826 "-" "Mozilla/5.0 (Windows NT 6.1; Win64; x64; Trident/7.0; rv:11.0) like Gecko"
104.244.76.13 - - [02/Nov/2018:21:00:05 +0000] "GET /?email-subscribe=christierocio%40aol.com& HTTP/1.1" 200 3826 "http://looklala.com/" "Mozilla/5.0 (Windows NT 6.1; Win64; x64; Trident/7.0; rv:11.0) like Gecko"
18.191.165.74 - - [02/Nov/2018:21:14:12 +0000] "GET / HTTP/1.1" 200 3826 "-" "Mozilla/5.0 (Windows NT 6.1; Win64; x64; rv:47.0) Gecko/20100101 Firefox/42.0"
18.224.135.194 - - [02/Nov/2018:21:44:43 +0000] "GET / HTTP/1.1" 200 3826 "-" "Mozilla/5.0 (Macintosh; Intel Mac OS X x.y; rv:42.0) Trident/5.0 Chrome/51.0.2704.106 Safari/537.36 OPR/38.0.2220.41"
185.220.101.29 - - [02/Nov/2018:22:00:05 +0000] "GET / HTTP/1.1" 200 3826 "-" "Mozilla/5.0 (Windows NT 10.0; Win64; x64) AppleWebKit/537.36 (KHTML, like Gecko) Chrome/62.0.3202.89 Safari/537.36"
66.70.174.23 - - [02/Nov/2018:22:00:09 +0000] "GET /?email-subscribe=hillibush%40comcast.net& HTTP/1.1" 200 3826 "http://looklala.com/" "Mozilla/5.0 (Windows NT 10.0; Win64; x64) AppleWebKit/537.36 (KHTML, like Gecko) Chrome/62.0.3202.89 Safari/537.36"
18.222.34.244 - - [02/Nov/2018:22:17:33 +0000] "GET / HTTP/1.1" 200 3826 "-" "Mozilla/5.0 (X11; Linux x86_64) Gecko/20100101 Chrome/51.0.2704.106 Safari/537.36 OPR/38.0.2220.41"
18.222.254.149 - - [02/Nov/2018:22:48:06 +0000] "GET / HTTP/1.1" 200 3826 "-" "Mozilla/5.0 (X11; Linux x86_64) Gecko/20100101 Firefox/42.0"
180.76.15.145 - - [02/Nov/2018:22:59:47 +0000] "GET /?content/3801.html HTTP/1.1" 200 3826 "-" "Mozilla/5.0 (compatible; Baiduspider/2.0; +http://www.baidu.com/search/spider.html)"
185.220.101.21 - - [02/Nov/2018:23:29:52 +0000] "GET / HTTP/1.1" 200 3826 "-" "Mozilla/5.0 (Windows NT 6.3; Win64; x64) AppleWebKit/537.36 (KHTML, like Gecko) Chrome/52.0.2743.116 Safari/537.36 Edge/15.15063"
185.220.101.21 - - [02/Nov/2018:23:29:53 +0000] "GET /?email-subscribe=george.casto%40yahoo.com& HTTP/1.1" 200 3826 "http://looklala.com/" "Mozilla/5.0 (Windows NT 6.3; Win64; x64) AppleWebKit/537.36 (KHTML, like Gecko) Chrome/52.0.2743.116 Safari/537.36 Edge/15.15063"
206.180.165.147 - - [02/Nov/2018:23:40:44 +0000] "GET / HTTP/1.1" 200 3826 "-" "Mozilla/5.0 (Windows NT 10.0; Win64; x64) AppleWebKit/537.36 (KHTML, like Gecko) Chrome/65.0.3325.181 Safari/537.36"
87.101.94.76 - - [03/Nov/2018:00:01:21 +0000] "GET / HTTP/1.0" 200 11888 "http://looklala.com/" "Mozilla/5.0 (Windows NT 6.1; WOW64; rv:43.0) Gecko/20100101 Firefox/43.0"
87.101.94.76 - - [03/Nov/2018:00:01:22 +0000] "POST / HTTP/1.0" 200 11888 "http://looklala.com/" "Mozilla/5.0 (Windows NT 6.1; WOW64; rv:43.0) Gecko/20100101 Firefox/43.0"
176.31.180.157 - - [03/Nov/2018:00:36:00 +0000] "GET / HTTP/1.1" 200 3826 "-" "Mozilla/5.0 (Macintosh; Intel Mac OS X 10_11_6) AppleWebKit/601.7.7 (KHTML, like Gecko) Version/9.1.2 Safari/601.7.7"
176.31.180.157 - - [03/Nov/2018:00:36:01 +0000] "GET /?email-subscribe=chrisschiller1971%40gmail.com& HTTP/1.1" 200 3826 "http://looklala.com/" "Mozilla/5.0 (Macintosh; Intel Mac OS X 10_11_6) AppleWebKit/601.7.7 (KHTML, like Gecko) Version/9.1.2 Safari/601.7.7"
109.70.100.18 - - [03/Nov/2018:00:53:33 +0000] "GET / HTTP/1.1" 200 3826 "-" "Mozilla/5.0 (Windows NT 10.0; Win64; x64) AppleWebKit/537.36 (KHTML, like Gecko) Chrome/63.0.3239.84 Safari/537.36"
109.70.100.18 - - [03/Nov/2018:00:53:34 +0000] "GET /?email-subscribe=wassermanak%40gmail.com& HTTP/1.1" 200 3826 "http://looklala.com/" "Mozilla/5.0 (Windows NT 10.0; Win64; x64) AppleWebKit/537.36 (KHTML, like Gecko) Chrome/63.0.3239.84 Safari/537.36"
109.69.67.17 - - [03/Nov/2018:01:02:43 +0000] "GET / HTTP/1.1" 200 3826 "-" "Mozilla/5.0 (Windows NT 10.0; Win64; x64) AppleWebKit/537.36 (KHTML, like Gecko) Chrome/46.0.2486.0 Safari/537.36 Edge/13.10586"
109.69.67.17 - - [03/Nov/2018:01:02:43 +0000] "GET /?email-subscribe=josielpower%40gmail.com& HTTP/1.1" 200 3826 "http://looklala.com/" "Mozilla/5.0 (Windows NT 10.0; Win64; x64) AppleWebKit/537.36 (KHTML, like Gecko) Chrome/46.0.2486.0 Safari/537.36 Edge/13.10586"
89.248.162.130 - - [03/Nov/2018:01:04:51 +0000] "GET / HTTP/1.1" 200 3826 "-" "Mozilla/5.0 (Windows NT 10.0; WOW64; rv:48.0) Gecko/20100101 Firefox/48.0"
192.42.116.26 - - [03/Nov/2018:01:04:53 +0000] "GET /?email-subscribe=nikowright43%40yahoo.com& HTTP/1.1" 200 3826 "http://looklala.com/" "Mozilla/5.0 (Windows NT 10.0; WOW64; rv:48.0) Gecko/20100101 Firefox/48.0"
157.55.39.38 - - [03/Nov/2018:01:14:33 +0000] "GET /robots.txt HTTP/1.1" 404 204 "-" "Mozilla/5.0 (compatible; bingbot/2.0; +http://www.bing.com/bingbot.htm)"
40.77.167.10 - - [03/Nov/2018:01:14:37 +0000] "GET / HTTP/1.1" 200 3826 "-" "Mozilla/5.0 (iPhone; CPU iPhone OS 7_0 like Mac OS X) AppleWebKit/537.51.1 (KHTML, like Gecko) Version/7.0 Mobile/11A465 Safari/9537.53 (compatible; bingbot/2.0; +http://www.bing.com/bingbot.htm)"
40.77.188.105 - - [03/Nov/2018:01:14:38 +0000] "GET /css/jpreloader.css HTTP/1.1" 200 2411 "-" "Mozilla/5.0 (iPhone; CPU iPhone OS 7_0 like Mac OS X) AppleWebKit/537.51.1 (KHTML, like Gecko) Version/7.0 Mobile/11A465 Safari/9537.53 BingPreview/1.0b"
40.77.188.11 - - [03/Nov/2018:01:14:38 +0000] "GET /css/base.css HTTP/1.1" 200 18905 "-" "Mozilla/5.0 (iPhone; CPU iPhone OS 7_0 like Mac OS X) AppleWebKit/537.51.1 (KHTML, like Gecko) Version/7.0 Mobile/11A465 Safari/9537.53 BingPreview/1.0b"
40.77.188.11 - - [03/Nov/2018:01:14:39 +0000] "GET /css/jquery.vegas.css HTTP/1.1" 200 710 "-" "Mozilla/5.0 (iPhone; CPU iPhone OS 7_0 like Mac OS X) AppleWebKit/537.51.1 (KHTML, like Gecko) Version/7.0 Mobile/11A465 Safari/9537.53 BingPreview/1.0b"
40.77.188.11 - - [03/Nov/2018:01:14:39 +0000] "GET /fonts/font-awesome/css/font-awesome.min.css HTTP/1.1" 200 22504 "-" "Mozilla/5.0 (iPhone; CPU iPhone OS 7_0 like Mac OS X) AppleWebKit/537.51.1 (KHTML, like Gecko) Version/7.0 Mobile/11A465 Safari/9537.53 BingPreview/1.0b"
40.77.188.105 - - [03/Nov/2018:01:14:39 +0000] "GET /css/theme/bw.css HTTP/1.1" 200 1151 "-" "Mozilla/5.0 (iPhone; CPU iPhone OS 7_0 like Mac OS X) AppleWebKit/537.51.1 (KHTML, like Gecko) Version/7.0 Mobile/11A465 Safari/9537.53 BingPreview/1.0b"
40.77.188.11 - - [03/Nov/2018:01:14:39 +0000] "GET /js/jquery.min.js HTTP/1.1" 200 93070 "-" "Mozilla/5.0 (iPhone; CPU iPhone OS 7_0 like Mac OS X) AppleWebKit/537.51.1 (KHTML, like Gecko) Version/7.0 Mobile/11A465 Safari/9537.53 BingPreview/1.0b"
40.77.188.41 - - [03/Nov/2018:01:14:40 +0000] "GET /js/jpreloader.min.js HTTP/1.1" 200 3292 "-" "Mozilla/5.0 (iPhone; CPU iPhone OS 7_0 like Mac OS X) AppleWebKit/537.51.1 (KHTML, like Gecko) Version/7.0 Mobile/11A465 Safari/9537.53 BingPreview/1.0b"
40.77.188.11 - - [03/Nov/2018:01:14:40 +0000] "GET /js/vegas.js HTTP/1.1" 200 14573 "-" "Mozilla/5.0 (iPhone; CPU iPhone OS 7_0 like Mac OS X) AppleWebKit/537.51.1 (KHTML, like Gecko) Version/7.0 Mobile/11A465 Safari/9537.53 BingPreview/1.0b"
40.77.188.41 - - [03/Nov/2018:01:14:40 +0000] "GET /js/pagescroller.js HTTP/1.1" 200 3317 "-" "Mozilla/5.0 (iPhone; CPU iPhone OS 7_0 like Mac OS X) AppleWebKit/537.51.1 (KHTML, like Gecko) Version/7.0 Mobile/11A465 Safari/9537.53 BingPreview/1.0b"
40.77.188.105 - - [03/Nov/2018:01:14:40 +0000] "GET /js/jquery.easing.1.3.js HTTP/1.1" 200 8301 "-" "Mozilla/5.0 (iPhone; CPU iPhone OS 7_0 like Mac OS X) AppleWebKit/537.51.1 (KHTML, like Gecko) Version/7.0 Mobile/11A465 Safari/9537.53 BingPreview/1.0b"
40.77.188.235 - - [03/Nov/2018:01:14:40 +0000] "GET /js/waypoints.min.js HTTP/1.1" 200 8051 "-" "Mozilla/5.0 (iPhone; CPU iPhone OS 7_0 like Mac OS X) AppleWebKit/537.51.1 (KHTML, like Gecko) Version/7.0 Mobile/11A465 Safari/9537.53 BingPreview/1.0b"
40.77.189.158 - - [03/Nov/2018:01:14:41 +0000] "GET /js/validate.min.js HTTP/1.1" 200 21069 "-" "Mozilla/5.0 (iPhone; CPU iPhone OS 7_0 like Mac OS X) AppleWebKit/537.51.1 (KHTML, like Gecko) Version/7.0 Mobile/11A465 Safari/9537.53 BingPreview/1.0b"
40.77.167.10 - - [03/Nov/2018:01:14:41 +0000] "GET /robots.txt HTTP/1.1" 404 204 "-" "Mozilla/5.0 (compatible; bingbot/2.0; +http://www.bing.com/bingbot.htm)"
40.77.188.41 - - [03/Nov/2018:01:14:41 +0000] "GET /js/script.js HTTP/1.1" 200 9238 "-" "Mozilla/5.0 (iPhone; CPU iPhone OS 7_0 like Mac OS X) AppleWebKit/537.51.1 (KHTML, like Gecko) Version/7.0 Mobile/11A465 Safari/9537.53 BingPreview/1.0b"
40.77.167.10 - - [03/Nov/2018:01:14:41 +0000] "GET /robots.txt HTTP/1.1" 404 204 "-" "Mozilla/5.0 (compatible; bingbot/2.0; +http://www.bing.com/bingbot.htm)"
40.77.167.10 - - [03/Nov/2018:01:14:41 +0000] "GET /robots.txt HTTP/1.1" 404 204 "-" "Mozilla/5.0 (compatible; bingbot/2.0; +http://www.bing.com/bingbot.htm)"
40.77.167.10 - - [03/Nov/2018:01:14:41 +0000] "GET /robots.txt HTTP/1.1" 404 204 "-" "Mozilla/5.0 (compatible; bingbot/2.0; +http://www.bing.com/bingbot.htm)"
40.77.167.10 - - [03/Nov/2018:01:14:41 +0000] "GET /robots.txt HTTP/1.1" 404 204 "-" "Mozilla/5.0 (compatible; bingbot/2.0; +http://www.bing.com/bingbot.htm)"
40.77.167.10 - - [03/Nov/2018:01:14:41 +0000] "GET /robots.txt HTTP/1.1" 404 204 "-" "Mozilla/5.0 (compatible; bingbot/2.0; +http://www.bing.com/bingbot.htm)"
40.77.189.158 - - [03/Nov/2018:01:14:42 +0000] "GET /img/logo-white.png HTTP/1.1" 200 5255 "-" "Mozilla/5.0 (iPhone; CPU iPhone OS 7_0 like Mac OS X) AppleWebKit/537.51.1 (KHTML, like Gecko) Version/7.0 Mobile/11A465 Safari/9537.53 BingPreview/1.0b"
40.77.189.158 - - [03/Nov/2018:01:14:42 +0000] "GET /img/top.png HTTP/1.1" 200 1867 "-" "Mozilla/5.0 (iPhone; CPU iPhone OS 7_0 like Mac OS X) AppleWebKit/537.51.1 (KHTML, like Gecko) Version/7.0 Mobile/11A465 Safari/9537.53 BingPreview/1.0b"
40.77.188.235 - - [03/Nov/2018:01:14:42 +0000] "GET /img/pre-load.gif HTTP/1.1" 200 7198 "-" "Mozilla/5.0 (iPhone; CPU iPhone OS 7_0 like Mac OS X) AppleWebKit/537.51.1 (KHTML, like Gecko) Version/7.0 Mobile/11A465 Safari/9537.53 BingPreview/1.0b"
40.77.188.11 - - [03/Nov/2018:01:14:42 +0000] "GET /img/load.gif HTTP/1.1" 200 1998 "-" "Mozilla/5.0 (iPhone; CPU iPhone OS 7_0 like Mac OS X) AppleWebKit/537.51.1 (KHTML, like Gecko) Version/7.0 Mobile/11A465 Safari/9537.53 BingPreview/1.0b"
40.77.189.120 - - [03/Nov/2018:01:14:43 +0000] "GET /fonts/font-awesome/font/fontawesome-webfontf77b.ttf?v=3.2.1 HTTP/1.1" 200 79076 "-" "Mozilla/5.0 (iPhone; CPU iPhone OS 7_0 like Mac OS X) AppleWebKit/537.51.1 (KHTML, like Gecko) Version/7.0 Mobile/11A465 Safari/9537.53 BingPreview/1.0b"
40.77.189.158 - - [03/Nov/2018:01:14:44 +0000] "GET /img/mark.png HTTP/1.1" 200 2000 "-" "Mozilla/5.0 (iPhone; CPU iPhone OS 7_0 like Mac OS X) AppleWebKit/537.51.1 (KHTML, like Gecko) Version/7.0 Mobile/11A465 Safari/9537.53 BingPreview/1.0b"
40.77.188.11 - - [03/Nov/2018:01:14:50 +0000] "GET /img/bg-color/3.jpg HTTP/1.1" 200 30170 "-" "Mozilla/5.0 (iPhone; CPU iPhone OS 7_0 like Mac OS X) AppleWebKit/537.51.1 (KHTML, like Gecko) Version/7.0 Mobile/11A465 Safari/9537.53 BingPreview/1.0b"
40.77.188.50 - - [03/Nov/2018:01:14:54 +0000] "GET /img/bg-color/SAM_0175_optimized2.jpg HTTP/1.1" 200 201826 "-" "Mozilla/5.0 (iPhone; CPU iPhone OS 7_0 like Mac OS X) AppleWebKit/537.51.1 (KHTML, like Gecko) Version/7.0 Mobile/11A465 Safari/9537.53 BingPreview/1.0b"
40.77.188.121 - - [03/Nov/2018:01:14:58 +0000] "GET /img/bg-color/6_optimized2.jpg HTTP/1.1" 200 212276 "-" "Mozilla/5.0 (iPhone; CPU iPhone OS 7_0 like Mac OS X) AppleWebKit/537.51.1 (KHTML, like Gecko) Version/7.0 Mobile/11A465 Safari/9537.53 BingPreview/1.0b"
14.215.176.15 - - [03/Nov/2018:02:19:24 +0000] "GET / HTTP/1.1" 200 3826 "http://www.baidu.com/s?wd=angryxry" "Mozilla/5.0 (Windows NT 6.1; WOW64; rv:43.0) Gecko/20100101 Firefox/43.0"
14.215.176.15 - - [03/Nov/2018:02:19:24 +0000] "GET /css/jpreloader.css HTTP/1.1" 200 838 "http://www.looklala.com/" "Mozilla/5.0 (Windows NT 6.1; WOW64; rv:43.0) Gecko/20100101 Firefox/43.0"
14.215.176.8 - - [03/Nov/2018:02:19:24 +0000] "GET /css/jquery.vegas.css HTTP/1.1" 200 432 "http://www.looklala.com/" "Mozilla/5.0 (Windows NT 6.1; WOW64; rv:43.0) Gecko/20100101 Firefox/43.0"
14.215.176.4 - - [03/Nov/2018:02:19:24 +0000] "GET /css/base.css HTTP/1.1" 200 5047 "http://www.looklala.com/" "Mozilla/5.0 (Windows NT 6.1; WOW64; rv:43.0) Gecko/20100101 Firefox/43.0"
14.215.176.15 - - [03/Nov/2018:02:19:24 +0000] "GET /fonts/font-awesome/css/font-awesome.min.css HTTP/1.1" 200 4965 "http://www.looklala.com/" "Mozilla/5.0 (Windows NT 6.1; WOW64; rv:43.0) Gecko/20100101 Firefox/43.0"
14.215.176.9 - - [03/Nov/2018:02:19:24 +0000] "GET /css/theme/bw.css HTTP/1.1" 200 476 "http://www.looklala.com/" "Mozilla/5.0 (Windows NT 6.1; WOW64; rv:43.0) Gecko/20100101 Firefox/43.0"
14.215.176.7 - - [03/Nov/2018:02:19:24 +0000] "GET /js/jquery.min.js HTTP/1.1" 200 38129 "http://www.looklala.com/" "Mozilla/5.0 (Windows NT 6.1; WOW64; rv:43.0) Gecko/20100101 Firefox/43.0"
14.215.176.8 - - [03/Nov/2018:02:19:24 +0000] "GET /js/jpreloader.min.js HTTP/1.1" 200 1460 "http://www.looklala.com/" "Mozilla/5.0 (Windows NT 6.1; WOW64; rv:43.0) Gecko/20100101 Firefox/43.0"
14.215.176.4 - - [03/Nov/2018:02:19:24 +0000] "GET /js/vegas.js HTTP/1.1" 200 3945 "http://www.looklala.com/" "Mozilla/5.0 (Windows NT 6.1; WOW64; rv:43.0) Gecko/20100101 Firefox/43.0"
14.215.176.15 - - [03/Nov/2018:02:19:24 +0000] "GET /js/pagescroller.js HTTP/1.1" 200 1881 "http://www.looklala.com/" "Mozilla/5.0 (Windows NT 6.1; WOW64; rv:43.0) Gecko/20100101 Firefox/43.0"
14.215.176.9 - - [03/Nov/2018:02:19:24 +0000] "GET /js/jquery.easing.1.3.js HTTP/1.1" 200 2217 "http://www.looklala.com/" "Mozilla/5.0 (Windows NT 6.1; WOW64; rv:43.0) Gecko/20100101 Firefox/43.0"
14.215.176.8 - - [03/Nov/2018:02:19:25 +0000] "GET /js/waypoints.min.js HTTP/1.1" 200 2930 "http://www.looklala.com/" "Mozilla/5.0 (Windows NT 6.1; WOW64; rv:43.0) Gecko/20100101 Firefox/43.0"
14.215.176.4 - - [03/Nov/2018:02:19:25 +0000] "GET /js/validate.min.js HTTP/1.1" 200 7344 "http://www.looklala.com/" "Mozilla/5.0 (Windows NT 6.1; WOW64; rv:43.0) Gecko/20100101 Firefox/43.0"
14.215.176.15 - - [03/Nov/2018:02:19:25 +0000] "GET /js/script.js HTTP/1.1" 200 3200 "http://www.looklala.com/" "Mozilla/5.0 (Windows NT 6.1; WOW64; rv:43.0) Gecko/20100101 Firefox/43.0"
14.215.176.15 - - [03/Nov/2018:02:19:25 +0000] "GET /fonts/font-awesome/font/fontawesome-webfontf77b.html?v=3.2.1 HTTP/1.1" 200 3124 "http://www.looklala.com/" "Mozilla/5.0 (Windows NT 6.1; WOW64; rv:43.0) Gecko/20100101 Firefox/43.0"
14.215.176.15 - - [03/Nov/2018:02:19:25 +0000] "GET /fonts/font-awesome/font/fontawesome-webfontf77b.ttf?v=3.2.1 HTTP/1.1" 200 79076 "http://www.looklala.com/" "Mozilla/5.0 (Windows NT 6.1; WOW64; rv:43.0) Gecko/20100101 Firefox/43.0"
185.220.101.6 - - [03/Nov/2018:02:56:11 +0000] "GET / HTTP/1.1" 200 3826 "-" "Mozilla/5.0 (Windows NT 6.2; Win64; x64) AppleWebKit/537.36 (KHTML, like Gecko) Chrome/57.0.2987.133 Safari/537.36"
185.220.101.6 - - [03/Nov/2018:02:56:12 +0000] "GET /?email-subscribe=john_besteiro%40yahoo.com& HTTP/1.1" 200 3826 "http://looklala.com/" "Mozilla/5.0 (Windows NT 6.2; Win64; x64) AppleWebKit/537.36 (KHTML, like Gecko) Chrome/57.0.2987.133 Safari/537.36"
