81.17.27.136 - - [02/Nov/2018:03:03:19 +0000] "GET / HTTP/1.1" 200 114689 "-" "Mozilla/5.0 (Windows NT 6.0; Win64; x64) AppleWebKit/537.36 (KHTML, like Gecko) Chrome/55.0.2883.87 Safari/537.36"
109.86.115.141 - - [02/Nov/2018:03:36:29 +0000] "GET /wp-login.php HTTP/1.1" 404 2202 "http://radicalbit.com/wp-login.php" "Mozilla/5.0 (Windows NT 10.0; WOW64) AppleWebKit/537.36 (KHTML, like Gecko) Chrome/62.0.3198.0 Safari/537.36 OPR/49.0.2711.0"
109.86.115.141 - - [02/Nov/2018:03:36:29 +0000] "GET /wp-login.php HTTP/1.1" 404 2202 "http://radicalbit.com/wp-login.php" "Mozilla/5.0 (Windows NT 10.0; WOW64) AppleWebKit/537.36 (KHTML, like Gecko) Chrome/62.0.3198.0 Safari/537.36 OPR/49.0.2711.0"
109.86.115.141 - - [02/Nov/2018:03:36:29 +0000] "GET /wp-login.php HTTP/1.1" 404 2202 "http://radicalbit.com/wp-login.php" "Mozilla/5.0 (Windows NT 10.0; WOW64) AppleWebKit/537.36 (KHTML, like Gecko) Chrome/62.0.3198.0 Safari/537.36 OPR/49.0.2711.0"
89.248.162.130 - - [02/Nov/2018:03:55:52 +0000] "GET / HTTP/1.1" 200 114689 "-" "Mozilla/5.0 (X11; Ubuntu; Linux x86_64; rv:15.0) Gecko/20100101 Firefox/15.0"
97.74.228.245 - - [02/Nov/2018:04:11:52 +0000] "POST /xmlrpc.php HTTP/1.1" 404 2197 "-" "Mozilla/5.0 (Macintosh; U; Intel Mac OS X 10.6; fr; rv:1.9.2.8) Gecko/20100722 Firefox/3.6.8"
193.110.157.151 - - [02/Nov/2018:04:23:47 +0000] "GET / HTTP/1.1" 200 114689 "-" "Mozilla/5.0 (Windows NT 6.1; Win64; x64; Trident/7.0; rv:11.0) like Gecko"
159.89.41.167 - - [02/Nov/2018:05:53:43 +0000] "GET / HTTP/1.0" 200 114689 "-" "Mozilla/5.0 (compatible; NetcraftSurveyAgent/1.0; +info@netcraft.com)"
65.19.167.131 - - [02/Nov/2018:06:02:24 +0000] "GET / HTTP/1.1" 200 114689 "-" "Mozilla/5.0 (Windows NT 10.0; Win64; x64) AppleWebKit/537.36 (KHTML, like Gecko) Chrome/63.0.3239.132 Safari/537.36"
97.74.228.245 - - [02/Nov/2018:06:24:20 +0000] "POST /xmlrpc.php HTTP/1.1" 404 2197 "-" "Mozilla/5.0 (Macintosh; U; Intel Mac OS X 10.6; fr; rv:1.9.2.8) Gecko/20100722 Firefox/3.6.8"
89.248.169.130 - - [02/Nov/2018:06:37:21 +0000] "POST /xmlrpc.php HTTP/1.1" 404 2197 "-" "Mozilla/5.0 (Macintosh; U; Intel Mac OS X 10.6; fr; rv:1.9.2.8) Gecko/20100722 Firefox/3.6.8"
89.248.169.130 - - [02/Nov/2018:06:37:22 +0000] "POST /xmlrpc.php HTTP/1.1" 404 2197 "-" "Mozilla/5.0 (Macintosh; U; Intel Mac OS X 10.6; fr; rv:1.9.2.8) Gecko/20100722 Firefox/3.6.8"
89.248.169.130 - - [02/Nov/2018:06:37:22 +0000] "POST /xmlrpc.php HTTP/1.1" 404 2197 "-" "Mozilla/5.0 (Macintosh; U; Intel Mac OS X 10.6; fr; rv:1.9.2.8) Gecko/20100722 Firefox/3.6.8"
89.248.169.130 - - [02/Nov/2018:06:37:22 +0000] "POST /xmlrpc.php HTTP/1.1" 404 2197 "-" "Mozilla/5.0 (Macintosh; U; Intel Mac OS X 10.6; fr; rv:1.9.2.8) Gecko/20100722 Firefox/3.6.8"
66.249.66.159 - - [02/Nov/2018:06:37:45 +0000] "GET /robots.txt HTTP/1.1" 404 2196 "-" "Mozilla/5.0 (compatible; Googlebot/2.1; +http://www.google.com/bot.html)"
66.249.66.128 - - [02/Nov/2018:06:38:02 +0000] "GET / HTTP/1.1" 200 114689 "-" "Mozilla/5.0 (compatible; Googlebot/2.1; +http://www.google.com/bot.html)"
213.152.162.104 - - [02/Nov/2018:06:38:53 +0000] "GET /wp-login.php?loggedout=true HTTP/1.1" 404 2217 "-" "Mozilla/5.0 (Macintosh; Intel Mac OS X 10_11_6) AppleWebKit/605.1.15 (KHTML, like Gecko)"
213.152.162.104 - - [02/Nov/2018:06:38:53 +0000] "GET /apple-touch-icon-precomposed.png HTTP/1.1" 404 2262 "-" "Safari/11605.3.8.1 CFNetwork/760.7 Darwin/15.6.0 (x86_64)"
213.152.162.104 - - [02/Nov/2018:06:38:53 +0000] "GET /apple-touch-icon.png HTTP/1.1" 404 2226 "-" "Safari/11605.3.8.1 CFNetwork/760.7 Darwin/15.6.0 (x86_64)"
213.152.162.104 - - [02/Nov/2018:06:38:53 +0000] "GET /favicon.ico HTTP/1.1" 404 2199 "-" "Safari/11605.3.8.1 CFNetwork/760.7 Darwin/15.6.0 (x86_64)"
213.152.162.104 - - [02/Nov/2018:06:38:53 +0000] "GET /apple-touch-icon-precomposed.png HTTP/1.1" 404 2262 "-" "Safari/11605.3.8.1 CFNetwork/760.7 Darwin/15.6.0 (x86_64)"
213.152.162.104 - - [02/Nov/2018:06:38:53 +0000] "GET /apple-touch-icon.png HTTP/1.1" 404 2226 "-" "Safari/11605.3.8.1 CFNetwork/760.7 Darwin/15.6.0 (x86_64)"
213.152.162.104 - - [02/Nov/2018:06:38:53 +0000] "GET /favicon.ico HTTP/1.1" 404 2199 "-" "Safari/11605.3.8.1 CFNetwork/760.7 Darwin/15.6.0 (x86_64)"
213.152.162.104 - - [02/Nov/2018:06:38:53 +0000] "GET /wp-login.php?loggedout=true HTTP/1.1" 404 2217 "-" "\x22Mozilla/5.0 (iPhone; CPU iPhone OS 11_0 like Mac OS X) AppleWebKit/604.1.38 (KHTML, like Gecko) Version/11.0 Mobile/15A372 Safari/604.1\x22"
213.152.162.104 - - [02/Nov/2018:06:38:53 +0000] "GET /apple-touch-icon-precomposed.png HTTP/1.1" 404 2262 "-" "Safari/11605.3.8.1 CFNetwork/760.7 Darwin/15.6.0 (x86_64)"
213.152.162.104 - - [02/Nov/2018:06:38:53 +0000] "GET /apple-touch-icon.png HTTP/1.1" 404 2226 "-" "Safari/11605.3.8.1 CFNetwork/760.7 Darwin/15.6.0 (x86_64)"
213.152.162.104 - - [02/Nov/2018:06:38:53 +0000] "GET /favicon.ico HTTP/1.1" 404 2199 "-" "Safari/11605.3.8.1 CFNetwork/760.7 Darwin/15.6.0 (x86_64)"
213.152.162.104 - - [02/Nov/2018:06:38:53 +0000] "GET /apple-touch-icon-precomposed.png HTTP/1.1" 404 2262 "-" "Safari/11605.3.8.1 CFNetwork/760.7 Darwin/15.6.0 (x86_64)"
213.152.162.104 - - [02/Nov/2018:06:38:53 +0000] "GET /apple-touch-icon.png HTTP/1.1" 404 2226 "-" "Safari/11605.3.8.1 CFNetwork/760.7 Darwin/15.6.0 (x86_64)"
213.152.162.104 - - [02/Nov/2018:06:38:53 +0000] "GET /favicon.ico HTTP/1.1" 404 2199 "-" "Safari/11605.3.8.1 CFNetwork/760.7 Darwin/15.6.0 (x86_64)"
54.36.149.12 - - [02/Nov/2018:06:39:48 +0000] "GET /gouden-tip-tekst-visueler/ HTTP/1.1" 404 2244 "-" "Mozilla/5.0 (compatible; AhrefsBot/5.2; +http://ahrefs.com/robot/)"
178.137.82.233 - - [02/Nov/2018:07:08:55 +0000] "GET /groups/ HTTP/1.0" 404 2187 "-" "Mozilla/5.0 (Windows NT 10.1; Win64; rv:38.0) Gecko/20100101 Firefox/38.0"
217.182.244.61 - - [02/Nov/2018:07:23:45 +0000] "GET / HTTP/1.1" 200 114689 "-" "Mozilla/5.0 (Windows NT 6.3; Win64; x64) AppleWebKit/537.36 (KHTML, like Gecko) Chrome/57.0.2987.133 Safari/537.36"
180.76.15.30 - - [02/Nov/2018:07:56:27 +0000] "GET /robots.txt HTTP/1.1" 404 2196 "-" "Mozilla/5.0 (Windows NT 5.1; rv:6.0.2) Gecko/20100101 Firefox/6.0.2"
180.76.15.16 - - [02/Nov/2018:07:56:27 +0000] "GET /robots.txt HTTP/1.1" 404 2196 "-" "Mozilla/5.0 (Windows NT 5.1; rv:6.0.2) Gecko/20100101 Firefox/6.0.2"
180.76.15.27 - - [02/Nov/2018:07:56:46 +0000] "GET /index_files/rtl.css HTTP/1.1" 404 2223 "-" "Mozilla/5.0 (compatible; Baiduspider/2.0; +http://www.baidu.com/search/spider.html)"
185.220.101.12 - - [02/Nov/2018:08:42:13 +0000] "GET / HTTP/1.1" 200 114689 "-" "Mozilla/5.0 (Windows NT 5.1; WOW64; rv:50.0) Gecko/20100101 Firefox/50.0"
193.171.202.150 - - [02/Nov/2018:08:42:16 +0000] "GET / HTTP/1.1" 200 114689 "-" "Mozilla/5.0 (Windows NT 6.1; Win64; x64) AppleWebKit/537.36 (KHTML, like Gecko) Chrome/54.0.2840.99 Safari/537.36"
97.74.228.245 - - [02/Nov/2018:08:43:09 +0000] "POST /xmlrpc.php HTTP/1.1" 404 2197 "-" "Mozilla/5.0 (Macintosh; U; Intel Mac OS X 10.6; fr; rv:1.9.2.8) Gecko/20100722 Firefox/3.6.8"
178.20.55.18 - - [02/Nov/2018:08:48:29 +0000] "GET / HTTP/1.1" 200 114689 "-" "Mozilla/5.0 (Windows NT 6.3; WOW64; rv:52.0) Gecko/20100101 Firefox/52.0"
54.36.148.230 - - [02/Nov/2018:08:57:15 +0000] "GET /vrouwen-kapsels-in-4-stappen/feed/ HTTP/1.1" 404 2268 "-" "Mozilla/5.0 (compatible; AhrefsBot/5.2; +http://ahrefs.com/robot/)"
85.114.142.205 - - [02/Nov/2018:09:26:29 +0000] "GET / HTTP/1.1" 200 114689 "-" "Mozilla/5.0 (Windows NT 6.0; Win64; x64) AppleWebKit/537.36 (KHTML, like Gecko) Chrome/51.0.2704.79 Safari/537.36 Edge/14.14393"
120.35.38.212 - - [02/Nov/2018:10:19:11 +0000] "HEAD /wp-content/themes/twentyseventeen/search.php HTTP/1.1" 404 0 "-" "-"
185.24.218.178 - - [02/Nov/2018:10:48:28 +0000] "GET / HTTP/1.1" 200 114689 "-" "Mozilla/5.0 (Windows NT 6.3; WOW64) AppleWebKit/537.36 (KHTML, like Gecko) Chrome/51.0.2704.106 Safari/537.36"
51.15.233.253 - - [02/Nov/2018:11:00:02 +0000] "GET / HTTP/1.1" 200 114689 "-" "Mozilla/5.0 (Windows NT 6.3; WOW64) AppleWebKit/537.36 (KHTML, like Gecko) Chrome/46.0.2490.80 Safari/537.36"
51.15.233.253 - - [02/Nov/2018:11:00:03 +0000] "GET / HTTP/1.1" 200 114689 "-" "Mozilla/5.0 (Windows NT 6.3; WOW64) AppleWebKit/537.36 (KHTML, like Gecko) Chrome/46.0.2490.80 Safari/537.36"
97.74.228.245 - - [02/Nov/2018:11:01:09 +0000] "POST /xmlrpc.php HTTP/1.1" 404 2197 "-" "Mozilla/5.0 (Macintosh; U; Intel Mac OS X 10.6; fr; rv:1.9.2.8) Gecko/20100722 Firefox/3.6.8"
185.56.80.242 - - [02/Nov/2018:12:04:32 +0000] "GET / HTTP/1.1" 200 114689 "-" "Mozilla/5.0 (Windows NT 6.1; Win64; x64) AppleWebKit/537.36 (KHTML, like Gecko) Chrome/55.0.2883.87 Safari/537.36"
195.176.3.23 - - [02/Nov/2018:12:11:09 +0000] "GET / HTTP/1.1" 200 114689 "-" "Mozilla/5.0 (Windows NT 5.1; Win64; x64) AppleWebKit/537.36 (KHTML, like Gecko) Chrome/52.0.2743.116 Safari/537.36 Edge/15.15063"
192.42.116.16 - - [02/Nov/2018:12:34:16 +0000] "GET / HTTP/1.1" 200 114689 "-" "Mozilla/5.0 (Windows NT 5.1; Win64; x64) AppleWebKit/537.36 (KHTML, like Gecko) Chrome/46.0.2486.0 Safari/537.36 Edge/13.10586"
95.108.181.44 - - [02/Nov/2018:13:10:33 +0000] "GET /robots.txt HTTP/1.1" 404 2196 "-" "Mozilla/5.0 (compatible; YandexBot/3.0; +http://yandex.com/bots)"
37.9.113.40 - - [02/Nov/2018:13:10:33 +0000] "GET /robots.txt HTTP/1.1" 404 2200 "-" "Mozilla/5.0 (compatible; YandexBot/3.0; +http://yandex.com/bots)"
95.108.213.49 - - [02/Nov/2018:13:10:37 +0000] "GET / HTTP/1.1" 200 114689 "-" "Mozilla/5.0 (compatible; YandexBot/3.0; +http://yandex.com/bots)"
141.8.142.11 - - [02/Nov/2018:13:10:37 +0000] "GET / HTTP/1.1" 200 114689 "-" "Mozilla/5.0 (compatible; YandexBot/3.0; +http://yandex.com/bots)"
97.74.228.245 - - [02/Nov/2018:13:31:05 +0000] "POST /xmlrpc.php HTTP/1.1" 404 2197 "-" "Mozilla/5.0 (Macintosh; U; Intel Mac OS X 10.6; fr; rv:1.9.2.8) Gecko/20100722 Firefox/3.6.8"
204.85.191.30 - - [02/Nov/2018:13:32:53 +0000] "GET / HTTP/1.1" 200 114689 "-" "Mozilla/5.0 (Windows NT 5.1; Win64; x64) AppleWebKit/537.36 (KHTML, like Gecko) Chrome/46.0.2486.0 Safari/537.36 Edge/13.10586"
193.201.224.210 - - [02/Nov/2018:13:37:26 +0000] "GET /wp-content/plugins/reflex-gallery/admin/scripts/FileUploader/php.php HTTP/1.1" 404 2370 "http://radicalbit.com/wp-content/plugins/reflex-gallery/admin/scripts/FileUploader/php.php" "Mozilla/5.0 (Windows NT 6.1; WOW64) AppleWebKit/537.36 (KHTML, like Gecko) Chrome/42.0.2311.152 Safari/537.36"
123.57.254.142 - - [02/Nov/2018:14:09:55 +0000] "POST /xmlrpc.php HTTP/1.1" 404 2197 "-" "Mozilla/5.0 (Macintosh; U; Intel Mac OS X 10.6; fr; rv:1.9.2.8) Gecko/20100722 Firefox/3.6.8"
123.57.254.142 - - [02/Nov/2018:14:09:56 +0000] "POST /xmlrpc.php HTTP/1.1" 404 2197 "-" "Mozilla/5.0 (Macintosh; U; Intel Mac OS X 10.6; fr; rv:1.9.2.8) Gecko/20100722 Firefox/3.6.8"
197.231.221.211 - - [02/Nov/2018:14:14:09 +0000] "GET / HTTP/1.1" 200 114689 "-" "Mozilla/5.0 (Windows NT 6.3; WOW64; rv:41.0) Gecko/20100101 Firefox/41.0"
185.220.100.252 - - [02/Nov/2018:14:24:06 +0000] "GET / HTTP/1.1" 200 114689 "-" "Mozilla/5.0 (Macintosh; Intel Mac OS X 10_10_5) AppleWebKit/603.3.8 (KHTML, like Gecko) Version/10.1.2 Safari/603.3.8"
54.37.16.241 - - [02/Nov/2018:14:28:19 +0000] "GET / HTTP/1.1" 200 114689 "-" "Mozilla/5.0 (Windows NT 10.0; Win64; x64) AppleWebKit/537.36 (KHTML, like Gecko) Chrome/46.0.2486.0 Safari/537.36 Edge/13.10586"
192.42.116.18 - - [02/Nov/2018:14:34:27 +0000] "GET / HTTP/1.1" 200 114689 "-" "Mozilla/5.0 (Windows NT 6.0; Win64; x64) AppleWebKit/537.36 (KHTML, like Gecko) Chrome/57.0.2987.133 Safari/537.36"
89.234.157.254 - - [02/Nov/2018:14:49:11 +0000] "GET / HTTP/1.1" 200 114689 "-" "Mozilla/5.0 (Windows NT 6.3; Win64; x64) AppleWebKit/537.36 (KHTML, like Gecko) Chrome/42.0.2311.135 Safari/537.36 Edge/12.10240"
89.248.169.130 - - [02/Nov/2018:14:57:12 +0000] "POST /xmlrpc.php HTTP/1.1" 404 2197 "-" "Mozilla/5.0 (Macintosh; U; Intel Mac OS X 10.6; fr; rv:1.9.2.8) Gecko/20100722 Firefox/3.6.8"
89.248.169.130 - - [02/Nov/2018:14:57:13 +0000] "POST /xmlrpc.php HTTP/1.1" 404 2197 "-" "Mozilla/5.0 (Macintosh; U; Intel Mac OS X 10.6; fr; rv:1.9.2.8) Gecko/20100722 Firefox/3.6.8"
89.248.169.130 - - [02/Nov/2018:14:57:13 +0000] "POST /xmlrpc.php HTTP/1.1" 404 2197 "-" "Mozilla/5.0 (Macintosh; U; Intel Mac OS X 10.6; fr; rv:1.9.2.8) Gecko/20100722 Firefox/3.6.8"
89.248.169.130 - - [02/Nov/2018:14:57:13 +0000] "POST /xmlrpc.php HTTP/1.1" 404 2197 "-" "Mozilla/5.0 (Macintosh; U; Intel Mac OS X 10.6; fr; rv:1.9.2.8) Gecko/20100722 Firefox/3.6.8"
47.91.224.44 - - [02/Nov/2018:14:59:00 +0000] "GET /index_files/analytics.js.download HTTP/1.1" 404 2269 "http://www.radicalbit.com/" "Mozilla/5.0 (Macintosh; Intel Mac OS X 10_12_6) AppleWebKit/537.36 (KHTML, like Gecko) Chrome/66.0.3359.139 Safari/537.36"
47.91.224.44 - - [02/Nov/2018:14:59:01 +0000] "GET /index_files/styles.css HTTP/1.1" 404 2236 "http://www.radicalbit.com/" "Mozilla/5.0 (Macintosh; Intel Mac OS X 10_12_6) AppleWebKit/537.36 (KHTML, like Gecko) Chrome/66.0.3359.139 Safari/537.36"
47.91.224.44 - - [02/Nov/2018:14:59:01 +0000] "GET /index_files/front.min.css HTTP/1.1" 404 2245 "http://www.radicalbit.com/" "Mozilla/5.0 (Macintosh; Intel Mac OS X 10_12_6) AppleWebKit/537.36 (KHTML, like Gecko) Chrome/66.0.3359.139 Safari/537.36"
47.91.224.44 - - [02/Nov/2018:14:59:01 +0000] "GET /index_files/style.css HTTP/1.1" 404 2233 "http://www.radicalbit.com/" "Mozilla/5.0 (Macintosh; Intel Mac OS X 10_12_6) AppleWebKit/537.36 (KHTML, like Gecko) Chrome/66.0.3359.139 Safari/537.36"
47.91.224.44 - - [02/Nov/2018:14:59:01 +0000] "GET /index_files/rtl.css HTTP/1.1" 404 2227 "http://www.radicalbit.com/" "Mozilla/5.0 (Macintosh; Intel Mac OS X 10_12_6) AppleWebKit/537.36 (KHTML, like Gecko) Chrome/66.0.3359.139 Safari/537.36"
47.91.224.44 - - [02/Nov/2018:14:59:01 +0000] "GET /index_files/jquery.webui-popover.min.css HTTP/1.1" 404 2290 "http://www.radicalbit.com/" "Mozilla/5.0 (Macintosh; Intel Mac OS X 10_12_6) AppleWebKit/537.36 (KHTML, like Gecko) Chrome/66.0.3359.139 Safari/537.36"
47.91.224.44 - - [02/Nov/2018:14:59:01 +0000] "GET /index_files/lifterlms.min.css HTTP/1.1" 404 2257 "http://www.radicalbit.com/" "Mozilla/5.0 (Macintosh; Intel Mac OS X 10_12_6) AppleWebKit/537.36 (KHTML, like Gecko) Chrome/66.0.3359.139 Safari/537.36"
47.91.224.44 - - [02/Nov/2018:14:59:01 +0000] "GET /index_files/style(1).css HTTP/1.1" 404 2242 "http://www.radicalbit.com/" "Mozilla/5.0 (Macintosh; Intel Mac OS X 10_12_6) AppleWebKit/537.36 (KHTML, like Gecko) Chrome/66.0.3359.139 Safari/537.36"
47.91.224.44 - - [02/Nov/2018:14:59:01 +0000] "GET /index_files/css HTTP/1.1" 404 2215 "http://www.radicalbit.com/" "Mozilla/5.0 (Macintosh; Intel Mac OS X 10_12_6) AppleWebKit/537.36 (KHTML, like Gecko) Chrome/66.0.3359.139 Safari/537.36"
47.91.224.44 - - [02/Nov/2018:14:59:01 +0000] "GET /index_files/spectrum.css HTTP/1.1" 404 2242 "http://www.radicalbit.com/" "Mozilla/5.0 (Macintosh; Intel Mac OS X 10_12_6) AppleWebKit/537.36 (KHTML, like Gecko) Chrome/66.0.3359.139 Safari/537.36"
47.91.224.44 - - [02/Nov/2018:14:59:02 +0000] "GET /index_files/svgavatars.css HTTP/1.1" 404 2248 "http://www.radicalbit.com/" "Mozilla/5.0 (Macintosh; Intel Mac OS X 10_12_6) AppleWebKit/537.36 (KHTML, like Gecko) Chrome/66.0.3359.139 Safari/537.36"
47.91.224.44 - - [02/Nov/2018:14:59:02 +0000] "GET /index_files/svgavatars-custom.css HTTP/1.1" 404 2269 "http://www.radicalbit.com/" "Mozilla/5.0 (Macintosh; Intel Mac OS X 10_12_6) AppleWebKit/537.36 (KHTML, like Gecko) Chrome/66.0.3359.139 Safari/537.36"
47.91.224.44 - - [02/Nov/2018:14:59:02 +0000] "GET /index_files/frontend-forms.css HTTP/1.1" 404 2260 "http://www.radicalbit.com/" "Mozilla/5.0 (Macintosh; Intel Mac OS X 10_12_6) AppleWebKit/537.36 (KHTML, like Gecko) Chrome/66.0.3359.139 Safari/537.36"
47.91.224.44 - - [02/Nov/2018:14:59:02 +0000] "GET /index_files/sweetalert2.css HTTP/1.1" 404 2251 "http://www.radicalbit.com/" "Mozilla/5.0 (Macintosh; Intel Mac OS X 10_12_6) AppleWebKit/537.36 (KHTML, like Gecko) Chrome/66.0.3359.139 Safari/537.36"
47.91.224.44 - - [02/Nov/2018:14:59:02 +0000] "GET /index_files/style(2).css HTTP/1.1" 404 2242 "http://www.radicalbit.com/" "Mozilla/5.0 (Macintosh; Intel Mac OS X 10_12_6) AppleWebKit/537.36 (KHTML, like Gecko) Chrome/66.0.3359.139 Safari/537.36"
47.91.224.44 - - [02/Nov/2018:14:59:02 +0000] "GET /index_files/css(1) HTTP/1.1" 404 2224 "http://www.radicalbit.com/" "Mozilla/5.0 (Macintosh; Intel Mac OS X 10_12_6) AppleWebKit/537.36 (KHTML, like Gecko) Chrome/66.0.3359.139 Safari/537.36"
47.91.224.44 - - [02/Nov/2018:14:59:03 +0000] "GET /index_files/css(2) HTTP/1.1" 404 2224 "http://www.radicalbit.com/" "Mozilla/5.0 (Macintosh; Intel Mac OS X 10_12_6) AppleWebKit/537.36 (KHTML, like Gecko) Chrome/66.0.3359.139 Safari/537.36"
47.91.224.44 - - [02/Nov/2018:14:59:03 +0000] "GET /index_files/css-stars.css HTTP/1.1" 404 2245 "http://www.radicalbit.com/" "Mozilla/5.0 (Macintosh; Intel Mac OS X 10_12_6) AppleWebKit/537.36 (KHTML, like Gecko) Chrome/66.0.3359.139 Safari/537.36"
47.91.224.44 - - [02/Nov/2018:14:59:03 +0000] "GET /index_files/style(4).css HTTP/1.1" 404 2242 "http://www.radicalbit.com/" "Mozilla/5.0 (Macintosh; Intel Mac OS X 10_12_6) AppleWebKit/537.36 (KHTML, like Gecko) Chrome/66.0.3359.139 Safari/537.36"
47.91.224.44 - - [02/Nov/2018:14:59:03 +0000] "GET /index_files/css(3) HTTP/1.1" 404 2224 "http://www.radicalbit.com/" "Mozilla/5.0 (Macintosh; Intel Mac OS X 10_12_6) AppleWebKit/537.36 (KHTML, like Gecko) Chrome/66.0.3359.139 Safari/537.36"
47.91.224.44 - - [02/Nov/2018:14:59:03 +0000] "GET /index_files/jquery-ui-1.9.1.custom.css HTTP/1.1" 404 2284 "http://www.radicalbit.com/" "Mozilla/5.0 (Macintosh; Intel Mac OS X 10_12_6) AppleWebKit/537.36 (KHTML, like Gecko) Chrome/66.0.3359.139 Safari/537.36"
47.91.224.44 - - [02/Nov/2018:14:59:03 +0000] "GET /index_files/style(3).css HTTP/1.1" 404 2242 "http://www.radicalbit.com/" "Mozilla/5.0 (Macintosh; Intel Mac OS X 10_12_6) AppleWebKit/537.36 (KHTML, like Gecko) Chrome/66.0.3359.139 Safari/537.36"
47.91.224.44 - - [02/Nov/2018:14:59:04 +0000] "GET /index_files/style(5).css HTTP/1.1" 404 2242 "http://www.radicalbit.com/" "Mozilla/5.0 (Macintosh; Intel Mac OS X 10_12_6) AppleWebKit/537.36 (KHTML, like Gecko) Chrome/66.0.3359.139 Safari/537.36"
47.91.224.44 - - [02/Nov/2018:14:59:04 +0000] "GET /index_files/css(4) HTTP/1.1" 404 2224 "http://www.radicalbit.com/" "Mozilla/5.0 (Macintosh; Intel Mac OS X 10_12_6) AppleWebKit/537.36 (KHTML, like Gecko) Chrome/66.0.3359.139 Safari/537.36"
47.91.224.44 - - [02/Nov/2018:14:59:04 +0000] "GET /index_files/dashicons.min.css HTTP/1.1" 404 2257 "http://www.radicalbit.com/" "Mozilla/5.0 (Macintosh; Intel Mac OS X 10_12_6) AppleWebKit/537.36 (KHTML, like Gecko) Chrome/66.0.3359.139 Safari/537.36"
47.91.224.44 - - [02/Nov/2018:14:59:04 +0000] "GET /index_files/jquery.js.download HTTP/1.1" 404 2260 "http://www.radicalbit.com/" "Mozilla/5.0 (Macintosh; Intel Mac OS X 10_12_6) AppleWebKit/537.36 (KHTML, like Gecko) Chrome/66.0.3359.139 Safari/537.36"
47.91.224.44 - - [02/Nov/2018:14:59:04 +0000] "GET /index_files/jquery-migrate.min.js.download HTTP/1.1" 404 2296 "http://www.radicalbit.com/" "Mozilla/5.0 (Macintosh; Intel Mac OS X 10_12_6) AppleWebKit/537.36 (KHTML, like Gecko) Chrome/66.0.3359.139 Safari/537.36"
47.91.224.44 - - [02/Nov/2018:14:59:04 +0000] "GET /index_files/front.min.js.download HTTP/1.1" 404 2269 "http://www.radicalbit.com/" "Mozilla/5.0 (Macintosh; Intel Mac OS X 10_12_6) AppleWebKit/537.36 (KHTML, like Gecko) Chrome/66.0.3359.139 Safari/537.36"
47.91.224.44 - - [02/Nov/2018:14:59:04 +0000] "GET /index_files/core.min.js.download HTTP/1.1" 404 2266 "http://www.radicalbit.com/" "Mozilla/5.0 (Macintosh; Intel Mac OS X 10_12_6) AppleWebKit/537.36 (KHTML, like Gecko) Chrome/66.0.3359.139 Safari/537.36"
47.91.224.44 - - [02/Nov/2018:14:59:04 +0000] "GET /index_files/widget.min.js.download HTTP/1.1" 404 2272 "http://www.radicalbit.com/" "Mozilla/5.0 (Macintosh; Intel Mac OS X 10_12_6) AppleWebKit/537.36 (KHTML, like Gecko) Chrome/66.0.3359.139 Safari/537.36"
47.91.224.44 - - [02/Nov/2018:14:59:04 +0000] "GET / HTTP/1.1" 200 114689 "-" "Mozilla/5.0 (Macintosh; Intel Mac OS X 10_12_6) AppleWebKit/537.36 (KHTML, like Gecko) Chrome/66.0.3359.139 Safari/537.36"
47.91.224.44 - - [02/Nov/2018:14:59:04 +0000] "GET /index_files/et-extra-customizer-global-15393515465325.min.css HTTP/1.1" 404 2353 "http://www.radicalbit.com/" "Mozilla/5.0 (Macintosh; Intel Mac OS X 10_12_6) AppleWebKit/537.36 (KHTML, like Gecko) Chrome/66.0.3359.139 Safari/537.36"
47.91.224.44 - - [02/Nov/2018:14:59:04 +0000] "GET /index_files/datepicker.min.js.download HTTP/1.1" 404 2284 "http://www.radicalbit.com/" "Mozilla/5.0 (Macintosh; Intel Mac OS X 10_12_6) AppleWebKit/537.36 (KHTML, like Gecko) Chrome/66.0.3359.139 Safari/537.36"
47.91.224.44 - - [02/Nov/2018:14:59:04 +0000] "GET /index_files/mouse.min.js.download HTTP/1.1" 404 2269 "http://www.radicalbit.com/" "Mozilla/5.0 (Macintosh; Intel Mac OS X 10_12_6) AppleWebKit/537.36 (KHTML, like Gecko) Chrome/66.0.3359.139 Safari/537.36"
47.91.224.44 - - [02/Nov/2018:14:59:04 +0000] "GET /index_files/transition.js.download HTTP/1.1" 404 2272 "http://www.radicalbit.com/" "Mozilla/5.0 (Macintosh; Intel Mac OS X 10_12_6) AppleWebKit/537.36 (KHTML, like Gecko) Chrome/66.0.3359.139 Safari/537.36"
47.91.224.44 - - [02/Nov/2018:14:59:04 +0000] "GET /index_files/collapse.js.download HTTP/1.1" 404 2266 "http://www.radicalbit.com/" "Mozilla/5.0 (Macintosh; Intel Mac OS X 10_12_6) AppleWebKit/537.36 (KHTML, like Gecko) Chrome/66.0.3359.139 Safari/537.36"
47.91.224.44 - - [02/Nov/2018:14:59:04 +0000] "GET /index_files/svg.min.js.download HTTP/1.1" 404 2263 "http://www.radicalbit.com/" "Mozilla/5.0 (Macintosh; Intel Mac OS X 10_12_6) AppleWebKit/537.36 (KHTML, like Gecko) Chrome/66.0.3359.139 Safari/537.36"
47.91.224.44 - - [02/Nov/2018:14:59:04 +0000] "GET /index_files/spectrum.min.js.download HTTP/1.1" 404 2278 "http://www.radicalbit.com/" "Mozilla/5.0 (Macintosh; Intel Mac OS X 10_12_6) AppleWebKit/537.36 (KHTML, like Gecko) Chrome/66.0.3359.139 Safari/537.36"
47.91.224.44 - - [02/Nov/2018:14:59:04 +0000] "GET /index_files/jquery.scrollbar.min.js.download HTTP/1.1" 404 2302 "http://www.radicalbit.com/" "Mozilla/5.0 (Macintosh; Intel Mac OS X 10_12_6) AppleWebKit/537.36 (KHTML, like Gecko) Chrome/66.0.3359.139 Safari/537.36"
47.91.224.44 - - [02/Nov/2018:14:59:04 +0000] "GET /index_files/rgbcolor.js.download HTTP/1.1" 404 2266 "http://www.radicalbit.com/" "Mozilla/5.0 (Macintosh; Intel Mac OS X 10_12_6) AppleWebKit/537.36 (KHTML, like Gecko) Chrome/66.0.3359.139 Safari/537.36"
47.91.224.44 - - [02/Nov/2018:14:59:04 +0000] "GET /index_files/StackBlur.js.download HTTP/1.1" 404 2269 "http://www.radicalbit.com/" "Mozilla/5.0 (Macintosh; Intel Mac OS X 10_12_6) AppleWebKit/537.36 (KHTML, like Gecko) Chrome/66.0.3359.139 Safari/537.36"
47.91.224.44 - - [02/Nov/2018:14:59:05 +0000] "GET /index_files/classic-10_7.css HTTP/1.1" 404 2254 "http://www.radicalbit.com/" "Mozilla/5.0 (Macintosh; Intel Mac OS X 10_12_6) AppleWebKit/537.36 (KHTML, like Gecko) Chrome/66.0.3359.139 Safari/537.36"
47.91.224.44 - - [02/Nov/2018:14:59:05 +0000] "GET /index_files/mediaelementplayer-legacy.min.css HTTP/1.1" 404 2305 "http://www.radicalbit.com/" "Mozilla/5.0 (Macintosh; Intel Mac OS X 10_12_6) AppleWebKit/537.36 (KHTML, like Gecko) Chrome/66.0.3359.139 Safari/537.36"
47.91.224.44 - - [02/Nov/2018:14:59:05 +0000] "GET /index_files/wp-mediaelement.min.css HTTP/1.1" 404 2275 "http://www.radicalbit.com/" "Mozilla/5.0 (Macintosh; Intel Mac OS X 10_12_6) AppleWebKit/537.36 (KHTML, like Gecko) Chrome/66.0.3359.139 Safari/537.36"
47.91.224.44 - - [02/Nov/2018:14:59:05 +0000] "GET /index_files/canvg.js.download HTTP/1.1" 404 2257 "http://www.radicalbit.com/" "Mozilla/5.0 (Macintosh; Intel Mac OS X 10_12_6) AppleWebKit/537.36 (KHTML, like Gecko) Chrome/66.0.3359.139 Safari/537.36"
47.91.224.44 - - [02/Nov/2018:14:59:05 +0000] "GET /index_files/moxie.min.js.download HTTP/1.1" 404 2269 "http://www.radicalbit.com/" "Mozilla/5.0 (Macintosh; Intel Mac OS X 10_12_6) AppleWebKit/537.36 (KHTML, like Gecko) Chrome/66.0.3359.139 Safari/537.36"
47.91.224.44 - - [02/Nov/2018:14:59:05 +0000] "GET /index_files/svgavatars.result.min.js.download HTTP/1.1" 404 2305 "http://www.radicalbit.com/" "Mozilla/5.0 (Macintosh; Intel Mac OS X 10_12_6) AppleWebKit/537.36 (KHTML, like Gecko) Chrome/66.0.3359.139 Safari/537.36"
47.91.224.44 - - [02/Nov/2018:14:59:05 +0000] "GET /index_files/plupload.min.js.download HTTP/1.1" 404 2278 "http://www.radicalbit.com/" "Mozilla/5.0 (Macintosh; Intel Mac OS X 10_12_6) AppleWebKit/537.36 (KHTML, like Gecko) Chrome/66.0.3359.139 Safari/537.36"
47.91.224.44 - - [02/Nov/2018:14:59:05 +0000] "GET /index_files/handlers.min.js.download HTTP/1.1" 404 2278 "http://www.radicalbit.com/" "Mozilla/5.0 (Macintosh; Intel Mac OS X 10_12_6) AppleWebKit/537.36 (KHTML, like Gecko) Chrome/66.0.3359.139 Safari/537.36"
47.91.224.44 - - [02/Nov/2018:14:59:05 +0000] "GET /index_files/sortable.min.js.download HTTP/1.1" 404 2278 "http://www.radicalbit.com/" "Mozilla/5.0 (Macintosh; Intel Mac OS X 10_12_6) AppleWebKit/537.36 (KHTML, like Gecko) Chrome/66.0.3359.139 Safari/537.36"
47.91.224.44 - - [02/Nov/2018:14:59:05 +0000] "GET /index_files/jquery-ui-timepicker-addon.js.download HTTP/1.1" 404 2320 "http://www.radicalbit.com/" "Mozilla/5.0 (Macintosh; Intel Mac OS X 10_12_6) AppleWebKit/537.36 (KHTML, like Gecko) Chrome/66.0.3359.139 Safari/537.36"
47.91.224.44 - - [02/Nov/2018:14:59:05 +0000] "GET /index_files/upload.js.download HTTP/1.1" 404 2260 "http://www.radicalbit.com/" "Mozilla/5.0 (Macintosh; Intel Mac OS X 10_12_6) AppleWebKit/537.36 (KHTML, like Gecko) Chrome/66.0.3359.139 Safari/537.36"
47.91.224.44 - - [02/Nov/2018:14:59:05 +0000] "GET /index_files/frontend-form.min.js.download HTTP/1.1" 404 2293 "http://www.radicalbit.com/" "Mozilla/5.0 (Macintosh; Intel Mac OS X 10_12_6) AppleWebKit/537.36 (KHTML, like Gecko) Chrome/66.0.3359.139 Safari/537.36"
47.91.224.44 - - [02/Nov/2018:14:59:05 +0000] "GET /index_files/sweetalert2.js.download HTTP/1.1" 404 2275 "http://www.radicalbit.com/" "Mozilla/5.0 (Macintosh; Intel Mac OS X 10_12_6) AppleWebKit/537.36 (KHTML, like Gecko) Chrome/66.0.3359.139 Safari/537.36"
47.91.224.44 - - [02/Nov/2018:14:59:05 +0000] "GET /index_files/jquery.barrating.min.js.download HTTP/1.1" 404 2302 "http://www.radicalbit.com/" "Mozilla/5.0 (Macintosh; Intel Mac OS X 10_12_6) AppleWebKit/537.36 (KHTML, like Gecko) Chrome/66.0.3359.139 Safari/537.36"
47.91.224.44 - - [02/Nov/2018:14:59:05 +0000] "GET /index_files/billing-address.js.download HTTP/1.1" 404 2287 "http://www.radicalbit.com/" "Mozilla/5.0 (Macintosh; Intel Mac OS X 10_12_6) AppleWebKit/537.36 (KHTML, like Gecko) Chrome/66.0.3359.139 Safari/537.36"
47.91.224.44 - - [02/Nov/2018:14:59:05 +0000] "GET /index_files/transition.js.download HTTP/1.1" 404 2272 "http://www.radicalbit.com/" "Mozilla/5.0 (Macintosh; Intel Mac OS X 10_12_6) AppleWebKit/537.36 (KHTML, like Gecko) Chrome/66.0.3359.139 Safari/537.36"
47.91.224.44 - - [02/Nov/2018:14:59:06 +0000] "GET /index_files/mc-validate.js.download HTTP/1.1" 404 2275 "http://www.radicalbit.com/" "Mozilla/5.0 (Macintosh; Intel Mac OS X 10_12_6) AppleWebKit/537.36 (KHTML, like Gecko) Chrome/66.0.3359.139 Safari/537.36"
47.91.224.44 - - [02/Nov/2018:14:59:06 +0000] "GET /index_files/svg.min.js.download HTTP/1.1" 404 2263 "http://www.radicalbit.com/" "Mozilla/5.0 (Macintosh; Intel Mac OS X 10_12_6) AppleWebKit/537.36 (KHTML, like Gecko) Chrome/66.0.3359.139 Safari/537.36"
47.91.224.44 - - [02/Nov/2018:14:59:06 +0000] "GET /index_files/llms.min.js.download HTTP/1.1" 404 2266 "http://www.radicalbit.com/" "Mozilla/5.0 (Macintosh; Intel Mac OS X 10_12_6) AppleWebKit/537.36 (KHTML, like Gecko) Chrome/66.0.3359.139 Safari/537.36"
47.91.224.44 - - [02/Nov/2018:14:59:06 +0000] "GET /index_files/spectrum.min.js.download HTTP/1.1" 404 2278 "http://www.radicalbit.com/" "Mozilla/5.0 (Macintosh; Intel Mac OS X 10_12_6) AppleWebKit/537.36 (KHTML, like Gecko) Chrome/66.0.3359.139 Safari/537.36"
47.91.224.44 - - [02/Nov/2018:14:59:06 +0000] "GET /index_files/scripts.js.download HTTP/1.1" 404 2263 "http://www.radicalbit.com/" "Mozilla/5.0 (Macintosh; Intel Mac OS X 10_12_6) AppleWebKit/537.36 (KHTML, like Gecko) Chrome/66.0.3359.139 Safari/537.36"
47.91.224.44 - - [02/Nov/2018:14:59:06 +0000] "GET /index_files/jquery.scrollbar.min.js.download HTTP/1.1" 404 2302 "http://www.radicalbit.com/" "Mozilla/5.0 (Macintosh; Intel Mac OS X 10_12_6) AppleWebKit/537.36 (KHTML, like Gecko) Chrome/66.0.3359.139 Safari/537.36"
47.91.224.44 - - [02/Nov/2018:14:59:07 +0000] "GET /index_files/position.min.js.download HTTP/1.1" 404 2278 "http://www.radicalbit.com/" "Mozilla/5.0 (Macintosh; Intel Mac OS X 10_12_6) AppleWebKit/537.36 (KHTML, like Gecko) Chrome/66.0.3359.139 Safari/537.36"
47.91.224.44 - - [02/Nov/2018:14:59:07 +0000] "GET /index_files/rgbcolor.js.download HTTP/1.1" 404 2266 "http://www.radicalbit.com/" "Mozilla/5.0 (Macintosh; Intel Mac OS X 10_12_6) AppleWebKit/537.36 (KHTML, like Gecko) Chrome/66.0.3359.139 Safari/537.36"
47.91.224.44 - - [02/Nov/2018:14:59:07 +0000] "GET /index_files/tooltip.min.js.download HTTP/1.1" 404 2275 "http://www.radicalbit.com/" "Mozilla/5.0 (Macintosh; Intel Mac OS X 10_12_6) AppleWebKit/537.36 (KHTML, like Gecko) Chrome/66.0.3359.139 Safari/537.36"
47.91.224.44 - - [02/Nov/2018:14:59:07 +0000] "GET /index_files/StackBlur.js.download HTTP/1.1" 404 2269 "http://www.radicalbit.com/" "Mozilla/5.0 (Macintosh; Intel Mac OS X 10_12_6) AppleWebKit/537.36 (KHTML, like Gecko) Chrome/66.0.3359.139 Safari/537.36"
47.91.224.44 - - [02/Nov/2018:14:59:07 +0000] "GET /index_files/slider.min.js.download HTTP/1.1" 404 2272 "http://www.radicalbit.com/" "Mozilla/5.0 (Macintosh; Intel Mac OS X 10_12_6) AppleWebKit/537.36 (KHTML, like Gecko) Chrome/66.0.3359.139 Safari/537.36"
47.91.224.44 - - [02/Nov/2018:14:59:07 +0000] "GET /index_files/canvg.js.download HTTP/1.1" 404 2257 "http://www.radicalbit.com/" "Mozilla/5.0 (Macintosh; Intel Mac OS X 10_12_6) AppleWebKit/537.36 (KHTML, like Gecko) Chrome/66.0.3359.139 Safari/537.36"
47.91.224.44 - - [02/Nov/2018:14:59:07 +0000] "GET /index_files/jquery.webui-popover.min.js.download HTTP/1.1" 404 2314 "http://www.radicalbit.com/" "Mozilla/5.0 (Macintosh; Intel Mac OS X 10_12_6) AppleWebKit/537.36 (KHTML, like Gecko) Chrome/66.0.3359.139 Safari/537.36"
47.91.224.44 - - [02/Nov/2018:14:59:08 +0000] "GET /index_files/svgavatars.result.min.js.download HTTP/1.1" 404 2305 "http://www.radicalbit.com/" "Mozilla/5.0 (Macintosh; Intel Mac OS X 10_12_6) AppleWebKit/537.36 (KHTML, like Gecko) Chrome/66.0.3359.139 Safari/537.36"
47.91.224.44 - - [02/Nov/2018:14:59:08 +0000] "GET /index_files/llms-ajax.min.js.download HTTP/1.1" 404 2281 "http://www.radicalbit.com/" "Mozilla/5.0 (Macintosh; Intel Mac OS X 10_12_6) AppleWebKit/537.36 (KHTML, like Gecko) Chrome/66.0.3359.139 Safari/537.36"
47.91.224.44 - - [02/Nov/2018:14:59:08 +0000] "GET /index_files/moxie.min.js.download HTTP/1.1" 404 2269 "http://www.radicalbit.com/" "Mozilla/5.0 (Macintosh; Intel Mac OS X 10_12_6) AppleWebKit/537.36 (KHTML, like Gecko) Chrome/66.0.3359.139 Safari/537.36"
47.91.224.44 - - [02/Nov/2018:14:59:08 +0000] "GET /index_files/llms-form-checkout.min.js.download HTTP/1.1" 404 2308 "http://www.radicalbit.com/" "Mozilla/5.0 (Macintosh; Intel Mac OS X 10_12_6) AppleWebKit/537.36 (KHTML, like Gecko) Chrome/66.0.3359.139 Safari/537.36"
47.91.224.44 - - [02/Nov/2018:14:59:08 +0000] "GET /index_files/plupload.min.js.download HTTP/1.1" 404 2278 "http://www.radicalbit.com/" "Mozilla/5.0 (Macintosh; Intel Mac OS X 10_12_6) AppleWebKit/537.36 (KHTML, like Gecko) Chrome/66.0.3359.139 Safari/537.36"
47.91.224.44 - - [02/Nov/2018:14:59:08 +0000] "GET /index_files/menu.min.js.download HTTP/1.1" 404 2266 "http://www.radicalbit.com/" "Mozilla/5.0 (Macintosh; Intel Mac OS X 10_12_6) AppleWebKit/537.36 (KHTML, like Gecko) Chrome/66.0.3359.139 Safari/537.36"
47.91.224.44 - - [02/Nov/2018:14:59:09 +0000] "GET /index_files/handlers.min.js.download HTTP/1.1" 404 2278 "http://www.radicalbit.com/" "Mozilla/5.0 (Macintosh; Intel Mac OS X 10_12_6) AppleWebKit/537.36 (KHTML, like Gecko) Chrome/66.0.3359.139 Safari/537.36"
47.91.224.44 - - [02/Nov/2018:14:59:09 +0000] "GET /index_files/wp-a11y.min.js.download HTTP/1.1" 404 2275 "http://www.radicalbit.com/" "Mozilla/5.0 (Macintosh; Intel Mac OS X 10_12_6) AppleWebKit/537.36 (KHTML, like Gecko) Chrome/66.0.3359.139 Safari/537.36"
47.91.224.44 - - [02/Nov/2018:14:59:09 +0000] "GET /index_files/jquery-ui-timepicker-addon.js.download HTTP/1.1" 404 2320 "http://www.radicalbit.com/" "Mozilla/5.0 (Macintosh; Intel Mac OS X 10_12_6) AppleWebKit/537.36 (KHTML, like Gecko) Chrome/66.0.3359.139 Safari/537.36"
47.91.224.44 - - [02/Nov/2018:14:59:09 +0000] "GET /index_files/autocomplete.min.js.download HTTP/1.1" 404 2290 "http://www.radicalbit.com/" "Mozilla/5.0 (Macintosh; Intel Mac OS X 10_12_6) AppleWebKit/537.36 (KHTML, like Gecko) Chrome/66.0.3359.139 Safari/537.36"
47.91.224.44 - - [02/Nov/2018:14:59:09 +0000] "GET /index_files/sortable.min.js.download HTTP/1.1" 404 2278 "http://www.radicalbit.com/" "Mozilla/5.0 (Macintosh; Intel Mac OS X 10_12_6) AppleWebKit/537.36 (KHTML, like Gecko) Chrome/66.0.3359.139 Safari/537.36"
47.91.224.44 - - [02/Nov/2018:14:59:09 +0000] "GET /index_files/suggest.min.js.download HTTP/1.1" 404 2275 "http://www.radicalbit.com/" "Mozilla/5.0 (Macintosh; Intel Mac OS X 10_12_6) AppleWebKit/537.36 (KHTML, like Gecko) Chrome/66.0.3359.139 Safari/537.36"
47.91.224.44 - - [02/Nov/2018:14:59:09 +0000] "GET /index_files/upload.js.download HTTP/1.1" 404 2260 "http://www.radicalbit.com/" "Mozilla/5.0 (Macintosh; Intel Mac OS X 10_12_6) AppleWebKit/537.36 (KHTML, like Gecko) Chrome/66.0.3359.139 Safari/537.36"
47.91.224.44 - - [02/Nov/2018:14:59:10 +0000] "GET /index_files/subscriptions.js.download HTTP/1.1" 404 2281 "http://www.radicalbit.com/" "Mozilla/5.0 (Macintosh; Intel Mac OS X 10_12_6) AppleWebKit/537.36 (KHTML, like Gecko) Chrome/66.0.3359.139 Safari/537.36"
47.91.224.44 - - [02/Nov/2018:14:59:10 +0000] "GET /index_files/frontend-form.min.js.download HTTP/1.1" 404 2293 "http://www.radicalbit.com/" "Mozilla/5.0 (Macintosh; Intel Mac OS X 10_12_6) AppleWebKit/537.36 (KHTML, like Gecko) Chrome/66.0.3359.139 Safari/537.36"
47.91.224.44 - - [02/Nov/2018:14:59:10 +0000] "GET /index_files/idle-timer.min.js.download HTTP/1.1" 404 2284 "http://www.radicalbit.com/" "Mozilla/5.0 (Macintosh; Intel Mac OS X 10_12_6) AppleWebKit/537.36 (KHTML, like Gecko) Chrome/66.0.3359.139 Safari/537.36"
47.91.224.44 - - [02/Nov/2018:14:59:10 +0000] "GET /index_files/sweetalert2.js.download HTTP/1.1" 404 2275 "http://www.radicalbit.com/" "Mozilla/5.0 (Macintosh; Intel Mac OS X 10_12_6) AppleWebKit/537.36 (KHTML, like Gecko) Chrome/66.0.3359.139 Safari/537.36"
47.91.224.44 - - [02/Nov/2018:14:59:10 +0000] "GET /index_files/custom.js.download HTTP/1.1" 404 2260 "http://www.radicalbit.com/" "Mozilla/5.0 (Macintosh; Intel Mac OS X 10_12_6) AppleWebKit/537.36 (KHTML, like Gecko) Chrome/66.0.3359.139 Safari/537.36"
47.91.224.44 - - [02/Nov/2018:14:59:10 +0000] "GET /index_files/jquery.barrating.min.js.download HTTP/1.1" 404 2302 "http://www.radicalbit.com/" "Mozilla/5.0 (Macintosh; Intel Mac OS X 10_12_6) AppleWebKit/537.36 (KHTML, like Gecko) Chrome/66.0.3359.139 Safari/537.36"
47.91.224.44 - - [02/Nov/2018:14:59:10 +0000] "GET /index_files/conditional-logic.js.download HTTP/1.1" 404 2293 "http://www.radicalbit.com/" "Mozilla/5.0 (Macintosh; Intel Mac OS X 10_12_6) AppleWebKit/537.36 (KHTML, like Gecko) Chrome/66.0.3359.139 Safari/537.36"
47.91.224.44 - - [02/Nov/2018:14:59:11 +0000] "GET /index_files/billing-address.js.download HTTP/1.1" 404 2287 "http://www.radicalbit.com/" "Mozilla/5.0 (Macintosh; Intel Mac OS X 10_12_6) AppleWebKit/537.36 (KHTML, like Gecko) Chrome/66.0.3359.139 Safari/537.36"
47.91.224.44 - - [02/Nov/2018:14:59:11 +0000] "GET /index_files/masonry.min.js.download HTTP/1.1" 404 2275 "http://www.radicalbit.com/" "Mozilla/5.0 (Macintosh; Intel Mac OS X 10_12_6) AppleWebKit/537.36 (KHTML, like Gecko) Chrome/66.0.3359.139 Safari/537.36"
47.91.224.44 - - [02/Nov/2018:14:59:11 +0000] "GET /index_files/et-extra-customizer-global-15393515465325.min.css HTTP/1.1" 404 2353 "http://www.radicalbit.com/" "Mozilla/5.0 (Macintosh; Intel Mac OS X 10_12_6) AppleWebKit/537.36 (KHTML, like Gecko) Chrome/66.0.3359.139 Safari/537.36"
47.91.224.44 - - [02/Nov/2018:14:59:11 +0000] "GET /index_files/classic-10_7.css HTTP/1.1" 404 2254 "http://www.radicalbit.com/" "Mozilla/5.0 (Macintosh; Intel Mac OS X 10_12_6) AppleWebKit/537.36 (KHTML, like Gecko) Chrome/66.0.3359.139 Safari/537.36"
47.91.224.44 - - [02/Nov/2018:14:59:11 +0000] "GET /index_files/mc-validate.js.download HTTP/1.1" 404 2275 "http://www.radicalbit.com/" "Mozilla/5.0 (Macintosh; Intel Mac OS X 10_12_6) AppleWebKit/537.36 (KHTML, like Gecko) Chrome/66.0.3359.139 Safari/537.36"
47.91.224.44 - - [02/Nov/2018:14:59:11 +0000] "GET /index_files/scripts.min.js.download HTTP/1.1" 404 2275 "http://www.radicalbit.com/" "Mozilla/5.0 (Macintosh; Intel Mac OS X 10_12_6) AppleWebKit/537.36 (KHTML, like Gecko) Chrome/66.0.3359.139 Safari/537.36"
47.91.224.44 - - [02/Nov/2018:14:59:11 +0000] "GET /index_files/common.js.download HTTP/1.1" 404 2260 "http://www.radicalbit.com/" "Mozilla/5.0 (Macintosh; Intel Mac OS X 10_12_6) AppleWebKit/537.36 (KHTML, like Gecko) Chrome/66.0.3359.139 Safari/537.36"
47.91.224.44 - - [02/Nov/2018:14:59:12 +0000] "GET /index_files/NINJA_LOGO_WEB.png HTTP/1.1" 404 2260 "http://www.radicalbit.com/" "Mozilla/5.0 (Macintosh; Intel Mac OS X 10_12_6) AppleWebKit/537.36 (KHTML, like Gecko) Chrome/66.0.3359.139 Safari/537.36"
47.91.224.44 - - [02/Nov/2018:14:59:12 +0000] "GET /index_files/wp-embed.min.js.download HTTP/1.1" 404 2278 "http://www.radicalbit.com/" "Mozilla/5.0 (Macintosh; Intel Mac OS X 10_12_6) AppleWebKit/537.36 (KHTML, like Gecko) Chrome/66.0.3359.139 Safari/537.36"
47.91.224.44 - - [02/Nov/2018:14:59:12 +0000] "GET /index_files/mediaelement-and-player.min.js.download HTTP/1.1" 404 2323 "http://www.radicalbit.com/" "Mozilla/5.0 (Macintosh; Intel Mac OS X 10_12_6) AppleWebKit/537.36 (KHTML, like Gecko) Chrome/66.0.3359.139 Safari/537.36"
47.91.224.44 - - [02/Nov/2018:14:59:12 +0000] "GET /index_files/mediaelementplayer-legacy.min.css HTTP/1.1" 404 2305 "http://www.radicalbit.com/" "Mozilla/5.0 (Macintosh; Intel Mac OS X 10_12_6) AppleWebKit/537.36 (KHTML, like Gecko) Chrome/66.0.3359.139 Safari/537.36"
47.91.224.44 - - [02/Nov/2018:14:59:12 +0000] "GET /index_files/mediaelement-migrate.min.js.download HTTP/1.1" 404 2314 "http://www.radicalbit.com/" "Mozilla/5.0 (Macintosh; Intel Mac OS X 10_12_6) AppleWebKit/537.36 (KHTML, like Gecko) Chrome/66.0.3359.139 Safari/537.36"
47.91.224.44 - - [02/Nov/2018:14:59:12 +0000] "GET /index_files/wp-mediaelement.min.css HTTP/1.1" 404 2275 "http://www.radicalbit.com/" "Mozilla/5.0 (Macintosh; Intel Mac OS X 10_12_6) AppleWebKit/537.36 (KHTML, like Gecko) Chrome/66.0.3359.139 Safari/537.36"
47.91.224.44 - - [02/Nov/2018:14:59:12 +0000] "GET /index_files/wp-mediaelement.min.js.download HTTP/1.1" 404 2299 "http://www.radicalbit.com/" "Mozilla/5.0 (Macintosh; Intel Mac OS X 10_12_6) AppleWebKit/537.36 (KHTML, like Gecko) Chrome/66.0.3359.139 Safari/537.36"
47.91.224.44 - - [02/Nov/2018:14:59:12 +0000] "GET /index_files/analytics.js(1).download HTTP/1.1" 404 2278 "http://www.radicalbit.com/" "Mozilla/5.0 (Macintosh; Intel Mac OS X 10_12_6) AppleWebKit/537.36 (KHTML, like Gecko) Chrome/66.0.3359.139 Safari/537.36"
47.91.224.44 - - [02/Nov/2018:14:59:12 +0000] "GET /index_files/wp-emoji-release.min.js.download HTTP/1.1" 404 2302 "http://www.radicalbit.com/" "Mozilla/5.0 (Macintosh; Intel Mac OS X 10_12_6) AppleWebKit/537.36 (KHTML, like Gecko) Chrome/66.0.3359.139 Safari/537.36"
47.91.224.44 - - [02/Nov/2018:14:59:12 +0000] "GET /index_files/Home_watis01.png HTTP/1.1" 404 2254 "http://www.radicalbit.com/" "Mozilla/5.0 (Macintosh; Intel Mac OS X 10_12_6) AppleWebKit/537.36 (KHTML, like Gecko) Chrome/66.0.3359.139 Safari/537.36"
47.91.224.44 - - [02/Nov/2018:14:59:12 +0000] "GET /index_files/wp-emoji-release.min.js(1).download HTTP/1.1" 404 2311 "http://www.radicalbit.com/" "Mozilla/5.0 (Macintosh; Intel Mac OS X 10_12_6) AppleWebKit/537.36 (KHTML, like Gecko) Chrome/66.0.3359.139 Safari/537.36"
47.91.224.44 - - [02/Nov/2018:14:59:12 +0000] "GET /index_files/logo_volzin.png HTTP/1.1" 404 2251 "http://www.radicalbit.com/" "Mozilla/5.0 (Macintosh; Intel Mac OS X 10_12_6) AppleWebKit/537.36 (KHTML, like Gecko) Chrome/66.0.3359.139 Safari/537.36"
47.91.224.44 - - [02/Nov/2018:14:59:12 +0000] "GET /index_files/llms.min.js.download HTTP/1.1" 404 2266 "http://www.radicalbit.com/" "Mozilla/5.0 (Macintosh; Intel Mac OS X 10_12_6) AppleWebKit/537.36 (KHTML, like Gecko) Chrome/66.0.3359.139 Safari/537.36"
47.91.224.44 - - [02/Nov/2018:14:59:12 +0000] "GET /index_files/Beter-logo.png HTTP/1.1" 404 2248 "http://www.radicalbit.com/" "Mozilla/5.0 (Macintosh; Intel Mac OS X 10_12_6) AppleWebKit/537.36 (KHTML, like Gecko) Chrome/66.0.3359.139 Safari/537.36"
47.91.224.44 - - [02/Nov/2018:14:59:12 +0000] "GET /index_files/team2-1.jpg HTTP/1.1" 404 2239 "http://www.radicalbit.com/" "Mozilla/5.0 (Macintosh; Intel Mac OS X 10_12_6) AppleWebKit/537.36 (KHTML, like Gecko) Chrome/66.0.3359.139 Safari/537.36"
47.91.224.44 - - [02/Nov/2018:14:59:12 +0000] "GET /index_files/sands.jpg HTTP/1.1" 404 2233 "http://www.radicalbit.com/" "Mozilla/5.0 (Macintosh; Intel Mac OS X 10_12_6) AppleWebKit/537.36 (KHTML, like Gecko) Chrome/66.0.3359.139 Safari/537.36"
47.91.224.44 - - [02/Nov/2018:14:59:12 +0000] "GET /index_files/Ninja_esra.png HTTP/1.1" 404 2248 "http://www.radicalbit.com/" "Mozilla/5.0 (Macintosh; Intel Mac OS X 10_12_6) AppleWebKit/537.36 (KHTML, like Gecko) Chrome/66.0.3359.139 Safari/537.36"
47.91.224.44 - - [02/Nov/2018:14:59:12 +0000] "GET /index_files/Ninja_jose.png HTTP/1.1" 404 2248 "http://www.radicalbit.com/" "Mozilla/5.0 (Macintosh; Intel Mac OS X 10_12_6) AppleWebKit/537.36 (KHTML, like Gecko) Chrome/66.0.3359.139 Safari/537.36"
47.91.224.44 - - [02/Nov/2018:14:59:12 +0000] "GET /index_files/Ninja_manuel.png HTTP/1.1" 404 2254 "http://www.radicalbit.com/" "Mozilla/5.0 (Macintosh; Intel Mac OS X 10_12_6) AppleWebKit/537.36 (KHTML, like Gecko) Chrome/66.0.3359.139 Safari/537.36"
47.91.224.44 - - [02/Nov/2018:14:59:13 +0000] "GET /index_files/scripts.js.download HTTP/1.1" 404 2263 "http://www.radicalbit.com/" "Mozilla/5.0 (Macintosh; Intel Mac OS X 10_12_6) AppleWebKit/537.36 (KHTML, like Gecko) Chrome/66.0.3359.139 Safari/537.36"
47.91.224.44 - - [02/Nov/2018:14:59:13 +0000] "GET /index_files/Ninja_elwyn.png HTTP/1.1" 404 2251 "http://www.radicalbit.com/" "Mozilla/5.0 (Macintosh; Intel Mac OS X 10_12_6) AppleWebKit/537.36 (KHTML, like Gecko) Chrome/66.0.3359.139 Safari/537.36"
47.91.224.44 - - [02/Nov/2018:14:59:13 +0000] "GET /index_files/logo_JAMIENEE.png HTTP/1.1" 404 2257 "http://www.radicalbit.com/" "Mozilla/5.0 (Macintosh; Intel Mac OS X 10_12_6) AppleWebKit/537.36 (KHTML, like Gecko) Chrome/66.0.3359.139 Safari/537.36"
47.91.224.44 - - [02/Nov/2018:14:59:13 +0000] "GET /index_files/position.min.js.download HTTP/1.1" 404 2278 "http://www.radicalbit.com/" "Mozilla/5.0 (Macintosh; Intel Mac OS X 10_12_6) AppleWebKit/537.36 (KHTML, like Gecko) Chrome/66.0.3359.139 Safari/537.36"
47.91.224.44 - - [02/Nov/2018:14:59:13 +0000] "GET /index_files/tooltip.min.js.download HTTP/1.1" 404 2275 "http://www.radicalbit.com/" "Mozilla/5.0 (Macintosh; Intel Mac OS X 10_12_6) AppleWebKit/537.36 (KHTML, like Gecko) Chrome/66.0.3359.139 Safari/537.36"
47.91.224.44 - - [02/Nov/2018:14:59:13 +0000] "GET /index_files/slider.min.js.download HTTP/1.1" 404 2272 "http://www.radicalbit.com/" "Mozilla/5.0 (Macintosh; Intel Mac OS X 10_12_6) AppleWebKit/537.36 (KHTML, like Gecko) Chrome/66.0.3359.139 Safari/537.36"
47.91.224.44 - - [02/Nov/2018:14:59:14 +0000] "GET /index_files/jquery.webui-popover.min.js.download HTTP/1.1" 404 2314 "http://www.radicalbit.com/" "Mozilla/5.0 (Macintosh; Intel Mac OS X 10_12_6) AppleWebKit/537.36 (KHTML, like Gecko) Chrome/66.0.3359.139 Safari/537.36"
47.91.224.44 - - [02/Nov/2018:14:59:14 +0000] "GET /index_files/llms-ajax.min.js.download HTTP/1.1" 404 2281 "http://www.radicalbit.com/" "Mozilla/5.0 (Macintosh; Intel Mac OS X 10_12_6) AppleWebKit/537.36 (KHTML, like Gecko) Chrome/66.0.3359.139 Safari/537.36"
47.91.224.44 - - [02/Nov/2018:14:59:14 +0000] "GET /index_files/llms-form-checkout.min.js.download HTTP/1.1" 404 2308 "http://www.radicalbit.com/" "Mozilla/5.0 (Macintosh; Intel Mac OS X 10_12_6) AppleWebKit/537.36 (KHTML, like Gecko) Chrome/66.0.3359.139 Safari/537.36"
47.91.224.44 - - [02/Nov/2018:14:59:15 +0000] "GET /index_files/menu.min.js.download HTTP/1.1" 404 2266 "http://www.radicalbit.com/" "Mozilla/5.0 (Macintosh; Intel Mac OS X 10_12_6) AppleWebKit/537.36 (KHTML, like Gecko) Chrome/66.0.3359.139 Safari/537.36"
47.91.224.44 - - [02/Nov/2018:14:59:15 +0000] "GET /index_files/wp-a11y.min.js.download HTTP/1.1" 404 2275 "http://www.radicalbit.com/" "Mozilla/5.0 (Macintosh; Intel Mac OS X 10_12_6) AppleWebKit/537.36 (KHTML, like Gecko) Chrome/66.0.3359.139 Safari/537.36"
47.91.224.44 - - [02/Nov/2018:14:59:15 +0000] "GET /index_files/autocomplete.min.js.download HTTP/1.1" 404 2290 "http://www.radicalbit.com/" "Mozilla/5.0 (Macintosh; Intel Mac OS X 10_12_6) AppleWebKit/537.36 (KHTML, like Gecko) Chrome/66.0.3359.139 Safari/537.36"
47.91.224.44 - - [02/Nov/2018:14:59:16 +0000] "GET /index_files/suggest.min.js.download HTTP/1.1" 404 2275 "http://www.radicalbit.com/" "Mozilla/5.0 (Macintosh; Intel Mac OS X 10_12_6) AppleWebKit/537.36 (KHTML, like Gecko) Chrome/66.0.3359.139 Safari/537.36"
47.91.224.44 - - [02/Nov/2018:14:59:16 +0000] "GET /index_files/subscriptions.js.download HTTP/1.1" 404 2281 "http://www.radicalbit.com/" "Mozilla/5.0 (Macintosh; Intel Mac OS X 10_12_6) AppleWebKit/537.36 (KHTML, like Gecko) Chrome/66.0.3359.139 Safari/537.36"
47.91.224.44 - - [02/Nov/2018:14:59:16 +0000] "GET /index_files/idle-timer.min.js.download HTTP/1.1" 404 2284 "http://www.radicalbit.com/" "Mozilla/5.0 (Macintosh; Intel Mac OS X 10_12_6) AppleWebKit/537.36 (KHTML, like Gecko) Chrome/66.0.3359.139 Safari/537.36"
47.91.224.44 - - [02/Nov/2018:14:59:17 +0000] "GET /index_files/custom.js.download HTTP/1.1" 404 2260 "http://www.radicalbit.com/" "Mozilla/5.0 (Macintosh; Intel Mac OS X 10_12_6) AppleWebKit/537.36 (KHTML, like Gecko) Chrome/66.0.3359.139 Safari/537.36"
47.91.224.44 - - [02/Nov/2018:14:59:17 +0000] "GET /index_files/conditional-logic.js.download HTTP/1.1" 404 2293 "http://www.radicalbit.com/" "Mozilla/5.0 (Macintosh; Intel Mac OS X 10_12_6) AppleWebKit/537.36 (KHTML, like Gecko) Chrome/66.0.3359.139 Safari/537.36"
47.91.224.44 - - [02/Nov/2018:14:59:17 +0000] "GET /index_files/masonry.min.js.download HTTP/1.1" 404 2275 "http://www.radicalbit.com/" "Mozilla/5.0 (Macintosh; Intel Mac OS X 10_12_6) AppleWebKit/537.36 (KHTML, like Gecko) Chrome/66.0.3359.139 Safari/537.36"
47.91.224.44 - - [02/Nov/2018:14:59:17 +0000] "GET /index_files/scripts.min.js.download HTTP/1.1" 404 2275 "http://www.radicalbit.com/" "Mozilla/5.0 (Macintosh; Intel Mac OS X 10_12_6) AppleWebKit/537.36 (KHTML, like Gecko) Chrome/66.0.3359.139 Safari/537.36"
47.91.224.44 - - [02/Nov/2018:14:59:18 +0000] "GET /index_files/common.js.download HTTP/1.1" 404 2260 "http://www.radicalbit.com/" "Mozilla/5.0 (Macintosh; Intel Mac OS X 10_12_6) AppleWebKit/537.36 (KHTML, like Gecko) Chrome/66.0.3359.139 Safari/537.36"
47.91.224.44 - - [02/Nov/2018:14:59:18 +0000] "GET /index_files/wp-embed.min.js.download HTTP/1.1" 404 2278 "http://www.radicalbit.com/" "Mozilla/5.0 (Macintosh; Intel Mac OS X 10_12_6) AppleWebKit/537.36 (KHTML, like Gecko) Chrome/66.0.3359.139 Safari/537.36"
47.91.224.44 - - [02/Nov/2018:14:59:18 +0000] "GET /index_files/mediaelement-and-player.min.js.download HTTP/1.1" 404 2323 "http://www.radicalbit.com/" "Mozilla/5.0 (Macintosh; Intel Mac OS X 10_12_6) AppleWebKit/537.36 (KHTML, like Gecko) Chrome/66.0.3359.139 Safari/537.36"
47.91.224.44 - - [02/Nov/2018:14:59:19 +0000] "GET /index_files/mediaelement-migrate.min.js.download HTTP/1.1" 404 2314 "http://www.radicalbit.com/" "Mozilla/5.0 (Macintosh; Intel Mac OS X 10_12_6) AppleWebKit/537.36 (KHTML, like Gecko) Chrome/66.0.3359.139 Safari/537.36"
47.91.224.44 - - [02/Nov/2018:14:59:19 +0000] "GET /index_files/wp-mediaelement.min.js.download HTTP/1.1" 404 2299 "http://www.radicalbit.com/" "Mozilla/5.0 (Macintosh; Intel Mac OS X 10_12_6) AppleWebKit/537.36 (KHTML, like Gecko) Chrome/66.0.3359.139 Safari/537.36"
37.9.113.40 - - [02/Nov/2018:15:37:43 +0000] "GET /LinUO/het-whiteboard-slim-gebruiken-met-dit-een-tweetje/ HTTP/1.1" 404 2334 "-" "Mozilla/5.0 (compatible; YandexBot/3.0; +http://yandex.com/bots)"
97.74.228.245 - - [02/Nov/2018:15:46:34 +0000] "POST /xmlrpc.php HTTP/1.1" 404 2197 "-" "Mozilla/5.0 (Macintosh; U; Intel Mac OS X 10.6; fr; rv:1.9.2.8) Gecko/20100722 Firefox/3.6.8"
31.192.109.200 - - [02/Nov/2018:15:58:46 +0000] "GET /xmlrpc.php HTTP/1.1" 404 2196 "-" "Mozilla/5.0 (compatible; Googlebot/2.1; +http://www.google.com/bot.html)"
171.25.193.20 - - [02/Nov/2018:16:33:25 +0000] "GET / HTTP/1.1" 200 114689 "-" "Mozilla/5.0 (Macintosh; Intel Mac OS X 10_12_5) AppleWebKit/603.2.4 (KHTML, like Gecko) Version/10.1.1 Safari/603.2.4"
85.114.142.205 - - [02/Nov/2018:17:42:14 +0000] "GET / HTTP/1.1" 200 114689 "-" "Mozilla/5.0 (Windows NT 10.0; Win64; x64) AppleWebKit/537.36 (KHTML, like Gecko) Chrome/66.0.3359.117 Safari/537.36"
37.233.102.65 - - [02/Nov/2018:17:47:07 +0000] "GET / HTTP/1.1" 200 114689 "-" "Mozilla/5.0 (Windows NT 6.3; WOW64) AppleWebKit/537.36 (KHTML, like Gecko) Chrome/51.0.2704.106 Safari/537.36"
97.74.228.245 - - [02/Nov/2018:18:01:24 +0000] "POST /xmlrpc.php HTTP/1.1" 404 2197 "-" "Mozilla/5.0 (Macintosh; U; Intel Mac OS X 10.6; fr; rv:1.9.2.8) Gecko/20100722 Firefox/3.6.8"
185.125.33.114 - - [02/Nov/2018:18:07:21 +0000] "GET / HTTP/1.1" 200 114689 "-" "Mozilla/5.0 (Macintosh; Intel Mac OS X 10_11_3) AppleWebKit/601.4.4 (KHTML, like Gecko) Version/9.0.3 Safari/601.4.4"
199.249.230.67 - - [02/Nov/2018:20:01:10 +0000] "GET / HTTP/1.1" 200 114689 "-" "Mozilla/5.0 (Windows NT 10.0; WOW64; Trident/7.0; Touch; rv:11.0) like Gecko"
97.74.228.245 - - [02/Nov/2018:20:14:05 +0000] "POST /xmlrpc.php HTTP/1.1" 404 2197 "-" "Mozilla/5.0 (Macintosh; U; Intel Mac OS X 10.6; fr; rv:1.9.2.8) Gecko/20100722 Firefox/3.6.8"
46.165.254.166 - - [02/Nov/2018:20:26:51 +0000] "GET / HTTP/1.1" 200 114689 "-" "Mozilla/5.0 (Windows NT 6.1; WOW64) AppleWebKit/537.36 (KHTML, like Gecko) Chrome/55.0.2883.87 Safari/537.36 OPR/42.0.2393.94"
2001:41d0:8:d1e0:: - - [02/Nov/2018:20:33:45 +0000] "GET /login.php?login=cmd HTTP/1.1" 404 2203 "radicalbit.com" "Mozilla/5.1 (Windows NT 6.0; WOW64) AppleWebKit/537.37 (KHTML, like Gecko) Chrome/58.0.1145.75 Safari/537.37"
162.247.74.7 - - [02/Nov/2018:20:38:08 +0000] "GET / HTTP/1.1" 200 114689 "-" "Mozilla/5.0 (Windows NT 6.1; WOW64) AppleWebKit/537.36 (KHTML, like Gecko) Chrome/43.0.2357.65 Safari/537.36"
45.40.143.13 - - [02/Nov/2018:20:42:27 +0000] "GET /wp-content/wp-object-cache.php?ver=123 HTTP/1.1" 404 2264 "radicalbit.com" "en.support.wordpress.com"
54.36.150.80 - - [02/Nov/2018:21:02:44 +0000] "GET /robots.txt HTTP/1.1" 404 2196 "-" "Mozilla/5.0 (compatible; AhrefsBot/5.2; +http://ahrefs.com/robot/)"
54.36.149.65 - - [02/Nov/2018:21:02:44 +0000] "GET /ipad-pro-pen-en-papier-eindelijk-echt-digitaal/ HTTP/1.1" 404 2307 "-" "Mozilla/5.0 (compatible; AhrefsBot/5.2; +http://ahrefs.com/robot/)"
198.98.58.135 - - [02/Nov/2018:21:14:32 +0000] "GET / HTTP/1.1" 200 114689 "-" "Mozilla/5.0 (Windows NT 6.2; WOW64; Trident/7.0; rv:11.0) like Gecko"
167.99.212.214 - - [02/Nov/2018:21:24:49 +0000] "GET / HTTP/1.1" 200 114689 "-" "Mozilla/4.0 (compatible; MSIE 7.0; Windows NT 6.1; WOW64; Trident/6.0;)"
91.134.147.249 - - [02/Nov/2018:21:26:35 +0000] "GET / HTTP/1.1" 200 114689 "-" "Mozilla/5.0 (Windows NT 6.1; WOW64; rv:54.0) Gecko/20100101 Firefox/54.0"
110.83.60.116 - - [02/Nov/2018:22:12:37 +0000] "HEAD /wp-content/themes/twentyseventeen/comments.php HTTP/1.1" 404 0 "-" "-"
207.244.70.35 - - [02/Nov/2018:22:13:25 +0000] "GET / HTTP/1.1" 200 114689 "-" "Mozilla/5.0 (Windows NT 10.0; Win64; x64) AppleWebKit/537.36 (KHTML, like Gecko) Chrome/51.0.2704.79 Safari/537.36 Edge/14.14393"
97.74.228.245 - - [02/Nov/2018:22:23:34 +0000] "POST /xmlrpc.php HTTP/1.1" 404 2197 "-" "Mozilla/5.0 (Macintosh; U; Intel Mac OS X 10.6; fr; rv:1.9.2.8) Gecko/20100722 Firefox/3.6.8"
192.42.116.22 - - [02/Nov/2018:22:27:00 +0000] "GET / HTTP/1.1" 200 114689 "-" "Mozilla/5.0 (Windows NT 10.0; WOW64; Trident/7.0; rv:11.0) like Gecko"
62.210.37.82 - - [02/Nov/2018:22:56:28 +0000] "GET / HTTP/1.1" 200 114689 "-" "Mozilla/5.0 (Windows NT 10.0; Win64; x64) AppleWebKit/537.36 (KHTML, like Gecko) Chrome/51.0.2704.79 Safari/537.36 Edge/14.14393"
89.248.169.130 - - [02/Nov/2018:23:12:22 +0000] "POST /xmlrpc.php HTTP/1.1" 404 2197 "-" "Mozilla/5.0 (Macintosh; U; Intel Mac OS X 10.6; fr; rv:1.9.2.8) Gecko/20100722 Firefox/3.6.8"
89.248.169.130 - - [02/Nov/2018:23:12:22 +0000] "POST /xmlrpc.php HTTP/1.1" 404 2197 "-" "Mozilla/5.0 (Macintosh; U; Intel Mac OS X 10.6; fr; rv:1.9.2.8) Gecko/20100722 Firefox/3.6.8"
89.248.169.130 - - [02/Nov/2018:23:12:23 +0000] "POST /xmlrpc.php HTTP/1.1" 404 2197 "-" "Mozilla/5.0 (Macintosh; U; Intel Mac OS X 10.6; fr; rv:1.9.2.8) Gecko/20100722 Firefox/3.6.8"
89.248.169.130 - - [02/Nov/2018:23:12:24 +0000] "POST /xmlrpc.php HTTP/1.1" 404 2197 "-" "Mozilla/5.0 (Macintosh; U; Intel Mac OS X 10.6; fr; rv:1.9.2.8) Gecko/20100722 Firefox/3.6.8"
185.220.101.25 - - [02/Nov/2018:23:24:42 +0000] "GET / HTTP/1.1" 200 114689 "-" "Mozilla/5.0 (Macintosh; Intel Mac OS X 10_10_5) AppleWebKit/603.3.8 (KHTML, like Gecko) Version/10.1.2 Safari/603.3.8"
185.85.239.195 - - [02/Nov/2018:23:49:17 +0000] "GET /wp-login.php HTTP/1.1" 404 2202 "-" "Mozilla/5.0 (Windows NT 10.0; WOW64) AppleWebKit/537.36 (KHTML, like Gecko) Chrome/51.0.2704.103 Safari/537.36"
27.123.255.243 - - [03/Nov/2018:00:04:36 +0000] "GET /robots.txt HTTP/1.1" 404 2196 "-" "Mozilla/5.0 (Windows NT 10.0; Win64; x64; rv:50.0) Gecko/20100101 Firefox/50.0"
27.123.255.243 - - [03/Nov/2018:00:04:38 +0000] "GET /xmlrpc.php?rsd HTTP/1.1" 404 2200 "-" "Mozilla/5.0 (Windows NT 10.0; Win64; x64; rv:50.0) Gecko/20100101 Firefox/50.0"
27.123.255.243 - - [03/Nov/2018:00:04:43 +0000] "GET / HTTP/1.1" 200 114689 "-" "Mozilla/5.0 (Windows NT 10.0; Win64; x64; rv:50.0) Gecko/20100101 Firefox/50.0"
27.123.255.243 - - [03/Nov/2018:00:04:52 +0000] "GET /?author=1 HTTP/1.1" 200 114689 "-" "Mozilla/5.0 (Windows NT 10.0; Win64; x64; rv:50.0) Gecko/20100101 Firefox/50.0"
27.123.255.243 - - [03/Nov/2018:00:05:03 +0000] "GET /wp-json/wp/v2/users/ HTTP/1.1" 404 2226 "-" "Mozilla/5.0 (Windows NT 10.0; Win64; x64; rv:50.0) Gecko/20100101 Firefox/50.0"
27.123.255.243 - - [03/Nov/2018:00:05:06 +0000] "POST /xmlrpc.php HTTP/1.1" 404 2197 "-" "Mozilla/5.0 (Windows NT 10.0; Win64; x64; rv:50.0) Gecko/20100101 Firefox/50.0"
97.74.228.245 - - [03/Nov/2018:00:32:01 +0000] "POST /xmlrpc.php HTTP/1.1" 404 2197 "-" "Mozilla/5.0 (Macintosh; U; Intel Mac OS X 10.6; fr; rv:1.9.2.8) Gecko/20100722 Firefox/3.6.8"
5.150.254.67 - - [03/Nov/2018:00:32:32 +0000] "GET / HTTP/1.1" 200 114689 "-" "Mozilla/5.0 (Windows NT 6.1; WOW64) AppleWebKit/537.21 (KHTML, like Gecko) Mwendo/1.1.5 Safari/537.21"
148.251.75.46 - - [03/Nov/2018:01:38:12 +0000] "GET /herman/ HTTP/1.1" 404 2187 "-" "Mozilla/5.0 (Windows NT 6.1; Win64; x64; rv:52.0) Gecko/20100101 Firefox/52.0"
51.15.205.214 - - [03/Nov/2018:01:54:22 +0000] "GET / HTTP/1.1" 200 114689 "-" "Mozilla/5.0 (Windows NT 6.2; Win64; x64) AppleWebKit/537.36 (KHTML, like Gecko) Chrome/46.0.2486.0 Safari/537.36 Edge/13.10586"
176.119.28.57 - - [03/Nov/2018:02:24:35 +0000] "GET / HTTP/1.1" 200 114689 "-" "Mozilla/5.0 (Windows NT 10.0; Win64; x64; rv:57.0) Gecko/20100101 Firefox/57.0"
97.74.228.245 - - [03/Nov/2018:02:43:41 +0000] "POST /xmlrpc.php HTTP/1.1" 404 2197 "-" "Mozilla/5.0 (Macintosh; U; Intel Mac OS X 10.6; fr; rv:1.9.2.8) Gecko/20100722 Firefox/3.6.8"
185.85.239.195 - - [03/Nov/2018:02:59:10 +0000] "GET /wp-login.php HTTP/1.1" 404 2202 "-" "Mozilla/5.0 (Windows NT 10.0; WOW64) AppleWebKit/537.36 (KHTML, like Gecko) Chrome/51.0.2704.103 Safari/537.36"
