31.170.123.73 - - [04/Nov/2018:05:39:49 +0000] "POST /wp-cron.php?doing_wp_cron=1541309988.4245679378509521484375 HTTP/1.1" 499 0 "http://royalgeekness.com/wp-cron.php?doing_wp_cron=1541309988.4245679378509521484375" "WordPress/4.9.8; http://royalgeekness.com"
66.249.66.28 - - [04/Nov/2018:05:39:49 +0000] "GET /robots.txt HTTP/1.1" 200 2089 "-" "Mozilla/5.0 (compatible; Googlebot/2.1; +http://www.google.com/bot.html)"
66.249.66.28 - - [04/Nov/2018:05:40:25 +0000] "GET / HTTP/1.1" 200 2187 "-" "Mozilla/5.0 (Linux; Android 6.0.1; Nexus 5X Build/MMB29P) AppleWebKit/537.36 (KHTML, like Gecko) Chrome/41.0.2272.96 Mobile Safari/537.36 (compatible; Googlebot/2.1; +http://www.google.com/bot.html)"
31.170.123.73 - - [04/Nov/2018:06:42:57 +0000] "POST /wp-cron.php?doing_wp_cron=1541313777.3163089752197265625000 HTTP/1.1" 200 40 "http://royalgeekness.com/wp-cron.php?doing_wp_cron=1541313777.3163089752197265625000" "WordPress/4.9.8; http://royalgeekness.com"
180.76.15.6 - - [04/Nov/2018:06:42:57 +0000] "GET / HTTP/1.1" 301 5 "-" "Mozilla/5.0 (compatible; Baiduspider/2.0; +http://www.baidu.com/search/spider.html)"
180.76.15.10 - - [04/Nov/2018:06:42:58 +0000] "GET / HTTP/1.1" 200 2022 "-" "Mozilla/5.0 (compatible; Baiduspider/2.0; +http://www.baidu.com/search/spider.html)"
180.76.15.10 - - [04/Nov/2018:06:43:00 +0000] "GET /robots.txt HTTP/1.1" 200 2017 "-" "Mozilla/5.0 (Windows NT 5.1; rv:6.0.2) Gecko/20100101 Firefox/6.0.2"
31.170.123.73 - - [04/Nov/2018:07:15:38 +0000] "POST /wp-cron.php?doing_wp_cron=1541315738.1396350860595703125000 HTTP/1.1" 200 40 "http://royalgeekness.com/wp-cron.php?doing_wp_cron=1541315738.1396350860595703125000" "WordPress/4.9.8; http://royalgeekness.com"
85.233.160.31 - - [04/Nov/2018:07:15:38 +0000] "GET /xmlrpz.php HTTP/1.1" 404 5133 "http://site.ru" "Mozilla/5.0 (Windows; U; Windows NT 5.1; en-US) AppleWebKit/533.4 (KHTML, like Gecko) Chrome/5.0.375.99 Safari/533.4"
85.233.160.31 - - [04/Nov/2018:07:16:06 +0000] "GET /xmlrpz.php HTTP/1.1" 404 5108 "http://site.ru" "Mozilla/5.0 (Windows; U; Windows NT 5.1; en-US) AppleWebKit/533.4 (KHTML, like Gecko) Chrome/5.0.375.99 Safari/533.4"
31.170.123.73 - - [04/Nov/2018:07:44:00 +0000] "POST /wp-cron.php?doing_wp_cron=1541317439.1968760490417480468750 HTTP/1.1" 200 40 "http://royalgeekness.com/wp-cron.php?doing_wp_cron=1541317439.1968760490417480468750" "WordPress/4.9.8; http://royalgeekness.com"
81.2.235.221 - - [04/Nov/2018:07:44:00 +0000] "GET /sec.php HTTP/1.1" 404 5126 "http://site.ru" "Mozilla/5.0 (Windows; U; Windows NT 5.1; en-US) AppleWebKit/533.4 (KHTML, like Gecko) Chrome/5.0.375.99 Safari/533.4"
31.170.123.73 - - [04/Nov/2018:07:59:53 +0000] "POST /wp-cron.php?doing_wp_cron=1541318392.7325150966644287109375 HTTP/1.1" 200 40 "http://royalgeekness.com/wp-cron.php?doing_wp_cron=1541318392.7325150966644287109375" "WordPress/4.9.8; http://royalgeekness.com"
193.201.224.210 - - [04/Nov/2018:07:59:53 +0000] "GET /wp-content/plugins/reflex-gallery/admin/scripts/FileUploader/php.php HTTP/1.1" 404 2092 "http://royalgeekness.com/wp-content/plugins/reflex-gallery/admin/scripts/FileUploader/php.php" "Mozilla/5.0 (Windows NT 6.1; WOW64) AppleWebKit/537.36 (KHTML, like Gecko) Chrome/42.0.2311.152 Safari/537.36"
31.170.123.73 - - [04/Nov/2018:14:56:05 +0000] "POST /wp-cron.php?doing_wp_cron=1541343364.4308240413665771484375 HTTP/1.1" 200 40 "http://royalgeekness.com/wp-cron.php?doing_wp_cron=1541343364.4308240413665771484375" "WordPress/4.9.8; http://royalgeekness.com"
216.218.222.12 - - [04/Nov/2018:14:56:05 +0000] "GET / HTTP/1.1" 200 2074 "http://burger-imperia.com/" "Mozilla/5.0 (X11; Linux x86_64) AppleWebKit/537.36 (KHTML, like Gecko) Chrome/37.0.2062.120 Safari/537.36"
31.170.123.73 - - [04/Nov/2018:17:22:12 +0000] "POST /wp-cron.php?doing_wp_cron=1541352131.1717228889465332031250 HTTP/1.1" 499 0 "http://royalgeekness.com/wp-cron.php?doing_wp_cron=1541352131.1717228889465332031250" "WordPress/4.9.8; http://royalgeekness.com"
180.76.15.137 - - [04/Nov/2018:17:22:12 +0000] "GET / HTTP/1.1" 200 2028 "-" "Mozilla/5.0 (compatible; Baiduspider/2.0; +http://www.baidu.com/search/spider.html)"
31.170.123.73 - - [04/Nov/2018:19:43:47 +0000] "POST /wp-cron.php?doing_wp_cron=1541360626.7251710891723632812500 HTTP/1.1" 499 0 "http://royalgeekness.com/wp-cron.php?doing_wp_cron=1541360626.7251710891723632812500" "WordPress/4.9.8; http://royalgeekness.com"
137.117.152.181 - - [04/Nov/2018:19:43:48 +0000] "GET /kickstart.php HTTP/1.1" 404 5150 "-" "Mozilla/5.0 (Windows NT 6.1) AppleWebKit/537.36 (KHTML, like Gecko) Chrome/67.0.3396.87 Safari/537.36 OPR/54.0.2952.51"
31.170.123.73 - - [04/Nov/2018:20:34:36 +0000] "POST /wp-cron.php?doing_wp_cron=1541363676.2495539188385009765625 HTTP/1.1" 200 40 "http://royalgeekness.com/wp-cron.php?doing_wp_cron=1541363676.2495539188385009765625" "WordPress/4.9.8; http://royalgeekness.com"
69.12.66.241 - - [04/Nov/2018:20:34:36 +0000] "GET /wp-content/plugins/vcrm/x.php?xi HTTP/1.1" 404 2161 "http://royalgeekness.com/wp-content/plugins/vcrm/x.php?xi" "Mozilla/5.0 (Windows NT 6.1; WOW64) AppleWebKit/537.36 (KHTML, like Gecko) Chrome/42.0.2311.152 Safari/537.36"
104.238.96.238 - - [04/Nov/2018:20:35:52 +0000] "GET /wp-content/plugins/html404/wso25.php HTTP/1.1" 404 5150 "http://site.ru" "Mozilla/5.0 (Windows; U; Windows NT 5.1; en-US) AppleWebKit/533.4 (KHTML, like Gecko) Chrome/5.0.375.99 Safari/533.4"
31.170.123.73 - - [04/Nov/2018:23:38:43 +0000] "POST /wp-cron.php?doing_wp_cron=1541374722.0291550159454345703125 HTTP/1.1" 499 0 "http://royalgeekness.com/wp-cron.php?doing_wp_cron=1541374722.0291550159454345703125" "WordPress/4.9.8; http://royalgeekness.com"
66.249.75.27 - - [04/Nov/2018:23:38:43 +0000] "GET / HTTP/1.1" 200 2181 "-" "Mozilla/5.0 (Linux; Android 6.0.1; Nexus 5X Build/MMB29P) AppleWebKit/537.36 (KHTML, like Gecko) Chrome/41.0.2272.96 Mobile Safari/537.36 (compatible; Googlebot/2.1; +http://www.google.com/bot.html)"
31.170.123.73 - - [05/Nov/2018:00:10:00 +0000] "POST /wp-cron.php?doing_wp_cron=1541376599.7844629287719726562500 HTTP/1.1" 200 40 "http://royalgeekness.com/wp-cron.php?doing_wp_cron=1541376599.7844629287719726562500" "WordPress/4.9.8; http://royalgeekness.com"
180.76.15.16 - - [05/Nov/2018:00:10:00 +0000] "GET / HTTP/1.1" 301 5 "-" "Mozilla/5.0 (compatible; Baiduspider/2.0; +http://www.baidu.com/search/spider.html)"
180.76.15.150 - - [05/Nov/2018:00:10:01 +0000] "GET / HTTP/1.1" 200 1908 "-" "Mozilla/5.0 (compatible; Baiduspider/2.0; +http://www.baidu.com/search/spider.html)"
31.170.123.73 - - [05/Nov/2018:02:16:17 +0000] "POST /wp-cron.php?doing_wp_cron=1541384176.7893109321594238281250 HTTP/1.1" 499 0 "http://royalgeekness.com/wp-cron.php?doing_wp_cron=1541384176.7893109321594238281250" "WordPress/4.9.8; http://royalgeekness.com"
157.55.39.11 - - [05/Nov/2018:02:16:17 +0000] "GET /robots.txt HTTP/1.1" 200 2143 "-" "Mozilla/5.0 (compatible; bingbot/2.0; +http://www.bing.com/bingbot.htm)"
207.46.13.58 - - [05/Nov/2018:02:16:20 +0000] "GET / HTTP/1.1" 200 2029 "-" "Mozilla/5.0 (compatible; bingbot/2.0; +http://www.bing.com/bingbot.htm)"
