31.170.123.73 - - [03/Nov/2018:04:24:13 +0000] "POST /wp-cron.php?doing_wp_cron=1541219052.8549859523773193359375 HTTP/1.1" 200 40 "http://royalgeekness.com/wp-cron.php?doing_wp_cron=1541219052.8549859523773193359375" "WordPress/4.9.8; http://royalgeekness.com"
193.201.224.210 - - [03/Nov/2018:04:24:13 +0000] "GET /wp-content/plugins/reflex-gallery/admin/scripts/FileUploader/php.php HTTP/1.1" 404 2060 "http://royalgeekness.com/wp-content/plugins/reflex-gallery/admin/scripts/FileUploader/php.php" "Mozilla/5.0 (Windows NT 6.1; WOW64) AppleWebKit/537.36 (KHTML, like Gecko) Chrome/42.0.2311.152 Safari/537.36"
31.170.123.73 - - [03/Nov/2018:05:57:05 +0000] "POST /wp-cron.php?doing_wp_cron=1541224624.2450699806213378906250 HTTP/1.1" 499 0 "http://royalgeekness.com/wp-cron.php?doing_wp_cron=1541224624.2450699806213378906250" "WordPress/4.9.8; http://royalgeekness.com"
190.2.148.176 - - [03/Nov/2018:05:57:05 +0000] "GET / HTTP/1.1" 200 5139 "-" "Mozilla/5.0 (Windows NT 5.1) AppleWebKit/537.36 (KHTML, like Gecko) Chrome/27.0.1453.94 Safari/537.36"
18.236.136.2 - - [03/Nov/2018:06:06:42 +0000] "GET /wp-login.php HTTP/1.1" 200 1332 "https://www.google.com/url?5d6c8f725d83672c7c6a5d7ecd21bc6a" "Mozilla/5.0 (Windows NT 6.0; rv:31.0) Gecko/20100101 Firefox/31.0"
18.236.136.2 - - [03/Nov/2018:06:06:45 +0000] "POST /wp-login.php HTTP/1.1" 200 1728 "https://www.google.com/url?5d6c8f725d83672c7c6a5d7ecd21bc6a" "Mozilla/5.0 (Windows NT 6.0; rv:31.0) Gecko/20100101 Firefox/31.0"
31.170.123.73 - - [03/Nov/2018:10:18:53 +0000] "POST /wp-cron.php?doing_wp_cron=1541240332.5220661163330078125000 HTTP/1.1" 200 40 "http://royalgeekness.com/wp-cron.php?doing_wp_cron=1541240332.5220661163330078125000" "WordPress/4.9.8; http://royalgeekness.com"
180.76.15.138 - - [03/Nov/2018:10:18:53 +0000] "GET / HTTP/1.1" 200 2168 "-" "Mozilla/5.0 (compatible; Baiduspider/2.0; +http://www.baidu.com/search/spider.html)"
213.251.182.113 - - [03/Nov/2018:11:22:59 +0000] "GET /wp-content/plugins/Aviliate/user.php HTTP/1.1" 404 5144 "http://site.ru" "Mozilla/5.0 (Windows; U; Windows NT 5.1; en-US) AppleWebKit/533.4 (KHTML, like Gecko) Chrome/5.0.375.99 Safari/533.4"
31.170.123.73 - - [03/Nov/2018:11:22:59 +0000] "POST /wp-cron.php?doing_wp_cron=1541244179.0451879501342773437500 HTTP/1.1" 200 40 "http://royalgeekness.com/wp-cron.php?doing_wp_cron=1541244179.0451879501342773437500" "WordPress/4.9.8; http://royalgeekness.com"
213.251.182.113 - - [03/Nov/2018:11:22:59 +0000] "GET /wp-content/plugins/Aviliate/user.php HTTP/1.1" 404 5119 "http://site.ru" "Mozilla/5.0 (Windows; U; Windows NT 5.1; en-US) AppleWebKit/533.4 (KHTML, like Gecko) Chrome/5.0.375.99 Safari/533.4"
213.251.182.113 - - [03/Nov/2018:11:23:27 +0000] "GET /wp-content/plugins/Aviliate/user.php HTTP/1.1" 404 5120 "http://site.ru" "Mozilla/5.0 (Windows; U; Windows NT 5.1; en-US) AppleWebKit/533.4 (KHTML, like Gecko) Chrome/5.0.375.99 Safari/533.4"
31.170.123.73 - - [03/Nov/2018:12:38:03 +0000] "POST /wp-cron.php?doing_wp_cron=1541248682.9858639240264892578125 HTTP/1.1" 200 40 "http://royalgeekness.com/wp-cron.php?doing_wp_cron=1541248682.9858639240264892578125" "WordPress/4.9.8; http://royalgeekness.com"
54.152.206.123 - - [03/Nov/2018:12:38:03 +0000] "GET /wp-login.php HTTP/1.1" 200 1424 "https://www.google.com/url?5d6c8f725d83672c7c6a5d7ecd21bc6a" "Mozilla/5.0 (Windows NT 6.1; rv:29.0) Gecko/20120101 Firefox/29.0"
54.152.206.123 - - [03/Nov/2018:12:38:04 +0000] "POST /wp-login.php HTTP/1.1" 200 1731 "https://www.google.com/url?5d6c8f725d83672c7c6a5d7ecd21bc6a" "Mozilla/5.0 (Windows NT 6.1; rv:29.0) Gecko/20120101 Firefox/29.0"
31.170.123.73 - - [03/Nov/2018:14:52:13 +0000] "POST /wp-cron.php?doing_wp_cron=1541256732.3755249977111816406250 HTTP/1.1" 499 0 "http://royalgeekness.com/wp-cron.php?doing_wp_cron=1541256732.3755249977111816406250" "WordPress/4.9.8; http://royalgeekness.com"
197.51.119.112 - - [03/Nov/2018:14:52:13 +0000] "POST /wp-login.php HTTP/1.1" 200 3277 "-" "Opera/9.80 (Windows NT 6.0) Presto/2.12.388 Version/12.14"
31.170.123.73 - - [03/Nov/2018:15:01:36 +0000] "POST /wp-cron.php?doing_wp_cron=1541257295.6505670547485351562500 HTTP/1.1" 200 40 "http://royalgeekness.com/wp-cron.php?doing_wp_cron=1541257295.6505670547485351562500" "WordPress/4.9.8; http://royalgeekness.com"
197.231.221.211 - - [03/Nov/2018:15:01:36 +0000] "GET / HTTP/1.1" 200 2244 "-" "Mozilla/5.0 (Windows NT 6.3; WOW64; rv:54.0) Gecko/20100101 Firefox/54.0"
197.231.221.211 - - [03/Nov/2018:15:01:38 +0000] "GET / HTTP/1.1" 200 2052 "-" "Mozilla/5.0 (Windows NT 6.3; WOW64; rv:54.0) Gecko/20100101 Firefox/54.0"
197.231.221.211 - - [03/Nov/2018:15:01:40 +0000] "GET / HTTP/1.1" 200 2084 "-" "Mozilla/5.0 (Windows NT 6.3; WOW64; rv:54.0) Gecko/20100101 Firefox/54.0"
197.231.221.211 - - [03/Nov/2018:15:01:42 +0000] "GET /wp-login.php?action=register HTTP/1.1" 302 5 "-" "Mozilla/5.0 (Windows NT 6.3; WOW64; rv:54.0) Gecko/20100101 Firefox/54.0"
197.231.221.211 - - [03/Nov/2018:15:01:43 +0000] "GET /wp-login.php?registration=disabled HTTP/1.1" 200 1376 "-" "Mozilla/5.0 (Windows NT 6.3; WOW64; rv:54.0) Gecko/20100101 Firefox/54.0"
185.220.101.28 - - [03/Nov/2018:15:01:45 +0000] "GET / HTTP/1.1" 200 1992 "-" "Mozilla/5.0 (Windows NT 6.3; WOW64; rv:54.0) Gecko/20100101 Firefox/54.0"
185.220.101.28 - - [03/Nov/2018:15:01:46 +0000] "GET /index.php?option=com_user&task=register HTTP/1.1" 301 5 "-" "Mozilla/5.0 (Windows NT 6.3; WOW64; rv:54.0) Gecko/20100101 Firefox/54.0"
185.220.101.28 - - [03/Nov/2018:15:01:47 +0000] "GET /?option=com_user&task=register HTTP/1.1" 200 1965 "-" "Mozilla/5.0 (Windows NT 6.3; WOW64; rv:54.0) Gecko/20100101 Firefox/54.0"
185.220.101.28 - - [03/Nov/2018:15:01:49 +0000] "GET /user/register HTTP/1.1" 404 2058 "-" "Mozilla/5.0 (Windows NT 6.3; WOW64; rv:54.0) Gecko/20100101 Firefox/54.0"
31.170.123.73 - - [03/Nov/2018:18:11:40 +0000] "POST /wp-cron.php?doing_wp_cron=1541268699.0087609291076660156250 HTTP/1.1" 499 0 "http://royalgeekness.com/wp-cron.php?doing_wp_cron=1541268699.0087609291076660156250" "WordPress/4.9.8; http://royalgeekness.com"
89.111.178.201 - - [03/Nov/2018:18:11:40 +0000] "GET /wp-content/wp-caches.php HTTP/1.1" 404 5174 "http://site.ru" "Mozilla/5.0 (Windows; U; Windows NT 5.1; en-US) AppleWebKit/533.4 (KHTML, like Gecko) Chrome/5.0.375.99 Safari/533.4"
31.170.123.73 - - [03/Nov/2018:20:44:10 +0000] "POST /wp-cron.php?doing_wp_cron=1541277850.3366029262542724609375 HTTP/1.1" 200 40 "http://royalgeekness.com/wp-cron.php?doing_wp_cron=1541277850.3366029262542724609375" "WordPress/4.9.8; http://royalgeekness.com"
69.16.236.56 - - [03/Nov/2018:20:44:10 +0000] "GET /wp-admin/wp-caches.php HTTP/1.1" 404 5154 "http://site.ru" "Mozilla/5.0 (Windows; U; Windows NT 5.1; en-US) AppleWebKit/533.4 (KHTML, like Gecko) Chrome/5.0.375.99 Safari/533.4"
69.16.236.56 - - [03/Nov/2018:20:44:12 +0000] "GET /wp-admin/wp-caches.php HTTP/1.1" 404 5138 "http://site.ru" "Mozilla/5.0 (Windows; U; Windows NT 5.1; en-US) AppleWebKit/533.4 (KHTML, like Gecko) Chrome/5.0.375.99 Safari/533.4"
52.53.201.78 - - [03/Nov/2018:20:44:30 +0000] "GET / HTTP/1.1" 301 5 "-" "Mozilla/5.0 (Macintosh; Intel Mac OS X 10_12_6) AppleWebKit/537.36 (KHTML, like Gecko) Chrome/61.0.3163.100 Safari/537.36"
52.53.201.78 - - [03/Nov/2018:20:44:33 +0000] "GET / HTTP/1.1" 200 2077 "http://www.royalgeekness.com/" "Mozilla/5.0 (Macintosh; Intel Mac OS X 10_12_6) AppleWebKit/537.36 (KHTML, like Gecko) Chrome/61.0.3163.100 Safari/537.36"
31.170.123.73 - - [03/Nov/2018:21:01:59 +0000] "POST /wp-cron.php?doing_wp_cron=1541278919.0471420288085937500000 HTTP/1.1" 200 40 "http://royalgeekness.com/wp-cron.php?doing_wp_cron=1541278919.0471420288085937500000" "WordPress/4.9.8; http://royalgeekness.com"
178.70.113.171 - - [03/Nov/2018:21:01:59 +0000] "POST /wp-login.php HTTP/1.1" 200 3331 "-" "Opera/9.80 (Windows NT 6.0) Presto/2.12.388 Version/12.14"
192.138.189.105 - - [03/Nov/2018:21:22:12 +0000] "GET /wp-content/plugins/wp-zipy/el.php HTTP/1.1" 404 5155 "http://site.ru" "Mozilla/5.0 (Windows; U; Windows NT 5.1; en-US) AppleWebKit/533.4 (KHTML, like Gecko) Chrome/5.0.375.99 Safari/533.4"
192.138.189.105 - - [03/Nov/2018:21:22:17 +0000] "GET /wp-content/plugins/wp-zipy/el.php HTTP/1.1" 404 5108 "http://site.ru" "Mozilla/5.0 (Windows; U; Windows NT 5.1; en-US) AppleWebKit/533.4 (KHTML, like Gecko) Chrome/5.0.375.99 Safari/533.4"
192.138.189.105 - - [03/Nov/2018:21:22:41 +0000] "GET /wp-content/plugins/wp-zipy/el.php HTTP/1.1" 404 5126 "http://site.ru" "Mozilla/5.0 (Windows; U; Windows NT 5.1; en-US) AppleWebKit/533.4 (KHTML, like Gecko) Chrome/5.0.375.99 Safari/533.4"
31.170.123.73 - - [03/Nov/2018:22:49:59 +0000] "POST /wp-cron.php?doing_wp_cron=1541285398.9739611148834228515625 HTTP/1.1" 200 40 "http://royalgeekness.com/wp-cron.php?doing_wp_cron=1541285398.9739611148834228515625" "WordPress/4.9.8; http://royalgeekness.com"
18.219.54.52 - - [03/Nov/2018:22:49:59 +0000] "GET /wp-login.php HTTP/1.1" 200 1436 "https://www.google.com/url?5d6c8f725d83672c7c6a5d7ecd21bc6a" "Mozilla/5.0 (Windows NT 6.0; WOW64; rv:33.0) Gecko/20100101 Firefox/33.0"
18.219.54.52 - - [03/Nov/2018:22:50:07 +0000] "POST /wp-login.php HTTP/1.1" 200 1788 "https://www.google.com/url?5d6c8f725d83672c7c6a5d7ecd21bc6a" "Mozilla/5.0 (Windows NT 6.0; WOW64; rv:33.0) Gecko/20100101 Firefox/33.0"
31.170.123.73 - - [03/Nov/2018:23:29:29 +0000] "POST /wp-cron.php?doing_wp_cron=1541287768.6384561061859130859375 HTTP/1.1" 200 40 "http://royalgeekness.com/wp-cron.php?doing_wp_cron=1541287768.6384561061859130859375" "WordPress/4.9.8; http://royalgeekness.com"
67.209.121.20 - - [03/Nov/2018:23:29:29 +0000] "GET /_.php HTTP/1.1" 404 5137 "http://site.ru" "Mozilla/5.0 (Windows; U; Windows NT 5.1; en-US) AppleWebKit/533.4 (KHTML, like Gecko) Chrome/5.0.375.99 Safari/533.4"
67.209.121.20 - - [03/Nov/2018:23:29:34 +0000] "GET /_.php HTTP/1.1" 404 5144 "http://site.ru" "Mozilla/5.0 (Windows; U; Windows NT 5.1; en-US) AppleWebKit/533.4 (KHTML, like Gecko) Chrome/5.0.375.99 Safari/533.4"
31.170.123.73 - - [04/Nov/2018:00:36:41 +0000] "POST /wp-cron.php?doing_wp_cron=1541291800.9248340129852294921875 HTTP/1.1" 200 40 "http://royalgeekness.com/wp-cron.php?doing_wp_cron=1541291800.9248340129852294921875" "WordPress/4.9.8; http://royalgeekness.com"
2a02:c207:2009:5448::1 - - [04/Nov/2018:00:36:41 +0000] "GET /wp-includes/wp-caches.php HTTP/1.1" 404 5114 "http://site.ru" "Mozilla/5.0 (Windows; U; Windows NT 5.1; en-US) AppleWebKit/533.4 (KHTML, like Gecko) Chrome/5.0.375.99 Safari/533.4"
2a02:c207:2009:5448::1 - - [04/Nov/2018:00:36:46 +0000] "GET /wp-includes/wp-caches.php HTTP/1.1" 404 5127 "http://site.ru" "Mozilla/5.0 (Windows; U; Windows NT 5.1; en-US) AppleWebKit/533.4 (KHTML, like Gecko) Chrome/5.0.375.99 Safari/533.4"
