31.170.123.73 - - [01/Nov/2018:04:33:11 +0000] "POST /wp-cron.php?doing_wp_cron=1541046791.0487968921661376953125 HTTP/1.0" 200 - "http://royalgeekness.com/wp-cron.php?doing_wp_cron=1541046791.0487968921661376953125" "WordPress/4.9.8; http://royalgeekness.com"
66.249.75.29 - - [01/Nov/2018:04:33:10 +0000] "GET /robots.txt HTTP/1.0" 200 5032 "-" "Mozilla/5.0 (compatible; Googlebot/2.1; +http://www.google.com/bot.html)"
66.249.75.28 - - [01/Nov/2018:04:33:34 +0000] "GET / HTTP/1.0" 200 5032 "-" "Mozilla/5.0 (compatible; Googlebot/2.1; +http://www.google.com/bot.html)"
91.90.192.170 - - [01/Nov/2018:05:18:16 +0000] "GET / HTTP/1.0" 200 5032 "-" "Mozilla/5.0 (X11; Ubuntu; Linux x86_64; rv:42.0) Gecko/20100101 Firefox/42.0"
31.170.123.73 - - [01/Nov/2018:05:18:17 +0000] "POST /wp-cron.php?doing_wp_cron=1541049497.0638918876647949218750 HTTP/1.0" 200 - "http://royalgeekness.com/wp-cron.php?doing_wp_cron=1541049497.0638918876647949218750" "WordPress/4.9.8; http://royalgeekness.com"
52.173.241.248 - - [01/Nov/2018:05:32:14 +0000] "GET / HTTP/1.0" 200 5032 "-" "Mozilla/5.0 (Windows NT 10.0; Win64; x64; rv:58.0) Gecko/20100101 Firefox/58.0"
193.201.224.210 - - [01/Nov/2018:05:38:10 +0000] "GET /wp-content/plugins/wp-mailinglist/vendors/uploadify/upload.php HTTP/1.0" 404 5032 "http://royalgeekness.com/wp-content/plugins/wp-mailinglist/vendors/uploadify/upload.php" "Mozilla/5.0 (Windows NT 6.1; WOW64) AppleWebKit/537.36 (KHTML, like Gecko) Chrome/42.0.2311.152 Safari/537.36"
31.170.123.73 - - [01/Nov/2018:05:38:11 +0000] "POST /wp-cron.php?doing_wp_cron=1541050691.2755661010742187500000 HTTP/1.0" 200 - "http://royalgeekness.com/wp-cron.php?doing_wp_cron=1541050691.2755661010742187500000" "WordPress/4.9.8; http://royalgeekness.com"
52.165.148.51 - - [01/Nov/2018:05:38:10 +0000] "GET / HTTP/1.0" 200 5032 "-" "Mozilla/5.0 (Windows NT 10.0; Win64; x64) AppleWebKit/537.36 (KHTML, like Gecko) Chrome/65.0.3325.181 Safari/537.36"
31.170.123.73 - - [01/Nov/2018:06:01:08 +0000] "POST /wp-cron.php?doing_wp_cron=1541052068.5055499076843261718750 HTTP/1.0" 200 - "http://royalgeekness.com/wp-cron.php?doing_wp_cron=1541052068.5055499076843261718750" "WordPress/4.9.8; http://royalgeekness.com"
54.210.165.25 - - [01/Nov/2018:06:01:07 +0000] "GET /wp-login.php HTTP/1.0" 200 2242 "https://www.google.com/url?5d6c8f725d83672c7c6a5d7ecd21bc6a" "Mozilla/5.0 (Windows NT 6.1; rv:28.0) Gecko/20100101 Firefox/28.0"
54.210.165.25 - - [01/Nov/2018:06:01:32 +0000] "POST /wp-login.php HTTP/1.0" 200 3198 "https://www.google.com/url?5d6c8f725d83672c7c6a5d7ecd21bc6a" "Mozilla/5.0 (Windows NT 6.1; rv:28.0) Gecko/20100101 Firefox/28.0"
5.188.210.55 - - [01/Nov/2018:06:23:59 +0000] "GET /administrator/index.php HTTP/1.0" 301 - "http://ROYALGEEKNESS.COM/administrator/index.php" "Mozilla/4.0 (compatible; MSIE 6.0; Windows NT 5.1; SV1)"
5.188.210.55 - - [01/Nov/2018:06:24:08 +0000] "GET /administrator/ HTTP/1.0" 404 5032 "http://royalgeekness.com/administrator/" "Mozilla/4.0 (compatible; MSIE 6.0; Windows NT 5.1; SV1)"
31.170.123.73 - - [01/Nov/2018:07:02:20 +0000] "POST /wp-cron.php?doing_wp_cron=1541055740.4923160076141357421875 HTTP/1.0" 200 - "http://royalgeekness.com/wp-cron.php?doing_wp_cron=1541055740.4923160076141357421875" "WordPress/4.9.8; http://royalgeekness.com"
180.76.15.142 - - [01/Nov/2018:07:02:19 +0000] "GET / HTTP/1.0" 200 5032 "-" "Mozilla/5.0 (compatible; Baiduspider/2.0; +http://www.baidu.com/search/spider.html)"
31.170.123.73 - - [01/Nov/2018:08:13:43 +0000] "POST /wp-cron.php?doing_wp_cron=1541060023.8340570926666259765625 HTTP/1.0" 200 - "http://royalgeekness.com/wp-cron.php?doing_wp_cron=1541060023.8340570926666259765625" "WordPress/4.9.8; http://royalgeekness.com"
66.249.75.29 - - [01/Nov/2018:08:13:43 +0000] "GET /attachment-sitemap.xml HTTP/1.0" 200 4384 "-" "Mozilla/5.0 (compatible; Googlebot/2.1; +http://www.google.com/bot.html)"
139.81.153.245 - - [01/Nov/2018:08:25:09 +0000] "GET / HTTP/1.0" 200 5032 "-" "Mozilla/5.0 (Macintosh; Intel Mac OS X 10_12_5) AppleWebKit/537.36 (KHTML, like Gecko) Chrome/58.0.3029.110 Safari/537.36"
31.170.123.73 - - [01/Nov/2018:10:45:37 +0000] "POST /wp-cron.php?doing_wp_cron=1541069137.6980729103088378906250 HTTP/1.0" 200 - "http://royalgeekness.com/wp-cron.php?doing_wp_cron=1541069137.6980729103088378906250" "WordPress/4.9.8; http://royalgeekness.com"
54.89.238.135 - - [01/Nov/2018:10:45:37 +0000] "GET /wp-login.php HTTP/1.0" 200 2242 "https://www.google.com/url?5d6c8f725d83672c7c6a5d7ecd21bc6a" "Mozilla/5.0 (Windows NT 5.1; rv:29.0) Gecko/20120101 Firefox/29.0"
54.89.238.135 - - [01/Nov/2018:10:45:39 +0000] "POST /wp-login.php HTTP/1.0" 200 3147 "https://www.google.com/url?5d6c8f725d83672c7c6a5d7ecd21bc6a" "Mozilla/5.0 (Windows NT 5.1; rv:29.0) Gecko/20120101 Firefox/29.0"
31.170.123.73 - - [01/Nov/2018:11:25:53 +0000] "POST /wp-cron.php?doing_wp_cron=1541071553.8596880435943603515625 HTTP/1.0" 200 - "http://royalgeekness.com/wp-cron.php?doing_wp_cron=1541071553.8596880435943603515625" "WordPress/4.9.8; http://royalgeekness.com"
91.238.160.173 - - [01/Nov/2018:11:25:53 +0000] "GET /wp-content/themes/pridmag/db.php HTTP/1.0" 404 5032 "royalgeekness.com" "Mozilla/5.0 (Windows NT 6.1; WOW64) AppleWebKit/537.36 (KHTML, like Gecko) Chrome/50.0.2661.75 Safari/537.36"
31.170.123.73 - - [01/Nov/2018:11:38:29 +0000] "POST /wp-cron.php?doing_wp_cron=1541072309.8659849166870117187500 HTTP/1.0" 200 - "http://royalgeekness.com/wp-cron.php?doing_wp_cron=1541072309.8659849166870117187500" "WordPress/4.9.8; http://royalgeekness.com"
66.249.75.27 - - [01/Nov/2018:11:38:29 +0000] "GET /gallery-cat-sitemap.xml HTTP/1.0" 200 980 "-" "Mozilla/5.0 (compatible; Googlebot/2.1; +http://www.google.com/bot.html)"
31.170.123.73 - - [01/Nov/2018:12:21:59 +0000] "POST /wp-cron.php?doing_wp_cron=1541074919.3126430511474609375000 HTTP/1.0" 200 - "http://royalgeekness.com/wp-cron.php?doing_wp_cron=1541074919.3126430511474609375000" "WordPress/4.9.8; http://royalgeekness.com"
66.249.75.27 - - [01/Nov/2018:12:21:58 +0000] "GET /post_tag-sitemap.xml HTTP/1.0" 200 1534 "-" "Mozilla/5.0 (compatible; Googlebot/2.1; +http://www.google.com/bot.html)"
52.53.201.78 - - [01/Nov/2018:13:57:17 +0000] "GET / HTTP/1.0" 301 - "-" "Mozilla/5.0 (Macintosh; Intel Mac OS X 10_12_6) AppleWebKit/537.36 (KHTML, like Gecko) Chrome/61.0.3163.100 Safari/537.36"
31.170.123.73 - - [01/Nov/2018:13:57:18 +0000] "POST /wp-cron.php?doing_wp_cron=1541080638.3035740852355957031250 HTTP/1.0" 200 246 "http://royalgeekness.com/wp-cron.php?doing_wp_cron=1541080638.3035740852355957031250" "WordPress/4.9.8; http://royalgeekness.com"
52.53.201.78 - - [01/Nov/2018:13:57:21 +0000] "GET / HTTP/1.0" 200 5032 "http://www.royalgeekness.com/" "Mozilla/5.0 (Macintosh; Intel Mac OS X 10_12_6) AppleWebKit/537.36 (KHTML, like Gecko) Chrome/61.0.3163.100 Safari/537.36"
31.170.123.73 - - [01/Nov/2018:15:22:11 +0000] "POST /wp-cron.php?doing_wp_cron=1541085731.6297819614410400390625 HTTP/1.0" 200 - "http://royalgeekness.com/wp-cron.php?doing_wp_cron=1541085731.6297819614410400390625" "WordPress/4.9.8; http://royalgeekness.com"
18.204.207.155 - - [01/Nov/2018:15:22:11 +0000] "GET /wp-login.php HTTP/1.0" 200 2242 "https://www.google.com/url?5d6c8f725d83672c7c6a5d7ecd21bc6a" "Mozilla/5.0 (Windows NT 6.2; rv:33.0) Gecko/20100101 Firefox/33.0"
18.204.207.155 - - [01/Nov/2018:15:22:14 +0000] "POST /wp-login.php HTTP/1.0" 200 3198 "https://www.google.com/url?5d6c8f725d83672c7c6a5d7ecd21bc6a" "Mozilla/5.0 (Windows NT 6.2; rv:33.0) Gecko/20100101 Firefox/33.0"
193.201.224.210 - - [01/Nov/2018:18:18:16 +0000] "GET /wp-content/themes/RightNow/includes/uploadify/upload_settings_image.php HTTP/1.0" 404 5032 "http://royalgeekness.com/wp-content/themes/RightNow/includes/uploadify/upload_settings_image.php" "Mozilla/5.0 (Windows NT 6.1; WOW64) AppleWebKit/537.36 (KHTML, like Gecko) Chrome/42.0.2311.152 Safari/537.36"
31.170.123.73 - - [01/Nov/2018:18:18:17 +0000] "POST /wp-cron.php?doing_wp_cron=1541096297.2969689369201660156250 HTTP/1.0" 200 - "http://royalgeekness.com/wp-cron.php?doing_wp_cron=1541096297.2969689369201660156250" "WordPress/4.9.8; http://royalgeekness.com"
31.170.123.73 - - [01/Nov/2018:19:56:03 +0000] "POST /wp-cron.php?doing_wp_cron=1541102163.3543279170989990234375 HTTP/1.0" 200 - "http://royalgeekness.com/wp-cron.php?doing_wp_cron=1541102163.3543279170989990234375" "WordPress/4.9.8; http://royalgeekness.com"
3.16.90.13 - - [01/Nov/2018:19:56:02 +0000] "GET /wp-login.php HTTP/1.0" 200 2242 "https://www.google.com/url?5d6c8f725d83672c7c6a5d7ecd21bc6a" "Mozilla/5.0 (Windows NT 5.1; WOW64; rv:28.0) Gecko/20100101 Firefox/28.0"
3.16.90.13 - - [01/Nov/2018:19:56:05 +0000] "POST /wp-login.php HTTP/1.0" 200 3198 "https://www.google.com/url?5d6c8f725d83672c7c6a5d7ecd21bc6a" "Mozilla/5.0 (Windows NT 5.1; WOW64; rv:28.0) Gecko/20100101 Firefox/28.0"
31.170.123.73 - - [01/Nov/2018:21:05:24 +0000] "POST /wp-cron.php?doing_wp_cron=1541106324.5376820564270019531250 HTTP/1.0" 200 - "http://royalgeekness.com/wp-cron.php?doing_wp_cron=1541106324.5376820564270019531250" "WordPress/4.9.8; http://royalgeekness.com"
66.249.66.28 - - [01/Nov/2018:21:05:24 +0000] "GET /sitemap_index.xml HTTP/1.0" 200 1699 "-" "Mozilla/5.0 (compatible; Googlebot/2.1; +http://www.google.com/bot.html)"
31.170.123.73 - - [01/Nov/2018:22:29:46 +0000] "POST /wp-cron.php?doing_wp_cron=1541111386.6238369941711425781250 HTTP/1.0" 200 - "http://royalgeekness.com/wp-cron.php?doing_wp_cron=1541111386.6238369941711425781250" "WordPress/4.9.8; http://royalgeekness.com"
85.119.156.225 - - [01/Nov/2018:22:29:46 +0000] "GET /wp-clear.php HTTP/1.0" 404 5032 "royalgeekness.com" "Mozilla/5.0 (Windows NT 6.1; WOW64) AppleWebKit/537.36 (KHTML, like Gecko) Chrome/50.0.2661.75 Safari/537.36"
31.170.123.73 - - [01/Nov/2018:23:29:40 +0000] "POST /wp-cron.php?doing_wp_cron=1541114980.1645729541778564453125 HTTP/1.0" 200 - "http://royalgeekness.com/wp-cron.php?doing_wp_cron=1541114980.1645729541778564453125" "WordPress/4.9.8; http://royalgeekness.com"
18.85.22.239 - - [01/Nov/2018:23:29:39 +0000] "POST /xmlrpc.php HTTP/1.0" 200 401 "-" "Mozilla/4.0 (compatible; MSIE 7.0; Windows NT 5.1; Trident/4.0; .NET CLR 2.0.50727; InfoPath.2; OfficeLiveConnector.1.3; OfficeLivePatch.0.0; MSN Optimized;US)"
31.170.123.73 - - [02/Nov/2018:00:16:00 +0000] "POST /wp-cron.php?doing_wp_cron=1541117760.8278338909149169921875 HTTP/1.0" 200 - "http://royalgeekness.com/wp-cron.php?doing_wp_cron=1541117760.8278338909149169921875" "WordPress/4.9.8; http://royalgeekness.com"
18.223.3.147 - - [02/Nov/2018:00:16:00 +0000] "GET /wp-login.php HTTP/1.0" 200 2242 "https://www.google.com/url?5d6c8f725d83672c7c6a5d7ecd21bc6a" "Mozilla/5.0 (Windows NT 5.1; rv:28.0) Gecko/20100101 Firefox/28.0"
18.223.3.147 - - [02/Nov/2018:00:16:04 +0000] "POST /wp-login.php HTTP/1.0" 200 3198 "https://www.google.com/url?5d6c8f725d83672c7c6a5d7ecd21bc6a" "Mozilla/5.0 (Windows NT 5.1; rv:28.0) Gecko/20100101 Firefox/28.0"
123.160.236.125 - - [02/Nov/2018:00:26:45 +0000] "GET /wp-login.php HTTP/1.0" 200 2242 "-" "Mozilla/5.0 (Windows NT 5.1; rv:29.0) Gecko/20100101 Firefox/29.0"
123.160.236.125 - - [02/Nov/2018:00:26:46 +0000] "POST /wp-login.php HTTP/1.0" 200 3198 "-" "Mozilla/5.0 (Windows NT 5.1; rv:29.0) Gecko/20100101 Firefox/29.0"
31.170.123.73 - - [02/Nov/2018:00:59:33 +0000] "POST /wp-cron.php?doing_wp_cron=1541120373.6703529357910156250000 HTTP/1.0" 200 - "http://royalgeekness.com/wp-cron.php?doing_wp_cron=1541120373.6703529357910156250000" "WordPress/4.9.8; http://royalgeekness.com"
66.249.66.29 - - [02/Nov/2018:00:59:33 +0000] "GET /product-sitemap.xml HTTP/1.0" 200 8705 "-" "Mozilla/5.0 (compatible; Googlebot/2.1; +http://www.google.com/bot.html)"
31.170.123.73 - - [02/Nov/2018:01:31:25 +0000] "POST /wp-cron.php?doing_wp_cron=1541122285.3586649894714355468750 HTTP/1.0" 200 - "http://royalgeekness.com/wp-cron.php?doing_wp_cron=1541122285.3586649894714355468750" "WordPress/4.9.8; http://royalgeekness.com"
220.69.182.253 - - [02/Nov/2018:01:31:24 +0000] "GET /wp-login.php HTTP/1.0" 200 2242 "-" "Mozilla/5.0 (Windows NT 5.1; rv:29.0) Gecko/20100101 Firefox/29.0"
220.69.182.253 - - [02/Nov/2018:01:31:26 +0000] "POST /wp-login.php HTTP/1.0" 200 3198 "-" "Mozilla/5.0 (Windows NT 5.1; rv:29.0) Gecko/20100101 Firefox/29.0"
