79.142.65.241 - - [05/Nov/2018:03:14:15 +0000] "GET /kickstart.php HTTP/1.0" 404 211 "-" "Mozilla/5.0 (Windows NT 6.1) AppleWebKit/537.36 (KHTML, like Gecko) Chrome/67.0.3396.87 Safari/537.36 OPR/54.0.2952.51"
198.23.202.38 - - [05/Nov/2018:06:09:10 +0000] "GET /robots.txt HTTP/1.0" 404 208 "-" "Mozilla/5.0 (Windows NT 10.0; Win64; x64; rv:50.0) Gecko/20100101 Firefox/50.0"
198.23.202.38 - - [05/Nov/2018:06:09:10 +0000] "GET /xmlrpc.php?rsd HTTP/1.0" 200 850 "-" "Mozilla/5.0 (Windows NT 10.0; Win64; x64; rv:50.0) Gecko/20100101 Firefox/50.0"
198.23.202.38 - - [05/Nov/2018:06:09:12 +0000] "GET /?author=1 HTTP/1.0" 200 32317 "-" "Mozilla/5.0 (Windows NT 10.0; Win64; x64; rv:50.0) Gecko/20100101 Firefox/50.0"
198.23.202.38 - - [05/Nov/2018:06:09:13 +0000] "GET /wp-json/wp/v2/users/ HTTP/1.0" 404 218 "-" "Mozilla/5.0 (Windows NT 10.0; Win64; x64; rv:50.0) Gecko/20100101 Firefox/50.0"
198.23.202.38 - - [05/Nov/2018:06:09:13 +0000] "POST /xmlrpc.php HTTP/1.0" 200 86001 "-" "Mozilla/5.0 (Windows NT 10.0; Win64; x64; rv:50.0) Gecko/20100101 Firefox/50.0"
31.170.123.73 - - [05/Nov/2018:06:09:11 +0000] "POST /wp-cron.php?doing_wp_cron=1541398151.6714770793914794921875 HTTP/1.0" 200 - "http://gameworkforce.com/wp-cron.php?doing_wp_cron=1541398151.6714770793914794921875" "WordPress/4.9.8; http://gameworkforce.com"
198.23.202.38 - - [05/Nov/2018:06:09:14 +0000] "POST /xmlrpc.php HTTP/1.0" 200 86001 "-" "Mozilla/5.0 (Windows NT 10.0; Win64; x64; rv:50.0) Gecko/20100101 Firefox/50.0"
193.202.110.18 - - [05/Nov/2018:07:43:15 +0000] "GET /htaccess.php HTTP/1.0" 404 210 "http://site.ru" "Mozilla/5.0 (Windows; U; Windows NT 5.1; en-US) AppleWebKit/533.4 (KHTML, like Gecko) Chrome/5.0.375.99 Safari/533.4"
2a02:c207:2012:7523::1 - - [05/Nov/2018:09:10:36 +0000] "GET /wp-admin/includes/images.php HTTP/1.0" 404 226 "http://site.ru" "Mozilla/5.0 (Windows; U; Windows NT 5.1; en-US) AppleWebKit/533.4 (KHTML, like Gecko) Chrome/5.0.375.99 Safari/533.4"
217.61.0.54 - - [05/Nov/2018:11:53:40 +0000] "GET /wp-content/plugins/resizer-img/accdb.php HTTP/1.0" 404 238 "http://site.ru" "Mozilla/5.0 (Windows; U; Windows NT 5.1; en-US) AppleWebKit/533.4 (KHTML, like Gecko) Chrome/5.0.375.99 Safari/533.4"
2001:ad0:1000:1001::137 - - [05/Nov/2018:12:37:44 +0000] "GET /wp-mains.php HTTP/1.0" 404 210 "http://site.ru" "Mozilla/5.0 (Windows; U; Windows NT 5.1; en-US) AppleWebKit/533.4 (KHTML, like Gecko) Chrome/5.0.375.99 Safari/533.4"
2001:ad0:1000:1001::137 - - [05/Nov/2018:12:37:48 +0000] "GET /wp-mains.php HTTP/1.0" 404 210 "http://site.ru" "Mozilla/5.0 (Windows; U; Windows NT 5.1; en-US) AppleWebKit/533.4 (KHTML, like Gecko) Chrome/5.0.375.99 Safari/533.4"
35.231.46.54 - - [05/Nov/2018:14:02:14 +0000] "GET /?job_listing=senior-ux-developer HTTP/1.0" 200 47805 "http://gameworkforce.com/?job_listing=senior-ux-developer" "Mozilla/5.0 (Windows; U; Windows NT 5.1; pt-PT; rv:1.9.1.2) Gecko/20090729 Firefox/3.5.2 (.NET CLR 3.5.30729)"
35.231.46.54 - - [05/Nov/2018:14:02:16 +0000] "GET /?job_listing=senior-ux-developer'A=0 HTTP/1.0" 404 32234 "http://gameworkforce.com/?job_listing=senior-ux-developer'A=0" "Mozilla/5.0 (Windows; U; Windows NT 5.1; pt-PT; rv:1.9.1.2) Gecko/20090729 Firefox/3.5.2 (.NET CLR 3.5.30729)"
31.170.123.73 - - [05/Nov/2018:14:02:18 +0000] "POST /wp-admin/admin-ajax.php?action=wp_1_wc_privacy_cleanup&nonce=5615c00f1e HTTP/1.0" 200 - "http://gameworkforce.com/wp-admin/admin-ajax.php?action=wp_1_wc_privacy_cleanup&nonce=5615c00f1e" "WordPress/4.9.8; http://gameworkforce.com"
31.170.123.73 - - [05/Nov/2018:14:02:15 +0000] "POST /wp-cron.php?doing_wp_cron=1541426535.0979509353637695312500 HTTP/1.0" 200 - "http://gameworkforce.com/wp-cron.php?doing_wp_cron=1541426535.0979509353637695312500" "WordPress/4.9.8; http://gameworkforce.com"
212.72.183.4 - - [05/Nov/2018:14:41:37 +0000] "GET /wp-system.php HTTP/1.0" 404 211 "http://site.ru" "Mozilla/5.0 (Windows; U; Windows NT 5.1; en-US) AppleWebKit/533.4 (KHTML, like Gecko) Chrome/5.0.375.99 Safari/533.4"
212.72.183.4 - - [05/Nov/2018:14:41:41 +0000] "GET /wp-system.php HTTP/1.0" 404 211 "http://site.ru" "Mozilla/5.0 (Windows; U; Windows NT 5.1; en-US) AppleWebKit/533.4 (KHTML, like Gecko) Chrome/5.0.375.99 Safari/533.4"
192.249.124.141 - - [05/Nov/2018:14:43:21 +0000] "GET /wp-content/plugins/ajax-user/zz.php.pjpeg HTTP/1.0" 404 239 "http://site.ru" "Mozilla/5.0 (Windows; U; Windows NT 5.1; en-US) AppleWebKit/533.4 (KHTML, like Gecko) Chrome/5.0.375.99 Safari/533.4"
192.249.124.141 - - [05/Nov/2018:14:43:26 +0000] "GET /wp-content/plugins/ajax-user/zz.php.pjpeg HTTP/1.0" 404 239 "http://site.ru" "Mozilla/5.0 (Windows; U; Windows NT 5.1; en-US) AppleWebKit/533.4 (KHTML, like Gecko) Chrome/5.0.375.99 Safari/533.4"
95.174.15.228 - - [05/Nov/2018:16:03:06 +0000] "GET /wp-blog-posts.php HTTP/1.0" 404 215 "http://site.ru" "Mozilla/5.0 (Windows; U; Windows NT 5.1; en-US) AppleWebKit/533.4 (KHTML, like Gecko) Chrome/5.0.375.99 Safari/533.4"
217.12.176.11 - - [05/Nov/2018:17:25:23 +0000] "GET /wp-content/uploads/logo_img.php HTTP/1.0" 404 229 "http://site.ru" "Mozilla/5.0 (Windows; U; Windows NT 5.1; en-US) AppleWebKit/533.4 (KHTML, like Gecko) Chrome/5.0.375.99 Safari/533.4"
217.12.176.11 - - [05/Nov/2018:17:25:27 +0000] "GET /wp-content/uploads/logo_img.php HTTP/1.0" 404 229 "http://site.ru" "Mozilla/5.0 (Windows; U; Windows NT 5.1; en-US) AppleWebKit/533.4 (KHTML, like Gecko) Chrome/5.0.375.99 Safari/533.4"
157.55.39.8 - - [05/Nov/2018:17:27:26 +0000] "GET /robots.txt HTTP/1.0" 404 208 "-" "Mozilla/5.0 (compatible; bingbot/2.0; +http://www.bing.com/bingbot.htm)"
31.170.123.73 - - [05/Nov/2018:17:27:42 +0000] "POST /wp-cron.php?doing_wp_cron=1541438862.7810618877410888671875 HTTP/1.0" 200 - "http://gameworkforce.com/wp-cron.php?doing_wp_cron=1541438862.7810618877410888671875" "WordPress/4.9.8; http://gameworkforce.com"
207.46.13.48 - - [05/Nov/2018:17:27:42 +0000] "GET /?page_id=80 HTTP/1.0" 200 35099 "-" "Mozilla/5.0 (compatible; bingbot/2.0; +http://www.bing.com/bingbot.htm)"
207.46.13.59 - - [05/Nov/2018:17:27:48 +0000] "GET /robots.txt HTTP/1.0" 404 208 "-" "Mozilla/5.0 (compatible; bingbot/2.0; +http://www.bing.com/bingbot.htm)"
207.46.13.59 - - [05/Nov/2018:17:27:48 +0000] "GET /wp-content/plugins/woocommerce/assets/css/woocommerce-layout.css?ver=3.4.5 HTTP/1.0" 200 16542 "-" "Mozilla/5.0 (compatible; bingbot/2.0; +http://www.bing.com/bingbot.htm)"
207.46.13.59 - - [05/Nov/2018:17:27:49 +0000] "GET /wp-includes/js/jquery/jquery.js?ver=1.12.4 HTTP/1.0" 200 97184 "-" "Mozilla/5.0 (compatible; bingbot/2.0; +http://www.bing.com/bingbot.htm)"
207.46.13.59 - - [05/Nov/2018:17:27:49 +0000] "GET /wp-includes/js/jquery/jquery-migrate.min.js?ver=1.4.1 HTTP/1.0" 200 10056 "-" "Mozilla/5.0 (compatible; bingbot/2.0; +http://www.bing.com/bingbot.htm)"
207.46.13.59 - - [05/Nov/2018:17:27:49 +0000] "GET /wp-content/plugins/woocommerce/assets/js/frontend/cart-fragments.min.js?ver=3.4.5 HTTP/1.0" 200 2568 "-" "Mozilla/5.0 (compatible; bingbot/2.0; +http://www.bing.com/bingbot.htm)"
157.55.39.234 - - [05/Nov/2018:17:27:53 +0000] "GET /wp-content/plugins/woocommerce/assets/css/woocommerce-smallscreen.css?ver=3.4.5 HTTP/1.0" 200 6758 "-" "Mozilla/5.0 (compatible; bingbot/2.0; +http://www.bing.com/bingbot.htm)"
157.55.39.234 - - [05/Nov/2018:17:27:53 +0000] "GET /wp-content/plugins/woocommerce/assets/js/js-cookie/js.cookie.min.js?ver=2.1.4 HTTP/1.0" 200 1846 "-" "Mozilla/5.0 (compatible; bingbot/2.0; +http://www.bing.com/bingbot.htm)"
157.55.39.234 - - [05/Nov/2018:17:27:54 +0000] "GET /wp-includes/js/jquery/ui/mouse.min.js?ver=1.11.4 HTTP/1.0" 200 3148 "-" "Mozilla/5.0 (compatible; bingbot/2.0; +http://www.bing.com/bingbot.htm)"
157.55.39.234 - - [05/Nov/2018:17:27:54 +0000] "GET /wp-includes/js/backbone.min.js?ver=1.2.3 HTTP/1.0" 200 23318 "-" "Mozilla/5.0 (compatible; bingbot/2.0; +http://www.bing.com/bingbot.htm)"
157.55.39.234 - - [05/Nov/2018:17:27:54 +0000] "GET /wp-content/plugins/wp-job-manager-locations/assets/js/main.js?ver=20140525 HTTP/1.0" 200 1889 "-" "Mozilla/5.0 (compatible; bingbot/2.0; +http://www.bing.com/bingbot.htm)"
207.46.13.59 - - [05/Nov/2018:17:27:57 +0000] "GET /wp-includes/js/jquery/ui/core.min.js?ver=1.11.4 HTTP/1.0" 200 4000 "-" "Mozilla/5.0 (compatible; bingbot/2.0; +http://www.bing.com/bingbot.htm)"
207.46.13.59 - - [05/Nov/2018:17:27:57 +0000] "GET /wp-includes/js/jquery/ui/widget.min.js?ver=1.11.4 HTTP/1.0" 200 6908 "-" "Mozilla/5.0 (compatible; bingbot/2.0; +http://www.bing.com/bingbot.htm)"
207.46.13.59 - - [05/Nov/2018:17:27:58 +0000] "GET /wp-includes/js/wp-backbone.min.js?ver=4.9.8 HTTP/1.0" 200 3020 "-" "Mozilla/5.0 (compatible; bingbot/2.0; +http://www.bing.com/bingbot.htm)"
207.46.13.59 - - [05/Nov/2018:17:27:58 +0000] "GET /wp-content/plugins/wp-job-manager/assets/js/jquery-chosen/chosen.jquery.min.js?ver=1.1.0 HTTP/1.0" 200 27347 "-" "Mozilla/5.0 (compatible; bingbot/2.0; +http://www.bing.com/bingbot.htm)"
157.55.39.234 - - [05/Nov/2018:17:28:03 +0000] "GET /wp-includes/js/wp-embed.min.js?ver=4.9.8 HTTP/1.0" 200 1398 "-" "Mozilla/5.0 (compatible; bingbot/2.0; +http://www.bing.com/bingbot.htm)"
207.46.13.148 - - [05/Nov/2018:17:28:09 +0000] "GET /wp-content/themes/jobify/style.css?ver=20170821 HTTP/1.0" 200 215666 "-" "Mozilla/5.0 (compatible; bingbot/2.0; +http://www.bing.com/bingbot.htm)"
207.46.13.148 - - [05/Nov/2018:17:28:09 +0000] "GET /wp-content/plugins/woocommerce/assets/js/jquery-blockui/jquery.blockUI.min.js?ver=2.70 HTTP/1.0" 200 9566 "-" "Mozilla/5.0 (compatible; bingbot/2.0; +http://www.bing.com/bingbot.htm)"
207.46.13.148 - - [05/Nov/2018:17:28:09 +0000] "GET /wp-includes/js/jquery/ui/slider.min.js?ver=1.11.4 HTTP/1.0" 200 10987 "-" "Mozilla/5.0 (compatible; bingbot/2.0; +http://www.bing.com/bingbot.htm)"
207.46.13.148 - - [05/Nov/2018:17:28:10 +0000] "GET /wp-includes/js/underscore.min.js?ver=1.8.3 HTTP/1.0" 200 16410 "-" "Mozilla/5.0 (compatible; bingbot/2.0; +http://www.bing.com/bingbot.htm)"
207.46.13.148 - - [05/Nov/2018:17:28:10 +0000] "GET /wp-content/themes/jobify/js/jobify.min.js?ver=20170814 HTTP/1.0" 200 69401 "-" "Mozilla/5.0 (compatible; bingbot/2.0; +http://www.bing.com/bingbot.htm)"
207.46.13.148 - - [05/Nov/2018:17:28:10 +0000] "GET /wp-content/themes/jobify/inc/integrations/wp-job-manager/js/map/app.min.js?ver=20150509 HTTP/1.0" 200 58456 "-" "Mozilla/5.0 (compatible; bingbot/2.0; +http://www.bing.com/bingbot.htm)"
207.46.13.148 - - [05/Nov/2018:17:28:10 +0000] "GET /wp-content/themes/jobify/js/vendor/salvattore/salvattore.min.js?ver=4.9.8 HTTP/1.0" 200 7493 "-" "Mozilla/5.0 (compatible; bingbot/2.0; +http://www.bing.com/bingbot.htm)"
207.46.13.48 - - [05/Nov/2018:17:53:50 +0000] "GET /wp-content/plugins/if-menu/assets/if-menu-site.css?ver=4.9.8 HTTP/1.0" 200 929 "-" "Mozilla/5.0 (compatible; bingbot/2.0; +http://www.bing.com/bingbot.htm)"
207.46.13.48 - - [05/Nov/2018:17:53:50 +0000] "GET /wp-content/plugins/woocommerce/assets/js/frontend/add-to-cart.min.js?ver=3.4.5 HTTP/1.0" 200 2650 "-" "Mozilla/5.0 (compatible; bingbot/2.0; +http://www.bing.com/bingbot.htm)"
207.46.13.48 - - [05/Nov/2018:17:53:50 +0000] "GET /wp-content/plugins/woocommerce/assets/js/frontend/woocommerce.min.js?ver=3.4.5 HTTP/1.0" 200 1402 "-" "Mozilla/5.0 (compatible; bingbot/2.0; +http://www.bing.com/bingbot.htm)"
207.46.13.48 - - [05/Nov/2018:17:53:50 +0000] "GET /wp-includes/js/wp-util.min.js?ver=4.9.8 HTTP/1.0" 200 1046 "-" "Mozilla/5.0 (compatible; bingbot/2.0; +http://www.bing.com/bingbot.htm)"
207.46.13.48 - - [05/Nov/2018:17:53:50 +0000] "GET /wp-content/plugins/wp-job-manager/assets/js/jquery-deserialize/jquery.deserialize.js?ver=1.2.1 HTTP/1.0" 200 4095 "-" "Mozilla/5.0 (compatible; bingbot/2.0; +http://www.bing.com/bingbot.htm)"
207.46.13.48 - - [05/Nov/2018:17:53:51 +0000] "GET /wp-content/plugins/wp-job-manager/assets/js/ajax-filters.min.js?ver=1.31.3 HTTP/1.0" 200 5446 "-" "Mozilla/5.0 (compatible; bingbot/2.0; +http://www.bing.com/bingbot.htm)"
50.63.12.201 - - [05/Nov/2018:18:06:08 +0000] "GET /shell.php HTTP/1.0" 404 207 "http://site.ru" "Mozilla/5.0 (Windows; U; Windows NT 5.1; en-US) AppleWebKit/533.4 (KHTML, like Gecko) Chrome/5.0.375.99 Safari/533.4"
50.63.12.201 - - [05/Nov/2018:18:06:13 +0000] "GET /shell.php HTTP/1.0" 404 207 "http://site.ru" "Mozilla/5.0 (Windows; U; Windows NT 5.1; en-US) AppleWebKit/533.4 (KHTML, like Gecko) Chrome/5.0.375.99 Safari/533.4"
31.170.123.73 - - [05/Nov/2018:18:29:29 +0000] "POST /wp-cron.php?doing_wp_cron=1541442569.2653949260711669921875 HTTP/1.0" 200 - "http://gameworkforce.com/wp-cron.php?doing_wp_cron=1541442569.2653949260711669921875" "WordPress/4.9.8; http://gameworkforce.com"
207.46.13.148 - - [05/Nov/2018:18:29:28 +0000] "GET /?jm-ajax=get_listings HTTP/1.0" 200 1832 "-" "Mozilla/5.0 (compatible; bingbot/2.0; +http://www.bing.com/bingbot.htm)"
207.46.13.148 - - [05/Nov/2018:18:29:29 +0000] "GET /?wc-ajax=get_refreshed_fragments HTTP/1.0" 200 210 "-" "Mozilla/5.0 (compatible; bingbot/2.0; +http://www.bing.com/bingbot.htm)"
207.46.13.48 - - [05/Nov/2018:18:45:43 +0000] "GET /wp-content/themes/jobify/fonts/ionicons.svg?v=2.0.0 HTTP/1.0" 200 333834 "-" "Mozilla/5.0 (compatible; bingbot/2.0; +http://www.bing.com/bingbot.htm)"
207.46.13.48 - - [05/Nov/2018:18:45:47 +0000] "GET /wp-content/themes/jobify/fonts/ionicons.ttf?v=2.0.0 HTTP/1.0" 200 188508 "-" "Mozilla/5.0 (compatible; bingbot/2.0; +http://www.bing.com/bingbot.htm)"
207.46.13.48 - - [05/Nov/2018:18:45:49 +0000] "GET /wp-includes/js/wp-emoji-release.min.js?ver=4.9.8 HTTP/1.0" 200 12026 "-" "Mozilla/5.0 (compatible; bingbot/2.0; +http://www.bing.com/bingbot.htm)"
91.134.248.253 - - [05/Nov/2018:18:49:03 +0000] "GET /wp-blog-mail.php HTTP/1.0" 404 214 "http://site.ru" "Mozilla/5.0 (Windows; U; Windows NT 5.1; en-US) AppleWebKit/533.4 (KHTML, like Gecko) Chrome/5.0.375.99 Safari/533.4"
66.249.66.146 - - [05/Nov/2018:21:42:19 +0000] "GET /robots.txt HTTP/1.0" 404 208 "-" "Mozilla/5.0 (compatible; Googlebot/2.1; +http://www.google.com/bot.html)"
66.249.66.146 - - [05/Nov/2018:21:42:19 +0000] "GET /wp-includes/js/wp-emoji-release.min.js?ver=4.9.8 HTTP/1.0" 200 12026 "http://gameworkforce.com/?page_id=40" "Mozilla/5.0 AppleWebKit/537.36 (KHTML, like Gecko; compatible; Googlebot/2.1; +http://www.google.com/bot.html) Safari/537.36"
66.249.66.144 - - [05/Nov/2018:21:42:19 +0000] "GET /wp-content/plugins/woocommerce/assets/js/frontend/add-to-cart.min.js?ver=3.4.2 HTTP/1.0" 200 2650 "http://gameworkforce.com/?page_id=40" "Mozilla/5.0 AppleWebKit/537.36 (KHTML, like Gecko; compatible; Googlebot/2.1; +http://www.google.com/bot.html) Safari/537.36"
66.249.66.146 - - [05/Nov/2018:21:42:20 +0000] "GET /wp-includes/js/wp-util.min.js?ver=4.9.8 HTTP/1.0" 200 1046 "http://gameworkforce.com/?page_id=40" "Mozilla/5.0 AppleWebKit/537.36 (KHTML, like Gecko; compatible; Googlebot/2.1; +http://www.google.com/bot.html) Safari/537.36"
66.249.66.146 - - [05/Nov/2018:21:42:20 +0000] "GET /wp-includes/js/jquery/jquery.js?ver=1.12.4 HTTP/1.0" 200 97184 "http://gameworkforce.com/?page_id=40" "Mozilla/5.0 AppleWebKit/537.36 (KHTML, like Gecko; compatible; Googlebot/2.1; +http://www.google.com/bot.html) Safari/537.36"
66.249.66.146 - - [05/Nov/2018:21:42:20 +0000] "GET /wp-content/themes/jobify/js/jobify.min.js?ver=20170814 HTTP/1.0" 200 69401 "http://gameworkforce.com/?page_id=40" "Mozilla/5.0 AppleWebKit/537.36 (KHTML, like Gecko; compatible; Googlebot/2.1; +http://www.google.com/bot.html) Safari/537.36"
66.249.66.142 - - [05/Nov/2018:21:42:20 +0000] "GET /wp-includes/js/masonry.min.js?ver=3.3.2 HTTP/1.0" 200 28954 "http://gameworkforce.com/?page_id=40" "Mozilla/5.0 AppleWebKit/537.36 (KHTML, like Gecko; compatible; Googlebot/2.1; +http://www.google.com/bot.html) Safari/537.36"
66.249.66.144 - - [05/Nov/2018:21:42:21 +0000] "GET /wp-includes/js/underscore.min.js?ver=1.8.3 HTTP/1.0" 200 16410 "http://gameworkforce.com/?page_id=40" "Mozilla/5.0 AppleWebKit/537.36 (KHTML, like Gecko; compatible; Googlebot/2.1; +http://www.google.com/bot.html) Safari/537.36"
66.249.66.144 - - [05/Nov/2018:21:42:21 +0000] "GET /wp-content/plugins/woocommerce/assets/js/jquery-blockui/jquery.blockUI.min.js?ver=2.70 HTTP/1.0" 200 9566 "http://gameworkforce.com/?page_id=40" "Mozilla/5.0 AppleWebKit/537.36 (KHTML, like Gecko; compatible; Googlebot/2.1; +http://www.google.com/bot.html) Safari/537.36"
66.249.66.146 - - [05/Nov/2018:21:42:21 +0000] "GET /wp-includes/js/jquery/jquery.masonry.min.js?ver=3.1.2b HTTP/1.0" 200 1819 "http://gameworkforce.com/?page_id=40" "Mozilla/5.0 AppleWebKit/537.36 (KHTML, like Gecko; compatible; Googlebot/2.1; +http://www.google.com/bot.html) Safari/537.36"
66.249.66.146 - - [05/Nov/2018:21:42:22 +0000] "GET /wp-content/plugins/wp-job-manager/assets/js/jquery-chosen/chosen.jquery.min.js?ver=1.1.0 HTTP/1.0" 200 27347 "http://gameworkforce.com/?page_id=40" "Mozilla/5.0 AppleWebKit/537.36 (KHTML, like Gecko; compatible; Googlebot/2.1; +http://www.google.com/bot.html) Safari/537.36"
66.249.66.142 - - [05/Nov/2018:21:42:22 +0000] "GET /wp-content/plugins/woocommerce/assets/js/frontend/cart-fragments.min.js?ver=3.4.2 HTTP/1.0" 200 2568 "http://gameworkforce.com/?page_id=40" "Mozilla/5.0 AppleWebKit/537.36 (KHTML, like Gecko; compatible; Googlebot/2.1; +http://www.google.com/bot.html) Safari/537.36"
66.249.66.146 - - [05/Nov/2018:21:42:23 +0000] "GET /wp-includes/js/jquery/ui/core.min.js?ver=1.11.4 HTTP/1.0" 200 4000 "http://gameworkforce.com/?page_id=40" "Mozilla/5.0 AppleWebKit/537.36 (KHTML, like Gecko; compatible; Googlebot/2.1; +http://www.google.com/bot.html) Safari/537.36"
66.249.66.144 - - [05/Nov/2018:21:42:23 +0000] "GET /wp-content/plugins/woocommerce/assets/css/woocommerce-smallscreen.css?ver=3.4.2 HTTP/1.0" 200 6758 "http://gameworkforce.com/?page_id=40" "Mozilla/5.0 AppleWebKit/537.36 (KHTML, like Gecko; compatible; Googlebot/2.1; +http://www.google.com/bot.html) Safari/537.36"
66.249.66.142 - - [05/Nov/2018:21:42:23 +0000] "GET /wp-content/plugins/woocommerce/assets/css/woocommerce-layout.css?ver=3.4.2 HTTP/1.0" 200 16542 "http://gameworkforce.com/?page_id=40" "Mozilla/5.0 AppleWebKit/537.36 (KHTML, like Gecko; compatible; Googlebot/2.1; +http://www.google.com/bot.html) Safari/537.36"
66.249.66.142 - - [05/Nov/2018:21:42:24 +0000] "GET /wp-content/plugins/if-menu/assets/if-menu-site.css?ver=4.9.8 HTTP/1.0" 200 929 "http://gameworkforce.com/?page_id=40" "Mozilla/5.0 AppleWebKit/537.36 (KHTML, like Gecko; compatible; Googlebot/2.1; +http://www.google.com/bot.html) Safari/537.36"
66.249.66.144 - - [05/Nov/2018:21:42:24 +0000] "GET /wp-content/plugins/woocommerce/assets/js/frontend/woocommerce.min.js?ver=3.4.2 HTTP/1.0" 200 1402 "http://gameworkforce.com/?page_id=40" "Mozilla/5.0 AppleWebKit/537.36 (KHTML, like Gecko; compatible; Googlebot/2.1; +http://www.google.com/bot.html) Safari/537.36"
66.249.66.142 - - [05/Nov/2018:21:42:24 +0000] "GET /wp-content/plugins/woocommerce/assets/js/js-cookie/js.cookie.min.js?ver=2.1.4 HTTP/1.0" 200 1846 "http://gameworkforce.com/?page_id=40" "Mozilla/5.0 AppleWebKit/537.36 (KHTML, like Gecko; compatible; Googlebot/2.1; +http://www.google.com/bot.html) Safari/537.36"
66.249.66.144 - - [05/Nov/2018:21:42:25 +0000] "GET /wp-content/plugins/wp-job-manager-locations/assets/js/main.js?ver=20140525 HTTP/1.0" 200 1889 "http://gameworkforce.com/?page_id=40" "Mozilla/5.0 AppleWebKit/537.36 (KHTML, like Gecko; compatible; Googlebot/2.1; +http://www.google.com/bot.html) Safari/537.36"
66.249.66.142 - - [05/Nov/2018:21:42:25 +0000] "GET /wp-content/plugins/wp-job-manager/assets/js/ajax-filters.min.js?ver=1.31.0.1 HTTP/1.0" 200 5446 "http://gameworkforce.com/?page_id=40" "Mozilla/5.0 AppleWebKit/537.36 (KHTML, like Gecko; compatible; Googlebot/2.1; +http://www.google.com/bot.html) Safari/537.36"
66.249.66.144 - - [05/Nov/2018:21:42:25 +0000] "GET /wp-content/themes/jobify/style.css?ver=20170821 HTTP/1.0" 200 215666 "http://gameworkforce.com/?page_id=40" "Mozilla/5.0 AppleWebKit/537.36 (KHTML, like Gecko; compatible; Googlebot/2.1; +http://www.google.com/bot.html) Safari/537.36"
66.249.66.144 - - [05/Nov/2018:21:42:26 +0000] "GET /wp-includes/js/jquery/ui/mouse.min.js?ver=1.11.4 HTTP/1.0" 200 3148 "http://gameworkforce.com/?page_id=40" "Mozilla/5.0 AppleWebKit/537.36 (KHTML, like Gecko; compatible; Googlebot/2.1; +http://www.google.com/bot.html) Safari/537.36"
66.249.66.144 - - [05/Nov/2018:21:42:26 +0000] "GET /wp-includes/js/imagesloaded.min.js?ver=3.2.0 HTTP/1.0" 200 7994 "http://gameworkforce.com/?page_id=40" "Mozilla/5.0 AppleWebKit/537.36 (KHTML, like Gecko; compatible; Googlebot/2.1; +http://www.google.com/bot.html) Safari/537.36"
66.249.66.142 - - [05/Nov/2018:21:42:26 +0000] "GET /wp-includes/js/wp-backbone.min.js?ver=4.9.8 HTTP/1.0" 200 3020 "http://gameworkforce.com/?page_id=40" "Mozilla/5.0 AppleWebKit/537.36 (KHTML, like Gecko; compatible; Googlebot/2.1; +http://www.google.com/bot.html) Safari/537.36"
66.249.66.142 - - [05/Nov/2018:21:42:27 +0000] "GET /wp-includes/js/wp-embed.min.js?ver=4.9.8 HTTP/1.0" 200 1398 "http://gameworkforce.com/?page_id=40" "Mozilla/5.0 AppleWebKit/537.36 (KHTML, like Gecko; compatible; Googlebot/2.1; +http://www.google.com/bot.html) Safari/537.36"
31.170.123.73 - - [05/Nov/2018:21:42:29 +0000] "POST /wp-cron.php?doing_wp_cron=1541454149.3664081096649169921875 HTTP/1.0" 200 - "http://gameworkforce.com/wp-cron.php?doing_wp_cron=1541454149.3664081096649169921875" "WordPress/4.9.8; http://gameworkforce.com"
66.249.66.142 - - [05/Nov/2018:21:42:28 +0000] "POST /?wc-ajax=get_refreshed_fragments HTTP/1.0" 200 210 "http://gameworkforce.com/?page_id=40" "Mozilla/5.0 AppleWebKit/537.36 (KHTML, like Gecko; compatible; Googlebot/2.1; +http://www.google.com/bot.html) Safari/537.36"
207.46.13.128 - - [05/Nov/2018:22:28:25 +0000] "GET /?job_listing=senior-ux-designer HTTP/1.0" 200 47563 "-" "Mozilla/5.0 (compatible; bingbot/2.0; +http://www.bing.com/bingbot.htm)"
31.170.123.73 - - [05/Nov/2018:22:28:26 +0000] "POST /wp-cron.php?doing_wp_cron=1541456906.1761438846588134765625 HTTP/1.0" 200 - "http://gameworkforce.com/wp-cron.php?doing_wp_cron=1541456906.1761438846588134765625" "WordPress/4.9.8; http://gameworkforce.com"
157.55.39.234 - - [05/Nov/2018:22:28:36 +0000] "GET /wp-content/plugins/wp-job-manager/assets/js/job-application.min.js?ver=1.31.3 HTTP/1.0" 200 880 "-" "Mozilla/5.0 (compatible; bingbot/2.0; +http://www.bing.com/bingbot.htm)"
85.128.142.48 - - [05/Nov/2018:23:11:07 +0000] "GET /wp-content/themes/gaukingo/db.php HTTP/1.0" 404 231 "http://site.ru" "Mozilla/5.0 (Windows; U; Windows NT 5.1; en-US) AppleWebKit/533.4 (KHTML, like Gecko) Chrome/5.0.375.99 Safari/533.4"
85.128.142.48 - - [05/Nov/2018:23:11:20 +0000] "GET /wp-content/themes/gaukingo/db.php HTTP/1.0" 404 231 "http://site.ru" "Mozilla/5.0 (Windows; U; Windows NT 5.1; en-US) AppleWebKit/533.4 (KHTML, like Gecko) Chrome/5.0.375.99 Safari/533.4"
31.170.123.73 - - [05/Nov/2018:23:58:05 +0000] "POST /wp-cron.php?doing_wp_cron=1541462285.8523280620574951171875 HTTP/1.0" 200 - "http://gameworkforce.com/wp-cron.php?doing_wp_cron=1541462285.8523280620574951171875" "WordPress/4.9.8; http://gameworkforce.com"
52.173.241.248 - - [05/Nov/2018:23:58:05 +0000] "GET / HTTP/1.0" 200 34616 "-" "Mozilla/5.0 (Windows NT 6.1; Win64; x64) AppleWebKit/537.36 (KHTML, like Gecko) Chrome/64.0.3282.186 Safari/537.36"
2604:880:204:56::2 - - [06/Nov/2018:00:26:45 +0000] "GET /wp-seo.php HTTP/1.0" 404 208 "http://site.ru" "Mozilla/5.0 (Windows; U; Windows NT 5.1; en-US) AppleWebKit/533.4 (KHTML, like Gecko) Chrome/5.0.375.99 Safari/533.4"
2604:880:204:56::2 - - [06/Nov/2018:00:27:29 +0000] "GET /wp-seo.php HTTP/1.0" 404 208 "http://site.ru" "Mozilla/5.0 (Windows; U; Windows NT 5.1; en-US) AppleWebKit/533.4 (KHTML, like Gecko) Chrome/5.0.375.99 Safari/533.4"
108.167.137.39 - - [06/Nov/2018:01:00:34 +0000] "GET /modules/mod_ariimageslidersa/098.php HTTP/1.0" 404 234 "http://site.ru" "Mozilla/5.0 (Windows; U; Windows NT 5.1; en-US) AppleWebKit/533.4 (KHTML, like Gecko) Chrome/5.0.375.99 Safari/533.4"
103.227.176.8 - - [06/Nov/2018:01:01:42 +0000] "GET /wp-admin/network/green.php HTTP/1.0" 404 224 "http://site.ru" "Mozilla/5.0 (Windows; U; Windows NT 5.1; en-US) AppleWebKit/533.4 (KHTML, like Gecko) Chrome/5.0.375.99 Safari/533.4"
