31.170.123.73 - - [06/Nov/2018:03:14:18 +0000] "POST /wp-cron.php?doing_wp_cron=1541474057.8376300334930419921875 HTTP/1.0" 200 0 "-" "WordPress/4.3.17; http://www.ikbensterdam.com"
139.99.54.70 - - [06/Nov/2018:03:14:18 +0000] "GET /logo_img.php.suspected HTTP/1.1" 301 5 "http://site.ru" "Mozilla/5.0 (Windows; U; Windows NT 5.1; en-US) AppleWebKit/533.4 (KHTML, like Gecko) Chrome/5.0.375.99 Safari/533.4"
139.99.54.70 - - [06/Nov/2018:03:14:20 +0000] "GET /logo_img.php.suspected HTTP/1.1" 404 35249 "http://site.ru" "Mozilla/5.0 (Windows; U; Windows NT 5.1; en-US) AppleWebKit/533.4 (KHTML, like Gecko) Chrome/5.0.375.99 Safari/533.4"
139.99.54.70 - - [06/Nov/2018:03:14:21 +0000] "GET /logo_img.php.suspected HTTP/1.1" 301 5 "http://site.ru" "Mozilla/5.0 (Windows; U; Windows NT 5.1; en-US) AppleWebKit/533.4 (KHTML, like Gecko) Chrome/5.0.375.99 Safari/533.4"
139.99.54.70 - - [06/Nov/2018:03:14:23 +0000] "GET /logo_img.php.suspected HTTP/1.1" 404 35234 "http://site.ru" "Mozilla/5.0 (Windows; U; Windows NT 5.1; en-US) AppleWebKit/533.4 (KHTML, like Gecko) Chrome/5.0.375.99 Safari/533.4"
2.229.17.86 - - [06/Nov/2018:03:22:38 +0000] "GET /wp-logout.php HTTP/1.1" 301 5 "http://site.ru" "Mozilla/5.0 (Windows; U; Windows NT 5.1; en-US) AppleWebKit/533.4 (KHTML, like Gecko) Chrome/5.0.375.99 Safari/533.4"
2.229.17.86 - - [06/Nov/2018:03:22:39 +0000] "GET /wp-logout.php HTTP/1.1" 404 35198 "http://site.ru" "Mozilla/5.0 (Windows; U; Windows NT 5.1; en-US) AppleWebKit/533.4 (KHTML, like Gecko) Chrome/5.0.375.99 Safari/533.4"
2.229.17.86 - - [06/Nov/2018:03:22:41 +0000] "GET /wp-logout.php HTTP/1.1" 301 5 "http://site.ru" "Mozilla/5.0 (Windows; U; Windows NT 5.1; en-US) AppleWebKit/533.4 (KHTML, like Gecko) Chrome/5.0.375.99 Safari/533.4"
2.229.17.86 - - [06/Nov/2018:03:22:44 +0000] "GET /wp-logout.php HTTP/1.1" 404 35198 "http://site.ru" "Mozilla/5.0 (Windows; U; Windows NT 5.1; en-US) AppleWebKit/533.4 (KHTML, like Gecko) Chrome/5.0.375.99 Safari/533.4"
31.170.123.73 - - [06/Nov/2018:04:14:01 +0000] "POST /wp-cron.php?doing_wp_cron=1541477640.6667830944061279296875 HTTP/1.0" 200 0 "-" "WordPress/4.3.17; http://www.ikbensterdam.com"
97.74.228.245 - - [06/Nov/2018:04:14:01 +0000] "POST /xmlrpc.php HTTP/1.1" 200 403 "-" "Mozilla/5.0 (Macintosh; U; Intel Mac OS X 10.6; fr; rv:1.9.2.8) Gecko/20100722 Firefox/3.6.8"
31.170.123.73 - - [06/Nov/2018:04:35:54 +0000] "POST /wp-cron.php?doing_wp_cron=1541478954.4064359664916992187500 HTTP/1.0" 200 0 "-" "WordPress/4.3.17; http://www.ikbensterdam.com"
59.46.94.182 - - [06/Nov/2018:04:35:55 +0000] "POST /wp-login.php HTTP/1.1" 200 8086 "-" "Opera/9.80 (Windows NT 6.0) Presto/2.12.388 Version/12.14"
31.170.123.73 - - [06/Nov/2018:05:04:39 +0000] "POST /wp-cron.php?doing_wp_cron=1541480679.0596170425415039062500 HTTP/1.0" 200 0 "-" "WordPress/4.3.17; http://www.ikbensterdam.com"
77.72.85.14 - - [06/Nov/2018:05:04:39 +0000] "GET /wp-content/plugins/widget-settings-importexport/readme.txt HTTP/1.1" 404 8920 "-" "Mozilla/5.0 (Windows NT 6.3; Win64; x64; rv:61.0) Gecko/20100101 Firefox/61.0"
72.52.140.80 - - [06/Nov/2018:05:19:37 +0000] "GET /wp-backup.php HTTP/1.1" 301 5 "http://site.ru" "Mozilla/5.0 (Windows; U; Windows NT 5.1; en-US) AppleWebKit/533.4 (KHTML, like Gecko) Chrome/5.0.375.99 Safari/533.4"
72.52.140.80 - - [06/Nov/2018:05:19:38 +0000] "GET /wp-backup.php HTTP/1.1" 404 35197 "http://site.ru" "Mozilla/5.0 (Windows; U; Windows NT 5.1; en-US) AppleWebKit/533.4 (KHTML, like Gecko) Chrome/5.0.375.99 Safari/533.4"
72.52.140.80 - - [06/Nov/2018:05:19:40 +0000] "GET /wp-backup.php HTTP/1.1" 301 5 "http://site.ru" "Mozilla/5.0 (Windows; U; Windows NT 5.1; en-US) AppleWebKit/533.4 (KHTML, like Gecko) Chrome/5.0.375.99 Safari/533.4"
72.52.140.80 - - [06/Nov/2018:05:19:42 +0000] "GET /wp-backup.php HTTP/1.1" 404 35198 "http://site.ru" "Mozilla/5.0 (Windows; U; Windows NT 5.1; en-US) AppleWebKit/533.4 (KHTML, like Gecko) Chrome/5.0.375.99 Safari/533.4"
31.170.123.73 - - [06/Nov/2018:05:58:07 +0000] "POST /wp-cron.php?doing_wp_cron=1541483887.2807049751281738281250 HTTP/1.0" 200 0 "-" "WordPress/4.3.17; http://www.ikbensterdam.com"
143.255.155.115 - - [06/Nov/2018:05:58:07 +0000] "POST /wp-login.php HTTP/1.1" 200 8086 "-" "Opera/9.80 (Windows NT 6.0) Presto/2.12.388 Version/12.14"
97.74.228.245 - - [06/Nov/2018:06:24:04 +0000] "POST /xmlrpc.php HTTP/1.1" 200 403 "-" "Mozilla/5.0 (Macintosh; U; Intel Mac OS X 10.6; fr; rv:1.9.2.8) Gecko/20100722 Firefox/3.6.8"
89.248.169.130 - - [06/Nov/2018:06:31:20 +0000] "POST /xmlrpc.php HTTP/1.1" 200 403 "-" "Mozilla/5.0 (Macintosh; U; Intel Mac OS X 10.6; fr; rv:1.9.2.8) Gecko/20100722 Firefox/3.6.8"
89.248.169.130 - - [06/Nov/2018:06:31:24 +0000] "POST /xmlrpc.php HTTP/1.1" 200 403 "-" "Mozilla/5.0 (Macintosh; U; Intel Mac OS X 10.6; fr; rv:1.9.2.8) Gecko/20100722 Firefox/3.6.8"
89.248.169.130 - - [06/Nov/2018:06:31:25 +0000] "POST /xmlrpc.php HTTP/1.1" 200 403 "-" "Mozilla/5.0 (Macintosh; U; Intel Mac OS X 10.6; fr; rv:1.9.2.8) Gecko/20100722 Firefox/3.6.8"
89.248.169.130 - - [06/Nov/2018:06:31:25 +0000] "POST /xmlrpc.php HTTP/1.1" 200 403 "-" "Mozilla/5.0 (Macintosh; U; Intel Mac OS X 10.6; fr; rv:1.9.2.8) Gecko/20100722 Firefox/3.6.8"
31.170.123.73 - - [06/Nov/2018:08:19:45 +0000] "POST /wp-cron.php?doing_wp_cron=1541492384.8777930736541748046875 HTTP/1.0" 499 0 "-" "WordPress/4.3.17; http://www.ikbensterdam.com"
52.173.241.248 - - [06/Nov/2018:08:19:45 +0000] "GET / HTTP/1.1" 301 5 "-" "Mozilla/5.0 (Macintosh; Intel Mac OS X 10_13_3) AppleWebKit/537.36 (KHTML, like Gecko) Chrome/65.0.3325.181 Safari/537.36"
97.74.228.245 - - [06/Nov/2018:08:34:40 +0000] "POST /xmlrpc.php HTTP/1.1" 200 403 "-" "Mozilla/5.0 (Macintosh; U; Intel Mac OS X 10.6; fr; rv:1.9.2.8) Gecko/20100722 Firefox/3.6.8"
31.170.123.73 - - [06/Nov/2018:09:16:43 +0000] "POST /wp-cron.php?doing_wp_cron=1541495803.1188130378723144531250 HTTP/1.0" 200 0 "-" "WordPress/4.3.17; http://www.ikbensterdam.com"
192.185.176.14 - - [06/Nov/2018:09:16:43 +0000] "GET /wp-caches.php HTTP/1.1" 301 5 "http://site.ru" "Mozilla/5.0 (Windows; U; Windows NT 5.1; en-US) AppleWebKit/533.4 (KHTML, like Gecko) Chrome/5.0.375.99 Safari/533.4"
31.170.123.73 - - [06/Nov/2018:09:36:47 +0000] "POST /wp-cron.php?doing_wp_cron=1541497006.6337239742279052734375 HTTP/1.0" 200 0 "-" "WordPress/4.3.17; http://www.ikbensterdam.com"
31.170.123.73 - - [06/Nov/2018:09:36:47 +0000] "POST /wp-cron.php?doing_wp_cron=1541497006.6339070796966552734375 HTTP/1.0" 200 0 "-" "WordPress/4.3.17; http://www.ikbensterdam.com"
123.57.254.142 - - [06/Nov/2018:09:36:47 +0000] "POST /xmlrpc.php HTTP/1.1" 200 403 "-" "Mozilla/5.0 (Macintosh; U; Intel Mac OS X 10.6; fr; rv:1.9.2.8) Gecko/20100722 Firefox/3.6.8"
123.57.254.142 - - [06/Nov/2018:09:36:47 +0000] "POST /xmlrpc.php HTTP/1.1" 200 403 "-" "Mozilla/5.0 (Macintosh; U; Intel Mac OS X 10.6; fr; rv:1.9.2.8) Gecko/20100722 Firefox/3.6.8"
81.2.235.221 - - [06/Nov/2018:09:43:41 +0000] "GET /wp-content/themes/gaukingo/db.php HTTP/1.1" 301 5 "http://site.ru" "Mozilla/5.0 (Windows; U; Windows NT 5.1; en-US) AppleWebKit/533.4 (KHTML, like Gecko) Chrome/5.0.375.99 Safari/533.4"
31.170.123.73 - - [06/Nov/2018:10:15:21 +0000] "POST /wp-cron.php?doing_wp_cron=1541499321.1351768970489501953125 HTTP/1.0" 200 0 "-" "WordPress/4.3.17; http://www.ikbensterdam.com"
77.104.148.202 - - [06/Nov/2018:10:15:21 +0000] "GET /wp-includes/admin_login.php HTTP/1.1" 301 5 "http://site.ru" "Mozilla/5.0 (Windows; U; Windows NT 5.1; en-US) AppleWebKit/533.4 (KHTML, like Gecko) Chrome/5.0.375.99 Safari/533.4"
77.104.148.202 - - [06/Nov/2018:10:15:22 +0000] "GET /wp-includes/admin_login.php HTTP/1.1" 404 35258 "http://site.ru" "Mozilla/5.0 (Windows; U; Windows NT 5.1; en-US) AppleWebKit/533.4 (KHTML, like Gecko) Chrome/5.0.375.99 Safari/533.4"
31.170.123.73 - - [06/Nov/2018:10:40:21 +0000] "POST /wp-cron.php?doing_wp_cron=1541500820.6795690059661865234375 HTTP/1.0" 200 0 "-" "WordPress/4.3.17; http://www.ikbensterdam.com"
178.154.200.6 - - [06/Nov/2018:10:40:21 +0000] "GET /robots.txt HTTP/1.1" 200 46 "-" "Mozilla/5.0 (compatible; YandexBot/3.0; +http://yandex.com/bots)"
178.154.244.10 - - [06/Nov/2018:10:40:24 +0000] "GET /favicon.ico HTTP/1.1" 200 0 "-" "Mozilla/5.0 (compatible; YandexBot/3.0; +http://yandex.com/bots)"
178.154.244.10 - - [06/Nov/2018:10:45:11 +0000] "GET /xmlrpc.php?rsd HTTP/1.1" 200 318 "-" "Mozilla/5.0 (compatible; YandexBot/3.0; +http://yandex.com/bots)"
97.74.228.245 - - [06/Nov/2018:10:47:45 +0000] "POST /xmlrpc.php HTTP/1.1" 200 403 "-" "Mozilla/5.0 (Macintosh; U; Intel Mac OS X 10.6; fr; rv:1.9.2.8) Gecko/20100722 Firefox/3.6.8"
180.76.15.155 - - [06/Nov/2018:10:59:16 +0000] "GET /wp-content/plugins/woocommerce/assets/js/jquery-blockui/jquery.blockUI.min.js HTTP/1.1" 200 3850 "-" "Mozilla/5.0 (compatible; Baiduspider/2.0; +http://www.baidu.com/search/spider.html)"
31.170.123.73 - - [06/Nov/2018:11:28:29 +0000] "POST /wp-cron.php?doing_wp_cron=1541503708.5441710948944091796875 HTTP/1.0" 200 0 "-" "WordPress/4.3.17; http://www.ikbensterdam.com"
91.247.38.48 - - [06/Nov/2018:11:28:29 +0000] "GET /wp-config.php~ HTTP/1.1" 301 5 "-" "-"
91.247.38.48 - - [06/Nov/2018:11:28:30 +0000] "GET /wp-config.php~ HTTP/1.1" 404 35209 "-" "-"
91.247.38.48 - - [06/Nov/2018:11:28:30 +0000] "GET /wp-config.php.bak HTTP/1.1" 301 5 "-" "-"
91.247.38.48 - - [06/Nov/2018:11:28:31 +0000] "GET /wp-config.php.bak HTTP/1.1" 404 35214 "-" "-"
91.247.38.48 - - [06/Nov/2018:11:28:31 +0000] "GET /wp-config.php.bak~ HTTP/1.1" 301 5 "-" "-"
91.247.38.48 - - [06/Nov/2018:11:28:32 +0000] "GET /wp-config.php.bak~ HTTP/1.1" 404 35225 "-" "-"
91.247.38.48 - - [06/Nov/2018:11:28:33 +0000] "GET /wp-config.bak.php HTTP/1.1" 301 5 "-" "-"
91.247.38.48 - - [06/Nov/2018:11:28:33 +0000] "GET /wp-config.bak.php HTTP/1.1" 404 35214 "-" "-"
91.247.38.48 - - [06/Nov/2018:11:28:34 +0000] "GET /wp-config.bak.php~ HTTP/1.1" 301 5 "-" "-"
91.247.38.48 - - [06/Nov/2018:11:28:35 +0000] "GET /wp-config.bak.php~ HTTP/1.1" 404 35225 "-" "-"
91.247.38.48 - - [06/Nov/2018:11:28:35 +0000] "GET /wp-config.php.old HTTP/1.1" 301 5 "-" "-"
91.247.38.48 - - [06/Nov/2018:11:28:36 +0000] "GET /wp-config.php.old HTTP/1.1" 404 35229 "-" "-"
91.247.38.48 - - [06/Nov/2018:11:28:37 +0000] "GET /wp-config.php.old~ HTTP/1.1" 301 5 "-" "-"
91.247.38.48 - - [06/Nov/2018:11:28:38 +0000] "GET /wp-config.php.old~ HTTP/1.1" 404 35218 "-" "-"
91.247.38.48 - - [06/Nov/2018:11:28:38 +0000] "GET /wp-config.php.1 HTTP/1.1" 301 5 "-" "-"
91.247.38.48 - - [06/Nov/2018:11:28:39 +0000] "GET /wp-config.php.1 HTTP/1.1" 404 35206 "-" "-"
91.247.38.48 - - [06/Nov/2018:11:28:40 +0000] "GET /wp-config.php1 HTTP/1.1" 301 5 "-" "-"
91.247.38.48 - - [06/Nov/2018:11:28:40 +0000] "GET /wp-config.php1 HTTP/1.1" 404 35209 "-" "-"
91.247.38.48 - - [06/Nov/2018:11:28:41 +0000] "GET /wp-config.php.123 HTTP/1.1" 301 5 "-" "-"
91.247.38.48 - - [06/Nov/2018:11:28:42 +0000] "GET /wp-config.php.123 HTTP/1.1" 404 35214 "-" "-"
91.247.38.48 - - [06/Nov/2018:11:28:42 +0000] "GET /wp-config.php.backup HTTP/1.1" 301 5 "-" "-"
91.247.38.48 - - [06/Nov/2018:11:28:43 +0000] "GET /wp-config.php.backup HTTP/1.1" 404 35225 "-" "-"
91.247.38.48 - - [06/Nov/2018:11:28:44 +0000] "GET /wp-config.temp HTTP/1.1" 301 5 "-" "-"
91.247.38.48 - - [06/Nov/2018:11:28:44 +0000] "GET /wp-config.temp HTTP/1.1" 404 35202 "-" "-"
91.247.38.48 - - [06/Nov/2018:11:28:45 +0000] "GET /wp-config.php.tmp HTTP/1.1" 301 5 "-" "-"
91.247.38.48 - - [06/Nov/2018:11:28:46 +0000] "GET /wp-config.php.tmp HTTP/1.1" 404 35214 "-" "-"
91.247.38.48 - - [06/Nov/2018:11:28:46 +0000] "GET /wp-config.tmp HTTP/1.1" 301 5 "-" "-"
91.247.38.48 - - [06/Nov/2018:11:28:47 +0000] "GET /wp-config.tmp HTTP/1.1" 404 35198 "-" "-"
91.247.38.48 - - [06/Nov/2018:11:28:47 +0000] "GET /wp-config.php.temp HTTP/1.1" 301 5 "-" "-"
91.247.38.48 - - [06/Nov/2018:11:28:48 +0000] "GET /wp-config.php.temp HTTP/1.1" 404 35218 "-" "-"
31.170.123.73 - - [06/Nov/2018:11:44:02 +0000] "POST /wp-cron.php?doing_wp_cron=1541504641.5799698829650878906250 HTTP/1.0" 200 0 "-" "WordPress/4.3.17; http://www.ikbensterdam.com"
52.165.166.139 - - [06/Nov/2018:11:44:02 +0000] "GET / HTTP/1.1" 301 5 "-" "Mozilla/5.0 (Windows NT 10.0; Win64; x64) AppleWebKit/537.36 (KHTML, like Gecko) Chrome/58.0.3029.110 Safari/537.36 Edge/16.16299"
31.170.123.73 - - [06/Nov/2018:12:14:59 +0000] "POST /wp-cron.php?doing_wp_cron=1541506498.9620749950408935546875 HTTP/1.0" 200 0 "-" "WordPress/4.3.17; http://www.ikbensterdam.com"
46.242.242.91 - - [06/Nov/2018:12:14:59 +0000] "GET /wp-mains.php HTTP/1.1" 301 5 "http://site.ru" "Mozilla/5.0 (Windows; U; Windows NT 5.1; en-US) AppleWebKit/533.4 (KHTML, like Gecko) Chrome/5.0.375.99 Safari/533.4"
46.242.242.91 - - [06/Nov/2018:12:15:00 +0000] "GET /wp-mains.php HTTP/1.1" 404 35209 "http://site.ru" "Mozilla/5.0 (Windows; U; Windows NT 5.1; en-US) AppleWebKit/533.4 (KHTML, like Gecko) Chrome/5.0.375.99 Safari/533.4"
31.170.123.73 - - [06/Nov/2018:13:05:05 +0000] "POST /wp-cron.php?doing_wp_cron=1541509504.7748990058898925781250 HTTP/1.0" 200 0 "-" "WordPress/4.3.17; http://www.ikbensterdam.com"
2a0a:7d80:1:7::95 - - [06/Nov/2018:13:05:05 +0000] "GET /logo_img.php HTTP/1.1" 301 5 "http://site.ru" "Mozilla/5.0 (Windows; U; Windows NT 5.1; en-US) AppleWebKit/533.4 (KHTML, like Gecko) Chrome/5.0.375.99 Safari/533.4"
2a0a:7d80:1:7::95 - - [06/Nov/2018:13:05:06 +0000] "GET /logo_img.php HTTP/1.1" 404 35201 "http://site.ru" "Mozilla/5.0 (Windows; U; Windows NT 5.1; en-US) AppleWebKit/533.4 (KHTML, like Gecko) Chrome/5.0.375.99 Safari/533.4"
111.38.233.170 - - [06/Nov/2018:13:16:02 +0000] "POST /wp-login.php HTTP/1.1" 200 8086 "-" "Opera/9.80 (Windows NT 6.0) Presto/2.12.388 Version/12.14"
97.74.228.245 - - [06/Nov/2018:13:21:30 +0000] "POST /xmlrpc.php HTTP/1.1" 200 403 "-" "Mozilla/5.0 (Macintosh; U; Intel Mac OS X 10.6; fr; rv:1.9.2.8) Gecko/20100722 Firefox/3.6.8"
31.170.123.73 - - [06/Nov/2018:14:04:12 +0000] "POST /wp-cron.php?doing_wp_cron=1541513051.6208729743957519531250 HTTP/1.0" 200 0 "-" "WordPress/4.3.17; http://www.ikbensterdam.com"
192.95.30.29 - - [06/Nov/2018:14:04:12 +0000] "GET /wp-content/plugins/apikey/apikey.php?test=hello HTTP/1.1" 301 5 "-" "Mozilla/5.0 (Windows NT 6.1; Trident/7.0; rv:11.0) like Gecko"
192.95.30.29 - - [06/Nov/2018:14:04:13 +0000] "GET /wp-content/plugins/apikey/apikey.php?test=hello HTTP/1.1" 404 8933 "-" "Mozilla/5.0 (Windows NT 6.1; Trident/7.0; rv:11.0) like Gecko"
31.170.123.73 - - [06/Nov/2018:15:03:13 +0000] "POST /wp-cron.php?doing_wp_cron=1541516592.6076149940490722656250 HTTP/1.0" 200 0 "-" "WordPress/4.3.17; http://www.ikbensterdam.com"
182.55.245.77 - - [06/Nov/2018:15:03:13 +0000] "GET /wp-content/plugins/resizer-img/accdb.php HTTP/1.1" 301 5 "http://site.ru" "Mozilla/5.0 (Windows; U; Windows NT 5.1; en-US) AppleWebKit/533.4 (KHTML, like Gecko) Chrome/5.0.375.99 Safari/533.4"
182.55.245.77 - - [06/Nov/2018:15:03:14 +0000] "GET /wp-content/plugins/resizer-img/accdb.php HTTP/1.1" 404 35318 "http://site.ru" "Mozilla/5.0 (Windows; U; Windows NT 5.1; en-US) AppleWebKit/533.4 (KHTML, like Gecko) Chrome/5.0.375.99 Safari/533.4"
97.74.228.245 - - [06/Nov/2018:15:35:31 +0000] "POST /xmlrpc.php HTTP/1.1" 200 403 "-" "Mozilla/5.0 (Macintosh; U; Intel Mac OS X 10.6; fr; rv:1.9.2.8) Gecko/20100722 Firefox/3.6.8"
31.170.123.73 - - [06/Nov/2018:15:53:59 +0000] "POST /wp-cron.php?doing_wp_cron=1541519638.7324190139770507812500 HTTP/1.0" 200 0 "-" "WordPress/4.3.17; http://www.ikbensterdam.com"
185.86.164.108 - - [06/Nov/2018:15:53:59 +0000] "GET /wp-login.php HTTP/1.1" 200 7092 "-" "Mozilla/5.0 (Windows NT 10.0; WOW64) AppleWebKit/537.36 (KHTML, like Gecko) Chrome/51.0.2704.103 Safari/537.36"
185.86.164.108 - - [06/Nov/2018:15:54:00 +0000] "POST /wp-login.php HTTP/1.1" 200 8035 "http://www.ikbensterdam.com/wp-login.php" "Mozilla/5.0 (Windows NT 10.0; WOW64) AppleWebKit/537.36 (KHTML, like Gecko) Chrome/51.0.2704.103 Safari/537.36"
89.248.169.130 - - [06/Nov/2018:16:00:52 +0000] "POST /xmlrpc.php HTTP/1.1" 200 403 "-" "Mozilla/5.0 (Macintosh; U; Intel Mac OS X 10.6; fr; rv:1.9.2.8) Gecko/20100722 Firefox/3.6.8"
89.248.169.130 - - [06/Nov/2018:16:00:52 +0000] "POST /xmlrpc.php HTTP/1.1" 200 403 "-" "Mozilla/5.0 (Macintosh; U; Intel Mac OS X 10.6; fr; rv:1.9.2.8) Gecko/20100722 Firefox/3.6.8"
89.248.169.130 - - [06/Nov/2018:16:00:53 +0000] "POST /xmlrpc.php HTTP/1.1" 200 403 "-" "Mozilla/5.0 (Macintosh; U; Intel Mac OS X 10.6; fr; rv:1.9.2.8) Gecko/20100722 Firefox/3.6.8"
89.248.169.130 - - [06/Nov/2018:16:00:58 +0000] "POST /xmlrpc.php HTTP/1.1" 200 403 "-" "Mozilla/5.0 (Macintosh; U; Intel Mac OS X 10.6; fr; rv:1.9.2.8) Gecko/20100722 Firefox/3.6.8"
31.170.123.73 - - [06/Nov/2018:16:09:22 +0000] "POST /wp-cron.php?doing_wp_cron=1541520562.3157110214233398437500 HTTP/1.0" 200 0 "-" "WordPress/4.3.17; http://www.ikbensterdam.com"
104.168.2.139 - - [06/Nov/2018:16:09:23 +0000] "GET / HTTP/1.0" 301 0 "-" "Mozilla/5.0 (Windows NT 10.0; Win64; x64) AppleWebKit/537.36 (KHTML, like Gecko) Chrome/69.0.3497.100 Safari/537.36"
104.168.2.139 - - [06/Nov/2018:16:09:25 +0000] "GET / HTTP/1.0" 200 48668 "http://ikbensterdam.com" "Mozilla/5.0 (Windows NT 10.0; Win64; x64) AppleWebKit/537.36 (KHTML, like Gecko) Chrome/69.0.3497.100 Safari/537.36"
104.227.77.214 - - [06/Nov/2018:16:09:27 +0000] "GET /xmlrpc.php?rsd HTTP/1.0" 200 753 "http://www.ikbensterdam.com/" "Mozilla/5.0 (Windows NT 10.0; Win64; x64) AppleWebKit/537.36 (KHTML, like Gecko) Chrome/69.0.3497.100 Safari/537.36"
104.227.77.214 - - [06/Nov/2018:16:09:28 +0000] "GET /xmlrpc.php HTTP/1.0" 405 42 "http://www.ikbensterdam.com/" "Mozilla/5.0 (Windows NT 10.0; Win64; x64) AppleWebKit/537.36 (KHTML, like Gecko) Chrome/69.0.3497.100 Safari/537.36"
104.227.77.214 - - [06/Nov/2018:16:09:29 +0000] "GET /wp-includes/wlwmanifest.xml HTTP/1.0" 200 1045 "http://www.ikbensterdam.com/" "Mozilla/5.0 (Windows NT 10.0; Win64; x64) AppleWebKit/537.36 (KHTML, like Gecko) Chrome/69.0.3497.100 Safari/537.36"
104.227.77.214 - - [06/Nov/2018:16:09:29 +0000] "GET /wp-includes/js/underscore.min.js?ver=1.6.0 HTTP/1.0" 200 14643 "http://www.ikbensterdam.com/" "Mozilla/5.0 (Windows NT 10.0; Win64; x64) AppleWebKit/537.36 (KHTML, like Gecko) Chrome/69.0.3497.100 Safari/537.36"
104.227.77.214 - - [06/Nov/2018:16:09:30 +0000] "GET /wp-includes/js/jquery/ui/datepicker.min.js?ver=1.11.4 HTTP/1.0" 200 36534 "http://www.ikbensterdam.com/" "Mozilla/5.0 (Windows NT 10.0; Win64; x64) AppleWebKit/537.36 (KHTML, like Gecko) Chrome/69.0.3497.100 Safari/537.36"
104.227.77.214 - - [06/Nov/2018:16:09:30 +0000] "GET /wp-includes/js/jquery/ui/core.min.js?ver=1.11.4 HTTP/1.0" 200 3997 "http://www.ikbensterdam.com/" "Mozilla/5.0 (Windows NT 10.0; Win64; x64) AppleWebKit/537.36 (KHTML, like Gecko) Chrome/69.0.3497.100 Safari/537.36"
104.227.77.214 - - [06/Nov/2018:16:09:31 +0000] "GET /wp-includes/js/jquery/jquery.js?ver=1.11.3 HTTP/1.0" 200 95977 "http://www.ikbensterdam.com/" "Mozilla/5.0 (Windows NT 10.0; Win64; x64) AppleWebKit/537.36 (KHTML, like Gecko) Chrome/69.0.3497.100 Safari/537.36"
104.227.77.214 - - [06/Nov/2018:16:09:32 +0000] "GET /wp-includes/js/jquery/jquery-migrate.min.js?ver=1.2.1 HTTP/1.0" 200 7200 "http://www.ikbensterdam.com/" "Mozilla/5.0 (Windows NT 10.0; Win64; x64) AppleWebKit/537.36 (KHTML, like Gecko) Chrome/69.0.3497.100 Safari/537.36"
104.227.77.214 - - [06/Nov/2018:16:09:32 +0000] "GET /wp-includes/js/comment-reply.min.js?ver=4.3.17 HTTP/1.0" 200 757 "http://www.ikbensterdam.com/" "Mozilla/5.0 (Windows NT 10.0; Win64; x64) AppleWebKit/537.36 (KHTML, like Gecko) Chrome/69.0.3497.100 Safari/537.36"
104.227.77.214 - - [06/Nov/2018:16:09:32 +0000] "GET /wp-content/uploads/masterslider/custom.css?ver=1.1 HTTP/1.0" 200 266 "http://www.ikbensterdam.com/" "Mozilla/5.0 (Windows NT 10.0; Win64; x64) AppleWebKit/537.36 (KHTML, like Gecko) Chrome/69.0.3497.100 Safari/537.36"
104.227.77.214 - - [06/Nov/2018:16:09:33 +0000] "GET /wp-content/uploads/2016/01/logo-white.png HTTP/1.0" 200 5255 "http://www.ikbensterdam.com/" "Mozilla/5.0 (Windows NT 10.0; Win64; x64) AppleWebKit/537.36 (KHTML, like Gecko) Chrome/69.0.3497.100 Safari/537.36"
104.227.77.214 - - [06/Nov/2018:16:09:33 +0000] "GET /wp-content/uploads/2016/01/favicon.ico HTTP/1.0" 200 4286 "http://www.ikbensterdam.com/" "Mozilla/5.0 (Windows NT 10.0; Win64; x64) AppleWebKit/537.36 (KHTML, like Gecko) Chrome/69.0.3497.100 Safari/537.36"
104.227.77.214 - - [06/Nov/2018:16:09:34 +0000] "GET /wp-content/uploads/2014/04/2.jpg HTTP/1.0" 200 210081 "http://www.ikbensterdam.com/" "Mozilla/5.0 (Windows NT 10.0; Win64; x64) AppleWebKit/537.36 (KHTML, like Gecko) Chrome/69.0.3497.100 Safari/537.36"
104.227.77.214 - - [06/Nov/2018:16:09:35 +0000] "GET /wp-content/themes/lms/style.css?ver=4.3.17 HTTP/1.0" 200 126488 "http://www.ikbensterdam.com/" "Mozilla/5.0 (Windows NT 10.0; Win64; x64) AppleWebKit/537.36 (KHTML, like Gecko) Chrome/69.0.3497.100 Safari/537.36"
104.227.77.214 - - [06/Nov/2018:16:09:36 +0000] "GET /wp-content/themes/lms/skins/white-gray/style.css?ver=4.3.17 HTTP/1.0" 200 47738 "http://www.ikbensterdam.com/" "Mozilla/5.0 (Windows NT 10.0; Win64; x64) AppleWebKit/537.36 (KHTML, like Gecko) Chrome/69.0.3497.100 Safari/537.36"
104.227.77.214 - - [06/Nov/2018:16:09:37 +0000] "GET /wp-content/themes/lms/responsive.css?ver=4.3.17 HTTP/1.0" 200 118912 "http://www.ikbensterdam.com/" "Mozilla/5.0 (Windows NT 10.0; Win64; x64) AppleWebKit/537.36 (KHTML, like Gecko) Chrome/69.0.3497.100 Safari/537.36"
104.227.77.214 - - [06/Nov/2018:16:09:38 +0000] "GET /wp-content/themes/lms/images/apple-touch-icon.png HTTP/1.0" 200 1251 "http://www.ikbensterdam.com/" "Mozilla/5.0 (Windows NT 10.0; Win64; x64) AppleWebKit/537.36 (KHTML, like Gecko) Chrome/69.0.3497.100 Safari/537.36"
104.227.77.214 - - [06/Nov/2018:16:09:38 +0000] "GET /wp-content/themes/lms/images/apple-touch-icon-72x72.png HTTP/1.0" 200 1768 "http://www.ikbensterdam.com/" "Mozilla/5.0 (Windows NT 10.0; Win64; x64) AppleWebKit/537.36 (KHTML, like Gecko) Chrome/69.0.3497.100 Safari/537.36"
104.227.77.214 - - [06/Nov/2018:16:09:39 +0000] "GET /wp-content/themes/lms/images/apple-touch-icon-144x144.png HTTP/1.0" 200 4325 "http://www.ikbensterdam.com/" "Mozilla/5.0 (Windows NT 10.0; Win64; x64) AppleWebKit/537.36 (KHTML, like Gecko) Chrome/69.0.3497.100 Safari/537.36"
104.227.77.214 - - [06/Nov/2018:16:09:40 +0000] "GET /wp-content/themes/lms/images/apple-touch-icon-114x114.png HTTP/1.0" 200 3273 "http://www.ikbensterdam.com/" "Mozilla/5.0 (Windows NT 10.0; Win64; x64) AppleWebKit/537.36 (KHTML, like Gecko) Chrome/69.0.3497.100 Safari/537.36"
104.227.77.214 - - [06/Nov/2018:16:09:40 +0000] "GET /wp-content/themes/lms/framework/woocommerce/style.css?ver=4.3.17 HTTP/1.0" 200 81958 "http://www.ikbensterdam.com/" "Mozilla/5.0 (Windows NT 10.0; Win64; x64) AppleWebKit/537.36 (KHTML, like Gecko) Chrome/69.0.3497.100 Safari/537.36"
104.227.77.214 - - [06/Nov/2018:16:09:41 +0000] "GET /wp-content/themes/lms/framework/js/public/toucheffects.js?ver=4.3.17 HTTP/1.0" 200 2180 "http://www.ikbensterdam.com/" "Mozilla/5.0 (Windows NT 10.0; Win64; x64) AppleWebKit/537.36 (KHTML, like Gecko) Chrome/69.0.3497.100 Safari/537.36"
104.227.77.214 - - [06/Nov/2018:16:09:41 +0000] "GET /wp-content/themes/lms/framework/js/public/modernizr.min.js?ver=4.3.17 HTTP/1.0" 200 15418 "http://www.ikbensterdam.com/" "Mozilla/5.0 (Windows NT 10.0; Win64; x64) AppleWebKit/537.36 (KHTML, like Gecko) Chrome/69.0.3497.100 Safari/537.36"
104.227.77.214 - - [06/Nov/2018:16:09:42 +0000] "GET /wp-content/themes/lms/framework/js/public/jquery.ui.totop.min.js?ver=4.3.17 HTTP/1.0" 200 1334 "http://www.ikbensterdam.com/" "Mozilla/5.0 (Windows NT 10.0; Win64; x64) AppleWebKit/537.36 (KHTML, like Gecko) Chrome/69.0.3497.100 Safari/537.36"
104.227.77.214 - - [06/Nov/2018:16:09:43 +0000] "GET /wp-content/themes/lms/framework/js/public/jquery.tablesorter.min.js?ver=4.3.17 HTTP/1.0" 200 16520 "http://www.ikbensterdam.com/" "Mozilla/5.0 (Windows NT 10.0; Win64; x64) AppleWebKit/537.36 (KHTML, like Gecko) Chrome/69.0.3497.100 Safari/537.36"
104.227.77.214 - - [06/Nov/2018:16:09:44 +0000] "GET /wp-content/themes/lms/framework/js/public/jquery.sticky.js?ver=4.3.17 HTTP/1.0" 200 5064 "http://www.ikbensterdam.com/" "Mozilla/5.0 (Windows NT 10.0; Win64; x64) AppleWebKit/537.36 (KHTML, like Gecko) Chrome/69.0.3497.100 Safari/537.36"
104.227.77.214 - - [06/Nov/2018:16:09:45 +0000] "GET /wp-content/themes/lms/framework/js/public/jquery.smartresize.js?ver=4.3.17 HTTP/1.0" 200 1035 "http://www.ikbensterdam.com/" "Mozilla/5.0 (Windows NT 10.0; Win64; x64) AppleWebKit/537.36 (KHTML, like Gecko) Chrome/69.0.3497.100 Safari/537.36"
104.227.77.214 - - [06/Nov/2018:16:09:45 +0000] "GET /wp-content/themes/lms/framework/js/public/jquery.prettyPhoto.js?ver=4.3.17 HTTP/1.0" 200 36212 "http://www.ikbensterdam.com/" "Mozilla/5.0 (Windows NT 10.0; Win64; x64) AppleWebKit/537.36 (KHTML, like Gecko) Chrome/69.0.3497.100 Safari/537.36"
104.227.77.214 - - [06/Nov/2018:16:09:45 +0000] "GET /wp-content/themes/lms/framework/js/public/jquery.nicescroll.min.js?ver=4.3.17 HTTP/1.0" 200 50330 "http://www.ikbensterdam.com/" "Mozilla/5.0 (Windows NT 10.0; Win64; x64) AppleWebKit/537.36 (KHTML, like Gecko) Chrome/69.0.3497.100 Safari/537.36"
104.227.77.214 - - [06/Nov/2018:16:09:46 +0000] "GET /wp-content/themes/lms/framework/js/public/jquery.isotope.min.js?ver=4.3.17 HTTP/1.0" 200 16860 "http://www.ikbensterdam.com/" "Mozilla/5.0 (Windows NT 10.0; Win64; x64) AppleWebKit/537.36 (KHTML, like Gecko) Chrome/69.0.3497.100 Safari/537.36"
104.227.77.214 - - [06/Nov/2018:16:09:47 +0000] "GET /wp-content/themes/lms/framework/js/public/jquery.fitvids.js?ver=4.3.17 HTTP/1.0" 200 2944 "http://www.ikbensterdam.com/" "Mozilla/5.0 (Windows NT 10.0; Win64; x64) AppleWebKit/537.36 (KHTML, like Gecko) Chrome/69.0.3497.100 Safari/537.36"
104.227.77.214 - - [06/Nov/2018:16:09:47 +0000] "GET /wp-content/themes/lms/framework/js/public/jquery.bxslider.js?ver=4.3.17 HTTP/1.0" 200 50786 "http://www.ikbensterdam.com/" "Mozilla/5.0 (Windows NT 10.0; Win64; x64) AppleWebKit/537.36 (KHTML, like Gecko) Chrome/69.0.3497.100 Safari/537.36"
104.227.77.214 - - [06/Nov/2018:16:09:48 +0000] "GET /wp-content/themes/lms/framework/js/public/easing.js?ver=4.3.17 HTTP/1.0" 200 4900 "http://www.ikbensterdam.com/" "Mozilla/5.0 (Windows NT 10.0; Win64; x64) AppleWebKit/537.36 (KHTML, like Gecko) Chrome/69.0.3497.100 Safari/537.36"
104.227.77.214 - - [06/Nov/2018:16:09:48 +0000] "GET /wp-content/themes/lms/framework/js/public/custom.js?ver=4.3.17 HTTP/1.0" 200 11856 "http://www.ikbensterdam.com/" "Mozilla/5.0 (Windows NT 10.0; Win64; x64) AppleWebKit/537.36 (KHTML, like Gecko) Chrome/69.0.3497.100 Safari/537.36"
104.227.77.214 - - [06/Nov/2018:16:09:48 +0000] "GET /wp-content/themes/lms/framework/js/public/ajax-courses.js?ver=4.3.17 HTTP/1.0" 200 8855 "http://www.ikbensterdam.com/" "Mozilla/5.0 (Windows NT 10.0; Win64; x64) AppleWebKit/537.36 (KHTML, like Gecko) Chrome/69.0.3497.100 Safari/537.36"
104.227.77.214 - - [06/Nov/2018:16:09:49 +0000] "GET /wp-content/themes/lms/framework/ HTTP/1.0" 403 234 "http://www.ikbensterdam.com/" "Mozilla/5.0 (Windows NT 10.0; Win64; x64) AppleWebKit/537.36 (KHTML, like Gecko) Chrome/69.0.3497.100 Safari/537.36"
162.244.144.245 - - [06/Nov/2018:16:09:49 +0000] "GET /wp-content/themes/lms/framework/ HTTP/1.0" 403 234 "http://www.ikbensterdam.com/" "Mozilla/5.0 (Windows NT 10.0; Win64; x64) AppleWebKit/537.36 (KHTML, like Gecko) Chrome/69.0.3497.100 Safari/537.36"
167.160.64.119 - - [06/Nov/2018:16:09:50 +0000] "GET /wp-content/themes/lms/framework/ HTTP/1.0" 403 234 "http://www.ikbensterdam.com/" "Mozilla/5.0 (Windows NT 10.0; Win64; x64) AppleWebKit/537.36 (KHTML, like Gecko) Chrome/69.0.3497.100 Safari/537.36"
167.160.67.25 - - [06/Nov/2018:16:09:51 +0000] "GET /wp-content/themes/lms/framework/ HTTP/1.0" 403 234 "http://www.ikbensterdam.com/" "Mozilla/5.0 (Windows NT 10.0; Win64; x64) AppleWebKit/537.36 (KHTML, like Gecko) Chrome/69.0.3497.100 Safari/537.36"
167.160.71.91 - - [06/Nov/2018:16:09:52 +0000] "GET /wp-content/themes/lms/css/stroke-gap-icons.min.css?ver=4.3.17 HTTP/1.0" 200 113745 "http://www.ikbensterdam.com/" "Mozilla/5.0 (Windows NT 10.0; Win64; x64) AppleWebKit/537.36 (KHTML, like Gecko) Chrome/69.0.3497.100 Safari/537.36"
167.160.71.91 - - [06/Nov/2018:16:09:53 +0000] "GET /wp-content/themes/lms/css/font-awesome.min.css?ver=4.3.17 HTTP/1.0" 200 27466 "http://www.ikbensterdam.com/" "Mozilla/5.0 (Windows NT 10.0; Win64; x64) AppleWebKit/537.36 (KHTML, like Gecko) Chrome/69.0.3497.100 Safari/537.36"
167.160.71.91 - - [06/Nov/2018:16:09:54 +0000] "GET /wp-content/themes/lms/css/buddypress.css?ver=2.4.4 HTTP/1.0" 200 50996 "http://www.ikbensterdam.com/" "Mozilla/5.0 (Windows NT 10.0; Win64; x64) AppleWebKit/537.36 (KHTML, like Gecko) Chrome/69.0.3497.100 Safari/537.36"
167.160.71.91 - - [06/Nov/2018:16:09:55 +0000] "GET /wp-content/themes/lms/PIE.php HTTP/1.0" 404 35253 "http://www.ikbensterdam.com/" "Mozilla/5.0 (Windows NT 10.0; Win64; x64) AppleWebKit/537.36 (KHTML, like Gecko) Chrome/69.0.3497.100 Safari/537.36"
167.160.71.91 - - [06/Nov/2018:16:09:57 +0000] "GET /wp-content/themes/lms/ HTTP/1.0" 200 181 "http://www.ikbensterdam.com/" "Mozilla/5.0 (Windows NT 10.0; Win64; x64) AppleWebKit/537.36 (KHTML, like Gecko) Chrome/69.0.3497.100 Safari/537.36"
167.160.71.91 - - [06/Nov/2018:16:09:58 +0000] "GET /wp-content/plugins/yith-woocommerce-wishlist/assets/js/jquery.yith-wcwl.js?ver=2.0.13 HTTP/1.0" 200 9960 "http://www.ikbensterdam.com/" "Mozilla/5.0 (Windows NT 10.0; Win64; x64) AppleWebKit/537.36 (KHTML, like Gecko) Chrome/69.0.3497.100 Safari/537.36"
167.160.71.91 - - [06/Nov/2018:16:09:59 +0000] "GET /wp-content/plugins/yith-woocommerce-wishlist/assets/js/jquery.selectBox.min.js?ver=1.2.0 HTTP/1.0" 200 15736 "http://www.ikbensterdam.com/" "Mozilla/5.0 (Windows NT 10.0; Win64; x64) AppleWebKit/537.36 (KHTML, like Gecko) Chrome/69.0.3497.100 Safari/537.36"
167.160.71.91 - - [06/Nov/2018:16:10:00 +0000] "GET /wp-content/plugins/yith-woocommerce-wishlist/assets/css/style.css?ver=2.0.13 HTTP/1.0" 200 14197 "http://www.ikbensterdam.com/" "Mozilla/5.0 (Windows NT 10.0; Win64; x64) AppleWebKit/537.36 (KHTML, like Gecko) Chrome/69.0.3497.100 Safari/537.36"
167.160.71.91 - - [06/Nov/2018:16:10:00 +0000] "GET /wp-content/plugins/yith-woocommerce-wishlist/assets/css/jquery.selectBox.css?ver=1.2.0 HTTP/1.0" 200 3572 "http://www.ikbensterdam.com/" "Mozilla/5.0 (Windows NT 10.0; Win64; x64) AppleWebKit/537.36 (KHTML, like Gecko) Chrome/69.0.3497.100 Safari/537.36"
167.160.71.91 - - [06/Nov/2018:16:10:01 +0000] "GET /wp-content/plugins/yith-woocommerce-wishlist/assets/css/font-awesome.min.css?ver=4.3.0 HTTP/1.0" 200 23775 "http://www.ikbensterdam.com/" "Mozilla/5.0 (Windows NT 10.0; Win64; x64) AppleWebKit/537.36 (KHTML, like Gecko) Chrome/69.0.3497.100 Safari/537.36"
167.160.71.91 - - [06/Nov/2018:16:10:01 +0000] "GET /wp-content/plugins/yith-woocommerce-quick-view/assets/js/frontend.js?ver=1.0 HTTP/1.0" 200 4460 "http://www.ikbensterdam.com/" "Mozilla/5.0 (Windows NT 10.0; Win64; x64) AppleWebKit/537.36 (KHTML, like Gecko) Chrome/69.0.3497.100 Safari/537.36"
167.160.71.91 - - [06/Nov/2018:16:10:03 +0000] "GET /wp-content/plugins/yith-woocommerce-quick-view/assets/css/yith-quick-view.css?ver=4.3.17 HTTP/1.0" 200 3058 "http://www.ikbensterdam.com/" "Mozilla/5.0 (Windows NT 10.0; Win64; x64) AppleWebKit/537.36 (KHTML, like Gecko) Chrome/69.0.3497.100 Safari/537.36"
167.160.71.91 - - [06/Nov/2018:16:10:04 +0000] "GET /wp-content/plugins/yith-woocommerce-compare/assets/js/woocompare.js?ver=2.0.6 HTTP/1.0" 200 8744 "http://www.ikbensterdam.com/" "Mozilla/5.0 (Windows NT 10.0; Win64; x64) AppleWebKit/537.36 (KHTML, like Gecko) Chrome/69.0.3497.100 Safari/537.36"
167.160.71.91 - - [06/Nov/2018:16:10:04 +0000] "GET /wp-content/plugins/yith-woocommerce-compare/assets/js/jquery.colorbox-min.js?ver=1.4.21 HTTP/1.0" 200 11825 "http://www.ikbensterdam.com/" "Mozilla/5.0 (Windows NT 10.0; Win64; x64) AppleWebKit/537.36 (KHTML, like Gecko) Chrome/69.0.3497.100 Safari/537.36"
167.160.71.91 - - [06/Nov/2018:16:10:05 +0000] "GET /wp-content/plugins/yith-woocommerce-compare/assets/css/colorbox.css?ver=4.3.17 HTTP/1.0" 200 3941 "http://www.ikbensterdam.com/" "Mozilla/5.0 (Windows NT 10.0; Win64; x64) AppleWebKit/537.36 (KHTML, like Gecko) Chrome/69.0.3497.100 Safari/537.36"
167.160.71.91 - - [06/Nov/2018:16:10:06 +0000] "GET /wp-content/plugins/wp-postratings/postratings-js.js?ver=1.83 HTTP/1.0" 200 3329 "http://www.ikbensterdam.com/" "Mozilla/5.0 (Windows NT 10.0; Win64; x64) AppleWebKit/537.36 (KHTML, like Gecko) Chrome/69.0.3497.100 Safari/537.36"
167.160.71.91 - - [06/Nov/2018:16:10:07 +0000] "GET /wp-content/plugins/wp-postratings/postratings-css.css?ver=1.83 HTTP/1.0" 200 1058 "http://www.ikbensterdam.com/" "Mozilla/5.0 (Windows NT 10.0; Win64; x64) AppleWebKit/537.36 (KHTML, like Gecko) Chrome/69.0.3497.100 Safari/537.36"
167.160.71.91 - - [06/Nov/2018:16:10:08 +0000] "GET /wp-content/plugins/revslider/rs-plugin/js/jquery.themepunch.tools.min.js?ver=4.6.93 HTTP/1.0" 200 100482 "http://www.ikbensterdam.com/" "Mozilla/5.0 (Windows NT 10.0; Win64; x64) AppleWebKit/537.36 (KHTML, like Gecko) Chrome/69.0.3497.100 Safari/537.36"
167.160.71.91 - - [06/Nov/2018:16:10:09 +0000] "GET /wp-content/plugins/revslider/rs-plugin/js/jquery.themepunch.revolution.min.js?ver=4.6.93 HTTP/1.0" 200 110031 "http://www.ikbensterdam.com/" "Mozilla/5.0 (Windows NT 10.0; Win64; x64) AppleWebKit/537.36 (KHTML, like Gecko) Chrome/69.0.3497.100 Safari/537.36"
167.160.71.91 - - [06/Nov/2018:16:10:10 +0000] "GET /wp-content/plugins/revslider/rs-plugin/css/settings.css?ver=4.6.93 HTTP/1.0" 200 55177 "http://www.ikbensterdam.com/" "Mozilla/5.0 (Windows NT 10.0; Win64; x64) AppleWebKit/537.36 (KHTML, like Gecko) Chrome/69.0.3497.100 Safari/537.36"
167.160.71.91 - - [06/Nov/2018:16:10:11 +0000] "GET /wp-content/plugins/responsive-maps-plugin/includes/css/resmap.min.css?ver=2.29 HTTP/1.0" 200 707 "http://www.ikbensterdam.com/" "Mozilla/5.0 (Windows NT 10.0; Win64; x64) AppleWebKit/537.36 (KHTML, like Gecko) Chrome/69.0.3497.100 Safari/537.36"
167.160.71.91 - - [06/Nov/2018:16:10:12 +0000] "GET /wp-content/plugins/mega_main_menu/src/js/frontend.js?ver=4.3.17 HTTP/1.0" 200 11211 "http://www.ikbensterdam.com/" "Mozilla/5.0 (Windows NT 10.0; Win64; x64) AppleWebKit/537.36 (KHTML, like Gecko) Chrome/69.0.3497.100 Safari/537.36"
167.160.71.91 - - [06/Nov/2018:16:10:13 +0000] "GET /wp-content/plugins/mega_main_menu/src/css/cache.skin.css?ver=4.3.17 HTTP/1.0" 200 95131 "http://www.ikbensterdam.com/" "Mozilla/5.0 (Windows NT 10.0; Win64; x64) AppleWebKit/537.36 (KHTML, like Gecko) Chrome/69.0.3497.100 Safari/537.36"
167.160.71.91 - - [06/Nov/2018:16:10:14 +0000] "GET /wp-content/plugins/mega_main_menu/framework/src/css/icomoon.css?ver=2.1.1 HTTP/1.0" 200 64663 "http://www.ikbensterdam.com/" "Mozilla/5.0 (Windows NT 10.0; Win64; x64) AppleWebKit/537.36 (KHTML, like Gecko) Chrome/69.0.3497.100 Safari/537.36"
167.160.71.91 - - [06/Nov/2018:16:10:15 +0000] "GET /wp-content/plugins/masterslider/public/assets/css/masterslider.main.css?ver=2.20.4 HTTP/1.0" 200 74007 "http://www.ikbensterdam.com/" "Mozilla/5.0 (Windows NT 10.0; Win64; x64) AppleWebKit/537.36 (KHTML, like Gecko) Chrome/69.0.3497.100 Safari/537.36"
167.160.71.91 - - [06/Nov/2018:16:10:16 +0000] "GET /wp-content/plugins/masterslider/public/assets/css/common/grabbing.cur HTTP/1.0" 200 326 "http://www.ikbensterdam.com/" "Mozilla/5.0 (Windows NT 10.0; Win64; x64) AppleWebKit/537.36 (KHTML, like Gecko) Chrome/69.0.3497.100 Safari/537.36"
167.160.71.91 - - [06/Nov/2018:16:10:16 +0000] "GET /wp-content/plugins/masterslider/public/assets/css/common/grab.cur HTTP/1.0" 200 326 "http://www.ikbensterdam.com/" "Mozilla/5.0 (Windows NT 10.0; Win64; x64) AppleWebKit/537.36 (KHTML, like Gecko) Chrome/69.0.3497.100 Safari/537.36"
167.160.71.91 - - [06/Nov/2018:16:10:17 +0000] "GET /wp-content/plugins/js_composer/assets/lib/waypoints/waypoints.min.js?ver=4.8.0.1 HTTP/1.0" 200 8044 "http://www.ikbensterdam.com/" "Mozilla/5.0 (Windows NT 10.0; Win64; x64) AppleWebKit/537.36 (KHTML, like Gecko) Chrome/69.0.3497.100 Safari/537.36"
167.160.71.91 - - [06/Nov/2018:16:10:18 +0000] "GET /wp-content/plugins/js_composer/assets/lib/prettyphoto/js/jquery.prettyPhoto.js?ver=4.8.0.1 HTTP/1.0" 200 35269 "http://www.ikbensterdam.com/" "Mozilla/5.0 (Windows NT 10.0; Win64; x64) AppleWebKit/537.36 (KHTML, like Gecko) Chrome/69.0.3497.100 Safari/537.36"
167.160.71.91 - - [06/Nov/2018:16:10:18 +0000] "GET /wp-content/plugins/js_composer/assets/lib/prettyphoto/css/prettyPhoto.css?ver=4.8.0.1 HTTP/1.0" 200 27154 "http://www.ikbensterdam.com/" "Mozilla/5.0 (Windows NT 10.0; Win64; x64) AppleWebKit/537.36 (KHTML, like Gecko) Chrome/69.0.3497.100 Safari/537.36"
167.160.71.91 - - [06/Nov/2018:16:10:19 +0000] "GET /wp-content/plugins/js_composer/assets/lib/owl-carousel2-dist/owl.carousel.js?ver=4.8.0.1 HTTP/1.0" 200 81021 "http://www.ikbensterdam.com/" "Mozilla/5.0 (Windows NT 10.0; Win64; x64) AppleWebKit/537.36 (KHTML, like Gecko) Chrome/69.0.3497.100 Safari/537.36"
167.160.71.91 - - [06/Nov/2018:16:10:20 +0000] "GET /wp-content/plugins/js_composer/assets/lib/owl-carousel2-dist/assets/owl.theme.default.css?ver=4.8.0.1 HTTP/1.0" 200 1394 "http://www.ikbensterdam.com/" "Mozilla/5.0 (Windows NT 10.0; Win64; x64) AppleWebKit/537.36 (KHTML, like Gecko) Chrome/69.0.3497.100 Safari/537.36"
167.160.71.91 - - [06/Nov/2018:16:10:21 +0000] "GET /wp-content/plugins/js_composer/assets/lib/owl-carousel2-dist/assets/owl.carousel.css?ver=4.8.0.1 HTTP/1.0" 200 4578 "http://www.ikbensterdam.com/" "Mozilla/5.0 (Windows NT 10.0; Win64; x64) AppleWebKit/537.36 (KHTML, like Gecko) Chrome/69.0.3497.100 Safari/537.36"
167.160.71.91 - - [06/Nov/2018:16:10:22 +0000] "GET /wp-content/plugins/js_composer/assets/lib/bower/imagesloaded/imagesloaded.pkgd.min.js?ver=4.3.17 HTTP/1.0" 200 6949 "http://www.ikbensterdam.com/" "Mozilla/5.0 (Windows NT 10.0; Win64; x64) AppleWebKit/537.36 (KHTML, like Gecko) Chrome/69.0.3497.100 Safari/537.36"
167.160.71.91 - - [06/Nov/2018:16:10:22 +0000] "GET /wp-content/plugins/js_composer/assets/lib/bower/animate-css/animate.min.css?ver=4.8.0.1 HTTP/1.0" 200 53431 "http://www.ikbensterdam.com/" "Mozilla/5.0 (Windows NT 10.0; Win64; x64) AppleWebKit/537.36 (KHTML, like Gecko) Chrome/69.0.3497.100 Safari/537.36"
167.160.71.91 - - [06/Nov/2018:16:10:23 +0000] "GET /wp-content/plugins/js_composer/assets/js/vendors/woocommerce-add-to-cart.js?ver=4.8.0.1 HTTP/1.0" 200 895 "http://www.ikbensterdam.com/" "Mozilla/5.0 (Windows NT 10.0; Win64; x64) AppleWebKit/537.36 (KHTML, like Gecko) Chrome/69.0.3497.100 Safari/537.36"
167.160.71.91 - - [06/Nov/2018:16:10:24 +0000] "GET /wp-content/plugins/js_composer/assets/js/js_composer_front.js?ver=4.8.0.1 HTTP/1.0" 200 28144 "http://www.ikbensterdam.com/" "Mozilla/5.0 (Windows NT 10.0; Win64; x64) AppleWebKit/537.36 (KHTML, like Gecko) Chrome/69.0.3497.100 Safari/537.36"
167.160.71.91 - - [06/Nov/2018:16:10:25 +0000] "GET /wp-content/plugins/js_composer/assets/js/components/vc_grid_style_pagination.js?ver=4.8.0.1 HTTP/1.0" 200 7239 "http://www.ikbensterdam.com/" "Mozilla/5.0 (Windows NT 10.0; Win64; x64) AppleWebKit/537.36 (KHTML, like Gecko) Chrome/69.0.3497.100 Safari/537.36"
167.160.71.91 - - [06/Nov/2018:16:10:26 +0000] "GET /wp-content/plugins/js_composer/assets/js/components/vc_grid_style_load_more.js?ver=4.8.0.1 HTTP/1.0" 200 3727 "http://www.ikbensterdam.com/" "Mozilla/5.0 (Windows NT 10.0; Win64; x64) AppleWebKit/537.36 (KHTML, like Gecko) Chrome/69.0.3497.100 Safari/537.36"
167.160.71.91 - - [06/Nov/2018:16:10:27 +0000] "GET /wp-content/plugins/js_composer/assets/js/components/vc_grid_style_lazy.js?ver=4.8.0.1 HTTP/1.0" 200 4105 "http://www.ikbensterdam.com/" "Mozilla/5.0 (Windows NT 10.0; Win64; x64) AppleWebKit/537.36 (KHTML, like Gecko) Chrome/69.0.3497.100 Safari/537.36"
167.160.71.91 - - [06/Nov/2018:16:10:27 +0000] "GET /wp-content/plugins/js_composer/assets/js/components/vc_grid_style_all.js?ver=4.8.0.1 HTTP/1.0" 200 2637 "http://www.ikbensterdam.com/" "Mozilla/5.0 (Windows NT 10.0; Win64; x64) AppleWebKit/537.36 (KHTML, like Gecko) Chrome/69.0.3497.100 Safari/537.36"
167.160.71.91 - - [06/Nov/2018:16:10:28 +0000] "GET /wp-content/plugins/js_composer/assets/js/components/vc_grid.js?ver=4.8.0.1 HTTP/1.0" 200 7759 "http://www.ikbensterdam.com/" "Mozilla/5.0 (Windows NT 10.0; Win64; x64) AppleWebKit/537.36 (KHTML, like Gecko) Chrome/69.0.3497.100 Safari/537.36"
167.160.71.91 - - [06/Nov/2018:16:10:29 +0000] "GET /wp-content/plugins/js_composer/assets/css/vc_lte_ie9.min.css HTTP/1.0" 404 35385 "http://www.ikbensterdam.com/" "Mozilla/5.0 (Windows NT 10.0; Win64; x64) AppleWebKit/537.36 (KHTML, like Gecko) Chrome/69.0.3497.100 Safari/537.36"
167.160.71.91 - - [06/Nov/2018:16:10:30 +0000] "GET /wp-content/plugins/js_composer/assets/css/vc-ie8.min.css HTTP/1.0" 200 2068 "http://www.ikbensterdam.com/" "Mozilla/5.0 (Windows NT 10.0; Win64; x64) AppleWebKit/537.36 (KHTML, like Gecko) Chrome/69.0.3497.100 Safari/537.36"
167.160.71.91 - - [06/Nov/2018:16:10:31 +0000] "GET /wp-content/plugins/js_composer/assets/css/js_composer.min.css?ver=4.8.0.1 HTTP/1.0" 200 720022 "http://www.ikbensterdam.com/" "Mozilla/5.0 (Windows NT 10.0; Win64; x64) AppleWebKit/537.36 (KHTML, like Gecko) Chrome/69.0.3497.100 Safari/537.36"
167.160.71.91 - - [06/Nov/2018:16:10:35 +0000] "GET /wp-content/plugins/designthemes-core-features/shortcodes/js/shortcodes.js?ver=4.3.17 HTTP/1.0" 200 13996 "http://www.ikbensterdam.com/" "Mozilla/5.0 (Windows NT 10.0; Win64; x64) AppleWebKit/537.36 (KHTML, like Gecko) Chrome/69.0.3497.100 Safari/537.36"
167.160.71.91 - - [06/Nov/2018:16:10:35 +0000] "GET /wp-content/plugins/designthemes-core-features/shortcodes/js/jquery.viewport.js?ver=4.3.17 HTTP/1.0" 200 1969 "http://www.ikbensterdam.com/" "Mozilla/5.0 (Windows NT 10.0; Win64; x64) AppleWebKit/537.36 (KHTML, like Gecko) Chrome/69.0.3497.100 Safari/537.36"
167.160.71.91 - - [06/Nov/2018:16:10:36 +0000] "GET /wp-content/plugins/designthemes-core-features/shortcodes/js/jquery.tipTip.minified.js?ver=4.3.17 HTTP/1.0" 200 5271 "http://www.ikbensterdam.com/" "Mozilla/5.0 (Windows NT 10.0; Win64; x64) AppleWebKit/537.36 (KHTML, like Gecko) Chrome/69.0.3497.100 Safari/537.36"
167.160.71.91 - - [06/Nov/2018:16:10:37 +0000] "GET /wp-content/plugins/designthemes-core-features/shortcodes/js/jquery.tabs.min.js?ver=4.3.17 HTTP/1.0" 200 4896 "http://www.ikbensterdam.com/" "Mozilla/5.0 (Windows NT 10.0; Win64; x64) AppleWebKit/537.36 (KHTML, like Gecko) Chrome/69.0.3497.100 Safari/537.36"
167.160.71.91 - - [06/Nov/2018:16:10:38 +0000] "GET /wp-content/plugins/designthemes-core-features/shortcodes/js/jquery.parallax-1.1.3.js?ver=4.3.17 HTTP/1.0" 200 1770 "http://www.ikbensterdam.com/" "Mozilla/5.0 (Windows NT 10.0; Win64; x64) AppleWebKit/537.36 (KHTML, like Gecko) Chrome/69.0.3497.100 Safari/537.36"
167.160.71.91 - - [06/Nov/2018:16:10:38 +0000] "GET /wp-content/plugins/designthemes-core-features/shortcodes/js/jquery.donutchart.js?ver=4.3.17 HTTP/1.0" 200 3608 "http://www.ikbensterdam.com/" "Mozilla/5.0 (Windows NT 10.0; Win64; x64) AppleWebKit/537.36 (KHTML, like Gecko) Chrome/69.0.3497.100 Safari/537.36"
167.160.71.91 - - [06/Nov/2018:16:10:39 +0000] "GET /wp-content/plugins/designthemes-core-features/shortcodes/js/jquery.carouFredSel-6.2.1-packed.js?ver=4.3.17 HTTP/1.0" 200 54795 "http://www.ikbensterdam.com/" "Mozilla/5.0 (Windows NT 10.0; Win64; x64) AppleWebKit/537.36 (KHTML, like Gecko) Chrome/69.0.3497.100 Safari/537.36"
167.160.71.91 - - [06/Nov/2018:16:10:40 +0000] "GET /wp-content/plugins/designthemes-core-features/shortcodes/js/jquery-ui-timepicker-addon.js?ver=4.3.17 HTTP/1.0" 200 73093 "http://www.ikbensterdam.com/" "Mozilla/5.0 (Windows NT 10.0; Win64; x64) AppleWebKit/537.36 (KHTML, like Gecko) Chrome/69.0.3497.100 Safari/537.36"
167.160.71.91 - - [06/Nov/2018:16:10:41 +0000] "GET /wp-content/plugins/designthemes-core-features/shortcodes/js/inview.js?ver=4.3.17 HTTP/1.0" 200 2095 "http://www.ikbensterdam.com/" "Mozilla/5.0 (Windows NT 10.0; Win64; x64) AppleWebKit/537.36 (KHTML, like Gecko) Chrome/69.0.3497.100 Safari/537.36"
167.160.71.91 - - [06/Nov/2018:16:10:41 +0000] "GET /wp-content/plugins/designthemes-core-features/shortcodes/js/countTo.js?ver=4.3.17 HTTP/1.0" 200 2655 "http://www.ikbensterdam.com/" "Mozilla/5.0 (Windows NT 10.0; Win64; x64) AppleWebKit/537.36 (KHTML, like Gecko) Chrome/69.0.3497.100 Safari/537.36"
167.160.71.91 - - [06/Nov/2018:16:10:42 +0000] "GET /wp-content/plugins/designthemes-core-features/shortcodes/css/shortcodes.css?ver=4.3.17 HTTP/1.0" 200 126661 "http://www.ikbensterdam.com/" "Mozilla/5.0 (Windows NT 10.0; Win64; x64) AppleWebKit/537.36 (KHTML, like Gecko) Chrome/69.0.3497.100 Safari/537.36"
167.160.71.91 - - [06/Nov/2018:16:10:43 +0000] "GET /wp-content/plugins/designthemes-core-features/shortcodes/css/animations.css?ver=4.3.17 HTTP/1.0" 200 79850 "http://www.ikbensterdam.com/" "Mozilla/5.0 (Windows NT 10.0; Win64; x64) AppleWebKit/537.36 (KHTML, like Gecko) Chrome/69.0.3497.100 Safari/537.36"
167.160.71.91 - - [06/Nov/2018:16:10:44 +0000] "GET /wp-content/plugins/designthemes-core-features/page-builder/js/jquery.inview.js?ver=4.3.17 HTTP/1.0" 200 2097 "http://www.ikbensterdam.com/" "Mozilla/5.0 (Windows NT 10.0; Win64; x64) AppleWebKit/537.36 (KHTML, like Gecko) Chrome/69.0.3497.100 Safari/537.36"
167.160.71.91 - - [06/Nov/2018:16:10:44 +0000] "GET /wp-content/plugins/designthemes-core-features/page-builder/js/custom-public.js?ver=4.3.17 HTTP/1.0" 200 820 "http://www.ikbensterdam.com/" "Mozilla/5.0 (Windows NT 10.0; Win64; x64) AppleWebKit/537.36 (KHTML, like Gecko) Chrome/69.0.3497.100 Safari/537.36"
167.160.71.91 - - [06/Nov/2018:16:10:45 +0000] "GET /wp-content/plugins/designthemes-core-features/page-builder/css/animations.css?ver=4.3.17 HTTP/1.0" 200 79724 "http://www.ikbensterdam.com/" "Mozilla/5.0 (Windows NT 10.0; Win64; x64) AppleWebKit/537.36 (KHTML, like Gecko) Chrome/69.0.3497.100 Safari/537.36"
167.160.71.91 - - [06/Nov/2018:16:10:46 +0000] "GET /wp-content/plugins/designthemes-core-features/custom-post-types/js/jquery.print.js?ver=4.3.17 HTTP/1.0" 200 5496 "http://www.ikbensterdam.com/" "Mozilla/5.0 (Windows NT 10.0; Win64; x64) AppleWebKit/537.36 (KHTML, like Gecko) Chrome/69.0.3497.100 Safari/537.36"
167.160.71.91 - - [06/Nov/2018:16:10:47 +0000] "GET /wp-content/plugins/designthemes-core-features/custom-post-types/js/jquery.knob.js?ver=4.3.17 HTTP/1.0" 200 20457 "http://www.ikbensterdam.com/" "Mozilla/5.0 (Windows NT 10.0; Win64; x64) AppleWebKit/537.36 (KHTML, like Gecko) Chrome/69.0.3497.100 Safari/537.36"
167.160.71.91 - - [06/Nov/2018:16:10:47 +0000] "GET /wp-content/plugins/designthemes-core-features/custom-post-types/js/jquery.knob.custom.js?ver=4.3.17 HTTP/1.0" 200 816 "http://www.ikbensterdam.com/" "Mozilla/5.0 (Windows NT 10.0; Win64; x64) AppleWebKit/537.36 (KHTML, like Gecko) Chrome/69.0.3497.100 Safari/537.36"
167.160.71.91 - - [06/Nov/2018:16:10:48 +0000] "GET /wp-content/plugins/designthemes-core-features/custom-post-types/js/dt.custom.js?ver=4.3.17 HTTP/1.0" 200 6314 "http://www.ikbensterdam.com/" "Mozilla/5.0 (Windows NT 10.0; Win64; x64) AppleWebKit/537.36 (KHTML, like Gecko) Chrome/69.0.3497.100 Safari/537.36"
167.160.71.91 - - [06/Nov/2018:16:10:49 +0000] "GET /wp-content/plugins/contact-form-7/includes/js/scripts.js?ver=4.3.1 HTTP/1.0" 200 11819 "http://www.ikbensterdam.com/" "Mozilla/5.0 (Windows NT 10.0; Win64; x64) AppleWebKit/537.36 (KHTML, like Gecko) Chrome/69.0.3497.100 Safari/537.36"
167.160.71.91 - - [06/Nov/2018:16:10:50 +0000] "GET /wp-content/plugins/contact-form-7/includes/js/jquery.form.min.js?ver=3.51.0-2014.06.20 HTTP/1.0" 200 15248 "http://www.ikbensterdam.com/" "Mozilla/5.0 (Windows NT 10.0; Win64; x64) AppleWebKit/537.36 (KHTML, like Gecko) Chrome/69.0.3497.100 Safari/537.36"
167.160.71.91 - - [06/Nov/2018:16:10:51 +0000] "GET /wp-content/plugins/contact-form-7/includes/js/'+m.iframeSrc+' HTTP/1.0" 404 35389 "http://ikbensterdam.com" "Mozilla/5.0 (Windows NT 10.0; Win64; x64) AppleWebKit/537.36 (KHTML, like Gecko) Chrome/69.0.3497.100 Safari/537.36"
39.98.54.25 - - [06/Nov/2018:16:14:16 +0000] "GET / HTTP/1.1" 200 12071 "-" "-"
31.170.123.73 - - [06/Nov/2018:17:42:14 +0000] "POST /wp-cron.php?doing_wp_cron=1541526134.1702868938446044921875 HTTP/1.0" 200 0 "-" "WordPress/4.3.17; http://www.ikbensterdam.com"
79.137.34.35 - - [06/Nov/2018:17:42:15 +0000] "GET /wp-includes/css/css.php HTTP/1.1" 301 5 "ikbensterdam.com" "Mozilla/5.0 (Windows NT 6.1; WOW64) AppleWebKit/537.36 (KHTML, like Gecko) Chrome/50.0.2661.75 Safari/537.36"
79.137.34.35 - - [06/Nov/2018:17:42:16 +0000] "GET /wp-includes/css/css.php HTTP/1.1" 404 35246 "ikbensterdam.com" "Mozilla/5.0 (Windows NT 6.1; WOW64) AppleWebKit/537.36 (KHTML, like Gecko) Chrome/50.0.2661.75 Safari/537.36"
80.90.55.171 - - [06/Nov/2018:17:47:08 +0000] "HEAD / HTTP/1.1" 200 0 "-" "Mozilla/5.0 (compatible; Uptimebot/1.0; +http://www.uptime.com/uptimebot)"
31.170.123.73 - - [06/Nov/2018:18:36:18 +0000] "POST /wp-cron.php?doing_wp_cron=1541529377.4778370857238769531250 HTTP/1.0" 200 0 "-" "WordPress/4.3.17; http://www.ikbensterdam.com"
114.108.181.139 - - [06/Nov/2018:18:36:18 +0000] "GET /wp-login.php HTTP/1.1" 200 7092 "http://www.ikbensterdam.com/wp-login.php" "Mozilla/5.0 (Windows NT 10.0; Win64; x64) AppleWebKit/537.36 (KHTML, like Gecko) Chrome/63.0.3239.84 Safari/537.36"
114.108.181.139 - - [06/Nov/2018:18:36:22 +0000] "POST /wp-login.php HTTP/1.1" 200 8086 "http://www.ikbensterdam.com/wp-login.php" "Mozilla/5.0 (Windows NT 10.0; Win64; x64) AppleWebKit/537.36 (KHTML, like Gecko) Chrome/63.0.3239.84 Safari/537.36"
31.170.123.73 - - [06/Nov/2018:19:11:03 +0000] "POST /wp-cron.php?doing_wp_cron=1541531462.3519101142883300781250 HTTP/1.0" 499 0 "-" "WordPress/4.3.17; http://www.ikbensterdam.com"
177.126.81.233 - - [06/Nov/2018:19:11:03 +0000] "POST /wp-login.php HTTP/1.1" 200 8086 "-" "Opera/9.80 (Windows NT 6.0) Presto/2.12.388 Version/12.14"
31.170.123.73 - - [06/Nov/2018:19:56:55 +0000] "POST /wp-cron.php?doing_wp_cron=1541534215.1255240440368652343750 HTTP/1.0" 200 0 "-" "WordPress/4.3.17; http://www.ikbensterdam.com"
185.98.7.126 - - [06/Nov/2018:19:56:55 +0000] "GET /wp-organizer.php HTTP/1.1" 301 5 "http://site.ru" "Mozilla/5.0 (Windows; U; Windows NT 5.1; en-US) AppleWebKit/533.4 (KHTML, like Gecko) Chrome/5.0.375.99 Safari/533.4"
185.98.7.126 - - [06/Nov/2018:19:56:57 +0000] "GET /wp-organizer.php HTTP/1.1" 404 35217 "http://site.ru" "Mozilla/5.0 (Windows; U; Windows NT 5.1; en-US) AppleWebKit/533.4 (KHTML, like Gecko) Chrome/5.0.375.99 Safari/533.4"
31.170.123.73 - - [06/Nov/2018:22:25:43 +0000] "POST /wp-cron.php?doing_wp_cron=1541543143.3611290454864501953125 HTTP/1.0" 200 0 "-" "WordPress/4.3.17; http://www.ikbensterdam.com"
138.197.15.6 - - [06/Nov/2018:22:25:44 +0000] "GET /wp-system.php HTTP/1.1" 301 5 "http://site.ru" "Mozilla/5.0 (Windows; U; Windows NT 5.1; en-US) AppleWebKit/533.4 (KHTML, like Gecko) Chrome/5.0.375.99 Safari/533.4"
138.197.15.6 - - [06/Nov/2018:22:25:45 +0000] "GET /wp-system.php HTTP/1.1" 404 35205 "http://site.ru" "Mozilla/5.0 (Windows; U; Windows NT 5.1; en-US) AppleWebKit/533.4 (KHTML, like Gecko) Chrome/5.0.375.99 Safari/533.4"
138.197.15.6 - - [06/Nov/2018:22:25:48 +0000] "GET /wp-system.php HTTP/1.1" 301 5 "http://site.ru" "Mozilla/5.0 (Windows; U; Windows NT 5.1; en-US) AppleWebKit/533.4 (KHTML, like Gecko) Chrome/5.0.375.99 Safari/533.4"
138.197.15.6 - - [06/Nov/2018:22:25:51 +0000] "GET /wp-system.php HTTP/1.1" 404 35205 "http://site.ru" "Mozilla/5.0 (Windows; U; Windows NT 5.1; en-US) AppleWebKit/533.4 (KHTML, like Gecko) Chrome/5.0.375.99 Safari/533.4"
31.170.123.73 - - [06/Nov/2018:23:29:18 +0000] "POST /wp-cron.php?doing_wp_cron=1541546957.5253620147705078125000 HTTP/1.0" 200 0 "-" "WordPress/4.3.17; http://www.ikbensterdam.com"
85.233.160.31 - - [06/Nov/2018:23:29:18 +0000] "GET /wp-blog-mail.php HTTP/1.1" 301 5 "http://site.ru" "Mozilla/5.0 (Windows; U; Windows NT 5.1; en-US) AppleWebKit/533.4 (KHTML, like Gecko) Chrome/5.0.375.99 Safari/533.4"
85.233.160.31 - - [06/Nov/2018:23:29:19 +0000] "GET /wp-blog-mail.php HTTP/1.1" 404 35210 "http://site.ru" "Mozilla/5.0 (Windows; U; Windows NT 5.1; en-US) AppleWebKit/533.4 (KHTML, like Gecko) Chrome/5.0.375.99 Safari/533.4"
85.233.160.31 - - [06/Nov/2018:23:29:31 +0000] "GET /wp-blog-mail.php HTTP/1.1" 301 5 "http://site.ru" "Mozilla/5.0 (Windows; U; Windows NT 5.1; en-US) AppleWebKit/533.4 (KHTML, like Gecko) Chrome/5.0.375.99 Safari/533.4"
85.233.160.31 - - [06/Nov/2018:23:29:32 +0000] "GET /wp-blog-mail.php HTTP/1.1" 404 35225 "http://site.ru" "Mozilla/5.0 (Windows; U; Windows NT 5.1; en-US) AppleWebKit/533.4 (KHTML, like Gecko) Chrome/5.0.375.99 Safari/533.4"
85.233.160.31 - - [06/Nov/2018:23:29:32 +0000] "GET /wp-blog-mail.php HTTP/1.1" 301 5 "http://site.ru" "Mozilla/5.0 (Windows; U; Windows NT 5.1; en-US) AppleWebKit/533.4 (KHTML, like Gecko) Chrome/5.0.375.99 Safari/533.4"
85.233.160.31 - - [06/Nov/2018:23:29:33 +0000] "GET /wp-blog-mail.php HTTP/1.1" 404 35210 "http://site.ru" "Mozilla/5.0 (Windows; U; Windows NT 5.1; en-US) AppleWebKit/533.4 (KHTML, like Gecko) Chrome/5.0.375.99 Safari/533.4"
203.162.120.32 - - [06/Nov/2018:23:30:49 +0000] "GET /wp-content/plugins/studio-tinymce-widget/mark.php HTTP/1.1" 301 5 "http://site.ru" "Mozilla/5.0 (Windows; U; Windows NT 5.1; en-US) AppleWebKit/533.4 (KHTML, like Gecko) Chrome/5.0.375.99 Safari/533.4"
203.162.120.32 - - [06/Nov/2018:23:30:51 +0000] "GET /wp-content/plugins/studio-tinymce-widget/mark.php HTTP/1.1" 404 35354 "http://site.ru" "Mozilla/5.0 (Windows; U; Windows NT 5.1; en-US) AppleWebKit/533.4 (KHTML, like Gecko) Chrome/5.0.375.99 Safari/533.4"
123.57.254.142 - - [07/Nov/2018:00:21:28 +0000] "POST /xmlrpc.php HTTP/1.1" 200 403 "-" "Mozilla/5.0 (Macintosh; U; Intel Mac OS X 10.6; fr; rv:1.9.2.8) Gecko/20100722 Firefox/3.6.8"
31.170.123.73 - - [07/Nov/2018:00:21:28 +0000] "POST /wp-cron.php?doing_wp_cron=1541550088.2751679420471191406250 HTTP/1.0" 200 0 "-" "WordPress/4.3.17; http://www.ikbensterdam.com"
123.57.254.142 - - [07/Nov/2018:00:21:28 +0000] "POST /xmlrpc.php HTTP/1.1" 200 403 "-" "Mozilla/5.0 (Macintosh; U; Intel Mac OS X 10.6; fr; rv:1.9.2.8) Gecko/20100722 Firefox/3.6.8"
5.45.207.4 - - [07/Nov/2018:00:23:08 +0000] "GET /robots.txt HTTP/1.1" 200 46 "-" "Mozilla/5.0 (compatible; YandexBot/3.0; +http://yandex.com/bots)"
5.255.253.23 - - [07/Nov/2018:00:23:12 +0000] "GET /xmlrpc.php?rsd HTTP/1.1" 200 318 "-" "Mozilla/5.0 (compatible; YandexBot/3.0; +http://yandex.com/bots)"
31.170.123.73 - - [07/Nov/2018:00:52:17 +0000] "POST /wp-cron.php?doing_wp_cron=1541551937.3964738845825195312500 HTTP/1.0" 200 0 "-" "WordPress/4.3.17; http://www.ikbensterdam.com"
209.17.97.82 - - [07/Nov/2018:00:52:18 +0000] "GET / HTTP/1.1" 301 5 "-" "Mozilla/5.0 (compatible; Nimbostratus-Bot/v1.3.2; http://cloudsystemnetworks.com)"
89.248.169.130 - - [07/Nov/2018:01:24:57 +0000] "POST /xmlrpc.php HTTP/1.1" 200 403 "-" "Mozilla/5.0 (Macintosh; U; Intel Mac OS X 10.6; fr; rv:1.9.2.8) Gecko/20100722 Firefox/3.6.8"
31.170.123.73 - - [07/Nov/2018:01:24:57 +0000] "POST /wp-cron.php?doing_wp_cron=1541553896.6891200542449951171875 HTTP/1.0" 200 0 "-" "WordPress/4.3.17; http://www.ikbensterdam.com"
89.248.169.130 - - [07/Nov/2018:01:24:57 +0000] "POST /xmlrpc.php HTTP/1.1" 200 403 "-" "Mozilla/5.0 (Macintosh; U; Intel Mac OS X 10.6; fr; rv:1.9.2.8) Gecko/20100722 Firefox/3.6.8"
89.248.169.130 - - [07/Nov/2018:01:25:00 +0000] "POST /xmlrpc.php HTTP/1.1" 200 403 "-" "Mozilla/5.0 (Macintosh; U; Intel Mac OS X 10.6; fr; rv:1.9.2.8) Gecko/20100722 Firefox/3.6.8"
31.170.123.73 - - [07/Nov/2018:02:11:49 +0000] "POST /wp-cron.php?doing_wp_cron=1541556708.8060860633850097656250 HTTP/1.0" 200 0 "-" "WordPress/4.3.17; http://www.ikbensterdam.com"
93.157.148.68 - - [07/Nov/2018:02:11:49 +0000] "GET /wp-login.php HTTP/1.1" 200 7092 "http://www.ikbensterdam.com/wp-login.php" "Mozilla/5.0 (Windows NT 10.0; Win64; x64) AppleWebKit/537.36 (KHTML, like Gecko) Chrome/63.0.3239.84 Safari/537.36"
93.157.148.68 - - [07/Nov/2018:02:11:51 +0000] "POST /wp-login.php HTTP/1.1" 200 8086 "http://www.ikbensterdam.com/wp-login.php" "Mozilla/5.0 (Windows NT 10.0; Win64; x64) AppleWebKit/537.36 (KHTML, like Gecko) Chrome/63.0.3239.84 Safari/537.36"
