52.173.241.248 - - [02/Nov/2018:03:22:31 +0000] "GET / HTTP/1.0" 301 - "-" "Mozilla/5.0 (Macintosh; Intel Mac OS X 10_13_3) AppleWebKit/537.36 (KHTML, like Gecko) Chrome/64.0.3282.186 Safari/537.36"
52.173.241.248 - - [02/Nov/2018:03:27:31 +0000] "GET / HTTP/1.0" 301 - "-" "Mozilla/5.0 (Windows NT 10.0; Win64; x64) AppleWebKit/537.36 (KHTML, like Gecko) Chrome/64.0.3282.186 Safari/537.36"
18.206.231.127 - - [02/Nov/2018:04:44:47 +0000] "GET /wp-login.php HTTP/1.0" 200 2422 "https://www.google.com/url?ea6a4673af35e054fba356c46b5de485" "Mozilla/5.0 (Windows NT 6.0; rv:33.0) Gecko/20100101 Firefox/33.0"
18.206.231.127 - - [02/Nov/2018:04:44:48 +0000] "POST /wp-login.php HTTP/1.0" 200 3369 "https://www.google.com/url?ea6a4673af35e054fba356c46b5de485" "Mozilla/5.0 (Windows NT 6.0; rv:33.0) Gecko/20100101 Firefox/33.0"
54.210.165.25 - - [02/Nov/2018:09:09:58 +0000] "GET /wp-login.php HTTP/1.0" 200 2422 "https://www.google.com/url?ea6a4673af35e054fba356c46b5de485" "Mozilla/5.0 (Windows NT 6.2; rv:33.0) Gecko/20100101 Firefox/33.0"
54.210.165.25 - - [02/Nov/2018:09:09:59 +0000] "POST /wp-login.php HTTP/1.0" 200 3369 "https://www.google.com/url?ea6a4673af35e054fba356c46b5de485" "Mozilla/5.0 (Windows NT 6.2; rv:33.0) Gecko/20100101 Firefox/33.0"
104.192.74.44 - - [02/Nov/2018:10:08:30 +0000] "GET /robots.txt HTTP/1.0" 200 67 "http://www.magicbyafrica.com/robots.txt" "Mozilla/5.0 (Macintosh; Intel Mac OS X 10_12_1) AppleWebKit/537.36 (KHTML, like Gecko) Chrome/58.0.3029.110 Safari/537.36"
104.192.74.44 - - [02/Nov/2018:10:08:31 +0000] "GET / HTTP/1.0" 301 - "http://www.magicbyafrica.com" "Mozilla/5.0 (Macintosh; Intel Mac OS X 10_12_1) AppleWebKit/537.36 (KHTML, like Gecko) Chrome/58.0.3029.110 Safari/537.36"
52.42.115.130 - - [02/Nov/2018:13:50:09 +0000] "GET /wp-login.php HTTP/1.0" 200 2422 "https://www.google.com/url?ea6a4673af35e054fba356c46b5de485" "Mozilla/5.0 (Windows NT 6.0; rv:33.0) Gecko/20100101 Firefox/33.0"
52.42.115.130 - - [02/Nov/2018:13:50:11 +0000] "POST /wp-login.php HTTP/1.0" 200 3369 "https://www.google.com/url?ea6a4673af35e054fba356c46b5de485" "Mozilla/5.0 (Windows NT 6.0; rv:33.0) Gecko/20100101 Firefox/33.0"
31.170.123.73 - - [02/Nov/2018:13:50:09 +0000] "POST /wp-cron.php?doing_wp_cron=1541166609.6484909057617187500000 HTTP/1.0" 200 - "http://magicbyafrica.com/wp-cron.php?doing_wp_cron=1541166609.6484909057617187500000" "WordPress/4.8.7; http://magicbyafrica.com"
34.219.163.168 - - [02/Nov/2018:18:25:42 +0000] "GET /wp-login.php HTTP/1.0" 200 2422 "https://www.google.com/url?ea6a4673af35e054fba356c46b5de485" "Mozilla/5.0 (Windows NT 6.1; rv:31.0) Gecko/20100101 Firefox/31.0"
34.219.163.168 - - [02/Nov/2018:18:26:07 +0000] "POST /wp-login.php HTTP/1.0" 200 3369 "https://www.google.com/url?ea6a4673af35e054fba356c46b5de485" "Mozilla/5.0 (Windows NT 6.1; rv:31.0) Gecko/20100101 Firefox/31.0"
132.148.80.15 - - [02/Nov/2018:22:15:26 +0000] "GET /login.php?login=cmd HTTP/1.0" 404 50025 "magicbyafrica.com" "Mozilla/5.1 (Windows NT 6.0; WOW64) AppleWebKit/537.37 (KHTML, like Gecko) Chrome/58.0.1145.75 Safari/537.37"
193.70.2.138 - - [02/Nov/2018:22:19:03 +0000] "GET /wp-content/wp-object-cache.php?ver=123 HTTP/1.0" 404 50025 "magicbyafrica.com" "en.support.wordpress.com"
