31.170.123.73 - - [02/Nov/2018:04:50:27 +0000] "POST /wp-cron.php?doing_wp_cron=1541134227.2950909137725830078125 HTTP/1.1" 200 40 "http://royalgeekness.com/wp-cron.php?doing_wp_cron=1541134227.2950909137725830078125" "WordPress/4.9.8; http://royalgeekness.com"
13.58.70.50 - - [02/Nov/2018:04:50:27 +0000] "GET /wp-login.php HTTP/1.1" 200 1450 "https://www.google.com/url?5d6c8f725d83672c7c6a5d7ecd21bc6a" "Mozilla/5.0 (Windows NT 5.1; WOW64; rv:29.0) Gecko/20120101 Firefox/29.0"
13.58.70.50 - - [02/Nov/2018:04:50:28 +0000] "POST /wp-login.php HTTP/1.1" 200 1772 "https://www.google.com/url?5d6c8f725d83672c7c6a5d7ecd21bc6a" "Mozilla/5.0 (Windows NT 5.1; WOW64; rv:29.0) Gecko/20120101 Firefox/29.0"
31.170.123.73 - - [02/Nov/2018:05:21:09 +0000] "POST /wp-cron.php?doing_wp_cron=1541136068.2539370059967041015625 HTTP/1.1" 499 0 "http://royalgeekness.com/wp-cron.php?doing_wp_cron=1541136068.2539370059967041015625" "WordPress/4.9.8; http://royalgeekness.com"
94.177.229.150 - - [02/Nov/2018:05:21:09 +0000] "GET /user/register/ HTTP/1.1" 404 5138 "-" "Mozilla/5.0 (Windows; U; Windows NT 5.1; de; rv:1.9) Gecko/2008052906 Firefox/3.0"
31.170.123.73 - - [02/Nov/2018:06:03:12 +0000] "POST /wp-cron.php?doing_wp_cron=1541138591.6879971027374267578125 HTTP/1.1" 200 40 "http://royalgeekness.com/wp-cron.php?doing_wp_cron=1541138591.6879971027374267578125" "WordPress/4.9.8; http://royalgeekness.com"
194.99.106.147 - - [02/Nov/2018:06:03:12 +0000] "GET /wp-login.php HTTP/1.1" 200 2322 "-" "Mozilla/5.0 (Windows; U; Windows NT 2.0) Gecko/20091201 Firefox/3.5.6 GTB5"
37.1.204.92 - - [02/Nov/2018:06:19:31 +0000] "GET /wp-content/uploads/ HTTP/1.1" 403 215 "http://royalgeekness.com/wp-content/uploads/" "Mozilla/5.0 (Windows NT 10.0; WOW64) AppleWebKit/537.36 (KHTML, like Gecko) Chrome/59.0.3071.115 Safari/537.36"
37.1.204.92 - - [02/Nov/2018:06:19:31 +0000] "GET /wp-content/uploads/ HTTP/1.1" 403 215 "http://royalgeekness.com/wp-content/uploads/" "Mozilla/5.0 (Windows NT 10.0; WOW64) AppleWebKit/537.36 (KHTML, like Gecko) Chrome/59.0.3071.115 Safari/537.36"
37.1.204.92 - - [02/Nov/2018:06:19:31 +0000] "GET /wp-content/uploads/ HTTP/1.1" 403 215 "http://royalgeekness.com/wp-content/uploads/" "Mozilla/5.0 (Windows NT 10.0; WOW64) AppleWebKit/537.36 (KHTML, like Gecko) Chrome/59.0.3071.115 Safari/537.36"
37.1.204.92 - - [02/Nov/2018:06:19:31 +0000] "GET /wp-content/uploads/ HTTP/1.1" 403 215 "http://royalgeekness.com/wp-content/uploads/" "Mozilla/5.0 (Windows NT 10.0; WOW64) AppleWebKit/537.36 (KHTML, like Gecko) Chrome/59.0.3071.115 Safari/537.36"
37.1.204.92 - - [02/Nov/2018:06:19:31 +0000] "GET /wp-content/uploads/ HTTP/1.1" 403 215 "http://royalgeekness.com/wp-content/uploads/" "Mozilla/5.0 (Windows NT 10.0; WOW64) AppleWebKit/537.36 (KHTML, like Gecko) Chrome/59.0.3071.115 Safari/537.36"
37.1.204.92 - - [02/Nov/2018:06:19:31 +0000] "GET /wp-content/uploads/ HTTP/1.1" 403 215 "http://royalgeekness.com/wp-content/uploads/" "Mozilla/5.0 (Windows NT 10.0; WOW64) AppleWebKit/537.36 (KHTML, like Gecko) Chrome/59.0.3071.115 Safari/537.36"
37.1.204.92 - - [02/Nov/2018:06:19:31 +0000] "GET /wp-content/uploads/ HTTP/1.1" 403 215 "http://royalgeekness.com/wp-content/uploads/" "Mozilla/5.0 (Windows NT 10.0; WOW64) AppleWebKit/537.36 (KHTML, like Gecko) Chrome/59.0.3071.115 Safari/537.36"
37.1.204.92 - - [02/Nov/2018:06:19:31 +0000] "GET /wp-content/uploads/ HTTP/1.1" 403 215 "http://royalgeekness.com/wp-content/uploads/" "Mozilla/5.0 (Windows NT 10.0; WOW64) AppleWebKit/537.36 (KHTML, like Gecko) Chrome/59.0.3071.115 Safari/537.36"
37.1.204.92 - - [02/Nov/2018:06:19:31 +0000] "GET /wp-content/uploads/ HTTP/1.1" 403 215 "http://royalgeekness.com/wp-content/uploads/" "Mozilla/5.0 (Windows NT 10.0; WOW64) AppleWebKit/537.36 (KHTML, like Gecko) Chrome/59.0.3071.115 Safari/537.36"
37.1.204.92 - - [02/Nov/2018:06:19:31 +0000] "GET /wp-content/uploads/ HTTP/1.1" 403 215 "http://royalgeekness.com/wp-content/uploads/" "Mozilla/5.0 (Windows NT 10.0; WOW64) AppleWebKit/537.36 (KHTML, like Gecko) Chrome/59.0.3071.115 Safari/537.36"
109.86.115.141 - - [02/Nov/2018:06:29:40 +0000] "GET /wp-login.php HTTP/1.1" 200 2322 "http://royalgeekness.com/wp-login.php" "Mozilla/5.0 (Windows NT 10.0; WOW64) AppleWebKit/537.36 (KHTML, like Gecko) Chrome/62.0.3198.0 Safari/537.36 OPR/49.0.2711.0"
109.86.115.141 - - [02/Nov/2018:06:29:40 +0000] "POST /wp-login.php HTTP/1.1" 200 3257 "http://royalgeekness.com/wp-login.php" "Mozilla/5.0 (Windows NT 10.0; WOW64) AppleWebKit/537.36 (KHTML, like Gecko) Chrome/62.0.3198.0 Safari/537.36 OPR/49.0.2711.0"
31.170.123.73 - - [02/Nov/2018:08:51:19 +0000] "POST /wp-cron.php?doing_wp_cron=1541148678.5826539993286132812500 HTTP/1.1" 200 40 "http://royalgeekness.com/wp-cron.php?doing_wp_cron=1541148678.5826539993286132812500" "WordPress/4.9.8; http://royalgeekness.com"
178.137.82.233 - - [02/Nov/2018:08:51:19 +0000] "GET /groups/ HTTP/1.0" 404 5032 "-" "Mozilla/5.0 (Windows NT 10.0; rv:57.0) Gecko/20100101 Firefox/57.0"
31.170.123.73 - - [02/Nov/2018:09:22:17 +0000] "POST /wp-cron.php?doing_wp_cron=1541150537.0357980728149414062500 HTTP/1.1" 200 40 "http://royalgeekness.com/wp-cron.php?doing_wp_cron=1541150537.0357980728149414062500" "WordPress/4.9.8; http://royalgeekness.com"
54.190.134.249 - - [02/Nov/2018:09:22:17 +0000] "GET /wp-login.php HTTP/1.1" 200 1441 "https://www.google.com/url?5d6c8f725d83672c7c6a5d7ecd21bc6a" "Mozilla/5.0 (Windows NT 6.2; rv:29.0) Gecko/20120101 Firefox/29.0"
54.190.134.249 - - [02/Nov/2018:09:22:20 +0000] "POST /wp-login.php HTTP/1.1" 200 1784 "https://www.google.com/url?5d6c8f725d83672c7c6a5d7ecd21bc6a" "Mozilla/5.0 (Windows NT 6.2; rv:29.0) Gecko/20120101 Firefox/29.0"
31.170.123.73 - - [02/Nov/2018:12:24:59 +0000] "POST /wp-cron.php?doing_wp_cron=1541161498.4466331005096435546875 HTTP/1.1" 200 40 "http://royalgeekness.com/wp-cron.php?doing_wp_cron=1541161498.4466331005096435546875" "WordPress/4.9.8; http://royalgeekness.com"
67.231.16.206 - - [02/Nov/2018:12:24:59 +0000] "HEAD / HTTP/1.1" 200 0 "-" "Mozilla/5.0 (compatible; Uptimebot/1.0; +http://www.uptime.com/uptimebot)"
31.170.123.73 - - [02/Nov/2018:13:34:13 +0000] "POST /wp-cron.php?doing_wp_cron=1541165652.7240018844604492187500 HTTP/1.1" 499 0 "http://royalgeekness.com/wp-cron.php?doing_wp_cron=1541165652.7240018844604492187500" "WordPress/4.9.8; http://royalgeekness.com"
52.173.241.248 - - [02/Nov/2018:13:34:13 +0000] "GET / HTTP/1.1" 200 2116 "-" "Mozilla/5.0 (Windows NT 10.0; Win64; x64) AppleWebKit/537.36 (KHTML, like Gecko) Chrome/64.0.3282.186 Safari/537.36"
31.170.123.73 - - [02/Nov/2018:14:10:46 +0000] "POST /wp-cron.php?doing_wp_cron=1541167845.4499421119689941406250 HTTP/1.1" 200 40 "http://royalgeekness.com/wp-cron.php?doing_wp_cron=1541167845.4499421119689941406250" "WordPress/4.9.8; http://royalgeekness.com"
18.222.253.196 - - [02/Nov/2018:14:10:46 +0000] "GET /wp-login.php HTTP/1.1" 200 1472 "https://www.google.com/url?5d6c8f725d83672c7c6a5d7ecd21bc6a" "Mozilla/5.0 (Windows NT 6.2; rv:33.0) Gecko/20100101 Firefox/33.0"
18.222.253.196 - - [02/Nov/2018:14:10:59 +0000] "POST /wp-login.php HTTP/1.1" 200 1743 "https://www.google.com/url?5d6c8f725d83672c7c6a5d7ecd21bc6a" "Mozilla/5.0 (Windows NT 6.2; rv:33.0) Gecko/20100101 Firefox/33.0"
180.76.15.15 - - [02/Nov/2018:14:38:00 +0000] "GET /wp-includes/js/jquery/jquery-migrate.min.js HTTP/1.1" 200 4330 "-" "Mozilla/5.0 (compatible; Baiduspider/2.0; +http://www.baidu.com/search/spider.html)"
31.170.123.73 - - [02/Nov/2018:16:55:38 +0000] "POST /wp-cron.php?doing_wp_cron=1541177737.1286680698394775390625 HTTP/1.1" 499 0 "http://royalgeekness.com/wp-cron.php?doing_wp_cron=1541177737.1286680698394775390625" "WordPress/4.9.8; http://royalgeekness.com"
209.17.96.210 - - [02/Nov/2018:16:55:38 +0000] "GET / HTTP/1.1" 200 5155 "-" "Mozilla/5.0 (compatible; Nimbostratus-Bot/v1.3.2; http://cloudsystemnetworks.com)"
31.170.123.73 - - [02/Nov/2018:17:57:59 +0000] "POST /wp-cron.php?doing_wp_cron=1541181478.9191930294036865234375 HTTP/1.1" 499 0 "http://royalgeekness.com/wp-cron.php?doing_wp_cron=1541181478.9191930294036865234375" "WordPress/4.9.8; http://royalgeekness.com"
180.76.15.22 - - [02/Nov/2018:17:57:59 +0000] "GET / HTTP/1.1" 301 5 "-" "Mozilla/5.0 (compatible; Baiduspider/2.0; +http://www.baidu.com/search/spider.html)"
180.76.15.145 - - [02/Nov/2018:17:58:01 +0000] "GET / HTTP/1.1" 200 2017 "-" "Mozilla/5.0 (compatible; Baiduspider/2.0; +http://www.baidu.com/search/spider.html)"
31.170.123.73 - - [02/Nov/2018:18:11:00 +0000] "POST /wp-cron.php?doing_wp_cron=1541182260.3429670333862304687500 HTTP/1.1" 200 40 "http://royalgeekness.com/wp-cron.php?doing_wp_cron=1541182260.3429670333862304687500" "WordPress/4.9.8; http://royalgeekness.com"
2001:41d0:a:2dd3:: - - [02/Nov/2018:18:11:00 +0000] "GET /login.php?login=cmd HTTP/1.1" 404 5155 "royalgeekness.com" "Mozilla/5.1 (Windows NT 6.0; WOW64) AppleWebKit/537.37 (KHTML, like Gecko) Chrome/58.0.1145.75 Safari/537.37"
185.220.101.44 - - [02/Nov/2018:18:12:51 +0000] "GET /wp-login.php HTTP/1.1" 200 2320 "-" "Mozilla/5.0 (X11; Linux x86_64; rv:63.0) Gecko/20100101 Firefox/63.0"
185.220.101.44 - - [02/Nov/2018:18:12:52 +0000] "POST /wp-login.php HTTP/1.0" 200 2528 "-" "Mozilla/5.0 (X11; Linux x86_64; rv:63.0) Gecko/20100101 Firefox/63.0"
2001:41d0:a:2dd3:: - - [02/Nov/2018:18:14:30 +0000] "GET /wp-content/wp-object-cache.php?ver=123 HTTP/1.1" 404 5131 "royalgeekness.com" "en.support.wordpress.com"
3.16.90.13 - - [02/Nov/2018:18:39:37 +0000] "GET /wp-login.php HTTP/1.1" 200 1440 "https://www.google.com/url?5d6c8f725d83672c7c6a5d7ecd21bc6a" "Mozilla/5.0 (Windows NT 5.1; rv:36.0) Gecko/20100101 Firefox/36.0"
3.16.90.13 - - [02/Nov/2018:18:39:39 +0000] "POST /wp-login.php HTTP/1.1" 200 1731 "https://www.google.com/url?5d6c8f725d83672c7c6a5d7ecd21bc6a" "Mozilla/5.0 (Windows NT 5.1; rv:36.0) Gecko/20100101 Firefox/36.0"
31.170.123.73 - - [02/Nov/2018:20:21:19 +0000] "POST /wp-cron.php?doing_wp_cron=1541190078.5513489246368408203125 HTTP/1.1" 200 40 "http://royalgeekness.com/wp-cron.php?doing_wp_cron=1541190078.5513489246368408203125" "WordPress/4.9.8; http://royalgeekness.com"
188.111.57.250 - - [02/Nov/2018:20:21:19 +0000] "POST /wp-login.php HTTP/1.1" 200 3289 "-" "Opera/9.80 (Windows NT 6.0) Presto/2.12.388 Version/12.14"
180.76.15.138 - - [02/Nov/2018:20:29:22 +0000] "GET / HTTP/1.1" 200 1985 "-" "Mozilla/5.0 (compatible; Baiduspider/2.0; +http://www.baidu.com/search/spider.html)"
31.170.123.73 - - [02/Nov/2018:22:27:05 +0000] "POST /wp-cron.php?doing_wp_cron=1541197624.7148849964141845703125 HTTP/1.1" 200 40 "http://royalgeekness.com/wp-cron.php?doing_wp_cron=1541197624.7148849964141845703125" "WordPress/4.9.8; http://royalgeekness.com"
171.25.193.78 - - [02/Nov/2018:22:27:05 +0000] "POST /xmlrpc.php HTTP/1.1" 200 413 "-" "Mozilla/4.0 (compatible; MSIE 8.0; Windows NT 6.1; WOW64; Trident/4.0; SLCC2; .NET CLR 2.0.50727; .NET CLR 3.5.30729; .NET CLR 3.0.30729; Media Center PC 6.0; .NET CLR 1.1.4322; InfoPath.2)"
31.170.123.73 - - [03/Nov/2018:00:15:51 +0000] "POST /wp-cron.php?doing_wp_cron=1541204151.1966500282287597656250 HTTP/1.1" 200 40 "http://royalgeekness.com/wp-cron.php?doing_wp_cron=1541204151.1966500282287597656250" "WordPress/4.9.8; http://royalgeekness.com"
188.166.22.77 - - [03/Nov/2018:00:15:51 +0000] "GET / HTTP/1.1" 200 2139 "-" "Mozilla/4.0 (compatible; MSIE 7.0; Windows NT 6.1; WOW64; Trident/6.0;)"
52.91.245.113 - - [03/Nov/2018:00:20:09 +0000] "GET /wp-login.php HTTP/1.1" 200 1433 "https://www.google.com/url?5d6c8f725d83672c7c6a5d7ecd21bc6a" "Mozilla/5.0 (Windows NT 5.1; rv:29.0) Gecko/20120101 Firefox/29.0"
52.91.245.113 - - [03/Nov/2018:00:20:10 +0000] "POST /wp-login.php HTTP/1.1" 200 1928 "https://www.google.com/url?5d6c8f725d83672c7c6a5d7ecd21bc6a" "Mozilla/5.0 (Windows NT 5.1; rv:29.0) Gecko/20120101 Firefox/29.0"
31.170.123.73 - - [03/Nov/2018:01:09:27 +0000] "POST /wp-cron.php?doing_wp_cron=1541207367.0036709308624267578125 HTTP/1.1" 200 40 "http://royalgeekness.com/wp-cron.php?doing_wp_cron=1541207367.0036709308624267578125" "WordPress/4.9.8; http://royalgeekness.com"
206.180.165.147 - - [03/Nov/2018:01:09:27 +0000] "GET / HTTP/1.1" 200 2189 "-" "Mozilla/5.0 (Windows NT 10.0; Win64; x64) AppleWebKit/537.36 (KHTML, like Gecko) Chrome/65.0.3325.181 Safari/537.36"
212.129.6.199 - - [03/Nov/2018:01:15:00 +0000] "GET /wp-upload-class.php HTTP/1.1" 404 5127 "-" "Mozilla/5.0 (X11; Linux x86_64) AppleWebKit/537.36 (KHTML, like Gecko) Chrome/47.0.2526.35 Safari/537.36"
31.170.123.73 - - [03/Nov/2018:02:29:29 +0000] "POST /wp-cron.php?doing_wp_cron=1541212168.7180590629577636718750 HTTP/1.1" 200 40 "http://royalgeekness.com/wp-cron.php?doing_wp_cron=1541212168.7180590629577636718750" "WordPress/4.9.8; http://royalgeekness.com"
119.2.119.110 - - [03/Nov/2018:02:29:29 +0000] "POST /wp-login.php HTTP/1.1" 200 3285 "-" "Opera/9.80 (Windows NT 6.0) Presto/2.12.388 Version/12.14"
