128.177.10.232 - - [31/Oct/2018:03:09:47 +0000] "GET / HTTP/1.1" 200 1779 "-" "Mozilla/4.0 (compatible; MSIE 5.0; Windows NT; DigExt)"
5.255.253.23 - - [31/Oct/2018:04:39:18 +0000] "GET /robots.txt HTTP/1.1" 404 1949 "-" "Mozilla/5.0 (compatible; YandexBot/3.0; +http://yandex.com/bots)"
141.8.142.84 - - [31/Oct/2018:04:39:22 +0000] "GET / HTTP/1.1" 200 894 "-" "Mozilla/5.0 (compatible; YandexBot/3.0; +http://yandex.com/bots)"
52.173.241.248 - - [31/Oct/2018:22:36:59 +0000] "GET / HTTP/1.1" 200 894 "-" "Mozilla/5.0 (Macintosh; Intel Mac OS X 10_13_3) AppleWebKit/604.5.6 (KHTML, like Gecko) Version/11.0.3 Safari/604.5.6"
