31.170.123.73 - - [04/Nov/2018:04:05:01 +0000] "POST /wp-cron.php?doing_wp_cron=1541304301.0823090076446533203125 HTTP/1.0" 200 0 "-" "WordPress/4.3.17; http://www.ikbensterdam.com"
13.66.139.1 - - [04/Nov/2018:04:05:02 +0000] "GET /robots.txt HTTP/1.1" 200 77 "-" "Mozilla/5.0 (compatible; bingbot/2.0; +http://www.bing.com/bingbot.htm)"
13.66.139.0 - - [04/Nov/2018:04:05:05 +0000] "GET / HTTP/1.1" 200 12068 "-" "Mozilla/5.0 (compatible; bingbot/2.0; +http://www.bing.com/bingbot.htm)"
40.77.193.63 - - [04/Nov/2018:04:05:15 +0000] "GET /wp-includes/js/wp-emoji-release.min.js?ver=4.3.17 HTTP/1.1" 200 15930 "-" "Mozilla/5.0 (Windows NT 6.1; WOW64) AppleWebKit/534+ (KHTML, like Gecko) BingPreview/1.0b"
40.77.195.95 - - [04/Nov/2018:04:05:17 +0000] "GET /wp-content/plugins/designthemes-core-features/shortcodes/css/animations.css?ver=4.3.17 HTTP/1.1" 200 79850 "-" "Mozilla/5.0 (Windows NT 6.1; WOW64) AppleWebKit/534+ (KHTML, like Gecko) BingPreview/1.0b"
40.77.192.68 - - [04/Nov/2018:04:05:19 +0000] "GET /wp-content/plugins/designthemes-core-features/shortcodes/css/shortcodes.css?ver=4.3.17 HTTP/1.1" 200 126661 "-" "Mozilla/5.0 (Windows NT 6.1; WOW64) AppleWebKit/534+ (KHTML, like Gecko) BingPreview/1.0b"
40.77.194.83 - - [04/Nov/2018:04:05:21 +0000] "GET /wp-content/plugins/designthemes-core-features/page-builder/css/animations.css?ver=4.3.17 HTTP/1.1" 200 79724 "-" "Mozilla/5.0 (Windows NT 6.1; WOW64) AppleWebKit/534+ (KHTML, like Gecko) BingPreview/1.0b"
40.77.253.124 - - [04/Nov/2018:04:05:22 +0000] "GET /wp-content/themes/lms/framework/woocommerce/style.css?ver=4.3.17 HTTP/1.1" 200 81958 "-" "Mozilla/5.0 (Windows NT 6.1; WOW64) AppleWebKit/534+ (KHTML, like Gecko) BingPreview/1.0b"
40.77.193.86 - - [04/Nov/2018:04:05:24 +0000] "GET /wp-content/plugins/mega_main_menu/src/css/cache.skin.css?ver=4.3.17 HTTP/1.1" 200 95131 "-" "Mozilla/5.0 (Windows NT 6.1; WOW64) AppleWebKit/534+ (KHTML, like Gecko) BingPreview/1.0b"
40.77.193.63 - - [04/Nov/2018:04:05:25 +0000] "GET /wp-content/plugins/LayerSlider/static/css/layerslider.css?ver=5.6.2 HTTP/1.1" 200 15708 "-" "Mozilla/5.0 (Windows NT 6.1; WOW64) AppleWebKit/534+ (KHTML, like Gecko) BingPreview/1.0b"
40.77.252.74 - - [04/Nov/2018:04:05:26 +0000] "GET /wp-content/themes/lms/css/buddypress.css?ver=2.4.4 HTTP/1.1" 200 50996 "-" "Mozilla/5.0 (Windows NT 6.1; WOW64) AppleWebKit/534+ (KHTML, like Gecko) BingPreview/1.0b"
40.77.192.134 - - [04/Nov/2018:04:05:27 +0000] "GET /wp-content/plugins/contact-form-7/includes/css/styles.css?ver=4.3.1 HTTP/1.1" 200 1099 "-" "Mozilla/5.0 (Windows NT 6.1; WOW64) AppleWebKit/534+ (KHTML, like Gecko) BingPreview/1.0b"
40.77.253.41 - - [04/Nov/2018:04:05:28 +0000] "GET /wp-content/plugins/responsive-maps-plugin/includes/css/resmap.min.css?ver=2.29 HTTP/1.1" 200 707 "-" "Mozilla/5.0 (Windows NT 6.1; WOW64) AppleWebKit/534+ (KHTML, like Gecko) BingPreview/1.0b"
40.77.252.213 - - [04/Nov/2018:04:05:29 +0000] "GET /wp-content/plugins/revslider/rs-plugin/css/settings.css?ver=4.6.93 HTTP/1.1" 200 55177 "-" "Mozilla/5.0 (Windows NT 6.1; WOW64) AppleWebKit/534+ (KHTML, like Gecko) BingPreview/1.0b"
40.77.252.171 - - [04/Nov/2018:04:05:31 +0000] "GET /wp-content/plugins/wp-postratings/postratings-css.css?ver=1.83 HTTP/1.1" 200 1058 "-" "Mozilla/5.0 (Windows NT 6.1; WOW64) AppleWebKit/534+ (KHTML, like Gecko) BingPreview/1.0b"
40.77.192.98 - - [04/Nov/2018:04:05:31 +0000] "GET /wp-content/plugins/yith-woocommerce-compare/assets/css/colorbox.css?ver=4.3.17 HTTP/1.1" 200 3941 "-" "Mozilla/5.0 (Windows NT 6.1; WOW64) AppleWebKit/534+ (KHTML, like Gecko) BingPreview/1.0b"
40.77.194.193 - - [04/Nov/2018:04:05:32 +0000] "GET /wp-content/plugins/yith-woocommerce-quick-view/assets/css/yith-quick-view.css?ver=4.3.17 HTTP/1.1" 200 3058 "-" "Mozilla/5.0 (Windows NT 6.1; WOW64) AppleWebKit/534+ (KHTML, like Gecko) BingPreview/1.0b"
40.77.192.236 - - [04/Nov/2018:04:05:33 +0000] "GET /wp-content/plugins/woocommerce/assets/css/prettyPhoto.css?ver=3.1.6 HTTP/1.1" 200 8677 "-" "Mozilla/5.0 (Windows NT 6.1; WOW64) AppleWebKit/534+ (KHTML, like Gecko) BingPreview/1.0b"
40.77.193.71 - - [04/Nov/2018:04:05:34 +0000] "GET /wp-content/plugins/yith-woocommerce-wishlist/assets/css/jquery.selectBox.css?ver=1.2.0 HTTP/1.1" 200 3572 "-" "Mozilla/5.0 (Windows NT 6.1; WOW64) AppleWebKit/534+ (KHTML, like Gecko) BingPreview/1.0b"
40.77.193.206 - - [04/Nov/2018:04:05:35 +0000] "GET /wp-content/plugins/yith-woocommerce-wishlist/assets/css/style.css?ver=2.0.13 HTTP/1.1" 200 14197 "-" "Mozilla/5.0 (Windows NT 6.1; WOW64) AppleWebKit/534+ (KHTML, like Gecko) BingPreview/1.0b"
40.77.193.53 - - [04/Nov/2018:04:05:36 +0000] "GET /wp-content/plugins/yith-woocommerce-wishlist/assets/css/font-awesome.min.css?ver=4.3.0 HTTP/1.1" 200 23775 "-" "Mozilla/5.0 (Windows NT 6.1; WOW64) AppleWebKit/534+ (KHTML, like Gecko) BingPreview/1.0b"
40.77.192.134 - - [04/Nov/2018:04:05:38 +0000] "GET /wp-content/plugins/mega_main_menu/framework/src/css/icomoon.css?ver=2.1.1 HTTP/1.1" 200 64663 "-" "Mozilla/5.0 (Windows NT 6.1; WOW64) AppleWebKit/534+ (KHTML, like Gecko) BingPreview/1.0b"
40.77.192.210 - - [04/Nov/2018:04:05:39 +0000] "GET /wp-content/plugins/masterslider/public/assets/css/masterslider.main.css?ver=2.20.4 HTTP/1.1" 200 74007 "-" "Mozilla/5.0 (Windows NT 6.1; WOW64) AppleWebKit/534+ (KHTML, like Gecko) BingPreview/1.0b"
40.77.194.63 - - [04/Nov/2018:04:05:40 +0000] "GET /wp-content/plugins/js_composer/assets/css/js_composer.min.css?ver=4.8.0.1 HTTP/1.1" 200 720022 "-" "Mozilla/5.0 (Windows NT 6.1; WOW64) AppleWebKit/534+ (KHTML, like Gecko) BingPreview/1.0b"
40.77.192.98 - - [04/Nov/2018:04:05:41 +0000] "GET /wp-content/uploads/masterslider/custom.css?ver=1.1 HTTP/1.1" 200 266 "-" "Mozilla/5.0 (Windows NT 6.1; WOW64) AppleWebKit/534+ (KHTML, like Gecko) BingPreview/1.0b"
40.77.194.193 - - [04/Nov/2018:04:05:42 +0000] "GET /wp-content/themes/lms/style.css?ver=4.3.17 HTTP/1.1" 200 126488 "-" "Mozilla/5.0 (Windows NT 6.1; WOW64) AppleWebKit/534+ (KHTML, like Gecko) BingPreview/1.0b"
40.77.253.123 - - [04/Nov/2018:04:05:43 +0000] "GET /wp-content/themes/lms/css/font-awesome.min.css?ver=4.3.17 HTTP/1.1" 200 27466 "-" "Mozilla/5.0 (Windows NT 6.1; WOW64) AppleWebKit/534+ (KHTML, like Gecko) BingPreview/1.0b"
40.77.195.189 - - [04/Nov/2018:04:05:45 +0000] "GET /wp-content/themes/lms/css/stroke-gap-icons.min.css?ver=4.3.17 HTTP/1.1" 200 113745 "-" "Mozilla/5.0 (Windows NT 6.1; WOW64) AppleWebKit/534+ (KHTML, like Gecko) BingPreview/1.0b"
40.77.195.36 - - [04/Nov/2018:04:05:46 +0000] "GET /wp-content/themes/lms/skins/white-gray/style.css?ver=4.3.17 HTTP/1.1" 200 47738 "-" "Mozilla/5.0 (Windows NT 6.1; WOW64) AppleWebKit/534+ (KHTML, like Gecko) BingPreview/1.0b"
40.77.193.119 - - [04/Nov/2018:04:05:48 +0000] "GET /wp-content/themes/lms/responsive.css?ver=4.3.17 HTTP/1.1" 200 118912 "-" "Mozilla/5.0 (Windows NT 6.1; WOW64) AppleWebKit/534+ (KHTML, like Gecko) BingPreview/1.0b"
40.77.193.137 - - [04/Nov/2018:04:05:57 +0000] "GET /wp-includes/js/jquery/jquery.js?ver=1.11.3 HTTP/1.1" 200 95977 "-" "Mozilla/5.0 (Windows NT 6.1; WOW64) AppleWebKit/534+ (KHTML, like Gecko) BingPreview/1.0b"
40.77.252.174 - - [04/Nov/2018:04:05:58 +0000] "GET /wp-includes/js/jquery/jquery-migrate.min.js?ver=1.2.1 HTTP/1.1" 200 7200 "-" "Mozilla/5.0 (Windows NT 6.1; WOW64) AppleWebKit/534+ (KHTML, like Gecko) BingPreview/1.0b"
40.77.192.191 - - [04/Nov/2018:04:05:59 +0000] "GET /wp-content/plugins/LayerSlider/static/js/greensock.js?ver=1.11.8 HTTP/1.1" 200 59709 "-" "Mozilla/5.0 (Windows NT 6.1; WOW64) AppleWebKit/534+ (KHTML, like Gecko) BingPreview/1.0b"
31.170.123.73 - - [04/Nov/2018:04:58:27 +0000] "POST /wp-cron.php?doing_wp_cron=1541307506.4134619235992431640625 HTTP/1.0" 200 0 "-" "WordPress/4.3.17; http://www.ikbensterdam.com"
97.74.228.245 - - [04/Nov/2018:04:58:27 +0000] "POST /xmlrpc.php HTTP/1.1" 200 403 "-" "Mozilla/5.0 (Macintosh; U; Intel Mac OS X 10.6; fr; rv:1.9.2.8) Gecko/20100722 Firefox/3.6.8"
31.170.123.73 - - [04/Nov/2018:05:57:23 +0000] "POST /wp-cron.php?doing_wp_cron=1541311042.5631649494171142578125 HTTP/1.0" 499 0 "-" "WordPress/4.3.17; http://www.ikbensterdam.com"
193.201.224.210 - - [04/Nov/2018:05:57:23 +0000] "GET /wp-content/plugins/reflex-gallery/admin/scripts/FileUploader/php.php HTTP/1.1" 301 5 "http://ikbensterdam.com/wp-content/plugins/reflex-gallery/admin/scripts/FileUploader/php.php" "Mozilla/5.0 (Windows NT 6.1; WOW64) AppleWebKit/537.36 (KHTML, like Gecko) Chrome/42.0.2311.152 Safari/537.36"
193.201.224.210 - - [04/Nov/2018:05:57:24 +0000] "GET /wp-content/plugins/reflex-gallery/admin/scripts/FileUploader/php.php HTTP/1.1" 404 8933 "http://ikbensterdam.com/wp-content/plugins/reflex-gallery/admin/scripts/FileUploader/php.php" "Mozilla/5.0 (Windows NT 6.1; WOW64) AppleWebKit/537.36 (KHTML, like Gecko) Chrome/42.0.2311.152 Safari/537.36"
54.89.238.135 - - [04/Nov/2018:06:19:33 +0000] "GET /wp-login.php HTTP/1.1" 200 1787 "https://www.google.com/url?48c1bb7daf35faf37570d1bad88963f8" "Mozilla/5.0 (Windows NT 6.0; rv:31.0) Gecko/20100101 Firefox/31.0"
54.89.238.135 - - [04/Nov/2018:06:19:34 +0000] "POST /wp-login.php HTTP/1.1" 200 2209 "https://www.google.com/url?48c1bb7daf35faf37570d1bad88963f8" "Mozilla/5.0 (Windows NT 6.0; rv:31.0) Gecko/20100101 Firefox/31.0"
31.170.123.73 - - [04/Nov/2018:07:11:52 +0000] "POST /wp-cron.php?doing_wp_cron=1541315511.8282749652862548828125 HTTP/1.0" 499 0 "-" "WordPress/4.3.17; http://www.ikbensterdam.com"
97.74.228.245 - - [04/Nov/2018:07:11:52 +0000] "POST /xmlrpc.php HTTP/1.1" 200 403 "-" "Mozilla/5.0 (Macintosh; U; Intel Mac OS X 10.6; fr; rv:1.9.2.8) Gecko/20100722 Firefox/3.6.8"
216.244.66.247 - - [04/Nov/2018:07:12:07 +0000] "GET /robots.txt HTTP/1.1" 200 46 "-" "Mozilla/5.0 (compatible; DotBot/1.1; http://www.opensiteexplorer.org/dotbot, help@moz.com)"
2a03:2880:30ff:c::face:b00c - - [04/Nov/2018:07:33:43 +0000] "GET /robots.txt HTTP/1.1" 200 77 "-" "facebookexternalhit/1.1 (+http://www.facebook.com/externalhit_uatext.php)"
52.165.166.139 - - [04/Nov/2018:07:34:20 +0000] "GET / HTTP/1.1" 301 5 "-" "Mozilla/5.0 (Macintosh; Intel Mac OS X 10_13_3) AppleWebKit/537.36 (KHTML, like Gecko) Chrome/65.0.3325.162 Safari/537.36"
212.72.183.4 - - [04/Nov/2018:07:35:01 +0000] "GET /wp-admin/wp-caches.php HTTP/1.1" 301 5 "http://site.ru" "Mozilla/5.0 (Windows; U; Windows NT 5.1; en-US) AppleWebKit/533.4 (KHTML, like Gecko) Chrome/5.0.375.99 Safari/533.4"
212.72.183.4 - - [04/Nov/2018:07:35:02 +0000] "GET /wp-admin/wp-caches.php HTTP/1.1" 404 35238 "http://site.ru" "Mozilla/5.0 (Windows; U; Windows NT 5.1; en-US) AppleWebKit/533.4 (KHTML, like Gecko) Chrome/5.0.375.99 Safari/533.4"
212.72.183.4 - - [04/Nov/2018:07:35:06 +0000] "GET /wp-admin/wp-caches.php HTTP/1.1" 301 5 "http://site.ru" "Mozilla/5.0 (Windows; U; Windows NT 5.1; en-US) AppleWebKit/533.4 (KHTML, like Gecko) Chrome/5.0.375.99 Safari/533.4"
212.72.183.4 - - [04/Nov/2018:07:35:06 +0000] "GET /wp-admin/wp-caches.php HTTP/1.1" 404 35238 "http://site.ru" "Mozilla/5.0 (Windows; U; Windows NT 5.1; en-US) AppleWebKit/533.4 (KHTML, like Gecko) Chrome/5.0.375.99 Safari/533.4"
216.244.66.247 - - [04/Nov/2018:07:40:02 +0000] "GET /shop/feed/?product_cat=girls HTTP/1.1" 200 2557 "-" "Mozilla/5.0 (compatible; DotBot/1.1; http://www.opensiteexplorer.org/dotbot, help@moz.com)"
2a03:2880:ff:1b::face:b00c - - [04/Nov/2018:07:45:30 +0000] "GET / HTTP/1.1" 301 5 "-" "Mozilla/5.0 (Windows NT 10.0; Win64; x64) AppleWebKit/537.36 (KHTML, like Gecko) Chrome/64.0.3282.140 Safari/537.36 Edge/17.17134"
2a03:2880:ff:25::face:b00c - - [04/Nov/2018:07:45:31 +0000] "GET / HTTP/1.1" 200 12072 "-" "Mozilla/5.0 (Windows NT 10.0; Win64; x64) AppleWebKit/537.36 (KHTML, like Gecko) Chrome/64.0.3282.140 Safari/537.36 Edge/17.17134"
2a03:2880:ff:25::face:b00c - - [04/Nov/2018:07:45:31 +0000] "GET /wp-content/plugins/designthemes-core-features/shortcodes/css/animations.css?ver=4.3.17 HTTP/1.1" 200 9047 "http://www.ikbensterdam.com/" "Mozilla/5.0 (Windows NT 10.0; Win64; x64) AppleWebKit/537.36 (KHTML, like Gecko) Chrome/64.0.3282.140 Safari/537.36 Edge/17.17134"
2a03:2880:ff:25::face:b00c - - [04/Nov/2018:07:45:32 +0000] "GET /wp-content/themes/lms/css/buddypress.css?ver=2.4.4 HTTP/1.1" 200 11390 "http://www.ikbensterdam.com/" "Mozilla/5.0 (Windows NT 10.0; Win64; x64) AppleWebKit/537.36 (KHTML, like Gecko) Chrome/64.0.3282.140 Safari/537.36 Edge/17.17134"
2a03:2880:ff:25::face:b00c - - [04/Nov/2018:07:45:32 +0000] "GET /wp-content/plugins/contact-form-7/includes/css/styles.css?ver=4.3.1 HTTP/1.1" 200 525 "http://www.ikbensterdam.com/" "Mozilla/5.0 (Windows NT 10.0; Win64; x64) AppleWebKit/537.36 (KHTML, like Gecko) Chrome/64.0.3282.140 Safari/537.36 Edge/17.17134"
2a03:2880:ff:25::face:b00c - - [04/Nov/2018:07:45:32 +0000] "GET /wp-content/plugins/responsive-maps-plugin/includes/css/resmap.min.css?ver=2.29 HTTP/1.1" 200 363 "http://www.ikbensterdam.com/" "Mozilla/5.0 (Windows NT 10.0; Win64; x64) AppleWebKit/537.36 (KHTML, like Gecko) Chrome/64.0.3282.140 Safari/537.36 Edge/17.17134"
2a03:2880:ff:23::face:b00c - - [04/Nov/2018:07:45:32 +0000] "GET /wp-content/plugins/designthemes-core-features/page-builder/css/animations.css?ver=4.3.17 HTTP/1.1" 200 8969 "http://www.ikbensterdam.com/" "Mozilla/5.0 (Windows NT 10.0; Win64; x64) AppleWebKit/537.36 (KHTML, like Gecko) Chrome/64.0.3282.140 Safari/537.36 Edge/17.17134"
2a03:2880:ff:8::face:b00c - - [04/Nov/2018:07:45:32 +0000] "GET /wp-content/plugins/mega_main_menu/src/css/cache.skin.css?ver=4.3.17 HTTP/1.1" 200 13335 "http://www.ikbensterdam.com/" "Mozilla/5.0 (Windows NT 10.0; Win64; x64) AppleWebKit/537.36 (KHTML, like Gecko) Chrome/64.0.3282.140 Safari/537.36 Edge/17.17134"
2a03:2880:ff:11::face:b00c - - [04/Nov/2018:07:45:32 +0000] "GET /wp-content/themes/lms/framework/woocommerce/style.css?ver=4.3.17 HTTP/1.1" 200 16324 "http://www.ikbensterdam.com/" "Mozilla/5.0 (Windows NT 10.0; Win64; x64) AppleWebKit/537.36 (KHTML, like Gecko) Chrome/64.0.3282.140 Safari/537.36 Edge/17.17134"
2a03:2880:ff:23::face:b00c - - [04/Nov/2018:07:45:32 +0000] "GET /wp-content/plugins/wp-postratings/postratings-css.css?ver=1.83 HTTP/1.1" 200 466 "http://www.ikbensterdam.com/" "Mozilla/5.0 (Windows NT 10.0; Win64; x64) AppleWebKit/537.36 (KHTML, like Gecko) Chrome/64.0.3282.140 Safari/537.36 Edge/17.17134"
2a03:2880:ff:25::face:b00c - - [04/Nov/2018:07:45:32 +0000] "GET /wp-content/plugins/revslider/rs-plugin/css/settings.css?ver=4.6.93 HTTP/1.1" 200 11471 "http://www.ikbensterdam.com/" "Mozilla/5.0 (Windows NT 10.0; Win64; x64) AppleWebKit/537.36 (KHTML, like Gecko) Chrome/64.0.3282.140 Safari/537.36 Edge/17.17134"
2a03:2880:ff:19::face:b00c - - [04/Nov/2018:07:45:32 +0000] "GET /wp-content/plugins/designthemes-core-features/shortcodes/css/shortcodes.css?ver=4.3.17 HTTP/1.1" 200 26416 "http://www.ikbensterdam.com/" "Mozilla/5.0 (Windows NT 10.0; Win64; x64) AppleWebKit/537.36 (KHTML, like Gecko) Chrome/64.0.3282.140 Safari/537.36 Edge/17.17134"
2a03:2880:ff:14::face:b00c - - [04/Nov/2018:07:45:32 +0000] "GET /wp-content/plugins/LayerSlider/static/css/layerslider.css?ver=5.6.2 HTTP/1.1" 200 3750 "http://www.ikbensterdam.com/" "Mozilla/5.0 (Windows NT 10.0; Win64; x64) AppleWebKit/537.36 (KHTML, like Gecko) Chrome/64.0.3282.140 Safari/537.36 Edge/17.17134"
2a03:2880:ff:8::face:b00c - - [04/Nov/2018:07:45:32 +0000] "GET /wp-content/plugins/yith-woocommerce-compare/assets/css/colorbox.css?ver=4.3.17 HTTP/1.1" 200 1338 "http://www.ikbensterdam.com/" "Mozilla/5.0 (Windows NT 10.0; Win64; x64) AppleWebKit/537.36 (KHTML, like Gecko) Chrome/64.0.3282.140 Safari/537.36 Edge/17.17134"
2a03:2880:ff:23::face:b00c - - [04/Nov/2018:07:45:32 +0000] "GET /wp-content/plugins/yith-woocommerce-quick-view/assets/css/yith-quick-view.css?ver=4.3.17 HTTP/1.1" 200 878 "http://www.ikbensterdam.com/" "Mozilla/5.0 (Windows NT 10.0; Win64; x64) AppleWebKit/537.36 (KHTML, like Gecko) Chrome/64.0.3282.140 Safari/537.36 Edge/17.17134"
2a03:2880:ff:11::face:b00c - - [04/Nov/2018:07:45:32 +0000] "GET /wp-content/plugins/yith-woocommerce-wishlist/assets/css/jquery.selectBox.css?ver=1.2.0 HTTP/1.1" 200 1159 "http://www.ikbensterdam.com/" "Mozilla/5.0 (Windows NT 10.0; Win64; x64) AppleWebKit/537.36 (KHTML, like Gecko) Chrome/64.0.3282.140 Safari/537.36 Edge/17.17134"
2a03:2880:ff:25::face:b00c - - [04/Nov/2018:07:45:32 +0000] "GET /wp-content/plugins/woocommerce/assets/css/prettyPhoto.css?ver=3.1.6 HTTP/1.1" 200 2271 "http://www.ikbensterdam.com/" "Mozilla/5.0 (Windows NT 10.0; Win64; x64) AppleWebKit/537.36 (KHTML, like Gecko) Chrome/64.0.3282.140 Safari/537.36 Edge/17.17134"
2a03:2880:ff:14::face:b00c - - [04/Nov/2018:07:45:32 +0000] "GET /wp-content/plugins/yith-woocommerce-wishlist/assets/css/style.css?ver=2.0.13 HTTP/1.1" 200 3432 "http://www.ikbensterdam.com/" "Mozilla/5.0 (Windows NT 10.0; Win64; x64) AppleWebKit/537.36 (KHTML, like Gecko) Chrome/64.0.3282.140 Safari/537.36 Edge/17.17134"
2a03:2880:ff:8::face:b00c - - [04/Nov/2018:07:45:32 +0000] "GET /wp-content/plugins/yith-woocommerce-wishlist/assets/css/font-awesome.min.css?ver=4.3.0 HTTP/1.1" 200 6147 "http://www.ikbensterdam.com/" "Mozilla/5.0 (Windows NT 10.0; Win64; x64) AppleWebKit/537.36 (KHTML, like Gecko) Chrome/64.0.3282.140 Safari/537.36 Edge/17.17134"
2a03:2880:ff:19::face:b00c - - [04/Nov/2018:07:45:32 +0000] "GET /wp-content/plugins/mega_main_menu/framework/src/css/icomoon.css?ver=2.1.1 HTTP/1.1" 200 11206 "http://www.ikbensterdam.com/" "Mozilla/5.0 (Windows NT 10.0; Win64; x64) AppleWebKit/537.36 (KHTML, like Gecko) Chrome/64.0.3282.140 Safari/537.36 Edge/17.17134"
2a03:2880:ff:11::face:b00c - - [04/Nov/2018:07:45:32 +0000] "GET /wp-content/plugins/masterslider/public/assets/css/masterslider.main.css?ver=2.20.4 HTTP/1.1" 200 13720 "http://www.ikbensterdam.com/" "Mozilla/5.0 (Windows NT 10.0; Win64; x64) AppleWebKit/537.36 (KHTML, like Gecko) Chrome/64.0.3282.140 Safari/537.36 Edge/17.17134"
2a03:2880:ff:25::face:b00c - - [04/Nov/2018:07:45:32 +0000] "GET /wp-content/uploads/masterslider/custom.css?ver=1.1 HTTP/1.1" 200 163 "http://www.ikbensterdam.com/" "Mozilla/5.0 (Windows NT 10.0; Win64; x64) AppleWebKit/537.36 (KHTML, like Gecko) Chrome/64.0.3282.140 Safari/537.36 Edge/17.17134"
2a03:2880:ff:14::face:b00c - - [04/Nov/2018:07:45:32 +0000] "GET /wp-content/themes/lms/style.css?ver=4.3.17 HTTP/1.1" 200 29963 "http://www.ikbensterdam.com/" "Mozilla/5.0 (Windows NT 10.0; Win64; x64) AppleWebKit/537.36 (KHTML, like Gecko) Chrome/64.0.3282.140 Safari/537.36 Edge/17.17134"
2a03:2880:ff:8::face:b00c - - [04/Nov/2018:07:45:32 +0000] "GET /wp-content/themes/lms/css/font-awesome.min.css?ver=4.3.17 HTTP/1.1" 200 7049 "http://www.ikbensterdam.com/" "Mozilla/5.0 (Windows NT 10.0; Win64; x64) AppleWebKit/537.36 (KHTML, like Gecko) Chrome/64.0.3282.140 Safari/537.36 Edge/17.17134"
2a03:2880:ff:23::face:b00c - - [04/Nov/2018:07:45:32 +0000] "GET /wp-content/plugins/js_composer/assets/css/js_composer.min.css?ver=4.8.0.1 HTTP/1.1" 200 77059 "http://www.ikbensterdam.com/" "Mozilla/5.0 (Windows NT 10.0; Win64; x64) AppleWebKit/537.36 (KHTML, like Gecko) Chrome/64.0.3282.140 Safari/537.36 Edge/17.17134"
2a03:2880:ff:19::face:b00c - - [04/Nov/2018:07:45:32 +0000] "GET /wp-content/themes/lms/css/stroke-gap-icons.min.css?ver=4.3.17 HTTP/1.1" 200 56369 "http://www.ikbensterdam.com/" "Mozilla/5.0 (Windows NT 10.0; Win64; x64) AppleWebKit/537.36 (KHTML, like Gecko) Chrome/64.0.3282.140 Safari/537.36 Edge/17.17134"
2a03:2880:ff:11::face:b00c - - [04/Nov/2018:07:45:32 +0000] "GET /wp-content/themes/lms/skins/white-gray/style.css?ver=4.3.17 HTTP/1.1" 200 9983 "http://www.ikbensterdam.com/" "Mozilla/5.0 (Windows NT 10.0; Win64; x64) AppleWebKit/537.36 (KHTML, like Gecko) Chrome/64.0.3282.140 Safari/537.36 Edge/17.17134"
2a03:2880:ff:25::face:b00c - - [04/Nov/2018:07:45:32 +0000] "GET /wp-content/themes/lms/responsive.css?ver=4.3.17 HTTP/1.1" 200 23718 "http://www.ikbensterdam.com/" "Mozilla/5.0 (Windows NT 10.0; Win64; x64) AppleWebKit/537.36 (KHTML, like Gecko) Chrome/64.0.3282.140 Safari/537.36 Edge/17.17134"
2a03:2880:ff:8::face:b00c - - [04/Nov/2018:07:45:33 +0000] "GET /wp-content/plugins/js_composer/assets/lib/prettyphoto/css/prettyPhoto.css?ver=4.8.0.1 HTTP/1.1" 200 4541 "http://www.ikbensterdam.com/" "Mozilla/5.0 (Windows NT 10.0; Win64; x64) AppleWebKit/537.36 (KHTML, like Gecko) Chrome/64.0.3282.140 Safari/537.36 Edge/17.17134"
2a03:2880:ff:11::face:b00c - - [04/Nov/2018:07:45:33 +0000] "GET /wp-content/plugins/js_composer/assets/lib/owl-carousel2-dist/assets/owl.carousel.css?ver=4.8.0.1 HTTP/1.1" 200 1283 "http://www.ikbensterdam.com/" "Mozilla/5.0 (Windows NT 10.0; Win64; x64) AppleWebKit/537.36 (KHTML, like Gecko) Chrome/64.0.3282.140 Safari/537.36 Edge/17.17134"
2a03:2880:ff:25::face:b00c - - [04/Nov/2018:07:45:33 +0000] "GET /wp-content/plugins/js_composer/assets/lib/owl-carousel2-dist/assets/owl.theme.default.css?ver=4.8.0.1 HTTP/1.1" 200 520 "http://www.ikbensterdam.com/" "Mozilla/5.0 (Windows NT 10.0; Win64; x64) AppleWebKit/537.36 (KHTML, like Gecko) Chrome/64.0.3282.140 Safari/537.36 Edge/17.17134"
2a03:2880:ff:14::face:b00c - - [04/Nov/2018:07:45:33 +0000] "GET /wp-content/plugins/js_composer/assets/lib/bower/animate-css/animate.min.css?ver=4.8.0.1 HTTP/1.1" 200 5213 "http://www.ikbensterdam.com/" "Mozilla/5.0 (Windows NT 10.0; Win64; x64) AppleWebKit/537.36 (KHTML, like Gecko) Chrome/64.0.3282.140 Safari/537.36 Edge/17.17134"
2a03:2880:ff:23::face:b00c - - [04/Nov/2018:07:45:33 +0000] "GET /wp-content/themes/lms/css/prettyPhoto.css HTTP/1.1" 200 3485 "http://www.ikbensterdam.com/" "Mozilla/5.0 (Windows NT 10.0; Win64; x64) AppleWebKit/537.36 (KHTML, like Gecko) Chrome/64.0.3282.140 Safari/537.36 Edge/17.17134"
2a03:2880:ff:19::face:b00c - - [04/Nov/2018:07:45:33 +0000] "GET /wp-content/themes/lms/css/reset.css HTTP/1.1" 200 718 "http://www.ikbensterdam.com/" "Mozilla/5.0 (Windows NT 10.0; Win64; x64) AppleWebKit/537.36 (KHTML, like Gecko) Chrome/64.0.3282.140 Safari/537.36 Edge/17.17134"
2a03:2880:ff:8::face:b00c - - [04/Nov/2018:07:45:33 +0000] "GET /wp-content/themes/lms/css/print.css HTTP/1.1" 200 294 "http://www.ikbensterdam.com/" "Mozilla/5.0 (Windows NT 10.0; Win64; x64) AppleWebKit/537.36 (KHTML, like Gecko) Chrome/64.0.3282.140 Safari/537.36 Edge/17.17134"
2a03:2880:ff:25::face:b00c - - [04/Nov/2018:07:45:33 +0000] "GET /wp-includes/js/jquery/jquery-migrate.min.js?ver=1.2.1 HTTP/1.1" 200 3290 "http://www.ikbensterdam.com/" "Mozilla/5.0 (Windows NT 10.0; Win64; x64) AppleWebKit/537.36 (KHTML, like Gecko) Chrome/64.0.3282.140 Safari/537.36 Edge/17.17134"
2a03:2880:ff:14::face:b00c - - [04/Nov/2018:07:45:33 +0000] "GET /wp-content/plugins/LayerSlider/static/js/greensock.js?ver=1.11.8 HTTP/1.1" 200 30385 "http://www.ikbensterdam.com/" "Mozilla/5.0 (Windows NT 10.0; Win64; x64) AppleWebKit/537.36 (KHTML, like Gecko) Chrome/64.0.3282.140 Safari/537.36 Edge/17.17134"
2a03:2880:ff:23::face:b00c - - [04/Nov/2018:07:45:33 +0000] "GET /wp-content/plugins/LayerSlider/static/js/layerslider.transitions.js?ver=5.6.2 HTTP/1.1" 200 4041 "http://www.ikbensterdam.com/" "Mozilla/5.0 (Windows NT 10.0; Win64; x64) AppleWebKit/537.36 (KHTML, like Gecko) Chrome/64.0.3282.140 Safari/537.36 Edge/17.17134"
2a03:2880:ff:19::face:b00c - - [04/Nov/2018:07:45:33 +0000] "GET /wp-content/plugins/LayerSlider/static/js/layerslider.kreaturamedia.jquery.js?ver=5.6.2 HTTP/1.1" 200 22449 "http://www.ikbensterdam.com/" "Mozilla/5.0 (Windows NT 10.0; Win64; x64) AppleWebKit/537.36 (KHTML, like Gecko) Chrome/64.0.3282.140 Safari/537.36 Edge/17.17134"
2a03:2880:ff:8::face:b00c - - [04/Nov/2018:07:45:33 +0000] "GET /wp-content/plugins/buddypress/bp-core/js/confirm.min.js?ver=2.4.4 HTTP/1.1" 200 214 "http://www.ikbensterdam.com/" "Mozilla/5.0 (Windows NT 10.0; Win64; x64) AppleWebKit/537.36 (KHTML, like Gecko) Chrome/64.0.3282.140 Safari/537.36 Edge/17.17134"
2a03:2880:ff:11::face:b00c - - [04/Nov/2018:07:45:33 +0000] "GET /wp-includes/js/jquery/jquery.js?ver=1.11.3 HTTP/1.1" 200 38922 "http://www.ikbensterdam.com/" "Mozilla/5.0 (Windows NT 10.0; Win64; x64) AppleWebKit/537.36 (KHTML, like Gecko) Chrome/64.0.3282.140 Safari/537.36 Edge/17.17134"
2a03:2880:ff:25::face:b00c - - [04/Nov/2018:07:45:33 +0000] "GET /wp-content/plugins/buddypress/bp-core/js/widget-members.min.js?ver=2.4.4 HTTP/1.1" 200 530 "http://www.ikbensterdam.com/" "Mozilla/5.0 (Windows NT 10.0; Win64; x64) AppleWebKit/537.36 (KHTML, like Gecko) Chrome/64.0.3282.140 Safari/537.36 Edge/17.17134"
2a03:2880:ff:14::face:b00c - - [04/Nov/2018:07:45:33 +0000] "GET /wp-content/plugins/buddypress/bp-core/js/jquery-query.min.js?ver=2.4.4 HTTP/1.1" 200 226 "http://www.ikbensterdam.com/" "Mozilla/5.0 (Windows NT 10.0; Win64; x64) AppleWebKit/537.36 (KHTML, like Gecko) Chrome/64.0.3282.140 Safari/537.36 Edge/17.17134"
2a03:2880:ff:23::face:b00c - - [04/Nov/2018:07:45:33 +0000] "GET /wp-content/plugins/buddypress/bp-core/js/jquery-cookie.min.js?ver=2.4.4 HTTP/1.1" 200 779 "http://www.ikbensterdam.com/" "Mozilla/5.0 (Windows NT 10.0; Win64; x64) AppleWebKit/537.36 (KHTML, like Gecko) Chrome/64.0.3282.140 Safari/537.36 Edge/17.17134"
2a03:2880:ff:19::face:b00c - - [04/Nov/2018:07:45:33 +0000] "GET /wp-content/plugins/buddypress/bp-core/js/jquery-scroll-to.min.js?ver=2.4.4 HTTP/1.1" 200 1255 "http://www.ikbensterdam.com/" "Mozilla/5.0 (Windows NT 10.0; Win64; x64) AppleWebKit/537.36 (KHTML, like Gecko) Chrome/64.0.3282.140 Safari/537.36 Edge/17.17134"
2a03:2880:ff:8::face:b00c - - [04/Nov/2018:07:45:33 +0000] "GET /wp-content/plugins/buddypress/bp-templates/bp-legacy/js/buddypress.min.js?ver=2.4.4 HTTP/1.1" 200 10326 "http://www.ikbensterdam.com/" "Mozilla/5.0 (Windows NT 10.0; Win64; x64) AppleWebKit/537.36 (KHTML, like Gecko) Chrome/64.0.3282.140 Safari/537.36 Edge/17.17134"
2a03:2880:ff:11::face:b00c - - [04/Nov/2018:07:45:33 +0000] "GET /wp-content/plugins/revslider/rs-plugin/js/jquery.themepunch.tools.min.js?ver=4.6.93 HTTP/1.1" 200 39618 "http://www.ikbensterdam.com/" "Mozilla/5.0 (Windows NT 10.0; Win64; x64) AppleWebKit/537.36 (KHTML, like Gecko) Chrome/64.0.3282.140 Safari/537.36 Edge/17.17134"
2a03:2880:ff:14::face:b00c - - [04/Nov/2018:07:45:33 +0000] "GET /wp-content/plugins/woocommerce/assets/js/frontend/add-to-cart.min.js?ver=2.4.13 HTTP/1.1" 200 801 "http://www.ikbensterdam.com/" "Mozilla/5.0 (Windows NT 10.0; Win64; x64) AppleWebKit/537.36 (KHTML, like Gecko) Chrome/64.0.3282.140 Safari/537.36 Edge/17.17134"
2a03:2880:ff:19::face:b00c - - [04/Nov/2018:07:45:33 +0000] "GET /wp-content/plugins/js_composer/assets/js/vendors/woocommerce-add-to-cart.js?ver=4.8.0.1 HTTP/1.1" 200 388 "http://www.ikbensterdam.com/" "Mozilla/5.0 (Windows NT 10.0; Win64; x64) AppleWebKit/537.36 (KHTML, like Gecko) Chrome/64.0.3282.140 Safari/537.36 Edge/17.17134"
2a03:2880:ff:23::face:b00c - - [04/Nov/2018:07:45:33 +0000] "GET /wp-content/themes/lms/framework/js/public/modernizr.min.js?ver=4.3.17 HTTP/1.1" 200 6784 "http://www.ikbensterdam.com/" "Mozilla/5.0 (Windows NT 10.0; Win64; x64) AppleWebKit/537.36 (KHTML, like Gecko) Chrome/64.0.3282.140 Safari/537.36 Edge/17.17134"
2a03:2880:ff:25::face:b00c - - [04/Nov/2018:07:45:33 +0000] "GET /wp-content/plugins/revslider/rs-plugin/js/jquery.themepunch.revolution.min.js?ver=4.6.93 HTTP/1.1" 200 32043 "http://www.ikbensterdam.com/" "Mozilla/5.0 (Windows NT 10.0; Win64; x64) AppleWebKit/537.36 (KHTML, like Gecko) Chrome/64.0.3282.140 Safari/537.36 Edge/17.17134"
2a03:2880:ff:23::face:b00c - - [04/Nov/2018:07:45:33 +0000] "GET /wp-includes/js/jquery/ui/core.min.js?ver=1.11.4 HTTP/1.1" 200 1954 "http://www.ikbensterdam.com/" "Mozilla/5.0 (Windows NT 10.0; Win64; x64) AppleWebKit/537.36 (KHTML, like Gecko) Chrome/64.0.3282.140 Safari/537.36 Edge/17.17134"
2a03:2880:ff:23::face:b00c - - [04/Nov/2018:07:45:34 +0000] "GET /wp-content/themes/lms/fonts/fontawesome-webfont.woff2?v=4.5.0 HTTP/1.1" 200 66624 "http://www.ikbensterdam.com/wp-content/themes/lms/css/font-awesome.min.css?ver=4.3.17" "Mozilla/5.0 (Windows NT 10.0; Win64; x64) AppleWebKit/537.36 (KHTML, like Gecko) Chrome/64.0.3282.140 Safari/537.36 Edge/17.17134"
2a03:2880:ff:25::face:b00c - - [04/Nov/2018:07:45:34 +0000] "GET /wp-content/uploads/2016/01/logo-white.png HTTP/1.1" 200 5255 "http://www.ikbensterdam.com/" "Mozilla/5.0 (Windows NT 10.0; Win64; x64) AppleWebKit/537.36 (KHTML, like Gecko) Chrome/64.0.3282.140 Safari/537.36 Edge/17.17134"
2a03:2880:ff:19::face:b00c - - [04/Nov/2018:07:45:34 +0000] "GET /wp-includes/js/jquery/ui/datepicker.min.js?ver=1.11.4 HTTP/1.1" 200 12846 "http://www.ikbensterdam.com/" "Mozilla/5.0 (Windows NT 10.0; Win64; x64) AppleWebKit/537.36 (KHTML, like Gecko) Chrome/64.0.3282.140 Safari/537.36 Edge/17.17134"
2a03:2880:ff:11::face:b00c - - [04/Nov/2018:07:45:34 +0000] "GET /wp-content/plugins/designthemes-core-features/shortcodes/js/inview.js?ver=4.3.17 HTTP/1.1" 200 831 "http://www.ikbensterdam.com/" "Mozilla/5.0 (Windows NT 10.0; Win64; x64) AppleWebKit/537.36 (KHTML, like Gecko) Chrome/64.0.3282.140 Safari/537.36 Edge/17.17134"
2a03:2880:ff:8::face:b00c - - [04/Nov/2018:07:45:34 +0000] "GET /wp-content/plugins/designthemes-core-features/shortcodes/js/jquery.tabs.min.js?ver=4.3.17 HTTP/1.1" 200 2065 "http://www.ikbensterdam.com/" "Mozilla/5.0 (Windows NT 10.0; Win64; x64) AppleWebKit/537.36 (KHTML, like Gecko) Chrome/64.0.3282.140 Safari/537.36 Edge/17.17134"
2a03:2880:ff:14::face:b00c - - [04/Nov/2018:07:45:34 +0000] "GET /wp-content/plugins/designthemes-core-features/shortcodes/js/jquery-ui-timepicker-addon.js?ver=4.3.17 HTTP/1.1" 200 21636 "http://www.ikbensterdam.com/" "Mozilla/5.0 (Windows NT 10.0; Win64; x64) AppleWebKit/537.36 (KHTML, like Gecko) Chrome/64.0.3282.140 Safari/537.36 Edge/17.17134"
2a03:2880:ff:23::face:b00c - - [04/Nov/2018:07:45:34 +0000] "GET /wp-content/plugins/designthemes-core-features/shortcodes/js/jquery.carouFredSel-6.2.1-packed.js?ver=4.3.17 HTTP/1.1" 200 16708 "http://www.ikbensterdam.com/" "Mozilla/5.0 (Windows NT 10.0; Win64; x64) AppleWebKit/537.36 (KHTML, like Gecko) Chrome/64.0.3282.140 Safari/537.36 Edge/17.17134"
2a03:2880:ff:25::face:b00c - - [04/Nov/2018:07:45:34 +0000] "GET /wp-content/plugins/designthemes-core-features/shortcodes/js/jquery.viewport.js?ver=4.3.17 HTTP/1.1" 200 619 "http://www.ikbensterdam.com/" "Mozilla/5.0 (Windows NT 10.0; Win64; x64) AppleWebKit/537.36 (KHTML, like Gecko) Chrome/64.0.3282.140 Safari/537.36 Edge/17.17134"
2a03:2880:ff:19::face:b00c - - [04/Nov/2018:07:45:34 +0000] "GET /wp-content/plugins/designthemes-core-features/shortcodes/js/jquery.tipTip.minified.js?ver=4.3.17 HTTP/1.1" 200 1897 "http://www.ikbensterdam.com/" "Mozilla/5.0 (Windows NT 10.0; Win64; x64) AppleWebKit/537.36 (KHTML, like Gecko) Chrome/64.0.3282.140 Safari/537.36 Edge/17.17134"
2a03:2880:ff:8::face:b00c - - [04/Nov/2018:07:45:34 +0000] "GET /wp-content/plugins/designthemes-core-features/shortcodes/js/countTo.js?ver=4.3.17 HTTP/1.1" 200 1058 "http://www.ikbensterdam.com/" "Mozilla/5.0 (Windows NT 10.0; Win64; x64) AppleWebKit/537.36 (KHTML, like Gecko) Chrome/64.0.3282.140 Safari/537.36 Edge/17.17134"
2a03:2880:ff:11::face:b00c - - [04/Nov/2018:07:45:34 +0000] "GET /wp-content/plugins/designthemes-core-features/shortcodes/js/jquery.parallax-1.1.3.js?ver=4.3.17 HTTP/1.1" 200 852 "http://www.ikbensterdam.com/" "Mozilla/5.0 (Windows NT 10.0; Win64; x64) AppleWebKit/537.36 (KHTML, like Gecko) Chrome/64.0.3282.140 Safari/537.36 Edge/17.17134"
2a03:2880:ff:14::face:b00c - - [04/Nov/2018:07:45:34 +0000] "GET /wp-content/plugins/designthemes-core-features/shortcodes/js/jquery.donutchart.js?ver=4.3.17 HTTP/1.1" 200 1204 "http://www.ikbensterdam.com/" "Mozilla/5.0 (Windows NT 10.0; Win64; x64) AppleWebKit/537.36 (KHTML, like Gecko) Chrome/64.0.3282.140 Safari/537.36 Edge/17.17134"
2a03:2880:ff:19::face:b00c - - [04/Nov/2018:07:45:34 +0000] "GET /wp-content/plugins/designthemes-core-features/shortcodes/js/shortcodes.js?ver=4.3.17 HTTP/1.1" 200 4072 "http://www.ikbensterdam.com/" "Mozilla/5.0 (Windows NT 10.0; Win64; x64) AppleWebKit/537.36 (KHTML, like Gecko) Chrome/64.0.3282.140 Safari/537.36 Edge/17.17134"
2a03:2880:ff:23::face:b00c - - [04/Nov/2018:07:45:34 +0000] "GET /wp-content/plugins/designthemes-core-features/custom-post-types/js/jquery.knob.custom.js?ver=4.3.17 HTTP/1.1" 200 423 "http://www.ikbensterdam.com/" "Mozilla/5.0 (Windows NT 10.0; Win64; x64) AppleWebKit/537.36 (KHTML, like Gecko) Chrome/64.0.3282.140 Safari/537.36 Edge/17.17134"
2a03:2880:ff:25::face:b00c - - [04/Nov/2018:07:45:34 +0000] "GET /wp-content/plugins/designthemes-core-features/custom-post-types/js/jquery.knob.js?ver=4.3.17 HTTP/1.1" 200 5484 "http://www.ikbensterdam.com/" "Mozilla/5.0 (Windows NT 10.0; Win64; x64) AppleWebKit/537.36 (KHTML, like Gecko) Chrome/64.0.3282.140 Safari/537.36 Edge/17.17134"
2a03:2880:ff:11::face:b00c - - [04/Nov/2018:07:45:34 +0000] "GET /wp-content/plugins/designthemes-core-features/custom-post-types/js/dt.custom.js?ver=4.3.17 HTTP/1.1" 200 1688 "http://www.ikbensterdam.com/" "Mozilla/5.0 (Windows NT 10.0; Win64; x64) AppleWebKit/537.36 (KHTML, like Gecko) Chrome/64.0.3282.140 Safari/537.36 Edge/17.17134"
2a03:2880:ff:8::face:b00c - - [04/Nov/2018:07:45:34 +0000] "GET /wp-content/plugins/designthemes-core-features/page-builder/js/jquery.inview.js?ver=4.3.17 HTTP/1.1" 200 830 "http://www.ikbensterdam.com/" "Mozilla/5.0 (Windows NT 10.0; Win64; x64) AppleWebKit/537.36 (KHTML, like Gecko) Chrome/64.0.3282.140 Safari/537.36 Edge/17.17134"
2a03:2880:ff:14::face:b00c - - [04/Nov/2018:07:45:34 +0000] "GET /wp-content/plugins/designthemes-core-features/custom-post-types/js/jquery.print.js?ver=4.3.17 HTTP/1.1" 200 1923 "http://www.ikbensterdam.com/" "Mozilla/5.0 (Windows NT 10.0; Win64; x64) AppleWebKit/537.36 (KHTML, like Gecko) Chrome/64.0.3282.140 Safari/537.36 Edge/17.17134"
2a03:2880:ff:19::face:b00c - - [04/Nov/2018:07:45:34 +0000] "GET /wp-content/uploads/2016/01/favicon.ico HTTP/1.1" 200 4286 "http://www.ikbensterdam.com/" "Mozilla/5.0 (Windows NT 10.0; Win64; x64) AppleWebKit/537.36 (KHTML, like Gecko) Chrome/64.0.3282.140 Safari/537.36 Edge/17.17134"
2a03:2880:ff:25::face:b00c - - [04/Nov/2018:07:45:34 +0000] "GET /wp-content/plugins/designthemes-core-features/page-builder/js/custom-public.js?ver=4.3.17 HTTP/1.1" 200 375 "http://www.ikbensterdam.com/" "Mozilla/5.0 (Windows NT 10.0; Win64; x64) AppleWebKit/537.36 (KHTML, like Gecko) Chrome/64.0.3282.140 Safari/537.36 Edge/17.17134"
2a03:2880:ff:23::face:b00c - - [04/Nov/2018:07:45:34 +0000] "GET /wp-includes/js/comment-reply.min.js?ver=4.3.17 HTTP/1.1" 200 437 "http://www.ikbensterdam.com/" "Mozilla/5.0 (Windows NT 10.0; Win64; x64) AppleWebKit/537.36 (KHTML, like Gecko) Chrome/64.0.3282.140 Safari/537.36 Edge/17.17134"
2a03:2880:ff:8::face:b00c - - [04/Nov/2018:07:45:34 +0000] "GET /wp-content/plugins/contact-form-7/includes/js/scripts.js?ver=4.3.1 HTTP/1.1" 200 3773 "http://www.ikbensterdam.com/" "Mozilla/5.0 (Windows NT 10.0; Win64; x64) AppleWebKit/537.36 (KHTML, like Gecko) Chrome/64.0.3282.140 Safari/537.36 Edge/17.17134"
2a03:2880:ff:11::face:b00c - - [04/Nov/2018:07:45:34 +0000] "GET /wp-content/plugins/woocommerce/assets/js/jquery-blockui/jquery.blockUI.min.js?ver=2.70 HTTP/1.1" 200 3850 "http://www.ikbensterdam.com/" "Mozilla/5.0 (Windows NT 10.0; Win64; x64) AppleWebKit/537.36 (KHTML, like Gecko) Chrome/64.0.3282.140 Safari/537.36 Edge/17.17134"
2a03:2880:ff:14::face:b00c - - [04/Nov/2018:07:45:34 +0000] "GET /wp-content/plugins/contact-form-7/includes/js/jquery.form.min.js?ver=3.51.0-2014.06.20 HTTP/1.1" 200 6443 "http://www.ikbensterdam.com/" "Mozilla/5.0 (Windows NT 10.0; Win64; x64) AppleWebKit/537.36 (KHTML, like Gecko) Chrome/64.0.3282.140 Safari/537.36 Edge/17.17134"
2a03:2880:ff:19::face:b00c - - [04/Nov/2018:07:45:34 +0000] "GET /wp-content/plugins/woocommerce/assets/js/frontend/woocommerce.min.js?ver=2.4.13 HTTP/1.1" 200 227 "http://www.ikbensterdam.com/" "Mozilla/5.0 (Windows NT 10.0; Win64; x64) AppleWebKit/537.36 (KHTML, like Gecko) Chrome/64.0.3282.140 Safari/537.36 Edge/17.17134"
2a03:2880:ff:25::face:b00c - - [04/Nov/2018:07:45:34 +0000] "GET /wp-content/plugins/woocommerce/assets/js/jquery-cookie/jquery.cookie.min.js?ver=1.4.1 HTTP/1.1" 200 807 "http://www.ikbensterdam.com/" "Mozilla/5.0 (Windows NT 10.0; Win64; x64) AppleWebKit/537.36 (KHTML, like Gecko) Chrome/64.0.3282.140 Safari/537.36 Edge/17.17134"
2a03:2880:ff:23::face:b00c - - [04/Nov/2018:07:45:34 +0000] "GET /wp-content/plugins/woocommerce/assets/js/frontend/cart-fragments.min.js?ver=2.4.13 HTTP/1.1" 200 664 "http://www.ikbensterdam.com/" "Mozilla/5.0 (Windows NT 10.0; Win64; x64) AppleWebKit/537.36 (KHTML, like Gecko) Chrome/64.0.3282.140 Safari/537.36 Edge/17.17134"
2a03:2880:ff:14::face:b00c - - [04/Nov/2018:07:45:34 +0000] "GET /wp-content/plugins/wp-postratings/postratings-js.js?ver=1.83 HTTP/1.1" 200 843 "http://www.ikbensterdam.com/" "Mozilla/5.0 (Windows NT 10.0; Win64; x64) AppleWebKit/537.36 (KHTML, like Gecko) Chrome/64.0.3282.140 Safari/537.36 Edge/17.17134"
2a03:2880:ff:8::face:b00c - - [04/Nov/2018:07:45:34 +0000] "GET /wp-content/plugins/yith-woocommerce-compare/assets/js/jquery.colorbox-min.js?ver=1.4.21 HTTP/1.1" 200 5161 "http://www.ikbensterdam.com/" "Mozilla/5.0 (Windows NT 10.0; Win64; x64) AppleWebKit/537.36 (KHTML, like Gecko) Chrome/64.0.3282.140 Safari/537.36 Edge/17.17134"
2a03:2880:ff:11::face:b00c - - [04/Nov/2018:07:45:34 +0000] "GET /wp-content/plugins/yith-woocommerce-compare/assets/js/woocompare.js?ver=2.0.6 HTTP/1.1" 200 2333 "http://www.ikbensterdam.com/" "Mozilla/5.0 (Windows NT 10.0; Win64; x64) AppleWebKit/537.36 (KHTML, like Gecko) Chrome/64.0.3282.140 Safari/537.36 Edge/17.17134"
2a03:2880:ff:19::face:b00c - - [04/Nov/2018:07:45:34 +0000] "GET /wp-content/plugins/yith-woocommerce-quick-view/assets/js/frontend.js?ver=1.0 HTTP/1.1" 200 1574 "http://www.ikbensterdam.com/" "Mozilla/5.0 (Windows NT 10.0; Win64; x64) AppleWebKit/537.36 (KHTML, like Gecko) Chrome/64.0.3282.140 Safari/537.36 Edge/17.17134"
2a03:2880:ff:23::face:b00c - - [04/Nov/2018:07:45:34 +0000] "GET /wp-content/plugins/woocommerce/assets/js/prettyPhoto/jquery.prettyPhoto.min.js?ver=3.1.5 HTTP/1.1" 200 6741 "http://www.ikbensterdam.com/" "Mozilla/5.0 (Windows NT 10.0; Win64; x64) AppleWebKit/537.36 (KHTML, like Gecko) Chrome/64.0.3282.140 Safari/537.36 Edge/17.17134"
2a03:2880:ff:25::face:b00c - - [04/Nov/2018:07:45:34 +0000] "GET /wp-content/plugins/woocommerce/assets/js/prettyPhoto/jquery.prettyPhoto.init.min.js?ver=2.4.13 HTTP/1.1" 200 198 "http://www.ikbensterdam.com/" "Mozilla/5.0 (Windows NT 10.0; Win64; x64) AppleWebKit/537.36 (KHTML, like Gecko) Chrome/64.0.3282.140 Safari/537.36 Edge/17.17134"
2a03:2880:ff:14::face:b00c - - [04/Nov/2018:07:45:34 +0000] "GET /wp-content/plugins/yith-woocommerce-wishlist/assets/js/jquery.selectBox.min.js?ver=1.2.0 HTTP/1.1" 200 4685 "http://www.ikbensterdam.com/" "Mozilla/5.0 (Windows NT 10.0; Win64; x64) AppleWebKit/537.36 (KHTML, like Gecko) Chrome/64.0.3282.140 Safari/537.36 Edge/17.17134"
2a03:2880:ff:8::face:b00c - - [04/Nov/2018:07:45:34 +0000] "GET /wp-content/plugins/yith-woocommerce-wishlist/assets/js/jquery.yith-wcwl.js?ver=2.0.13 HTTP/1.1" 200 2992 "http://www.ikbensterdam.com/" "Mozilla/5.0 (Windows NT 10.0; Win64; x64) AppleWebKit/537.36 (KHTML, like Gecko) Chrome/64.0.3282.140 Safari/537.36 Edge/17.17134"
2a03:2880:ff:11::face:b00c - - [04/Nov/2018:07:45:34 +0000] "GET /wp-content/plugins/mega_main_menu/src/js/frontend.js?ver=4.3.17 HTTP/1.1" 200 2870 "http://www.ikbensterdam.com/" "Mozilla/5.0 (Windows NT 10.0; Win64; x64) AppleWebKit/537.36 (KHTML, like Gecko) Chrome/64.0.3282.140 Safari/537.36 Edge/17.17134"
2a03:2880:ff:23::face:b00c - - [04/Nov/2018:07:45:35 +0000] "GET /wp-content/themes/lms/framework/js/public/jquery.ui.totop.min.js?ver=4.3.17 HTTP/1.1" 200 662 "http://www.ikbensterdam.com/" "Mozilla/5.0 (Windows NT 10.0; Win64; x64) AppleWebKit/537.36 (KHTML, like Gecko) Chrome/64.0.3282.140 Safari/537.36 Edge/17.17134"
2a03:2880:ff:25::face:b00c - - [04/Nov/2018:07:45:35 +0000] "GET /wp-content/themes/lms/framework/js/public/easing.js?ver=4.3.17 HTTP/1.1" 200 1280 "http://www.ikbensterdam.com/" "Mozilla/5.0 (Windows NT 10.0; Win64; x64) AppleWebKit/537.36 (KHTML, like Gecko) Chrome/64.0.3282.140 Safari/537.36 Edge/17.17134"
2a03:2880:ff:19::face:b00c - - [04/Nov/2018:07:45:35 +0000] "GET /wp-content/themes/lms/framework/js/public/jquery.smartresize.js?ver=4.3.17 HTTP/1.1" 200 433 "http://www.ikbensterdam.com/" "Mozilla/5.0 (Windows NT 10.0; Win64; x64) AppleWebKit/537.36 (KHTML, like Gecko) Chrome/64.0.3282.140 Safari/537.36 Edge/17.17134"
2a03:2880:ff:11::face:b00c - - [04/Nov/2018:07:45:35 +0000] "GET /wp-content/themes/lms/framework/js/public/jquery.prettyPhoto.js?ver=4.3.17 HTTP/1.1" 200 11230 "http://www.ikbensterdam.com/" "Mozilla/5.0 (Windows NT 10.0; Win64; x64) AppleWebKit/537.36 (KHTML, like Gecko) Chrome/64.0.3282.140 Safari/537.36 Edge/17.17134"
2a03:2880:ff:8::face:b00c - - [04/Nov/2018:07:45:35 +0000] "GET /wp-content/themes/lms/framework/js/public/jquery.nicescroll.min.js?ver=4.3.17 HTTP/1.1" 200 16617 "http://www.ikbensterdam.com/" "Mozilla/5.0 (Windows NT 10.0; Win64; x64) AppleWebKit/537.36 (KHTML, like Gecko) Chrome/64.0.3282.140 Safari/537.36 Edge/17.17134"
2a03:2880:ff:14::face:b00c - - [04/Nov/2018:07:45:35 +0000] "GET /wp-content/themes/lms/framework/js/public/jquery.sticky.js?ver=4.3.17 HTTP/1.1" 200 1849 "http://www.ikbensterdam.com/" "Mozilla/5.0 (Windows NT 10.0; Win64; x64) AppleWebKit/537.36 (KHTML, like Gecko) Chrome/64.0.3282.140 Safari/537.36 Edge/17.17134"
2a03:2880:ff:23::face:b00c - - [04/Nov/2018:07:45:35 +0000] "GET /wp-content/themes/lms/framework/js/public/jquery.isotope.min.js?ver=4.3.17 HTTP/1.1" 200 5946 "http://www.ikbensterdam.com/" "Mozilla/5.0 (Windows NT 10.0; Win64; x64) AppleWebKit/537.36 (KHTML, like Gecko) Chrome/64.0.3282.140 Safari/537.36 Edge/17.17134"
2a03:2880:ff:25::face:b00c - - [04/Nov/2018:07:45:35 +0000] "GET /wp-content/themes/lms/framework/js/public/jquery.fitvids.js?ver=4.3.17 HTTP/1.1" 200 1198 "http://www.ikbensterdam.com/" "Mozilla/5.0 (Windows NT 10.0; Win64; x64) AppleWebKit/537.36 (KHTML, like Gecko) Chrome/64.0.3282.140 Safari/537.36 Edge/17.17134"
2a03:2880:ff:19::face:b00c - - [04/Nov/2018:07:45:35 +0000] "GET /wp-content/themes/lms/framework/js/public/jquery.bxslider.js?ver=4.3.17 HTTP/1.1" 200 14756 "http://www.ikbensterdam.com/" "Mozilla/5.0 (Windows NT 10.0; Win64; x64) AppleWebKit/537.36 (KHTML, like Gecko) Chrome/64.0.3282.140 Safari/537.36 Edge/17.17134"
2a03:2880:ff:11::face:b00c - - [04/Nov/2018:07:45:35 +0000] "GET /wp-content/themes/lms/framework/js/public/toucheffects.js?ver=4.3.17 HTTP/1.1" 200 922 "http://www.ikbensterdam.com/" "Mozilla/5.0 (Windows NT 10.0; Win64; x64) AppleWebKit/537.36 (KHTML, like Gecko) Chrome/64.0.3282.140 Safari/537.36 Edge/17.17134"
2a03:2880:ff:14::face:b00c - - [04/Nov/2018:07:45:35 +0000] "GET /wp-content/themes/lms/framework/js/public/jquery.tablesorter.min.js?ver=4.3.17 HTTP/1.1" 200 5625 "http://www.ikbensterdam.com/" "Mozilla/5.0 (Windows NT 10.0; Win64; x64) AppleWebKit/537.36 (KHTML, like Gecko) Chrome/64.0.3282.140 Safari/537.36 Edge/17.17134"
2a03:2880:ff:23::face:b00c - - [04/Nov/2018:07:45:35 +0000] "GET /wp-content/themes/lms/framework/js/public/ajax-courses.js?ver=4.3.17 HTTP/1.1" 200 1527 "http://www.ikbensterdam.com/" "Mozilla/5.0 (Windows NT 10.0; Win64; x64) AppleWebKit/537.36 (KHTML, like Gecko) Chrome/64.0.3282.140 Safari/537.36 Edge/17.17134"
2a03:2880:ff:19::face:b00c - - [04/Nov/2018:07:45:35 +0000] "GET /wp-content/plugins/js_composer/assets/js/js_composer_front.js?ver=4.8.0.1 HTTP/1.1" 200 8941 "http://www.ikbensterdam.com/" "Mozilla/5.0 (Windows NT 10.0; Win64; x64) AppleWebKit/537.36 (KHTML, like Gecko) Chrome/64.0.3282.140 Safari/537.36 Edge/17.17134"
2a03:2880:ff:25::face:b00c - - [04/Nov/2018:07:45:35 +0000] "GET /wp-content/themes/lms/framework/js/public/custom.js?ver=4.3.17 HTTP/1.1" 200 3970 "http://www.ikbensterdam.com/" "Mozilla/5.0 (Windows NT 10.0; Win64; x64) AppleWebKit/537.36 (KHTML, like Gecko) Chrome/64.0.3282.140 Safari/537.36 Edge/17.17134"
2a03:2880:ff:11::face:b00c - - [04/Nov/2018:07:45:35 +0000] "GET /wp-content/plugins/js_composer/assets/lib/prettyphoto/js/jquery.prettyPhoto.js?ver=4.8.0.1 HTTP/1.1" 200 11205 "http://www.ikbensterdam.com/" "Mozilla/5.0 (Windows NT 10.0; Win64; x64) AppleWebKit/537.36 (KHTML, like Gecko) Chrome/64.0.3282.140 Safari/537.36 Edge/17.17134"
2a03:2880:ff:14::face:b00c - - [04/Nov/2018:07:45:35 +0000] "GET /wp-content/plugins/js_composer/assets/lib/owl-carousel2-dist/owl.carousel.js?ver=4.8.0.1 HTTP/1.1" 200 22065 "http://www.ikbensterdam.com/" "Mozilla/5.0 (Windows NT 10.0; Win64; x64) AppleWebKit/537.36 (KHTML, like Gecko) Chrome/64.0.3282.140 Safari/537.36 Edge/17.17134"
2a03:2880:ff:8::face:b00c - - [04/Nov/2018:07:45:35 +0000] "GET /wp-content/plugins/js_composer/assets/lib/bower/imagesloaded/imagesloaded.pkgd.min.js?ver=4.3.17 HTTP/1.1" 200 2633 "http://www.ikbensterdam.com/" "Mozilla/5.0 (Windows NT 10.0; Win64; x64) AppleWebKit/537.36 (KHTML, like Gecko) Chrome/64.0.3282.140 Safari/537.36 Edge/17.17134"
2a03:2880:ff:23::face:b00c - - [04/Nov/2018:07:45:35 +0000] "GET /wp-includes/js/underscore.min.js?ver=1.6.0 HTTP/1.1" 200 5691 "http://www.ikbensterdam.com/" "Mozilla/5.0 (Windows NT 10.0; Win64; x64) AppleWebKit/537.36 (KHTML, like Gecko) Chrome/64.0.3282.140 Safari/537.36 Edge/17.17134"
2a03:2880:ff:25::face:b00c - - [04/Nov/2018:07:45:35 +0000] "GET /wp-content/plugins/js_composer/assets/lib/waypoints/waypoints.min.js?ver=4.8.0.1 HTTP/1.1" 200 2919 "http://www.ikbensterdam.com/" "Mozilla/5.0 (Windows NT 10.0; Win64; x64) AppleWebKit/537.36 (KHTML, like Gecko) Chrome/64.0.3282.140 Safari/537.36 Edge/17.17134"
2a03:2880:ff:19::face:b00c - - [04/Nov/2018:07:45:35 +0000] "GET /wp-content/plugins/js_composer/assets/js/components/vc_grid_style_all.js?ver=4.8.0.1 HTTP/1.1" 200 1011 "http://www.ikbensterdam.com/" "Mozilla/5.0 (Windows NT 10.0; Win64; x64) AppleWebKit/537.36 (KHTML, like Gecko) Chrome/64.0.3282.140 Safari/537.36 Edge/17.17134"
2a03:2880:ff:11::face:b00c - - [04/Nov/2018:07:45:35 +0000] "GET /wp-content/plugins/js_composer/assets/js/components/vc_grid_style_load_more.js?ver=4.8.0.1 HTTP/1.1" 200 1322 "http://www.ikbensterdam.com/" "Mozilla/5.0 (Windows NT 10.0; Win64; x64) AppleWebKit/537.36 (KHTML, like Gecko) Chrome/64.0.3282.140 Safari/537.36 Edge/17.17134"
2a03:2880:ff:8::face:b00c - - [04/Nov/2018:07:45:35 +0000] "GET /wp-content/plugins/js_composer/assets/js/components/vc_grid_style_lazy.js?ver=4.8.0.1 HTTP/1.1" 200 1541 "http://www.ikbensterdam.com/" "Mozilla/5.0 (Windows NT 10.0; Win64; x64) AppleWebKit/537.36 (KHTML, like Gecko) Chrome/64.0.3282.140 Safari/537.36 Edge/17.17134"
2a03:2880:ff:14::face:b00c - - [04/Nov/2018:07:45:35 +0000] "GET /wp-content/plugins/js_composer/assets/js/components/vc_grid_style_pagination.js?ver=4.8.0.1 HTTP/1.1" 200 2535 "http://www.ikbensterdam.com/" "Mozilla/5.0 (Windows NT 10.0; Win64; x64) AppleWebKit/537.36 (KHTML, like Gecko) Chrome/64.0.3282.140 Safari/537.36 Edge/17.17134"
2a03:2880:ff:23::face:b00c - - [04/Nov/2018:07:45:35 +0000] "GET /wp-content/plugins/js_composer/assets/js/components/vc_grid.js?ver=4.8.0.1 HTTP/1.1" 200 2326 "http://www.ikbensterdam.com/" "Mozilla/5.0 (Windows NT 10.0; Win64; x64) AppleWebKit/537.36 (KHTML, like Gecko) Chrome/64.0.3282.140 Safari/537.36 Edge/17.17134"
2a03:2880:ff:25::face:b00c - - [04/Nov/2018:07:45:35 +0000] "GET /wp-content/plugins/woocommerce/assets/js/frontend/add-to-cart-variation.min.js?ver=2.4.13 HTTP/1.1" 200 2858 "http://www.ikbensterdam.com/" "Mozilla/5.0 (Windows NT 10.0; Win64; x64) AppleWebKit/537.36 (KHTML, like Gecko) Chrome/64.0.3282.140 Safari/537.36 Edge/17.17134"
2a03:2880:ff:19::face:b00c - - [04/Nov/2018:07:45:35 +0000] "GET /wp-content/themes/lms/images/logo@2x.png HTTP/1.1" 200 6589 "http://www.ikbensterdam.com/" "Mozilla/5.0 (Windows NT 10.0; Win64; x64) AppleWebKit/537.36 (KHTML, like Gecko) Chrome/64.0.3282.140 Safari/537.36 Edge/17.17134"
2a03:2880:ff:8::face:b00c - - [04/Nov/2018:07:45:35 +0000] "GET /wp-content/themes/lms/images/footer-logo@2x.png HTTP/1.1" 200 6589 "http://www.ikbensterdam.com/" "Mozilla/5.0 (Windows NT 10.0; Win64; x64) AppleWebKit/537.36 (KHTML, like Gecko) Chrome/64.0.3282.140 Safari/537.36 Edge/17.17134"
2a03:2880:ff:11::face:b00c - - [04/Nov/2018:07:45:35 +0000] "GET /wp-includes/js/wp-emoji-release.min.js?ver=4.3.17 HTTP/1.1" 200 5400 "http://www.ikbensterdam.com/" "Mozilla/5.0 (Windows NT 10.0; Win64; x64) AppleWebKit/537.36 (KHTML, like Gecko) Chrome/64.0.3282.140 Safari/537.36 Edge/17.17134"
2a03:2880:ff:23::face:b00c - - [04/Nov/2018:07:45:35 +0000] "GET /wp-content/plugins/wp-postratings/images/stars/rating_over.gif HTTP/1.1" 200 920 "http://www.ikbensterdam.com/" "Mozilla/5.0 (Windows NT 10.0; Win64; x64) AppleWebKit/537.36 (KHTML, like Gecko) Chrome/64.0.3282.140 Safari/537.36 Edge/17.17134"
2a03:2880:ff:14::face:b00c - - [04/Nov/2018:07:45:35 +0000] "GET /wp-content/uploads/2014/04/2.jpg HTTP/1.1" 200 210081 "http://www.ikbensterdam.com/" "Mozilla/5.0 (Windows NT 10.0; Win64; x64) AppleWebKit/537.36 (KHTML, like Gecko) Chrome/64.0.3282.140 Safari/537.36 Edge/17.17134"
2a03:2880:ff:14::face:b00c - - [04/Nov/2018:07:45:36 +0000] "GET /wp-content/plugins/revslider/rs-plugin/assets/loader.gif HTTP/1.1" 200 2545 "http://www.ikbensterdam.com/wp-content/plugins/revslider/rs-plugin/css/settings.css?ver=4.6.93" "Mozilla/5.0 (Windows NT 10.0; Win64; x64) AppleWebKit/537.36 (KHTML, like Gecko) Chrome/64.0.3282.140 Safari/537.36 Edge/17.17134"
2a03:2880:ff:14::face:b00c - - [04/Nov/2018:07:45:36 +0000] "GET /wp-content/plugins/revslider/rs-plugin/assets/small_right.png HTTP/1.1" 200 668 "http://www.ikbensterdam.com/wp-content/plugins/revslider/rs-plugin/css/settings.css?ver=4.6.93" "Mozilla/5.0 (Windows NT 10.0; Win64; x64) AppleWebKit/537.36 (KHTML, like Gecko) Chrome/64.0.3282.140 Safari/537.36 Edge/17.17134"
2a03:2880:ff:14::face:b00c - - [04/Nov/2018:07:45:36 +0000] "GET /wp-content/plugins/revslider/rs-plugin/assets/small_left.png HTTP/1.1" 200 670 "http://www.ikbensterdam.com/wp-content/plugins/revslider/rs-plugin/css/settings.css?ver=4.6.93" "Mozilla/5.0 (Windows NT 10.0; Win64; x64) AppleWebKit/537.36 (KHTML, like Gecko) Chrome/64.0.3282.140 Safari/537.36 Edge/17.17134"
2a03:2880:ff:23::face:b00c - - [04/Nov/2018:07:45:36 +0000] "POST /?wc-ajax=get_refreshed_fragments HTTP/1.1" 200 302 "http://www.ikbensterdam.com/" "Mozilla/5.0 (Windows NT 10.0; Win64; x64) AppleWebKit/537.36 (KHTML, like Gecko) Chrome/64.0.3282.140 Safari/537.36 Edge/17.17134"
2a03:2880:ff:14::face:b00c - - [04/Nov/2018:07:45:36 +0000] "GET /wp-content/themes/lms/images/ui.totop.png HTTP/1.1" 200 336 "http://www.ikbensterdam.com/wp-content/themes/lms/style.css?ver=4.3.17" "Mozilla/5.0 (Windows NT 10.0; Win64; x64) AppleWebKit/537.36 (KHTML, like Gecko) Chrome/64.0.3282.140 Safari/537.36 Edge/17.17134"
2a03:2880:ff:11::face:b00c - - [04/Nov/2018:07:45:37 +0000] "POST /wp-admin/admin-ajax.php HTTP/1.1" 200 1235 "http://www.ikbensterdam.com/" "Mozilla/5.0 (Windows NT 10.0; Win64; x64) AppleWebKit/537.36 (KHTML, like Gecko) Chrome/64.0.3282.140 Safari/537.36 Edge/17.17134"
2a03:2880:ff:25::face:b00c - - [04/Nov/2018:07:45:37 +0000] "POST /wp-admin/admin-ajax.php HTTP/1.1" 200 1205 "http://www.ikbensterdam.com/" "Mozilla/5.0 (Windows NT 10.0; Win64; x64) AppleWebKit/537.36 (KHTML, like Gecko) Chrome/64.0.3282.140 Safari/537.36 Edge/17.17134"
2a03:2880:ff:8::face:b00c - - [04/Nov/2018:07:45:37 +0000] "POST /wp-admin/admin-ajax.php HTTP/1.1" 200 1197 "http://www.ikbensterdam.com/" "Mozilla/5.0 (Windows NT 10.0; Win64; x64) AppleWebKit/537.36 (KHTML, like Gecko) Chrome/64.0.3282.140 Safari/537.36 Edge/17.17134"
2a03:2880:ff:19::face:b00c - - [04/Nov/2018:07:45:37 +0000] "POST /wp-admin/admin-ajax.php HTTP/1.1" 200 1206 "http://www.ikbensterdam.com/" "Mozilla/5.0 (Windows NT 10.0; Win64; x64) AppleWebKit/537.36 (KHTML, like Gecko) Chrome/64.0.3282.140 Safari/537.36 Edge/17.17134"
2a03:2880:ff:8::face:b00c - - [04/Nov/2018:07:45:37 +0000] "GET /wp-admin/css/color-picker.min.css?ver=4.3.17 HTTP/1.1" 200 768 "http://www.ikbensterdam.com/" "Mozilla/5.0 (Windows NT 10.0; Win64; x64) AppleWebKit/537.36 (KHTML, like Gecko) Chrome/64.0.3282.140 Safari/537.36 Edge/17.17134"
2a03:2880:ff:11::face:b00c - - [04/Nov/2018:07:45:37 +0000] "GET /wp-content/plugins/designthemes-core-features/custom-post-types/css/styles.css?ver=4.3.17 HTTP/1.1" 200 2337 "http://www.ikbensterdam.com/" "Mozilla/5.0 (Windows NT 10.0; Win64; x64) AppleWebKit/537.36 (KHTML, like Gecko) Chrome/64.0.3282.140 Safari/537.36 Edge/17.17134"
2a03:2880:ff:25::face:b00c - - [04/Nov/2018:07:45:37 +0000] "GET /wp-content/plugins/designthemes-core-features/shortcodes/tinymce/css/styles.css?ver=1.0 HTTP/1.1" 200 1958 "http://www.ikbensterdam.com/" "Mozilla/5.0 (Windows NT 10.0; Win64; x64) AppleWebKit/537.36 (KHTML, like Gecko) Chrome/64.0.3282.140 Safari/537.36 Edge/17.17134"
2a03:2880:ff:14::face:b00c - - [04/Nov/2018:07:45:37 +0000] "GET /wp-content/plugins/designthemes-core-features/custom-post-types/css/chosen.css?ver=4.3.17 HTTP/1.1" 200 3069 "http://www.ikbensterdam.com/" "Mozilla/5.0 (Windows NT 10.0; Win64; x64) AppleWebKit/537.36 (KHTML, like Gecko) Chrome/64.0.3282.140 Safari/537.36 Edge/17.17134"
2a03:2880:ff:23::face:b00c - - [04/Nov/2018:07:45:37 +0000] "GET /wp-content/uploads/2014/04/2-1024x685.jpg HTTP/1.1" 200 117685 "http://www.ikbensterdam.com/" "Mozilla/5.0 (Windows NT 10.0; Win64; x64) AppleWebKit/537.36 (KHTML, like Gecko) Chrome/64.0.3282.140 Safari/537.36 Edge/17.17134"
2a03:2880:ff:19::face:b00c - - [04/Nov/2018:07:45:37 +0000] "GET /wp-content/uploads/2014/04/tumblr-1024x680.jpg HTTP/1.1" 200 75228 "http://www.ikbensterdam.com/" "Mozilla/5.0 (Windows NT 10.0; Win64; x64) AppleWebKit/537.36 (KHTML, like Gecko) Chrome/64.0.3282.140 Safari/537.36 Edge/17.17134"
2a03:2880:ff:14::face:b00c - - [04/Nov/2018:07:45:37 +0000] "GET /wp-content/uploads/2016/01/mockup-a356d246.jpg HTTP/1.1" 200 66899 "http://www.ikbensterdam.com/" "Mozilla/5.0 (Windows NT 10.0; Win64; x64) AppleWebKit/537.36 (KHTML, like Gecko) Chrome/64.0.3282.140 Safari/537.36 Edge/17.17134"
2a03:2880:ff:25::face:b00c - - [04/Nov/2018:07:45:37 +0000] "GET /wp-content/uploads/2013/12/keyboard-1024x683.jpg HTTP/1.1" 200 167757 "http://www.ikbensterdam.com/" "Mozilla/5.0 (Windows NT 10.0; Win64; x64) AppleWebKit/537.36 (KHTML, like Gecko) Chrome/64.0.3282.140 Safari/537.36 Edge/17.17134"
87.236.194.255 - - [04/Nov/2018:07:47:15 +0000] "GET /wp-admin/wp-caches.php HTTP/1.1" 301 5 "http://site.ru" "Mozilla/5.0 (Windows; U; Windows NT 5.1; en-US) AppleWebKit/533.4 (KHTML, like Gecko) Chrome/5.0.375.99 Safari/533.4"
87.236.194.255 - - [04/Nov/2018:07:47:16 +0000] "GET /wp-admin/wp-caches.php HTTP/1.1" 404 35238 "http://site.ru" "Mozilla/5.0 (Windows; U; Windows NT 5.1; en-US) AppleWebKit/533.4 (KHTML, like Gecko) Chrome/5.0.375.99 Safari/533.4"
89.248.169.130 - - [04/Nov/2018:07:58:09 +0000] "POST /xmlrpc.php HTTP/1.1" 200 403 "-" "Mozilla/5.0 (Macintosh; U; Intel Mac OS X 10.6; fr; rv:1.9.2.8) Gecko/20100722 Firefox/3.6.8"
89.248.169.130 - - [04/Nov/2018:07:58:09 +0000] "POST /xmlrpc.php HTTP/1.1" 200 403 "-" "Mozilla/5.0 (Macintosh; U; Intel Mac OS X 10.6; fr; rv:1.9.2.8) Gecko/20100722 Firefox/3.6.8"
31.170.123.73 - - [04/Nov/2018:07:58:10 +0000] "POST /wp-cron.php?doing_wp_cron=1541318289.6021668910980224609375 HTTP/1.0" 200 0 "-" "WordPress/4.3.17; http://www.ikbensterdam.com"
89.248.169.130 - - [04/Nov/2018:07:58:10 +0000] "POST /xmlrpc.php HTTP/1.1" 200 403 "-" "Mozilla/5.0 (Macintosh; U; Intel Mac OS X 10.6; fr; rv:1.9.2.8) Gecko/20100722 Firefox/3.6.8"
31.170.123.73 - - [04/Nov/2018:09:29:58 +0000] "POST /wp-cron.php?doing_wp_cron=1541323797.6555509567260742187500 HTTP/1.0" 200 0 "-" "WordPress/4.3.17; http://www.ikbensterdam.com"
97.74.228.245 - - [04/Nov/2018:09:29:58 +0000] "POST /xmlrpc.php HTTP/1.1" 200 403 "-" "Mozilla/5.0 (Macintosh; U; Intel Mac OS X 10.6; fr; rv:1.9.2.8) Gecko/20100722 Firefox/3.6.8"
31.170.123.73 - - [04/Nov/2018:10:21:49 +0000] "POST /wp-cron.php?doing_wp_cron=1541326909.1689050197601318359375 HTTP/1.0" 200 0 "-" "WordPress/4.3.17; http://www.ikbensterdam.com"
2001:41d0:1:86b8::1 - - [04/Nov/2018:10:21:49 +0000] "GET /?feed=rss2 HTTP/1.1" 301 5 "" "Mozilla/5.0 (Windows; U; Windows NT 5.1; en-GB; rv:1.8.1.3) Gecko/20070309 Firefox/2.0.0.3"
2001:41d0:1:86b8::1 - - [04/Nov/2018:10:21:50 +0000] "GET /feed/ HTTP/1.1" 200 25931 "" "Mozilla/5.0 (Windows; U; Windows NT 5.1; en-GB; rv:1.8.1.3) Gecko/20070309 Firefox/2.0.0.3"
31.170.123.73 - - [04/Nov/2018:11:48:26 +0000] "POST /wp-cron.php?doing_wp_cron=1541332105.5070579051971435546875 HTTP/1.0" 200 0 "-" "WordPress/4.3.17; http://www.ikbensterdam.com"
97.74.228.245 - - [04/Nov/2018:11:48:26 +0000] "POST /xmlrpc.php HTTP/1.1" 200 403 "-" "Mozilla/5.0 (Macintosh; U; Intel Mac OS X 10.6; fr; rv:1.9.2.8) Gecko/20100722 Firefox/3.6.8"
123.57.254.142 - - [04/Nov/2018:12:43:42 +0000] "POST /xmlrpc.php HTTP/1.1" 200 403 "-" "Mozilla/5.0 (Macintosh; U; Intel Mac OS X 10.6; fr; rv:1.9.2.8) Gecko/20100722 Firefox/3.6.8"
31.170.123.73 - - [04/Nov/2018:12:43:43 +0000] "POST /wp-cron.php?doing_wp_cron=1541335422.6840019226074218750000 HTTP/1.0" 200 0 "-" "WordPress/4.3.17; http://www.ikbensterdam.com"
123.57.254.142 - - [04/Nov/2018:12:43:43 +0000] "POST /xmlrpc.php HTTP/1.1" 200 403 "-" "Mozilla/5.0 (Macintosh; U; Intel Mac OS X 10.6; fr; rv:1.9.2.8) Gecko/20100722 Firefox/3.6.8"
31.170.123.73 - - [04/Nov/2018:12:50:03 +0000] "POST /wp-cron.php?doing_wp_cron=1541335802.0811541080474853515625 HTTP/1.0" 200 0 "-" "WordPress/4.3.17; http://www.ikbensterdam.com"
154.118.255.235 - - [04/Nov/2018:12:50:03 +0000] "GET / HTTP/1.1" 301 5 "-" "-"
154.118.255.235 - - [04/Nov/2018:12:50:12 +0000] "GET / HTTP/1.1" 200 48712 "-" "-"
31.170.123.73 - - [04/Nov/2018:13:46:27 +0000] "POST /wp-cron.php?doing_wp_cron=1541339187.2592461109161376953125 HTTP/1.0" 200 0 "-" "WordPress/4.3.17; http://www.ikbensterdam.com"
185.86.164.106 - - [04/Nov/2018:13:46:27 +0000] "GET /wp-login.php HTTP/1.1" 200 7092 "-" "Mozilla/5.0 (Windows NT 10.0; WOW64) AppleWebKit/537.36 (KHTML, like Gecko) Chrome/51.0.2704.103 Safari/537.36"
185.86.164.106 - - [04/Nov/2018:13:46:28 +0000] "POST /wp-login.php HTTP/1.1" 200 8035 "http://www.ikbensterdam.com/wp-login.php" "Mozilla/5.0 (Windows NT 10.0; WOW64) AppleWebKit/537.36 (KHTML, like Gecko) Chrome/51.0.2704.103 Safari/537.36"
31.170.123.73 - - [04/Nov/2018:14:15:13 +0000] "POST /wp-cron.php?doing_wp_cron=1541340912.7194020748138427734375 HTTP/1.0" 200 0 "-" "WordPress/4.3.17; http://www.ikbensterdam.com"
97.74.228.245 - - [04/Nov/2018:14:15:13 +0000] "POST /xmlrpc.php HTTP/1.1" 200 403 "-" "Mozilla/5.0 (Macintosh; U; Intel Mac OS X 10.6; fr; rv:1.9.2.8) Gecko/20100722 Firefox/3.6.8"
31.170.123.73 - - [04/Nov/2018:16:26:37 +0000] "POST /wp-cron.php?doing_wp_cron=1541348797.4084448814392089843750 HTTP/1.0" 200 0 "-" "WordPress/4.3.17; http://www.ikbensterdam.com"
97.74.228.245 - - [04/Nov/2018:16:26:38 +0000] "POST /xmlrpc.php HTTP/1.1" 200 403 "-" "Mozilla/5.0 (Macintosh; U; Intel Mac OS X 10.6; fr; rv:1.9.2.8) Gecko/20100722 Firefox/3.6.8"
31.170.123.73 - - [04/Nov/2018:17:24:04 +0000] "POST /wp-cron.php?doing_wp_cron=1541352244.0016980171203613281250 HTTP/1.0" 200 0 "-" "WordPress/4.3.17; http://www.ikbensterdam.com"
80.90.55.173 - - [04/Nov/2018:17:24:04 +0000] "HEAD / HTTP/1.1" 200 0 "-" "Mozilla/5.0 (compatible; Uptimebot/1.0; +http://www.uptime.com/uptimebot)"
89.248.169.130 - - [04/Nov/2018:17:24:31 +0000] "POST /xmlrpc.php HTTP/1.1" 200 403 "-" "Mozilla/5.0 (Macintosh; U; Intel Mac OS X 10.6; fr; rv:1.9.2.8) Gecko/20100722 Firefox/3.6.8"
89.248.169.130 - - [04/Nov/2018:17:24:31 +0000] "POST /xmlrpc.php HTTP/1.1" 200 403 "-" "Mozilla/5.0 (Macintosh; U; Intel Mac OS X 10.6; fr; rv:1.9.2.8) Gecko/20100722 Firefox/3.6.8"
89.248.169.130 - - [04/Nov/2018:17:24:32 +0000] "POST /xmlrpc.php HTTP/1.1" 200 403 "-" "Mozilla/5.0 (Macintosh; U; Intel Mac OS X 10.6; fr; rv:1.9.2.8) Gecko/20100722 Firefox/3.6.8"
31.170.123.73 - - [04/Nov/2018:17:31:27 +0000] "POST /wp-cron.php?doing_wp_cron=1541352686.7955379486083984375000 HTTP/1.0" 200 0 "-" "WordPress/4.3.17; http://www.ikbensterdam.com"
180.76.15.139 - - [04/Nov/2018:17:31:27 +0000] "GET /shop/ HTTP/1.1" 200 10242 "-" "Mozilla/5.0 (compatible; Baiduspider/2.0; +http://www.baidu.com/search/spider.html)"
89.163.131.167 - - [04/Nov/2018:17:47:21 +0000] "HEAD / HTTP/1.1" 200 0 "-" "Mozilla/5.0 (compatible; Uptimebot/1.0; +http://www.uptime.com/uptimebot)"
180.76.15.139 - - [04/Nov/2018:18:04:46 +0000] "GET /wp-content/themes/lms/css/stroke-gap-icons.min.css?ver=4.3.17 HTTP/1.1" 200 56369 "-" "Mozilla/5.0 (compatible; Baiduspider/2.0; +http://www.baidu.com/search/spider.html)"
31.170.123.73 - - [04/Nov/2018:18:24:04 +0000] "POST /wp-cron.php?doing_wp_cron=1541355843.6274158954620361328125 HTTP/1.0" 200 0 "-" "WordPress/4.3.17; http://www.ikbensterdam.com"
24.183.25.14 - - [04/Nov/2018:18:24:04 +0000] "GET /wp-config.php_old HTTP/1.1" 301 5 "http://ikbensterdam.com/wp-config.php_old" "Mozilla/4.0 (compatible; MSIE 6.0; Windows NT 5.1; SV1)"
24.183.25.14 - - [04/Nov/2018:18:24:07 +0000] "GET /wp-config.php_old HTTP/1.1" 404 8903 "http://www.ikbensterdam.com/wp-config.php_old" "Mozilla/4.0 (compatible; MSIE 6.0; Windows NT 5.1; SV1)"
31.170.123.73 - - [04/Nov/2018:18:35:43 +0000] "POST /wp-cron.php?doing_wp_cron=1541356542.6833779811859130859375 HTTP/1.0" 200 0 "-" "WordPress/4.3.17; http://www.ikbensterdam.com"
97.74.228.245 - - [04/Nov/2018:18:35:43 +0000] "POST /xmlrpc.php HTTP/1.1" 200 403 "-" "Mozilla/5.0 (Macintosh; U; Intel Mac OS X 10.6; fr; rv:1.9.2.8) Gecko/20100722 Firefox/3.6.8"
31.170.123.73 - - [04/Nov/2018:19:05:52 +0000] "POST /wp-cron.php?doing_wp_cron=1541358351.0340740680694580078125 HTTP/1.0" 499 0 "-" "WordPress/4.3.17; http://www.ikbensterdam.com"
69.12.66.241 - - [04/Nov/2018:19:05:52 +0000] "GET /wp-content/plugins/vcrm/x.php?xi HTTP/1.1" 404 8915 "http://www.ikbensterdam.com/wp-content/plugins/vcrm/x.php?xi" "Mozilla/5.0 (Windows NT 6.1; WOW64) AppleWebKit/537.36 (KHTML, like Gecko) Chrome/42.0.2311.152 Safari/537.36"
31.170.123.73 - - [04/Nov/2018:20:46:24 +0000] "POST /wp-cron.php?doing_wp_cron=1541364383.7121100425720214843750 HTTP/1.0" 200 0 "-" "WordPress/4.3.17; http://www.ikbensterdam.com"
80.90.55.171 - - [04/Nov/2018:20:46:24 +0000] "HEAD / HTTP/1.1" 200 0 "-" "Mozilla/5.0 (compatible; Uptimebot/1.0; +http://www.uptime.com/uptimebot)"
97.74.228.245 - - [04/Nov/2018:20:46:49 +0000] "POST /xmlrpc.php HTTP/1.1" 200 403 "-" "Mozilla/5.0 (Macintosh; U; Intel Mac OS X 10.6; fr; rv:1.9.2.8) Gecko/20100722 Firefox/3.6.8"
31.170.123.73 - - [04/Nov/2018:21:11:28 +0000] "POST /wp-cron.php?doing_wp_cron=1541365887.7271668910980224609375 HTTP/1.0" 200 0 "-" "WordPress/4.3.17; http://www.ikbensterdam.com"
69.16.254.229 - - [04/Nov/2018:21:11:28 +0000] "GET /wp-content/plugins/wp-seo/wp-seo.php HTTP/1.1" 301 5 "http://site.ru" "Mozilla/5.0 (Windows; U; Windows NT 5.1; en-US) AppleWebKit/533.4 (KHTML, like Gecko) Chrome/5.0.375.99 Safari/533.4"
69.16.254.229 - - [04/Nov/2018:21:11:29 +0000] "GET /wp-content/plugins/wp-seo/wp-seo.php HTTP/1.1" 301 5 "http://site.ru" "Mozilla/5.0 (Windows; U; Windows NT 5.1; en-US) AppleWebKit/533.4 (KHTML, like Gecko) Chrome/5.0.375.99 Safari/533.4"
69.16.254.229 - - [04/Nov/2018:21:11:31 +0000] "GET /wp-content/plugins/wp-seo/wp-seo.php HTTP/1.1" 404 35302 "http://site.ru" "Mozilla/5.0 (Windows; U; Windows NT 5.1; en-US) AppleWebKit/533.4 (KHTML, like Gecko) Chrome/5.0.375.99 Safari/533.4"
69.16.254.229 - - [04/Nov/2018:21:11:32 +0000] "GET /wp-content/plugins/wp-seo/wp-seo.php HTTP/1.1" 404 35309 "http://site.ru" "Mozilla/5.0 (Windows; U; Windows NT 5.1; en-US) AppleWebKit/533.4 (KHTML, like Gecko) Chrome/5.0.375.99 Safari/533.4"
31.170.123.73 - - [04/Nov/2018:22:34:49 +0000] "POST /wp-cron.php?doing_wp_cron=1541370889.0018498897552490234375 HTTP/1.0" 200 0 "-" "WordPress/4.3.17; http://www.ikbensterdam.com"
198.23.202.38 - - [04/Nov/2018:22:34:49 +0000] "GET /robots.txt HTTP/1.1" 200 46 "-" "Mozilla/5.0 (Windows NT 10.0; Win64; x64; rv:50.0) Gecko/20100101 Firefox/50.0"
198.23.202.38 - - [04/Nov/2018:22:34:50 +0000] "GET /?author=1 HTTP/1.1" 301 5 "-" "Mozilla/5.0 (Windows NT 10.0; Win64; x64; rv:50.0) Gecko/20100101 Firefox/50.0"
198.23.202.38 - - [04/Nov/2018:22:34:52 +0000] "POST /xmlrpc.php HTTP/1.1" 200 86001 "-" "Mozilla/5.0 (Windows NT 10.0; Win64; x64; rv:50.0) Gecko/20100101 Firefox/50.0"
198.23.202.38 - - [04/Nov/2018:22:34:55 +0000] "POST /xmlrpc.php HTTP/1.1" 200 86001 "-" "Mozilla/5.0 (Windows NT 10.0; Win64; x64; rv:50.0) Gecko/20100101 Firefox/50.0"
178.137.82.233 - - [04/Nov/2018:22:48:24 +0000] "GET /forums/ HTTP/1.0" 301 0 "-" "Mozilla/5.0 (Windows NT 8.0; WOW64; rv:41.0) Gecko/20100101 Firefox/41.0"
31.170.123.73 - - [04/Nov/2018:22:56:58 +0000] "POST /wp-cron.php?doing_wp_cron=1541372217.9558649063110351562500 HTTP/1.0" 200 0 "-" "WordPress/4.3.17; http://www.ikbensterdam.com"
97.74.228.245 - - [04/Nov/2018:22:56:58 +0000] "POST /xmlrpc.php HTTP/1.1" 200 403 "-" "Mozilla/5.0 (Macintosh; U; Intel Mac OS X 10.6; fr; rv:1.9.2.8) Gecko/20100722 Firefox/3.6.8"
220.164.2.100 - - [04/Nov/2018:23:29:54 +0000] "GET /wp-login.php HTTP/1.1" 200 7092 "-" "Mozilla/5.0 (Windows NT 5.1; rv:29.0) Gecko/20100101 Firefox/29.0"
220.164.2.100 - - [04/Nov/2018:23:29:56 +0000] "POST /wp-login.php HTTP/1.1" 200 8086 "-" "Mozilla/5.0 (Windows NT 5.1; rv:29.0) Gecko/20100101 Firefox/29.0"
31.170.123.73 - - [04/Nov/2018:23:44:59 +0000] "POST /wp-cron.php?doing_wp_cron=1541375098.8489789962768554687500 HTTP/1.0" 200 0 "-" "WordPress/4.3.17; http://www.ikbensterdam.com"
222.243.211.200 - - [04/Nov/2018:23:44:59 +0000] "GET /wp-login.php HTTP/1.1" 200 7092 "-" "Mozilla/5.0 (Windows NT 5.1; rv:29.0) Gecko/20100101 Firefox/29.0"
222.243.211.200 - - [04/Nov/2018:23:45:01 +0000] "POST /wp-login.php HTTP/1.1" 200 8086 "-" "Mozilla/5.0 (Windows NT 5.1; rv:29.0) Gecko/20100101 Firefox/29.0"
185.117.118.152 - - [04/Nov/2018:23:51:49 +0000] "HEAD / HTTP/1.1" 200 0 "-" "Mozilla/5.0 (compatible; Uptimebot/1.0; +http://www.uptime.com/uptimebot)"
31.170.123.73 - - [05/Nov/2018:00:41:39 +0000] "POST /wp-cron.php?doing_wp_cron=1541378499.0952949523925781250000 HTTP/1.0" 200 0 "-" "WordPress/4.3.17; http://www.ikbensterdam.com"
88.86.220.60 - - [05/Nov/2018:00:41:39 +0000] "POST /wp-login.php HTTP/1.1" 200 8086 "-" "Opera/9.80 (Windows NT 6.0) Presto/2.12.388 Version/12.14"
31.170.123.73 - - [05/Nov/2018:00:56:35 +0000] "POST /wp-cron.php?doing_wp_cron=1541379395.1078639030456542968750 HTTP/1.0" 200 0 "-" "WordPress/4.3.17; http://www.ikbensterdam.com"
185.85.239.110 - - [05/Nov/2018:00:56:35 +0000] "GET /wp-login.php HTTP/1.1" 200 7092 "-" "Mozilla/5.0 (Windows NT 10.0; WOW64) AppleWebKit/537.36 (KHTML, like Gecko) Chrome/51.0.2704.103 Safari/537.36"
185.85.239.110 - - [05/Nov/2018:00:56:36 +0000] "POST /wp-login.php HTTP/1.1" 200 8035 "http://www.ikbensterdam.com/wp-login.php" "Mozilla/5.0 (Windows NT 10.0; WOW64) AppleWebKit/537.36 (KHTML, like Gecko) Chrome/51.0.2704.103 Safari/537.36"
97.74.228.245 - - [05/Nov/2018:01:10:06 +0000] "POST /xmlrpc.php HTTP/1.1" 200 403 "-" "Mozilla/5.0 (Macintosh; U; Intel Mac OS X 10.6; fr; rv:1.9.2.8) Gecko/20100722 Firefox/3.6.8"
1.214.161.53 - - [05/Nov/2018:01:27:54 +0000] "GET /wp-login.php HTTP/1.1" 200 7092 "-" "Mozilla/5.0 (Windows NT 5.1; rv:29.0) Gecko/20100101 Firefox/29.0"
1.214.161.53 - - [05/Nov/2018:01:27:56 +0000] "POST /wp-login.php HTTP/1.1" 200 8086 "-" "Mozilla/5.0 (Windows NT 5.1; rv:29.0) Gecko/20100101 Firefox/29.0"
182.76.224.174 - - [05/Nov/2018:01:46:22 +0000] "POST /wp-login.php HTTP/1.1" 200 8086 "-" "Opera/9.80 (Windows NT 6.0) Presto/2.12.388 Version/12.14"
89.248.169.130 - - [05/Nov/2018:02:36:35 +0000] "POST /xmlrpc.php HTTP/1.1" 200 403 "-" "Mozilla/5.0 (Macintosh; U; Intel Mac OS X 10.6; fr; rv:1.9.2.8) Gecko/20100722 Firefox/3.6.8"
89.248.169.130 - - [05/Nov/2018:02:36:35 +0000] "POST /xmlrpc.php HTTP/1.1" 200 403 "-" "Mozilla/5.0 (Macintosh; U; Intel Mac OS X 10.6; fr; rv:1.9.2.8) Gecko/20100722 Firefox/3.6.8"
89.248.169.130 - - [05/Nov/2018:02:36:36 +0000] "POST /xmlrpc.php HTTP/1.1" 200 403 "-" "Mozilla/5.0 (Macintosh; U; Intel Mac OS X 10.6; fr; rv:1.9.2.8) Gecko/20100722 Firefox/3.6.8"
31.170.123.73 - - [05/Nov/2018:02:36:36 +0000] "POST /wp-cron.php?doing_wp_cron=1541385395.7804379463195800781250 HTTP/1.0" 200 0 "-" "WordPress/4.3.17; http://www.ikbensterdam.com"
89.248.169.130 - - [05/Nov/2018:02:36:36 +0000] "POST /xmlrpc.php HTTP/1.1" 200 403 "-" "Mozilla/5.0 (Macintosh; U; Intel Mac OS X 10.6; fr; rv:1.9.2.8) Gecko/20100722 Firefox/3.6.8"
180.76.15.163 - - [05/Nov/2018:02:37:40 +0000] "GET /wp-content/plugins/yith-woocommerce-compare/assets/css/colorbox.css?ver=4.3.17 HTTP/1.1" 200 1338 "-" "Mozilla/5.0 (compatible; Baiduspider/2.0; +http://www.baidu.com/search/spider.html)"
180.76.15.20 - - [05/Nov/2018:02:37:43 +0000] "GET /robots.txt HTTP/1.1" 200 77 "-" "Mozilla/5.0 (Windows NT 5.1; rv:6.0.2) Gecko/20100101 Firefox/6.0.2"
180.76.15.138 - - [05/Nov/2018:02:37:43 +0000] "GET /robots.txt HTTP/1.1" 200 77 "-" "Mozilla/5.0 (Windows NT 5.1; rv:6.0.2) Gecko/20100101 Firefox/6.0.2"
31.170.123.73 - - [05/Nov/2018:02:55:36 +0000] "POST /wp-cron.php?doing_wp_cron=1541386535.7511990070343017578125 HTTP/1.0" 200 0 "-" "WordPress/4.3.17; http://www.ikbensterdam.com"
193.201.224.210 - - [05/Nov/2018:02:55:36 +0000] "GET /wp-content/themes/ThisWay/includes/uploadify/upload_settings_image.php HTTP/1.1" 301 5 "http://ikbensterdam.com/wp-content/themes/ThisWay/includes/uploadify/upload_settings_image.php" "Mozilla/5.0 (Windows NT 6.1; WOW64) AppleWebKit/537.36 (KHTML, like Gecko) Chrome/42.0.2311.152 Safari/537.36"
193.201.224.210 - - [05/Nov/2018:02:55:37 +0000] "GET /wp-content/themes/ThisWay/includes/uploadify/upload_settings_image.php HTTP/1.1" 404 8934 "http://ikbensterdam.com/wp-content/themes/ThisWay/includes/uploadify/upload_settings_image.php" "Mozilla/5.0 (Windows NT 6.1; WOW64) AppleWebKit/537.36 (KHTML, like Gecko) Chrome/42.0.2311.152 Safari/537.36"
