54.213.56.23 - - [31/Oct/2018:03:43:40 +0000] "GET / HTTP/1.0" 302 20 "-" "Mozilla/5.0 (Windows NT 10.0; Win64; x64) AppleWebKit/537.36 (KHTML, like Gecko) Chrome/66.0.3359.181 Safari/537.36"
54.213.56.23 - - [31/Oct/2018:03:43:40 +0000] "GET /login_page.php HTTP/1.0" 200 1375 "-" "Mozilla/5.0 (Windows NT 10.0; Win64; x64) AppleWebKit/537.36 (KHTML, like Gecko) Chrome/66.0.3359.181 Safari/537.36"
34.226.85.69 - - [31/Oct/2018:03:43:43 +0000] "GET / HTTP/1.0" 302 20 "-" "Go-http-client/1.1"
135.23.221.142 - - [31/Oct/2018:03:56:03 +0000] "HEAD / HTTP/1.0" 302 - "-" "Ver. 5.7 x64"
135.23.221.142 - - [31/Oct/2018:03:56:04 +0000] "HEAD /login_page.php HTTP/1.0" 200 - "-" "Ver. 5.7 x64"
135.23.221.142 - - [31/Oct/2018:03:56:04 +0000] "GET / HTTP/1.0" 302 - "-" "Ver. 5.7 x64"
135.23.221.142 - - [31/Oct/2018:03:56:04 +0000] "GET /login_page.php HTTP/1.0" 200 4914 "-" "Ver. 5.7 x64"
158.69.225.36 - - [31/Oct/2018:04:30:53 +0000] "GET / HTTP/1.0" 302 - "-" "Mozilla/5.0 (compatible; Dataprovider.com)"
158.69.225.36 - - [31/Oct/2018:04:30:53 +0000] "GET /login_page.php HTTP/1.0" 200 4978 "-" "Mozilla/5.0 (compatible; Dataprovider.com)"
158.69.225.36 - - [31/Oct/2018:04:30:55 +0000] "GET /robots.txt HTTP/1.0" 404 208 "-" "Mozilla/5.0 (compatible; Dataprovider.com)"
158.69.225.36 - - [31/Oct/2018:04:30:55 +0000] "GET /sitemap.xml HTTP/1.0" 404 209 "-" "Mozilla/5.0 (compatible; Dataprovider.com)"
158.69.225.36 - - [31/Oct/2018:04:30:55 +0000] "GET /login_page.php HTTP/1.0" 200 4978 "-" "Mozilla/5.0 (compatible; Dataprovider.com)"
158.69.225.36 - - [31/Oct/2018:04:30:57 +0000] "GET /signup_page.php HTTP/1.0" 200 7000 "-" "Mozilla/5.0 (compatible; Dataprovider.com)"
158.69.225.36 - - [31/Oct/2018:04:30:58 +0000] "GET /my_view_page.php HTTP/1.0" 302 - "-" "Mozilla/5.0 (compatible; Dataprovider.com)"
158.69.225.36 - - [31/Oct/2018:04:31:00 +0000] "GET /login_page.php?return=%2Fmy_view_page.php HTTP/1.0" 200 4985 "-" "Mozilla/5.0 (compatible; Dataprovider.com)"
158.69.225.36 - - [31/Oct/2018:04:31:01 +0000] "GET /lost_pwd_page.php HTTP/1.0" 200 5790 "-" "Mozilla/5.0 (compatible; Dataprovider.com)"
158.69.225.36 - - [31/Oct/2018:04:31:03 +0000] "GET /ads.txt HTTP/1.0" 404 205 "-" "Mozilla/5.0 (compatible; Dataprovider.com)"
158.69.225.36 - - [31/Oct/2018:04:31:03 +0000] "GET /login_page.php HTTP/1.0" 200 4978 "-" "Mozilla/5.0 (Linux; Android 5.1.1; SM-G925F Build/LMY47X) AppleWebKit/537.36 (KHTML, like Gecko) Chrome/45.0.2454.94 Mobile Safari/537.36"
123.125.71.75 - - [31/Oct/2018:04:39:20 +0000] "GET /signup_page.php HTTP/1.0" 200 2167 "-" "Mozilla/5.0 (compatible; Baiduspider/2.0; +http://www.baidu.com/search/spider.html)"
111.206.198.74 - - [31/Oct/2018:04:39:21 +0000] "GET /css/login.css HTTP/1.0" 200 827 "http://orangepotion.com/signup_page.php" "Mozilla/5.0 (iPhone; CPU iPhone OS 9_1 like Mac OS X) AppleWebKit/601.1.46 (KHTML, like Gecko) Version/9.0 Mobile/13B143 Safari/601.1 (compatible; Baiduspider-render/2.0; +http://www.baidu.com/search/spider.html)"
111.206.198.105 - - [31/Oct/2018:04:39:22 +0000] "GET /css/bootstrap-3.3.6.min.css HTTP/1.0" 200 115813 "http://orangepotion.com/signup_page.php" "Mozilla/5.0 (iPhone; CPU iPhone OS 9_1 like Mac OS X) AppleWebKit/601.1.46 (KHTML, like Gecko) Version/9.0 Mobile/13B143 Safari/601.1 (compatible; Baiduspider-render/2.0; +http://www.baidu.com/search/spider.html)"
111.206.221.75 - - [31/Oct/2018:04:39:22 +0000] "GET /css/dropzone-4.3.0.min.css HTTP/1.0" 200 9716 "http://orangepotion.com/signup_page.php" "Mozilla/5.0 (iPhone; CPU iPhone OS 9_1 like Mac OS X) AppleWebKit/601.1.46 (KHTML, like Gecko) Version/9.0 Mobile/13B143 Safari/601.1 (compatible; Baiduspider-render/2.0; +http://www.baidu.com/search/spider.html)"
111.206.221.21 - - [31/Oct/2018:04:39:22 +0000] "GET /css/default.css HTTP/1.0" 200 2084 "http://orangepotion.com/signup_page.php" "Mozilla/5.0 (iPhone; CPU iPhone OS 9_1 like Mac OS X) AppleWebKit/601.1.46 (KHTML, like Gecko) Version/9.0 Mobile/13B143 Safari/601.1 (compatible; Baiduspider-render/2.0; +http://www.baidu.com/search/spider.html)"
111.206.198.74 - - [31/Oct/2018:04:39:22 +0000] "GET /css/status_config.php HTTP/1.0" 200 - "http://orangepotion.com/signup_page.php" "Mozilla/5.0 (iPhone; CPU iPhone OS 9_1 like Mac OS X) AppleWebKit/601.1.46 (KHTML, like Gecko) Version/9.0 Mobile/13B143 Safari/601.1 (compatible; Baiduspider-render/2.0; +http://www.baidu.com/search/spider.html)"
111.206.198.122 - - [31/Oct/2018:04:39:22 +0000] "GET /css/common_config.php HTTP/1.0" 200 151 "http://orangepotion.com/signup_page.php" "Mozilla/5.0 (iPhone; CPU iPhone OS 9_1 like Mac OS X) AppleWebKit/601.1.46 (KHTML, like Gecko) Version/9.0 Mobile/13B143 Safari/601.1 (compatible; Baiduspider-render/2.0; +http://www.baidu.com/search/spider.html)"
111.206.198.51 - - [31/Oct/2018:04:39:22 +0000] "GET /css/font-awesome-4.6.3.min.css HTTP/1.0" 200 29063 "http://orangepotion.com/signup_page.php" "Mozilla/5.0 (iPhone; CPU iPhone OS 9_1 like Mac OS X) AppleWebKit/601.1.46 (KHTML, like Gecko) Version/9.0 Mobile/13B143 Safari/601.1 (compatible; Baiduspider-render/2.0; +http://www.baidu.com/search/spider.html)"
111.206.221.6 - - [31/Oct/2018:04:39:22 +0000] "GET /css/open-sans.css HTTP/1.0" 200 1175 "http://orangepotion.com/signup_page.php" "Mozilla/5.0 (iPhone; CPU iPhone OS 9_1 like Mac OS X) AppleWebKit/601.1.46 (KHTML, like Gecko) Version/9.0 Mobile/13B143 Safari/601.1 (compatible; Baiduspider-render/2.0; +http://www.baidu.com/search/spider.html)"
111.206.198.54 - - [31/Oct/2018:04:39:23 +0000] "GET /css/bootstrap-datetimepicker-4.17.47.min.css HTTP/1.0" 200 7785 "http://orangepotion.com/signup_page.php" "Mozilla/5.0 (iPhone; CPU iPhone OS 9_1 like Mac OS X) AppleWebKit/601.1.46 (KHTML, like Gecko) Version/9.0 Mobile/13B143 Safari/601.1 (compatible; Baiduspider-render/2.0; +http://www.baidu.com/search/spider.html)"
111.206.221.100 - - [31/Oct/2018:04:39:23 +0000] "GET /css/ace.min.css HTTP/1.0" 200 298300 "http://orangepotion.com/signup_page.php" "Mozilla/5.0 (iPhone; CPU iPhone OS 9_1 like Mac OS X) AppleWebKit/601.1.46 (KHTML, like Gecko) Version/9.0 Mobile/13B143 Safari/601.1 (compatible; Baiduspider-render/2.0; +http://www.baidu.com/search/spider.html)"
111.206.221.47 - - [31/Oct/2018:04:39:24 +0000] "GET /css/ace-mantis.css HTTP/1.0" 200 12793 "http://orangepotion.com/signup_page.php" "Mozilla/5.0 (iPhone; CPU iPhone OS 9_1 like Mac OS X) AppleWebKit/601.1.46 (KHTML, like Gecko) Version/9.0 Mobile/13B143 Safari/601.1 (compatible; Baiduspider-render/2.0; +http://www.baidu.com/search/spider.html)"
111.206.221.105 - - [31/Oct/2018:04:39:24 +0000] "GET /css/ace-skins.min.css HTTP/1.0" 200 14106 "http://orangepotion.com/signup_page.php" "Mozilla/5.0 (iPhone; CPU iPhone OS 9_1 like Mac OS X) AppleWebKit/601.1.46 (KHTML, like Gecko) Version/9.0 Mobile/13B143 Safari/601.1 (compatible; Baiduspider-render/2.0; +http://www.baidu.com/search/spider.html)"
111.206.198.48 - - [31/Oct/2018:04:39:24 +0000] "GET /plugin_file.php?file=Source/style.css HTTP/1.0" 200 4717 "http://orangepotion.com/signup_page.php" "Mozilla/5.0 (iPhone; CPU iPhone OS 9_1 like Mac OS X) AppleWebKit/601.1.46 (KHTML, like Gecko) Version/9.0 Mobile/13B143 Safari/601.1 (compatible; Baiduspider-render/2.0; +http://www.baidu.com/search/spider.html)"
111.206.198.81 - - [31/Oct/2018:04:39:25 +0000] "GET /javascript_config.php HTTP/1.0" 200 106 "http://orangepotion.com/signup_page.php" "Mozilla/5.0 (iPhone; CPU iPhone OS 9_1 like Mac OS X) AppleWebKit/601.1.46 (KHTML, like Gecko) Version/9.0 Mobile/13B143 Safari/601.1 (compatible; Baiduspider-render/2.0; +http://www.baidu.com/search/spider.html)"
111.206.221.21 - - [31/Oct/2018:04:39:25 +0000] "GET /javascript_translations.php HTTP/1.0" 200 192 "http://orangepotion.com/signup_page.php" "Mozilla/5.0 (iPhone; CPU iPhone OS 9_1 like Mac OS X) AppleWebKit/601.1.46 (KHTML, like Gecko) Version/9.0 Mobile/13B143 Safari/601.1 (compatible; Baiduspider-render/2.0; +http://www.baidu.com/search/spider.html)"
111.206.198.44 - - [31/Oct/2018:04:39:26 +0000] "GET /js/dropzone-4.3.0.min.js HTTP/1.0" 200 33588 "http://orangepotion.com/signup_page.php" "Mozilla/5.0 (iPhone; CPU iPhone OS 9_1 like Mac OS X) AppleWebKit/601.1.46 (KHTML, like Gecko) Version/9.0 Mobile/13B143 Safari/601.1 (compatible; Baiduspider-render/2.0; +http://www.baidu.com/search/spider.html)"
111.206.221.109 - - [31/Oct/2018:04:39:27 +0000] "GET /js/jquery-2.2.4.min.js HTTP/1.0" 200 85578 "http://orangepotion.com/signup_page.php" "Mozilla/5.0 (iPhone; CPU iPhone OS 9_1 like Mac OS X) AppleWebKit/601.1.46 (KHTML, like Gecko) Version/9.0 Mobile/13B143 Safari/601.1 (compatible; Baiduspider-render/2.0; +http://www.baidu.com/search/spider.html)"
111.206.221.50 - - [31/Oct/2018:04:39:27 +0000] "GET /js/common.js HTTP/1.0" 200 17147 "http://orangepotion.com/signup_page.php" "Mozilla/5.0 (iPhone; CPU iPhone OS 9_1 like Mac OS X) AppleWebKit/601.1.46 (KHTML, like Gecko) Version/9.0 Mobile/13B143 Safari/601.1 (compatible; Baiduspider-render/2.0; +http://www.baidu.com/search/spider.html)"
111.206.198.119 - - [31/Oct/2018:04:39:28 +0000] "GET /js/login.js HTTP/1.0" 200 1111 "http://orangepotion.com/signup_page.php" "Mozilla/5.0 (iPhone; CPU iPhone OS 9_1 like Mac OS X) AppleWebKit/601.1.46 (KHTML, like Gecko) Version/9.0 Mobile/13B143 Safari/601.1 (compatible; Baiduspider-render/2.0; +http://www.baidu.com/search/spider.html)"
111.206.198.87 - - [31/Oct/2018:04:39:29 +0000] "GET /plugin_file.php?file=MantisGraph/chart-2.1.6.min.js HTTP/1.0" 200 139378 "http://orangepotion.com/signup_page.php" "Mozilla/5.0 (iPhone; CPU iPhone OS 9_1 like Mac OS X) AppleWebKit/601.1.46 (KHTML, like Gecko) Version/9.0 Mobile/13B143 Safari/601.1 (compatible; Baiduspider-render/2.0; +http://www.baidu.com/search/spider.html)"
111.206.198.27 - - [31/Oct/2018:04:39:29 +0000] "GET /plugin_file.php?file=MantisGraph/chart.bundle-2.1.6.min.js HTTP/1.0" 200 185873 "http://orangepotion.com/signup_page.php" "Mozilla/5.0 (iPhone; CPU iPhone OS 9_1 like Mac OS X) AppleWebKit/601.1.46 (KHTML, like Gecko) Version/9.0 Mobile/13B143 Safari/601.1 (compatible; Baiduspider-render/2.0; +http://www.baidu.com/search/spider.html)"
111.206.221.96 - - [31/Oct/2018:04:39:29 +0000] "GET /plugin_file.php?file=MantisGraph/MantisGraph.js HTTP/1.0" 200 2541 "http://orangepotion.com/signup_page.php" "Mozilla/5.0 (iPhone; CPU iPhone OS 9_1 like Mac OS X) AppleWebKit/601.1.46 (KHTML, like Gecko) Version/9.0 Mobile/13B143 Safari/601.1 (compatible; Baiduspider-render/2.0; +http://www.baidu.com/search/spider.html)"
37.9.113.187 - - [31/Oct/2018:08:32:28 +0000] "GET /robots.txt HTTP/1.0" 404 208 "-" "Mozilla/5.0 (compatible; YandexBot/3.0; +http://yandex.com/bots)"
141.8.142.166 - - [31/Oct/2018:08:32:31 +0000] "GET /browser_search_plugin.php?type=text HTTP/1.0" 200 404 "-" "Mozilla/5.0 (compatible; YandexBot/3.0; +http://yandex.com/bots)"
157.55.39.16 - - [31/Oct/2018:11:01:07 +0000] "GET /robots.txt HTTP/1.0" 404 208 "-" "Mozilla/5.0 (compatible; bingbot/2.0; +http://www.bing.com/bingbot.htm)"
157.55.39.252 - - [31/Oct/2018:11:01:11 +0000] "GET / HTTP/1.0" 302 20 "-" "Mozilla/5.0 (compatible; bingbot/2.0; +http://www.bing.com/bingbot.htm)"
62.43.3.183 - - [31/Oct/2018:11:12:56 +0000] "GET /my_view_page.php HTTP/1.0" 200 5287 "-" "Mozilla/5.0 (Windows NT 10.0; Win64; x64) AppleWebKit/537.36 (KHTML, like Gecko) Chrome/70.0.3538.77 Safari/537.36"
62.43.3.183 - - [31/Oct/2018:11:12:57 +0000] "GET /css/default.css HTTP/1.0" 200 2084 "http://orangepotion.com/my_view_page.php" "Mozilla/5.0 (Windows NT 10.0; Win64; x64) AppleWebKit/537.36 (KHTML, like Gecko) Chrome/70.0.3538.77 Safari/537.36"
62.43.3.183 - - [31/Oct/2018:11:12:57 +0000] "GET /my_view_page.php HTTP/1.0" 200 5287 "-" "Mozilla/5.0 (Windows NT 10.0; Win64; x64) AppleWebKit/537.36 (KHTML, like Gecko) Chrome/70.0.3538.77 Safari/537.36"
62.43.3.183 - - [31/Oct/2018:11:12:57 +0000] "GET /css/common_config.php HTTP/1.0" 200 145 "http://orangepotion.com/my_view_page.php" "Mozilla/5.0 (Windows NT 10.0; Win64; x64) AppleWebKit/537.36 (KHTML, like Gecko) Chrome/70.0.3538.77 Safari/537.36"
62.43.3.183 - - [31/Oct/2018:11:12:57 +0000] "GET /css/dropzone-4.3.0.min.css HTTP/1.0" 200 9716 "http://orangepotion.com/my_view_page.php" "Mozilla/5.0 (Windows NT 10.0; Win64; x64) AppleWebKit/537.36 (KHTML, like Gecko) Chrome/70.0.3538.77 Safari/537.36"
62.43.3.183 - - [31/Oct/2018:11:12:57 +0000] "GET /css/bootstrap-3.3.6.min.css HTTP/1.0" 200 115813 "http://orangepotion.com/my_view_page.php" "Mozilla/5.0 (Windows NT 10.0; Win64; x64) AppleWebKit/537.36 (KHTML, like Gecko) Chrome/70.0.3538.77 Safari/537.36"
62.43.3.183 - - [31/Oct/2018:11:12:57 +0000] "GET /css/status_config.php HTTP/1.0" 200 160 "http://orangepotion.com/my_view_page.php" "Mozilla/5.0 (Windows NT 10.0; Win64; x64) AppleWebKit/537.36 (KHTML, like Gecko) Chrome/70.0.3538.77 Safari/537.36"
62.43.3.183 - - [31/Oct/2018:11:12:58 +0000] "GET /css/font-awesome-4.6.3.min.css HTTP/1.0" 200 29063 "http://orangepotion.com/my_view_page.php" "Mozilla/5.0 (Windows NT 10.0; Win64; x64) AppleWebKit/537.36 (KHTML, like Gecko) Chrome/70.0.3538.77 Safari/537.36"
62.43.3.183 - - [31/Oct/2018:11:12:58 +0000] "GET /css/open-sans.css HTTP/1.0" 200 1175 "http://orangepotion.com/my_view_page.php" "Mozilla/5.0 (Windows NT 10.0; Win64; x64) AppleWebKit/537.36 (KHTML, like Gecko) Chrome/70.0.3538.77 Safari/537.36"
62.43.3.183 - - [31/Oct/2018:11:12:58 +0000] "GET /css/bootstrap-datetimepicker-4.17.47.min.css HTTP/1.0" 200 7785 "http://orangepotion.com/my_view_page.php" "Mozilla/5.0 (Windows NT 10.0; Win64; x64) AppleWebKit/537.36 (KHTML, like Gecko) Chrome/70.0.3538.77 Safari/537.36"
62.43.3.183 - - [31/Oct/2018:11:12:58 +0000] "GET /css/ace.min.css HTTP/1.0" 200 298300 "http://orangepotion.com/my_view_page.php" "Mozilla/5.0 (Windows NT 10.0; Win64; x64) AppleWebKit/537.36 (KHTML, like Gecko) Chrome/70.0.3538.77 Safari/537.36"
62.43.3.183 - - [31/Oct/2018:11:12:59 +0000] "GET /css/ace-mantis.css HTTP/1.0" 200 12793 "http://orangepotion.com/my_view_page.php" "Mozilla/5.0 (Windows NT 10.0; Win64; x64) AppleWebKit/537.36 (KHTML, like Gecko) Chrome/70.0.3538.77 Safari/537.36"
62.43.3.183 - - [31/Oct/2018:11:12:59 +0000] "GET /css/ace-skins.min.css HTTP/1.0" 200 14106 "http://orangepotion.com/my_view_page.php" "Mozilla/5.0 (Windows NT 10.0; Win64; x64) AppleWebKit/537.36 (KHTML, like Gecko) Chrome/70.0.3538.77 Safari/537.36"
62.43.3.183 - - [31/Oct/2018:11:12:59 +0000] "GET /js/jquery-2.2.4.min.js HTTP/1.0" 200 85578 "http://orangepotion.com/my_view_page.php" "Mozilla/5.0 (Windows NT 10.0; Win64; x64) AppleWebKit/537.36 (KHTML, like Gecko) Chrome/70.0.3538.77 Safari/537.36"
62.43.3.183 - - [31/Oct/2018:11:12:59 +0000] "GET /css/common_config.php HTTP/1.0" 200 145 "http://orangepotion.com/my_view_page.php" "Mozilla/5.0 (Windows NT 10.0; Win64; x64) AppleWebKit/537.36 (KHTML, like Gecko) Chrome/70.0.3538.77 Safari/537.36"
62.43.3.183 - - [31/Oct/2018:11:12:59 +0000] "GET /plugin_file.php?file=Source/style.css HTTP/1.0" 200 2831 "http://orangepotion.com/my_view_page.php" "Mozilla/5.0 (Windows NT 10.0; Win64; x64) AppleWebKit/537.36 (KHTML, like Gecko) Chrome/70.0.3538.77 Safari/537.36"
62.43.3.183 - - [31/Oct/2018:11:12:59 +0000] "GET /javascript_translations.php HTTP/1.0" 200 130 "http://orangepotion.com/my_view_page.php" "Mozilla/5.0 (Windows NT 10.0; Win64; x64) AppleWebKit/537.36 (KHTML, like Gecko) Chrome/70.0.3538.77 Safari/537.36"
62.43.3.183 - - [31/Oct/2018:11:12:59 +0000] "GET /javascript_config.php HTTP/1.0" 200 107 "http://orangepotion.com/my_view_page.php" "Mozilla/5.0 (Windows NT 10.0; Win64; x64) AppleWebKit/537.36 (KHTML, like Gecko) Chrome/70.0.3538.77 Safari/537.36"
62.43.3.183 - - [31/Oct/2018:11:12:59 +0000] "GET /js/dropzone-4.3.0.min.js HTTP/1.0" 200 33588 "http://orangepotion.com/my_view_page.php" "Mozilla/5.0 (Windows NT 10.0; Win64; x64) AppleWebKit/537.36 (KHTML, like Gecko) Chrome/70.0.3538.77 Safari/537.36"
62.43.3.183 - - [31/Oct/2018:11:12:59 +0000] "GET /js/common.js HTTP/1.0" 200 17147 "http://orangepotion.com/my_view_page.php" "Mozilla/5.0 (Windows NT 10.0; Win64; x64) AppleWebKit/537.36 (KHTML, like Gecko) Chrome/70.0.3538.77 Safari/537.36"
62.43.3.183 - - [31/Oct/2018:11:12:59 +0000] "GET /plugin_file.php?file=MantisGraph/chart-2.1.6.min.js HTTP/1.0" 200 37186 "http://orangepotion.com/my_view_page.php" "Mozilla/5.0 (Windows NT 10.0; Win64; x64) AppleWebKit/537.36 (KHTML, like Gecko) Chrome/70.0.3538.77 Safari/537.36"
62.43.3.183 - - [31/Oct/2018:11:12:59 +0000] "GET /plugin_file.php?file=MantisGraph/chart.bundle-2.1.6.min.js HTTP/1.0" 200 52126 "http://orangepotion.com/my_view_page.php" "Mozilla/5.0 (Windows NT 10.0; Win64; x64) AppleWebKit/537.36 (KHTML, like Gecko) Chrome/70.0.3538.77 Safari/537.36"
62.43.3.183 - - [31/Oct/2018:11:12:59 +0000] "GET /plugin_file.php?file=MantisGraph/MantisGraph.js HTTP/1.0" 200 496 "http://orangepotion.com/my_view_page.php" "Mozilla/5.0 (Windows NT 10.0; Win64; x64) AppleWebKit/537.36 (KHTML, like Gecko) Chrome/70.0.3538.77 Safari/537.36"
62.43.3.183 - - [31/Oct/2018:11:13:00 +0000] "GET /js/moment-with-locales-2.15.2.min.js HTTP/1.0" 200 232806 "http://orangepotion.com/my_view_page.php" "Mozilla/5.0 (Windows NT 10.0; Win64; x64) AppleWebKit/537.36 (KHTML, like Gecko) Chrome/70.0.3538.77 Safari/537.36"
62.43.3.183 - - [31/Oct/2018:11:13:00 +0000] "GET /js/list-1.4.1.min.js HTTP/1.0" 200 15689 "http://orangepotion.com/my_view_page.php" "Mozilla/5.0 (Windows NT 10.0; Win64; x64) AppleWebKit/537.36 (KHTML, like Gecko) Chrome/70.0.3538.77 Safari/537.36"
62.43.3.183 - - [31/Oct/2018:11:13:00 +0000] "GET /js/typeahead.jquery-1.1.1.min.js HTTP/1.0" 200 31010 "http://orangepotion.com/my_view_page.php" "Mozilla/5.0 (Windows NT 10.0; Win64; x64) AppleWebKit/537.36 (KHTML, like Gecko) Chrome/70.0.3538.77 Safari/537.36"
62.43.3.183 - - [31/Oct/2018:11:13:00 +0000] "GET /js/bootstrap-datetimepicker-4.17.47.min.js HTTP/1.0" 200 38510 "http://orangepotion.com/my_view_page.php" "Mozilla/5.0 (Windows NT 10.0; Win64; x64) AppleWebKit/537.36 (KHTML, like Gecko) Chrome/70.0.3538.77 Safari/537.36"
62.43.3.183 - - [31/Oct/2018:11:13:01 +0000] "GET /js/ace.min.js HTTP/1.0" 200 41178 "http://orangepotion.com/my_view_page.php" "Mozilla/5.0 (Windows NT 10.0; Win64; x64) AppleWebKit/537.36 (KHTML, like Gecko) Chrome/70.0.3538.77 Safari/537.36"
62.43.3.183 - - [31/Oct/2018:11:13:01 +0000] "GET /js/bootstrap-3.3.6.min.js HTTP/1.0" 200 36868 "http://orangepotion.com/my_view_page.php" "Mozilla/5.0 (Windows NT 10.0; Win64; x64) AppleWebKit/537.36 (KHTML, like Gecko) Chrome/70.0.3538.77 Safari/537.36"
62.43.3.183 - - [31/Oct/2018:11:13:01 +0000] "GET /images/mantis_logo.png HTTP/1.0" 200 77114 "http://orangepotion.com/my_view_page.php" "Mozilla/5.0 (Windows NT 10.0; Win64; x64) AppleWebKit/537.36 (KHTML, like Gecko) Chrome/70.0.3538.77 Safari/537.36"
62.43.3.183 - - [31/Oct/2018:11:13:01 +0000] "GET /fonts/fontawesome-webfont.woff2?v=4.6.3 HTTP/1.0" 200 71896 "http://orangepotion.com/css/font-awesome-4.6.3.min.css" "Mozilla/5.0 (Windows NT 10.0; Win64; x64) AppleWebKit/537.36 (KHTML, like Gecko) Chrome/70.0.3538.77 Safari/537.36"
62.43.3.183 - - [31/Oct/2018:11:13:01 +0000] "GET /fonts/DXI1ORHCpsQm3Vp6mXoaTXhCUOGz7vYGh680lGh-uXM.woff HTTP/1.0" 200 22656 "http://orangepotion.com/css/open-sans.css" "Mozilla/5.0 (Windows NT 10.0; Win64; x64) AppleWebKit/537.36 (KHTML, like Gecko) Chrome/70.0.3538.77 Safari/537.36"
62.43.3.183 - - [31/Oct/2018:11:13:01 +0000] "GET /fonts/cJZKeOuBrn4kERxqtaUH3T8E0i7KZn-EPnyo3HZu7kw.woff HTTP/1.0" 200 21956 "http://orangepotion.com/css/open-sans.css" "Mozilla/5.0 (Windows NT 10.0; Win64; x64) AppleWebKit/537.36 (KHTML, like Gecko) Chrome/70.0.3538.77 Safari/537.36"
62.43.3.183 - - [31/Oct/2018:11:13:10 +0000] "GET /view.php?id=1085 HTTP/1.0" 200 6795 "http://orangepotion.com/my_view_page.php" "Mozilla/5.0 (Windows NT 10.0; Win64; x64) AppleWebKit/537.36 (KHTML, like Gecko) Chrome/70.0.3538.77 Safari/537.36"
62.43.3.183 - - [31/Oct/2018:11:13:10 +0000] "GET /css/common_config.php HTTP/1.0" 200 145 "http://orangepotion.com/view.php?id=1085" "Mozilla/5.0 (Windows NT 10.0; Win64; x64) AppleWebKit/537.36 (KHTML, like Gecko) Chrome/70.0.3538.77 Safari/537.36"
62.43.3.183 - - [31/Oct/2018:11:13:10 +0000] "GET /css/status_config.php HTTP/1.0" 200 160 "http://orangepotion.com/view.php?id=1085" "Mozilla/5.0 (Windows NT 10.0; Win64; x64) AppleWebKit/537.36 (KHTML, like Gecko) Chrome/70.0.3538.77 Safari/537.36"
62.43.3.183 - - [31/Oct/2018:11:13:10 +0000] "GET /javascript_config.php HTTP/1.0" 200 107 "http://orangepotion.com/view.php?id=1085" "Mozilla/5.0 (Windows NT 10.0; Win64; x64) AppleWebKit/537.36 (KHTML, like Gecko) Chrome/70.0.3538.77 Safari/537.36"
62.43.3.183 - - [31/Oct/2018:11:13:10 +0000] "GET /javascript_translations.php HTTP/1.0" 200 130 "http://orangepotion.com/view.php?id=1085" "Mozilla/5.0 (Windows NT 10.0; Win64; x64) AppleWebKit/537.36 (KHTML, like Gecko) Chrome/70.0.3538.77 Safari/537.36"
62.43.3.183 - - [31/Oct/2018:11:13:11 +0000] "GET /images/favicon.ico HTTP/1.0" 200 5254 "http://orangepotion.com/view.php?id=1085" "Mozilla/5.0 (Windows NT 10.0; Win64; x64) AppleWebKit/537.36 (KHTML, like Gecko) Chrome/70.0.3538.77 Safari/537.36"
62.43.3.183 - - [31/Oct/2018:11:13:18 +0000] "POST /bug_change_status_page.php HTTP/1.0" 200 5136 "http://orangepotion.com/view.php?id=1085" "Mozilla/5.0 (Windows NT 10.0; Win64; x64) AppleWebKit/537.36 (KHTML, like Gecko) Chrome/70.0.3538.77 Safari/537.36"
62.43.3.183 - - [31/Oct/2018:11:13:18 +0000] "GET /css/common_config.php HTTP/1.0" 200 145 "http://orangepotion.com/bug_change_status_page.php" "Mozilla/5.0 (Windows NT 10.0; Win64; x64) AppleWebKit/537.36 (KHTML, like Gecko) Chrome/70.0.3538.77 Safari/537.36"
62.43.3.183 - - [31/Oct/2018:11:13:18 +0000] "GET /javascript_config.php HTTP/1.0" 200 107 "http://orangepotion.com/bug_change_status_page.php" "Mozilla/5.0 (Windows NT 10.0; Win64; x64) AppleWebKit/537.36 (KHTML, like Gecko) Chrome/70.0.3538.77 Safari/537.36"
62.43.3.183 - - [31/Oct/2018:11:13:18 +0000] "GET /css/status_config.php HTTP/1.0" 200 160 "http://orangepotion.com/bug_change_status_page.php" "Mozilla/5.0 (Windows NT 10.0; Win64; x64) AppleWebKit/537.36 (KHTML, like Gecko) Chrome/70.0.3538.77 Safari/537.36"
62.43.3.183 - - [31/Oct/2018:11:13:18 +0000] "GET /javascript_translations.php HTTP/1.0" 200 130 "http://orangepotion.com/bug_change_status_page.php" "Mozilla/5.0 (Windows NT 10.0; Win64; x64) AppleWebKit/537.36 (KHTML, like Gecko) Chrome/70.0.3538.77 Safari/537.36"
62.43.3.183 - - [31/Oct/2018:11:13:24 +0000] "POST /bug_update.php HTTP/1.0" 302 20 "http://orangepotion.com/bug_change_status_page.php" "Mozilla/5.0 (Windows NT 10.0; Win64; x64) AppleWebKit/537.36 (KHTML, like Gecko) Chrome/70.0.3538.77 Safari/537.36"
62.43.3.183 - - [31/Oct/2018:11:13:24 +0000] "GET /view.php?id=1085 HTTP/1.0" 200 5245 "http://orangepotion.com/bug_change_status_page.php" "Mozilla/5.0 (Windows NT 10.0; Win64; x64) AppleWebKit/537.36 (KHTML, like Gecko) Chrome/70.0.3538.77 Safari/537.36"
62.43.3.183 - - [31/Oct/2018:11:13:25 +0000] "GET /css/common_config.php HTTP/1.0" 200 145 "http://orangepotion.com/view.php?id=1085" "Mozilla/5.0 (Windows NT 10.0; Win64; x64) AppleWebKit/537.36 (KHTML, like Gecko) Chrome/70.0.3538.77 Safari/537.36"
62.43.3.183 - - [31/Oct/2018:11:13:25 +0000] "GET /javascript_translations.php HTTP/1.0" 200 130 "http://orangepotion.com/view.php?id=1085" "Mozilla/5.0 (Windows NT 10.0; Win64; x64) AppleWebKit/537.36 (KHTML, like Gecko) Chrome/70.0.3538.77 Safari/537.36"
62.43.3.183 - - [31/Oct/2018:11:13:25 +0000] "GET /css/status_config.php HTTP/1.0" 200 160 "http://orangepotion.com/view.php?id=1085" "Mozilla/5.0 (Windows NT 10.0; Win64; x64) AppleWebKit/537.36 (KHTML, like Gecko) Chrome/70.0.3538.77 Safari/537.36"
62.43.3.183 - - [31/Oct/2018:11:13:25 +0000] "GET /javascript_config.php HTTP/1.0" 200 107 "http://orangepotion.com/view.php?id=1085" "Mozilla/5.0 (Windows NT 10.0; Win64; x64) AppleWebKit/537.36 (KHTML, like Gecko) Chrome/70.0.3538.77 Safari/537.36"
62.43.3.183 - - [31/Oct/2018:11:14:18 +0000] "GET /my_view_page.php HTTP/1.0" 200 5387 "http://orangepotion.com/view.php?id=1085" "Mozilla/5.0 (Windows NT 10.0; Win64; x64) AppleWebKit/537.36 (KHTML, like Gecko) Chrome/70.0.3538.77 Safari/537.36"
62.43.3.183 - - [31/Oct/2018:11:14:19 +0000] "GET /css/common_config.php HTTP/1.0" 200 145 "http://orangepotion.com/my_view_page.php" "Mozilla/5.0 (Windows NT 10.0; Win64; x64) AppleWebKit/537.36 (KHTML, like Gecko) Chrome/70.0.3538.77 Safari/537.36"
62.43.3.183 - - [31/Oct/2018:11:14:19 +0000] "GET /css/status_config.php HTTP/1.0" 200 160 "http://orangepotion.com/my_view_page.php" "Mozilla/5.0 (Windows NT 10.0; Win64; x64) AppleWebKit/537.36 (KHTML, like Gecko) Chrome/70.0.3538.77 Safari/537.36"
62.43.3.183 - - [31/Oct/2018:11:14:19 +0000] "GET /javascript_translations.php HTTP/1.0" 200 130 "http://orangepotion.com/my_view_page.php" "Mozilla/5.0 (Windows NT 10.0; Win64; x64) AppleWebKit/537.36 (KHTML, like Gecko) Chrome/70.0.3538.77 Safari/537.36"
62.43.3.183 - - [31/Oct/2018:11:14:19 +0000] "GET /javascript_config.php HTTP/1.0" 200 107 "http://orangepotion.com/my_view_page.php" "Mozilla/5.0 (Windows NT 10.0; Win64; x64) AppleWebKit/537.36 (KHTML, like Gecko) Chrome/70.0.3538.77 Safari/537.36"
62.43.3.183 - - [31/Oct/2018:11:44:20 +0000] "GET /my_view_page.php?refresh=true HTTP/1.0" 200 5387 "http://orangepotion.com/my_view_page.php" "Mozilla/5.0 (Windows NT 10.0; Win64; x64) AppleWebKit/537.36 (KHTML, like Gecko) Chrome/70.0.3538.77 Safari/537.36"
62.43.3.183 - - [31/Oct/2018:11:44:20 +0000] "GET /css/common_config.php HTTP/1.0" 200 145 "http://orangepotion.com/my_view_page.php?refresh=true" "Mozilla/5.0 (Windows NT 10.0; Win64; x64) AppleWebKit/537.36 (KHTML, like Gecko) Chrome/70.0.3538.77 Safari/537.36"
62.43.3.183 - - [31/Oct/2018:11:44:20 +0000] "GET /css/status_config.php HTTP/1.0" 200 160 "http://orangepotion.com/my_view_page.php?refresh=true" "Mozilla/5.0 (Windows NT 10.0; Win64; x64) AppleWebKit/537.36 (KHTML, like Gecko) Chrome/70.0.3538.77 Safari/537.36"
62.43.3.183 - - [31/Oct/2018:11:44:20 +0000] "GET /javascript_translations.php HTTP/1.0" 200 130 "http://orangepotion.com/my_view_page.php?refresh=true" "Mozilla/5.0 (Windows NT 10.0; Win64; x64) AppleWebKit/537.36 (KHTML, like Gecko) Chrome/70.0.3538.77 Safari/537.36"
62.43.3.183 - - [31/Oct/2018:11:44:20 +0000] "GET /javascript_config.php HTTP/1.0" 200 107 "http://orangepotion.com/my_view_page.php?refresh=true" "Mozilla/5.0 (Windows NT 10.0; Win64; x64) AppleWebKit/537.36 (KHTML, like Gecko) Chrome/70.0.3538.77 Safari/537.36"
62.43.3.183 - - [31/Oct/2018:12:14:21 +0000] "GET /my_view_page.php?refresh=true HTTP/1.0" 200 5387 "http://orangepotion.com/my_view_page.php?refresh=true" "Mozilla/5.0 (Windows NT 10.0; Win64; x64) AppleWebKit/537.36 (KHTML, like Gecko) Chrome/70.0.3538.77 Safari/537.36"
62.43.3.183 - - [31/Oct/2018:12:14:22 +0000] "GET /css/common_config.php HTTP/1.0" 200 145 "http://orangepotion.com/my_view_page.php?refresh=true" "Mozilla/5.0 (Windows NT 10.0; Win64; x64) AppleWebKit/537.36 (KHTML, like Gecko) Chrome/70.0.3538.77 Safari/537.36"
62.43.3.183 - - [31/Oct/2018:12:14:22 +0000] "GET /css/status_config.php HTTP/1.0" 200 160 "http://orangepotion.com/my_view_page.php?refresh=true" "Mozilla/5.0 (Windows NT 10.0; Win64; x64) AppleWebKit/537.36 (KHTML, like Gecko) Chrome/70.0.3538.77 Safari/537.36"
62.43.3.183 - - [31/Oct/2018:12:14:22 +0000] "GET /javascript_config.php HTTP/1.0" 200 107 "http://orangepotion.com/my_view_page.php?refresh=true" "Mozilla/5.0 (Windows NT 10.0; Win64; x64) AppleWebKit/537.36 (KHTML, like Gecko) Chrome/70.0.3538.77 Safari/537.36"
62.43.3.183 - - [31/Oct/2018:12:14:22 +0000] "GET /javascript_translations.php HTTP/1.0" 200 130 "http://orangepotion.com/my_view_page.php?refresh=true" "Mozilla/5.0 (Windows NT 10.0; Win64; x64) AppleWebKit/537.36 (KHTML, like Gecko) Chrome/70.0.3538.77 Safari/537.36"
18.188.208.82 - - [31/Oct/2018:13:35:09 +0000] "GET /login_page.php HTTP/1.0" 200 1375 "-" "Mozilla/5.0 (Windows NT 6.1; Win64; x64; rv:47.0) AppleWebKit/537.36 (KHTML, like Gecko) Chrome/51.0.2704.106 Safari/537.36 OPR/38.0.2220.41"
18.222.199.103 - - [31/Oct/2018:14:20:06 +0000] "GET /login_page.php HTTP/1.0" 200 1375 "-" "Mozilla/5.0 (Windows NT 6.1; Win64; x64; rv:47.0) Trident/5.0 Firefox/42.0"
178.154.244.60 - - [31/Oct/2018:14:48:53 +0000] "GET /robots.txt HTTP/1.0" 404 208 "-" "Mozilla/5.0 (compatible; YandexBot/3.0; +http://yandex.com/bots)"
141.8.132.13 - - [31/Oct/2018:14:48:55 +0000] "GET /robots.txt HTTP/1.0" 404 208 "-" "Mozilla/5.0 (compatible; YandexBot/3.0; +http://yandex.com/bots)"
178.154.171.76 - - [31/Oct/2018:14:48:57 +0000] "GET / HTTP/1.0" 302 20 "-" "Mozilla/5.0 (compatible; YandexBot/3.0; +http://yandex.com/bots)"
178.154.244.10 - - [31/Oct/2018:14:48:57 +0000] "GET / HTTP/1.0" 302 20 "-" "Mozilla/5.0 (compatible; YandexBot/3.0; +http://yandex.com/bots)"
37.9.113.105 - - [31/Oct/2018:14:49:02 +0000] "GET /login_page.php HTTP/1.0" 200 1467 "-" "Mozilla/5.0 (compatible; YandexBot/3.0; +http://yandex.com/bots)"
95.108.181.44 - - [31/Oct/2018:14:49:02 +0000] "GET /login_page.php HTTP/1.0" 200 1465 "-" "Mozilla/5.0 (compatible; YandexBot/3.0; +http://yandex.com/bots)"
18.188.113.117 - - [31/Oct/2018:14:49:43 +0000] "GET /login_page.php HTTP/1.0" 200 1375 "-" "Mozilla/5.0 (Macintosh; Intel Mac OS X x.y; rv:42.0) Trident/5.0 Chrome/67.0.3396.79 Safari/537.36"
18.223.239.51 - - [31/Oct/2018:15:18:52 +0000] "GET /login_page.php HTTP/1.0" 200 1375 "-" "Mozilla/5.0 (Macintosh; Intel Mac OS X x.y; rv:42.0) Gecko/20100101 Firefox/42.0"
18.222.143.109 - - [31/Oct/2018:15:48:07 +0000] "GET /login_page.php HTTP/1.0" 200 1375 "-" "Mozilla/5.0 (Windows NT 6.1; Win64; x64; rv:47.0) Gecko/20100101 Chrome/67.0.3396.79 Safari/537.36"
18.223.156.199 - - [31/Oct/2018:16:18:57 +0000] "GET /login_page.php HTTP/1.0" 200 1375 "-" "Mozilla/5.0 (Macintosh; Intel Mac OS X x.y; rv:42.0) Gecko/20100101 Safari/602.1"
34.251.190.30 - - [31/Oct/2018:16:19:42 +0000] "GET / HTTP/1.0" 302 20 "-" "Mozilla/5.0 (X11; Ubuntu; Linux x86_64) AppleWebKit/537.36 (KHTML, like Gecko) Chrome/60.0.3112.101 Safari/537.36"
34.251.190.30 - - [31/Oct/2018:16:19:47 +0000] "GET /login_page.php HTTP/1.0" 200 1375 "-" "Mozilla/5.0 (X11; Ubuntu; Linux x86_64) AppleWebKit/537.36 (KHTML, like Gecko) Chrome/60.0.3112.101 Safari/537.36"
123.125.67.160 - - [31/Oct/2018:16:48:13 +0000] "GET /robots.txt HTTP/1.0" 404 208 "-" "Mozilla/5.0 (Windows NT 10.0; WOW64) AppleWebKit/537.36 (KHTML, like Gecko) Chrome/45.0.2454.93 Safari/537.36"
18.188.208.82 - - [31/Oct/2018:16:48:23 +0000] "GET /login_page.php HTTP/1.0" 200 1375 "-" "Mozilla/5.0 (Windows NT 6.1; Win64; x64; rv:47.0) Trident/5.0 Chrome/51.0.2704.106 Safari/537.36 OPR/38.0.2220.41"
18.218.156.196 - - [31/Oct/2018:17:18:32 +0000] "GET /login_page.php HTTP/1.0" 200 1375 "-" "Mozilla/5.0 (Windows NT 6.1; Win64; x64; rv:47.0) AppleWebKit/537.36 (KHTML, like Gecko) Firefox/42.0"
18.217.89.105 - - [31/Oct/2018:17:49:28 +0000] "GET /login_page.php HTTP/1.0" 200 1375 "-" "Mozilla/5.0 (Windows NT 6.1; Win64; x64; rv:47.0) AppleWebKit/537.36 (KHTML, like Gecko) Chrome/51.0.2704.106 Safari/537.36 OPR/38.0.2220.41"
18.191.114.91 - - [31/Oct/2018:18:19:30 +0000] "GET /login_page.php HTTP/1.0" 200 1375 "-" "Mozilla/5.0 (X11; Linux x86_64) Gecko/20100101 Chrome/51.0.2704.106 Safari/537.36 OPR/38.0.2220.41"
18.224.135.194 - - [31/Oct/2018:18:49:13 +0000] "GET /login_page.php HTTP/1.0" 200 1375 "-" "Mozilla/5.0 (X11; Linux x86_64) AppleWebKit/537.36 (KHTML, like Gecko) Chrome/51.0.2704.106 Safari/537.36 OPR/38.0.2220.41"
174.136.12.199 - - [31/Oct/2018:18:55:48 +0000] "HEAD / HTTP/1.0" 302 - "-" "Mozilla/4.0 (compatible; MSIE 5.01; Windows NT 5.0)"
174.136.12.199 - - [31/Oct/2018:18:55:50 +0000] "HEAD / HTTP/1.0" 302 - "-" "Mozilla/4.0 (compatible; MSIE 5.01; Windows NT 5.0)"
18.217.89.105 - - [31/Oct/2018:19:19:27 +0000] "GET /login_page.php HTTP/1.0" 200 1375 "-" "Mozilla/5.0 (X11; Linux x86_64) AppleWebKit/537.36 (KHTML, like Gecko) Chrome/51.0.2704.106 Safari/537.36 OPR/38.0.2220.41"
18.223.132.225 - - [31/Oct/2018:19:49:09 +0000] "GET /login_page.php HTTP/1.0" 200 1375 "-" "Mozilla/5.0 (X11; Linux x86_64) Trident/5.0 Safari/602.1"
18.222.143.109 - - [31/Oct/2018:20:19:09 +0000] "GET /login_page.php HTTP/1.0" 200 1375 "-" "Mozilla/5.0 (Macintosh; Intel Mac OS X x.y; rv:42.0) AppleWebKit/537.36 (KHTML, like Gecko) Firefox/42.0"
18.191.244.114 - - [31/Oct/2018:20:49:17 +0000] "GET /login_page.php HTTP/1.0" 200 1375 "-" "Mozilla/5.0 (Windows NT 6.1; Win64; x64; rv:47.0) Trident/5.0 Chrome/51.0.2704.106 Safari/537.36 OPR/38.0.2220.41"
47.106.123.15 - - [31/Oct/2018:21:08:51 +0000] "GET / HTTP/1.0" 302 20 "-" "Mozilla/5.0 (Windows NT 10.0; Win64; x64; rv:57.0) Gecko/20100101 Firefox/57.0"
47.106.123.15 - - [31/Oct/2018:21:08:51 +0000] "GET /login_page.php HTTP/1.0" 200 1430 "-" "Mozilla/5.0 (Windows NT 10.0; Win64; x64; rv:57.0) Gecko/20100101 Firefox/57.0"
47.106.123.15 - - [31/Oct/2018:21:08:51 +0000] "GET /css/default.css HTTP/1.0" 200 2084 "http://www.orangepotion.com/login_page.php" "Mozilla/5.0 (Windows NT 10.0; Win64; x64; rv:57.0) Gecko/20100101 Firefox/57.0"
47.106.123.15 - - [31/Oct/2018:21:08:51 +0000] "GET /css/common_config.php HTTP/1.0" 200 151 "http://www.orangepotion.com/login_page.php" "Mozilla/5.0 (Windows NT 10.0; Win64; x64; rv:57.0) Gecko/20100101 Firefox/57.0"
47.106.123.15 - - [31/Oct/2018:21:08:52 +0000] "GET /css/status_config.php HTTP/1.0" 200 20 "http://www.orangepotion.com/login_page.php" "Mozilla/5.0 (Windows NT 10.0; Win64; x64; rv:57.0) Gecko/20100101 Firefox/57.0"
47.106.123.15 - - [31/Oct/2018:21:08:52 +0000] "GET /css/login.css HTTP/1.0" 200 827 "http://www.orangepotion.com/login_page.php" "Mozilla/5.0 (Windows NT 10.0; Win64; x64; rv:57.0) Gecko/20100101 Firefox/57.0"
47.106.123.15 - - [31/Oct/2018:21:08:52 +0000] "GET /css/dropzone-4.3.0.min.css HTTP/1.0" 200 9716 "http://www.orangepotion.com/login_page.php" "Mozilla/5.0 (Windows NT 10.0; Win64; x64; rv:57.0) Gecko/20100101 Firefox/57.0"
47.106.123.15 - - [31/Oct/2018:21:08:52 +0000] "GET /css/bootstrap-3.3.6.min.css HTTP/1.0" 200 115813 "http://www.orangepotion.com/login_page.php" "Mozilla/5.0 (Windows NT 10.0; Win64; x64; rv:57.0) Gecko/20100101 Firefox/57.0"
47.106.123.15 - - [31/Oct/2018:21:08:52 +0000] "GET /css/font-awesome-4.6.3.min.css HTTP/1.0" 200 29063 "http://www.orangepotion.com/login_page.php" "Mozilla/5.0 (Windows NT 10.0; Win64; x64; rv:57.0) Gecko/20100101 Firefox/57.0"
47.106.123.15 - - [31/Oct/2018:21:08:52 +0000] "GET /css/open-sans.css HTTP/1.0" 200 1175 "http://www.orangepotion.com/login_page.php" "Mozilla/5.0 (Windows NT 10.0; Win64; x64; rv:57.0) Gecko/20100101 Firefox/57.0"
47.106.123.15 - - [31/Oct/2018:21:08:52 +0000] "GET /css/ace.min.css HTTP/1.0" 200 298300 "http://www.orangepotion.com/login_page.php" "Mozilla/5.0 (Windows NT 10.0; Win64; x64; rv:57.0) Gecko/20100101 Firefox/57.0"
47.106.123.15 - - [31/Oct/2018:21:08:52 +0000] "GET /css/bootstrap-datetimepicker-4.17.47.min.css HTTP/1.0" 200 7785 "http://www.orangepotion.com/login_page.php" "Mozilla/5.0 (Windows NT 10.0; Win64; x64; rv:57.0) Gecko/20100101 Firefox/57.0"
47.106.123.15 - - [31/Oct/2018:21:08:52 +0000] "GET /css/ace-mantis.css HTTP/1.0" 200 12793 "http://www.orangepotion.com/login_page.php" "Mozilla/5.0 (Windows NT 10.0; Win64; x64; rv:57.0) Gecko/20100101 Firefox/57.0"
47.106.123.15 - - [31/Oct/2018:21:08:52 +0000] "GET /css/ace-skins.min.css HTTP/1.0" 200 14106 "http://www.orangepotion.com/login_page.php" "Mozilla/5.0 (Windows NT 10.0; Win64; x64; rv:57.0) Gecko/20100101 Firefox/57.0"
47.106.123.15 - - [31/Oct/2018:21:08:52 +0000] "GET /plugin_file.php?file=Source/style.css HTTP/1.0" 200 1687 "http://www.orangepotion.com/login_page.php" "Mozilla/5.0 (Windows NT 10.0; Win64; x64; rv:57.0) Gecko/20100101 Firefox/57.0"
47.106.123.15 - - [31/Oct/2018:21:08:52 +0000] "GET /js/jquery-2.2.4.min.js HTTP/1.0" 200 85578 "http://www.orangepotion.com/login_page.php" "Mozilla/5.0 (Windows NT 10.0; Win64; x64; rv:57.0) Gecko/20100101 Firefox/57.0"
47.106.123.15 - - [31/Oct/2018:21:08:52 +0000] "GET /js/dropzone-4.3.0.min.js HTTP/1.0" 200 33588 "http://www.orangepotion.com/login_page.php" "Mozilla/5.0 (Windows NT 10.0; Win64; x64; rv:57.0) Gecko/20100101 Firefox/57.0"
47.106.123.15 - - [31/Oct/2018:21:08:52 +0000] "GET /javascript_config.php HTTP/1.0" 200 107 "http://www.orangepotion.com/login_page.php" "Mozilla/5.0 (Windows NT 10.0; Win64; x64; rv:57.0) Gecko/20100101 Firefox/57.0"
47.106.123.15 - - [31/Oct/2018:21:08:52 +0000] "GET /javascript_translations.php HTTP/1.0" 200 133 "http://www.orangepotion.com/login_page.php" "Mozilla/5.0 (Windows NT 10.0; Win64; x64; rv:57.0) Gecko/20100101 Firefox/57.0"
47.106.123.15 - - [31/Oct/2018:21:08:52 +0000] "GET /js/common.js HTTP/1.0" 200 17147 "http://www.orangepotion.com/login_page.php" "Mozilla/5.0 (Windows NT 10.0; Win64; x64; rv:57.0) Gecko/20100101 Firefox/57.0"
47.106.123.15 - - [31/Oct/2018:21:08:52 +0000] "GET /plugin_file.php?file=MantisGraph/chart-2.1.6.min.js HTTP/1.0" 200 37186 "http://www.orangepotion.com/login_page.php" "Mozilla/5.0 (Windows NT 10.0; Win64; x64; rv:57.0) Gecko/20100101 Firefox/57.0"
47.106.123.15 - - [31/Oct/2018:21:08:52 +0000] "GET /plugin_file.php?file=MantisGraph/chart.bundle-2.1.6.min.js HTTP/1.0" 200 52126 "http://www.orangepotion.com/login_page.php" "Mozilla/5.0 (Windows NT 10.0; Win64; x64; rv:57.0) Gecko/20100101 Firefox/57.0"
47.106.123.15 - - [31/Oct/2018:21:08:53 +0000] "GET /plugin_file.php?file=MantisGraph/MantisGraph.js HTTP/1.0" 200 496 "http://www.orangepotion.com/login_page.php" "Mozilla/5.0 (Windows NT 10.0; Win64; x64; rv:57.0) Gecko/20100101 Firefox/57.0"
47.106.123.15 - - [31/Oct/2018:21:08:53 +0000] "GET /js/bootstrap-3.3.6.min.js HTTP/1.0" 200 36868 "http://www.orangepotion.com/login_page.php" "Mozilla/5.0 (Windows NT 10.0; Win64; x64; rv:57.0) Gecko/20100101 Firefox/57.0"
47.106.123.15 - - [31/Oct/2018:21:08:53 +0000] "GET /js/ace.min.js HTTP/1.0" 200 41178 "http://www.orangepotion.com/login_page.php" "Mozilla/5.0 (Windows NT 10.0; Win64; x64; rv:57.0) Gecko/20100101 Firefox/57.0"
47.106.123.15 - - [31/Oct/2018:21:08:53 +0000] "GET /js/list-1.4.1.min.js HTTP/1.0" 200 15689 "http://www.orangepotion.com/login_page.php" "Mozilla/5.0 (Windows NT 10.0; Win64; x64; rv:57.0) Gecko/20100101 Firefox/57.0"
47.106.123.15 - - [31/Oct/2018:21:08:53 +0000] "GET /js/bootstrap-datetimepicker-4.17.47.min.js HTTP/1.0" 200 38510 "http://www.orangepotion.com/login_page.php" "Mozilla/5.0 (Windows NT 10.0; Win64; x64; rv:57.0) Gecko/20100101 Firefox/57.0"
47.106.123.15 - - [31/Oct/2018:21:08:53 +0000] "GET /js/moment-with-locales-2.15.2.min.js HTTP/1.0" 200 232806 "http://www.orangepotion.com/login_page.php" "Mozilla/5.0 (Windows NT 10.0; Win64; x64; rv:57.0) Gecko/20100101 Firefox/57.0"
47.106.123.15 - - [31/Oct/2018:21:08:53 +0000] "GET /js/typeahead.jquery-1.1.1.min.js HTTP/1.0" 200 31010 "http://www.orangepotion.com/login_page.php" "Mozilla/5.0 (Windows NT 10.0; Win64; x64; rv:57.0) Gecko/20100101 Firefox/57.0"
47.106.123.15 - - [31/Oct/2018:21:08:53 +0000] "GET /fonts/fontawesome-webfont.woff2?v=4.6.3 HTTP/1.0" 200 71896 "http://www.orangepotion.com/css/font-awesome-4.6.3.min.css" "Mozilla/5.0 (Windows NT 10.0; Win64; x64; rv:57.0) Gecko/20100101 Firefox/57.0"
47.106.123.15 - - [31/Oct/2018:21:08:53 +0000] "GET /fonts/DXI1ORHCpsQm3Vp6mXoaTXhCUOGz7vYGh680lGh-uXM.woff HTTP/1.0" 200 22656 "http://www.orangepotion.com/css/open-sans.css" "Mozilla/5.0 (Windows NT 10.0; Win64; x64; rv:57.0) Gecko/20100101 Firefox/57.0"
47.106.123.15 - - [31/Oct/2018:21:08:53 +0000] "GET /fonts/cJZKeOuBrn4kERxqtaUH3T8E0i7KZn-EPnyo3HZu7kw.woff HTTP/1.0" 200 21956 "http://www.orangepotion.com/css/open-sans.css" "Mozilla/5.0 (Windows NT 10.0; Win64; x64; rv:57.0) Gecko/20100101 Firefox/57.0"
47.106.123.15 - - [31/Oct/2018:21:08:53 +0000] "GET /images/mantis_logo.png HTTP/1.0" 200 77114 "http://www.orangepotion.com/login_page.php" "Mozilla/5.0 (Windows NT 10.0; Win64; x64; rv:57.0) Gecko/20100101 Firefox/57.0"
18.216.19.83 - - [31/Oct/2018:21:18:57 +0000] "GET /login_page.php HTTP/1.0" 200 1375 "-" "Mozilla/5.0 (Windows NT 6.1; Win64; x64; rv:47.0) Gecko/20100101 Firefox/42.0"
18.221.249.123 - - [31/Oct/2018:21:48:53 +0000] "GET /login_page.php HTTP/1.0" 200 1375 "-" "Mozilla/5.0 (X11; Linux x86_64) Trident/5.0 Chrome/67.0.3396.79 Safari/537.36"
18.222.34.244 - - [31/Oct/2018:22:19:21 +0000] "GET /login_page.php HTTP/1.0" 200 1375 "-" "Mozilla/5.0 (Windows NT 6.1; Win64; x64; rv:47.0) Gecko/20100101 Chrome/67.0.3396.79 Safari/537.36"
13.58.214.240 - - [31/Oct/2018:22:49:10 +0000] "GET /login_page.php HTTP/1.0" 200 1375 "-" "Mozilla/5.0 (Windows NT 6.1; Win64; x64; rv:47.0) Trident/5.0 Chrome/51.0.2704.106 Safari/537.36 OPR/38.0.2220.41"
18.222.254.149 - - [31/Oct/2018:23:19:26 +0000] "GET /login_page.php HTTP/1.0" 200 1375 "-" "Mozilla/5.0 (Macintosh; Intel Mac OS X x.y; rv:42.0) Gecko/20100101 Chrome/67.0.3396.79 Safari/537.36"
18.222.254.149 - - [31/Oct/2018:23:49:33 +0000] "GET /login_page.php HTTP/1.0" 200 1375 "-" "Mozilla/5.0 (X11; Linux x86_64) Trident/5.0 Safari/602.1"
18.218.79.145 - - [01/Nov/2018:00:19:44 +0000] "GET /login_page.php HTTP/1.0" 200 1375 "-" "Mozilla/5.0 (Macintosh; Intel Mac OS X x.y; rv:42.0) Trident/5.0 Chrome/67.0.3396.79 Safari/537.36"
18.224.18.240 - - [01/Nov/2018:00:49:44 +0000] "GET /login_page.php HTTP/1.0" 200 1375 "-" "Mozilla/5.0 (Macintosh; Intel Mac OS X x.y; rv:42.0) Trident/5.0 Safari/602.1"
18.188.90.138 - - [01/Nov/2018:01:19:24 +0000] "GET /login_page.php HTTP/1.0" 200 1375 "-" "Mozilla/5.0 (Windows NT 6.1; Win64; x64; rv:47.0) Trident/5.0 Safari/602.1"
18.220.65.247 - - [01/Nov/2018:01:49:29 +0000] "GET /login_page.php HTTP/1.0" 200 1375 "-" "Mozilla/5.0 (Macintosh; Intel Mac OS X x.y; rv:42.0) Trident/5.0 Chrome/51.0.2704.106 Safari/537.36 OPR/38.0.2220.41"
18.217.89.105 - - [01/Nov/2018:02:19:13 +0000] "GET /login_page.php HTTP/1.0" 200 1375 "-" "Mozilla/5.0 (Windows NT 6.1; Win64; x64; rv:47.0) Trident/5.0 Chrome/67.0.3396.79 Safari/537.36"
18.220.209.234 - - [01/Nov/2018:02:49:31 +0000] "GET /login_page.php HTTP/1.0" 200 1375 "-" "Mozilla/5.0 (Windows NT 6.1; Win64; x64; rv:47.0) Trident/5.0 Chrome/51.0.2704.106 Safari/537.36 OPR/38.0.2220.41"
