52.165.166.139 - - [04/Nov/2018:04:54:56 +0000] "GET / HTTP/1.1" 200 894 "-" "Mozilla/5.0 (Windows NT 6.1; Win64; x64) AppleWebKit/537.36 (KHTML, like Gecko) Chrome/65.0.3325.181 Safari/537.36"
52.173.241.248 - - [04/Nov/2018:06:30:58 +0000] "GET / HTTP/1.1" 200 894 "-" "Mozilla/5.0 (Windows NT 6.1; Win64; x64) AppleWebKit/537.36 (KHTML, like Gecko) Chrome/65.0.3325.181 Safari/537.36"
180.76.15.32 - - [04/Nov/2018:10:00:35 +0000] "GET / HTTP/1.1" 200 894 "-" "Mozilla/5.0 (compatible; Baiduspider/2.0; +http://www.baidu.com/search/spider.html)"
52.53.201.78 - - [04/Nov/2018:15:45:54 +0000] "GET / HTTP/1.1" 200 894 "-" "Mozilla/5.0 (Macintosh; Intel Mac OS X 10_12_6) AppleWebKit/537.36 (KHTML, like Gecko) Chrome/61.0.3163.100 Safari/537.36"
82.165.81.62 - - [04/Nov/2018:17:07:55 +0000] "GET /wp/wp-admin/setup-config.php?step=1 HTTP/1.1" 404 2014 "-" "libwww-perl/6.08"
82.165.81.62 - - [04/Nov/2018:17:07:55 +0000] "GET /wordpress/wp-admin/setup-config.php?step=1 HTTP/1.1" 404 2035 "-" "libwww-perl/6.08"
198.23.202.38 - - [04/Nov/2018:22:11:14 +0000] "GET /robots.txt HTTP/1.1" 404 1949 "-" "Mozilla/5.0 (Windows NT 10.0; Win64; x64; rv:50.0) Gecko/20100101 Firefox/50.0"
198.23.202.38 - - [04/Nov/2018:22:11:14 +0000] "GET /xmlrpc.php?rsd HTTP/1.1" 404 1953 "-" "Mozilla/5.0 (Windows NT 10.0; Win64; x64; rv:50.0) Gecko/20100101 Firefox/50.0"
198.23.202.38 - - [04/Nov/2018:22:11:14 +0000] "GET / HTTP/1.1" 200 1779 "-" "Mozilla/5.0 (Windows NT 10.0; Win64; x64; rv:50.0) Gecko/20100101 Firefox/50.0"
198.23.202.38 - - [04/Nov/2018:22:11:14 +0000] "GET /blog/robots.txt HTTP/1.1" 404 1964 "-" "Mozilla/5.0 (Windows NT 10.0; Win64; x64; rv:50.0) Gecko/20100101 Firefox/50.0"
198.23.202.38 - - [04/Nov/2018:22:11:14 +0000] "GET /blog/ HTTP/1.1" 404 1934 "-" "Mozilla/5.0 (Windows NT 10.0; Win64; x64; rv:50.0) Gecko/20100101 Firefox/50.0"
198.23.202.38 - - [04/Nov/2018:22:11:14 +0000] "GET /wordpress/ HTTP/1.1" 404 1949 "-" "Mozilla/5.0 (Windows NT 10.0; Win64; x64; rv:50.0) Gecko/20100101 Firefox/50.0"
198.23.202.38 - - [04/Nov/2018:22:11:15 +0000] "GET /wp/ HTTP/1.1" 404 1928 "-" "Mozilla/5.0 (Windows NT 10.0; Win64; x64; rv:50.0) Gecko/20100101 Firefox/50.0"
107.6.183.228 - - [05/Nov/2018:01:37:23 +0000] "GET / HTTP/1.1" 200 894 "-" "Mozilla/5.0 (Windows NT 10.0; WOW64) AppleWebKit/537.36 (KHTML, like Gecko) Chrome/66.0.3359.117 Safari/537.36"
