31.170.123.73 - - [31/Oct/2018:03:41:41 +0000] "POST /wp-cron.php?doing_wp_cron=1540957301.4412310123443603515625 HTTP/1.0" 200 - "http://gameworkforce.com/wp-cron.php?doing_wp_cron=1540957301.4412310123443603515625" "WordPress/4.9.8; http://gameworkforce.com"
37.187.26.42 - - [31/Oct/2018:03:41:41 +0000] "GET / HTTP/1.0" 200 65588 "-" "Mozilla/5.0 (compatible; Googlebot/2.1; +http://www.google.com/bot.html)"
31.170.123.73 - - [31/Oct/2018:04:36:23 +0000] "POST /wp-cron.php?doing_wp_cron=1540960583.5834870338439941406250 HTTP/1.0" 200 - "http://gameworkforce.com/wp-cron.php?doing_wp_cron=1540960583.5834870338439941406250" "WordPress/4.9.8; http://gameworkforce.com"
34.235.233.220 - - [31/Oct/2018:04:36:23 +0000] "GET / HTTP/1.0" 200 65588 "-" "Mozilla/5.0 (Windows NT 10.0; Win64; x64) AppleWebKit/537.36 (KHTML, like Gecko) Chrome/69.0.3497.100 Safari/537.36"
31.170.123.73 - - [31/Oct/2018:08:00:31 +0000] "POST /wp-cron.php?doing_wp_cron=1540972831.2458050251007080078125 HTTP/1.0" 200 - "http://gameworkforce.com/wp-cron.php?doing_wp_cron=1540972831.2458050251007080078125" "WordPress/4.9.8; http://gameworkforce.com"
52.40.232.12 - - [31/Oct/2018:08:00:30 +0000] "GET /wp-login.php HTTP/1.0" 200 2280 "https://www.google.com/url?5dbc53961246a3ebd5a882d37979a0c2" "Mozilla/5.0 (Windows NT 6.1; rv:31.0) Gecko/20100101 Firefox/31.0"
52.40.232.12 - - [31/Oct/2018:08:00:32 +0000] "POST /wp-login.php HTTP/1.0" 200 3271 "https://www.google.com/url?5dbc53961246a3ebd5a882d37979a0c2" "Mozilla/5.0 (Windows NT 6.1; rv:31.0) Gecko/20100101 Firefox/31.0"
31.170.123.73 - - [31/Oct/2018:09:35:29 +0000] "POST /wp-cron.php?doing_wp_cron=1540978529.1549201011657714843750 HTTP/1.0" 200 - "http://gameworkforce.com/wp-cron.php?doing_wp_cron=1540978529.1549201011657714843750" "WordPress/4.9.8; http://gameworkforce.com"
52.53.201.78 - - [31/Oct/2018:09:35:28 +0000] "GET / HTTP/1.0" 301 - "-" "Mozilla/5.0 (Macintosh; Intel Mac OS X 10_12_6) AppleWebKit/537.36 (KHTML, like Gecko) Chrome/61.0.3163.100 Safari/537.36"
52.53.201.78 - - [31/Oct/2018:09:35:30 +0000] "GET / HTTP/1.0" 200 65588 "http://www.gameworkforce.com/" "Mozilla/5.0 (Macintosh; Intel Mac OS X 10_12_6) AppleWebKit/537.36 (KHTML, like Gecko) Chrome/61.0.3163.100 Safari/537.36"
54.185.216.238 - - [31/Oct/2018:15:01:38 +0000] "GET /wp-login.php HTTP/1.0" 200 2280 "https://www.google.com/url?5dbc53961246a3ebd5a882d37979a0c2" "Mozilla/5.0 (Windows NT 6.2; rv:29.0) Gecko/20120101 Firefox/29.0"
31.170.123.73 - - [31/Oct/2018:15:01:42 +0000] "POST /wp-admin/admin-ajax.php?action=wp_1_wc_privacy_cleanup&nonce=fc03249c8e HTTP/1.0" 200 - "http://gameworkforce.com/wp-admin/admin-ajax.php?action=wp_1_wc_privacy_cleanup&nonce=fc03249c8e" "WordPress/4.9.8; http://gameworkforce.com"
31.170.123.73 - - [31/Oct/2018:15:01:38 +0000] "POST /wp-cron.php?doing_wp_cron=1540998098.6390810012817382812500 HTTP/1.0" 200 - "http://gameworkforce.com/wp-cron.php?doing_wp_cron=1540998098.6390810012817382812500" "WordPress/4.9.8; http://gameworkforce.com"
31.170.123.73 - - [31/Oct/2018:15:01:49 +0000] "POST /wp-cron.php?doing_wp_cron=1540998109.2951319217681884765625 HTTP/1.0" 200 - "http://gameworkforce.com/wp-cron.php?doing_wp_cron=1540998109.2951319217681884765625" "WordPress/4.9.8; http://gameworkforce.com"
54.185.216.238 - - [31/Oct/2018:15:01:48 +0000] "POST /wp-login.php HTTP/1.0" 200 3271 "https://www.google.com/url?5dbc53961246a3ebd5a882d37979a0c2" "Mozilla/5.0 (Windows NT 6.2; rv:29.0) Gecko/20120101 Firefox/29.0"
2001:41d0:52:100::447 - - [31/Oct/2018:16:34:43 +0000] "GET /wp-content/uploads/2018/08/seo_script.php HTTP/1.0" 404 239 "gameworkforce.com" "Mozilla/5.1 (Windows NT 6.0; WOW64) AppleWebKit/537.37 (KHTML, like Gecko) Chrome/58.0.1145.75 Safari/537.37"
2001:41d0:52:100::447 - - [31/Oct/2018:16:35:59 +0000] "GET /seos.php HTTP/1.0" 404 206 "gameworkforce.com" "Mozilla/5.1 (Windows NT 6.0; WOW64) AppleWebKit/537.37 (KHTML, like Gecko) Chrome/58.0.1145.75 Safari/537.37"
2001:41d0:52:100::447 - - [31/Oct/2018:16:36:09 +0000] "GET /wp-content/themes/clean-commerce/test2.php HTTP/1.0" 404 240 "gameworkforce.com" "Mozilla/5.1 (Windows NT 6.0; WOW64) AppleWebKit/537.37 (KHTML, like Gecko) Chrome/58.0.1145.75 Safari/537.37"
2001:41d0:52:100::447 - - [31/Oct/2018:16:37:48 +0000] "GET /wp-content/uploads/2018/08/seos.php HTTP/1.0" 404 233 "gameworkforce.com" "Mozilla/5.1 (Windows NT 6.0; WOW64) AppleWebKit/537.37 (KHTML, like Gecko) Chrome/58.0.1145.75 Safari/537.37"
2001:41d0:52:100::447 - - [31/Oct/2018:16:37:55 +0000] "GET /wp-content/uploads/2018/08/st.php HTTP/1.0" 404 231 "gameworkforce.com" "Mozilla/5.1 (Windows NT 6.0; WOW64) AppleWebKit/537.37 (KHTML, like Gecko) Chrome/58.0.1145.75 Safari/537.37"
2001:41d0:52:100::447 - - [31/Oct/2018:16:38:11 +0000] "GET /wp-content/plugins/background-image-cropper/image/ico/seo_script.php HTTP/1.0" 404 266 "gameworkforce.com" "Mozilla/5.1 (Windows NT 6.0; WOW64) AppleWebKit/537.37 (KHTML, like Gecko) Chrome/58.0.1145.75 Safari/537.37"
2001:41d0:52:100::447 - - [31/Oct/2018:16:38:40 +0000] "GET /wp-content/themes/twentyeleven/seo_script.php HTTP/1.0" 404 243 "gameworkforce.com" "Mozilla/5.1 (Windows NT 6.0; WOW64) AppleWebKit/537.37 (KHTML, like Gecko) Chrome/58.0.1145.75 Safari/537.37"
2001:41d0:52:100::447 - - [31/Oct/2018:16:40:03 +0000] "GET /assets/images/seo_script.php HTTP/1.0" 404 226 "gameworkforce.com" "Mozilla/5.1 (Windows NT 6.0; WOW64) AppleWebKit/537.37 (KHTML, like Gecko) Chrome/58.0.1145.75 Safari/537.37"
18.224.82.122 - - [01/Nov/2018:00:45:11 +0000] "GET /wp-login.php HTTP/1.0" 200 2280 "https://www.google.com/url?5dbc53961246a3ebd5a882d37979a0c2" "Mozilla/5.0 (Windows NT 5.1; rv:36.0) Gecko/20100101 Firefox/36.0"
18.224.82.122 - - [01/Nov/2018:00:45:13 +0000] "POST /wp-login.php HTTP/1.0" 200 3271 "https://www.google.com/url?5dbc53961246a3ebd5a882d37979a0c2" "Mozilla/5.0 (Windows NT 5.1; rv:36.0) Gecko/20100101 Firefox/36.0"
31.170.123.73 - - [01/Nov/2018:00:45:12 +0000] "POST /wp-cron.php?doing_wp_cron=1541033112.3833060264587402343750 HTTP/1.0" 200 - "http://gameworkforce.com/wp-cron.php?doing_wp_cron=1541033112.3833060264587402343750" "WordPress/4.9.8; http://gameworkforce.com"
