89.40.124.123 - - [04/Nov/2018:05:55:58 +0000] "GET /user/register/ HTTP/1.0" 404 212 "-" "Mozilla/5.0 (Windows; U; Windows NT 5.1; de; rv:1.9) Gecko/2008052906 Firefox/3.0"
52.173.241.248 - - [04/Nov/2018:11:30:19 +0000] "GET / HTTP/1.0" 200 34616 "-" "Mozilla/5.0 (Windows NT 10.0; Win64; x64) AppleWebKit/537.36 (KHTML, like Gecko) Chrome/64.0.3282.186 Safari/537.36"
31.170.123.73 - - [04/Nov/2018:11:30:19 +0000] "POST /wp-cron.php?doing_wp_cron=1541331019.9340589046478271484375 HTTP/1.0" 200 - "http://gameworkforce.com/wp-cron.php?doing_wp_cron=1541331019.9340589046478271484375" "WordPress/4.9.8; http://gameworkforce.com"
66.249.69.84 - - [04/Nov/2018:13:06:48 +0000] "GET /robots.txt HTTP/1.0" 404 208 "-" "Mozilla/5.0 (compatible; Googlebot/2.1; +http://www.google.com/bot.html)"
66.249.69.82 - - [04/Nov/2018:13:06:58 +0000] "GET /wp-content/plugins/wp-job-manager/assets/js/jquery-deserialize/jquery.deserialize.js?ver=1.2.1 HTTP/1.0" 200 4095 "http://gameworkforce.com/?post_type=product" "Mozilla/5.0 (Linux; Android 6.0.1; Nexus 5X Build/MMB29P) AppleWebKit/537.36 (KHTML, like Gecko) Chrome/41.0.2272.96 Mobile Safari/537.36 (compatible; Googlebot/2.1; +http://www.google.com/bot.html)"
66.249.69.82 - - [04/Nov/2018:13:06:59 +0000] "GET /wp-includes/js/jquery/ui/slider.min.js?ver=1.11.4 HTTP/1.0" 200 10987 "http://gameworkforce.com/?post_type=product" "Mozilla/5.0 (Linux; Android 6.0.1; Nexus 5X Build/MMB29P) AppleWebKit/537.36 (KHTML, like Gecko) Chrome/41.0.2272.96 Mobile Safari/537.36 (compatible; Googlebot/2.1; +http://www.google.com/bot.html)"
178.137.82.233 - - [04/Nov/2018:15:54:48 +0000] "GET /forums/ HTTP/1.0" 404 205 "-" "Mozilla/5.0 (Windows NT 6.1; WOW64) AppleWebKit/537.36 (KHTML, like Gecko) Chrome/62.0.3202.89 Safari/537.36 OPR/49.0.2725.47 (Edition Yx)"
31.170.123.73 - - [04/Nov/2018:16:15:20 +0000] "POST /wp-admin/admin-ajax.php?action=wp_1_wc_privacy_cleanup&nonce=26de9aadb1 HTTP/1.0" 200 - "http://gameworkforce.com/wp-admin/admin-ajax.php?action=wp_1_wc_privacy_cleanup&nonce=26de9aadb1" "WordPress/4.9.8; http://gameworkforce.com"
31.170.123.73 - - [04/Nov/2018:16:15:19 +0000] "POST /wp-cron.php?doing_wp_cron=1541348119.8176960945129394531250 HTTP/1.0" 200 - "http://gameworkforce.com/wp-cron.php?doing_wp_cron=1541348119.8176960945129394531250" "WordPress/4.9.8; http://gameworkforce.com"
91.90.192.171 - - [04/Nov/2018:16:15:19 +0000] "GET / HTTP/1.0" 200 65588 "-" "Mozilla/5.0 (X11; Ubuntu; Linux x86_64; rv:42.0) Gecko/20100101 Firefox/42.0"
89.40.124.123 - - [04/Nov/2018:17:39:43 +0000] "GET /user/register/ HTTP/1.0" 404 212 "-" "Mozilla/5.0 (Windows; U; Windows NT 5.1; de; rv:1.9) Gecko/2008052906 Firefox/3.0"
66.249.69.80 - - [04/Nov/2018:22:37:12 +0000] "GET /wp-includes/js/jquery/jquery-migrate.min.js?ver=1.4.1 HTTP/1.0" 200 10056 "http://gameworkforce.com/?page_id=80" "Mozilla/5.0 AppleWebKit/537.36 (KHTML, like Gecko; compatible; Googlebot/2.1; +http://www.google.com/bot.html) Safari/537.36"
66.249.69.80 - - [04/Nov/2018:22:37:14 +0000] "GET /wp-includes/js/jquery/ui/slider.min.js?ver=1.11.4 HTTP/1.0" 200 10987 "http://gameworkforce.com/?page_id=80" "Mozilla/5.0 AppleWebKit/537.36 (KHTML, like Gecko; compatible; Googlebot/2.1; +http://www.google.com/bot.html) Safari/537.36"
66.249.69.82 - - [04/Nov/2018:22:37:15 +0000] "GET /wp-includes/js/jquery/ui/mouse.min.js?ver=1.11.4 HTTP/1.0" 200 3148 "http://gameworkforce.com/?page_id=80" "Mozilla/5.0 AppleWebKit/537.36 (KHTML, like Gecko; compatible; Googlebot/2.1; +http://www.google.com/bot.html) Safari/537.36"
66.249.69.80 - - [04/Nov/2018:22:37:22 +0000] "GET /wp-content/plugins/woocommerce/assets/js/frontend/woocommerce.min.js?ver=3.4.2 HTTP/1.0" 200 1402 "http://gameworkforce.com/?page_id=80" "Mozilla/5.0 AppleWebKit/537.36 (KHTML, like Gecko; compatible; Googlebot/2.1; +http://www.google.com/bot.html) Safari/537.36"
66.249.69.80 - - [04/Nov/2018:22:37:23 +0000] "GET /wp-includes/js/underscore.min.js?ver=1.8.3 HTTP/1.0" 200 16410 "http://gameworkforce.com/?page_id=80" "Mozilla/5.0 AppleWebKit/537.36 (KHTML, like Gecko; compatible; Googlebot/2.1; +http://www.google.com/bot.html) Safari/537.36"
31.170.123.73 - - [04/Nov/2018:22:43:50 +0000] "POST /wp-cron.php?doing_wp_cron=1541371430.1533679962158203125000 HTTP/1.0" 200 - "http://gameworkforce.com/wp-cron.php?doing_wp_cron=1541371430.1533679962158203125000" "WordPress/4.9.8; http://gameworkforce.com"
52.53.201.78 - - [04/Nov/2018:22:43:49 +0000] "GET / HTTP/1.0" 301 - "-" "Mozilla/5.0 (Macintosh; Intel Mac OS X 10_12_6) AppleWebKit/537.36 (KHTML, like Gecko) Chrome/61.0.3163.100 Safari/537.36"
52.53.201.78 - - [04/Nov/2018:22:43:51 +0000] "GET / HTTP/1.0" 200 65588 "http://www.gameworkforce.com/" "Mozilla/5.0 (Macintosh; Intel Mac OS X 10_12_6) AppleWebKit/537.36 (KHTML, like Gecko) Chrome/61.0.3163.100 Safari/537.36"
