31.170.123.73 - - [01/Nov/2018:03:06:08 +0000] "POST /wp-cron.php?doing_wp_cron=1541041568.3519959449768066406250 HTTP/1.0" 200 0 "-" "WordPress/4.3.17; http://www.ikbensterdam.com"
97.74.228.245 - - [01/Nov/2018:03:06:08 +0000] "POST /xmlrpc.php HTTP/1.1" 200 403 "-" "Mozilla/5.0 (Macintosh; U; Intel Mac OS X 10.6; fr; rv:1.9.2.8) Gecko/20100722 Firefox/3.6.8"
180.76.15.20 - - [01/Nov/2018:03:17:00 +0000] "GET /wp-includes/js/jquery/jquery-migrate.min.js HTTP/1.1" 200 3290 "-" "Mozilla/5.0 (compatible; Baiduspider/2.0; +http://www.baidu.com/search/spider.html)"
89.248.169.130 - - [01/Nov/2018:03:19:14 +0000] "POST /xmlrpc.php HTTP/1.1" 200 403 "-" "Mozilla/5.0 (Macintosh; U; Intel Mac OS X 10.6; fr; rv:1.9.2.8) Gecko/20100722 Firefox/3.6.8"
89.248.169.130 - - [01/Nov/2018:03:19:14 +0000] "POST /xmlrpc.php HTTP/1.1" 200 403 "-" "Mozilla/5.0 (Macintosh; U; Intel Mac OS X 10.6; fr; rv:1.9.2.8) Gecko/20100722 Firefox/3.6.8"
89.248.169.130 - - [01/Nov/2018:03:19:15 +0000] "POST /xmlrpc.php HTTP/1.1" 200 403 "-" "Mozilla/5.0 (Macintosh; U; Intel Mac OS X 10.6; fr; rv:1.9.2.8) Gecko/20100722 Firefox/3.6.8"
89.248.169.130 - - [01/Nov/2018:03:19:15 +0000] "POST /xmlrpc.php HTTP/1.1" 200 403 "-" "Mozilla/5.0 (Macintosh; U; Intel Mac OS X 10.6; fr; rv:1.9.2.8) Gecko/20100722 Firefox/3.6.8"
3.16.45.187 - - [01/Nov/2018:03:19:59 +0000] "GET /wp-login.php HTTP/1.1" 200 1787 "https://www.google.com/url?48c1bb7daf35faf37570d1bad88963f8" "Mozilla/5.0 (Windows NT 6.1; rv:28.0) Gecko/20100101 Firefox/28.0"
3.16.45.187 - - [01/Nov/2018:03:20:01 +0000] "POST /wp-login.php HTTP/1.1" 200 2209 "https://www.google.com/url?48c1bb7daf35faf37570d1bad88963f8" "Mozilla/5.0 (Windows NT 6.1; rv:28.0) Gecko/20100101 Firefox/28.0"
158.46.221.24 - - [01/Nov/2018:03:35:10 +0000] "GET / HTTP/1.1" 301 5 "-" "Mozilla/5.0 (Macintosh; Intel Mac OS X 10_12_5) AppleWebKit/537.36 (KHTML, like Gecko) Chrome/58.0.3029.110 Safari/537.36"
158.46.221.24 - - [01/Nov/2018:03:35:13 +0000] "GET / HTTP/1.1" 200 12067 "-" "Mozilla/5.0 (Macintosh; Intel Mac OS X 10_12_5) AppleWebKit/537.36 (KHTML, like Gecko) Chrome/58.0.3029.110 Safari/537.36"
31.170.123.73 - - [01/Nov/2018:03:50:21 +0000] "POST /wp-cron.php?doing_wp_cron=1541044221.2469580173492431640625 HTTP/1.0" 200 0 "-" "WordPress/4.3.17; http://www.ikbensterdam.com"
180.76.15.17 - - [01/Nov/2018:03:50:22 +0000] "GET /shop/ HTTP/1.1" 200 10242 "-" "Mozilla/5.0 (compatible; Baiduspider/2.0; +http://www.baidu.com/search/spider.html)"
31.170.123.73 - - [01/Nov/2018:03:52:54 +0000] "POST /wp-cron.php?doing_wp_cron=1541044374.3085739612579345703125 HTTP/1.0" 200 0 "-" "WordPress/4.3.17; http://www.ikbensterdam.com"
2001:41d0:52:100::447 - - [01/Nov/2018:03:52:54 +0000] "GET /wp-content/themes/twentyeleven/seo_script.php HTTP/1.1" 301 5 "ikbensterdam.com" "Mozilla/5.1 (Windows NT 6.0; WOW64) AppleWebKit/537.37 (KHTML, like Gecko) Chrome/58.0.1145.75 Safari/537.37"
2001:41d0:52:100::447 - - [01/Nov/2018:03:52:56 +0000] "GET /wp-content/themes/twentyeleven/seo_script.php HTTP/1.1" 404 35345 "ikbensterdam.com" "Mozilla/5.1 (Windows NT 6.0; WOW64) AppleWebKit/537.37 (KHTML, like Gecko) Chrome/58.0.1145.75 Safari/537.37"
2001:41d0:52:100::447 - - [01/Nov/2018:03:53:28 +0000] "GET /wp-content/uploads/2018/08/seos.php HTTP/1.1" 301 5 "ikbensterdam.com" "Mozilla/5.1 (Windows NT 6.0; WOW64) AppleWebKit/537.37 (KHTML, like Gecko) Chrome/58.0.1145.75 Safari/537.37"
2001:41d0:52:100::447 - - [01/Nov/2018:03:53:29 +0000] "GET /wp-content/uploads/2018/08/seos.php HTTP/1.1" 404 35309 "ikbensterdam.com" "Mozilla/5.1 (Windows NT 6.0; WOW64) AppleWebKit/537.37 (KHTML, like Gecko) Chrome/58.0.1145.75 Safari/537.37"
2001:41d0:52:100::447 - - [01/Nov/2018:03:56:29 +0000] "GET /wp-content/plugins/background-image-cropper/image/ico/seo_script.php HTTP/1.1" 301 5 "ikbensterdam.com" "Mozilla/5.1 (Windows NT 6.0; WOW64) AppleWebKit/537.37 (KHTML, like Gecko) Chrome/58.0.1145.75 Safari/537.37"
2001:41d0:52:100::447 - - [01/Nov/2018:03:56:30 +0000] "GET /wp-content/plugins/background-image-cropper/image/ico/seo_script.php HTTP/1.1" 404 35438 "ikbensterdam.com" "Mozilla/5.1 (Windows NT 6.0; WOW64) AppleWebKit/537.37 (KHTML, like Gecko) Chrome/58.0.1145.75 Safari/537.37"
2001:41d0:52:100::447 - - [01/Nov/2018:03:56:38 +0000] "GET /assets/images/seo_script.php HTTP/1.1" 301 5 "ikbensterdam.com" "Mozilla/5.1 (Windows NT 6.0; WOW64) AppleWebKit/537.37 (KHTML, like Gecko) Chrome/58.0.1145.75 Safari/537.37"
2001:41d0:52:100::447 - - [01/Nov/2018:03:56:38 +0000] "GET /assets/images/seo_script.php HTTP/1.1" 404 35266 "ikbensterdam.com" "Mozilla/5.1 (Windows NT 6.0; WOW64) AppleWebKit/537.37 (KHTML, like Gecko) Chrome/58.0.1145.75 Safari/537.37"
2001:41d0:52:100::447 - - [01/Nov/2018:03:56:58 +0000] "GET /wp-content/uploads/2018/08/st.php HTTP/1.1" 301 5 "ikbensterdam.com" "Mozilla/5.1 (Windows NT 6.0; WOW64) AppleWebKit/537.37 (KHTML, like Gecko) Chrome/58.0.1145.75 Safari/537.37"
2001:41d0:52:100::447 - - [01/Nov/2018:03:56:59 +0000] "GET /wp-content/uploads/2018/08/st.php HTTP/1.1" 404 35301 "ikbensterdam.com" "Mozilla/5.1 (Windows NT 6.0; WOW64) AppleWebKit/537.37 (KHTML, like Gecko) Chrome/58.0.1145.75 Safari/537.37"
2001:41d0:52:100::447 - - [01/Nov/2018:03:57:29 +0000] "GET /wp-content/themes/clean-commerce/test2.php HTTP/1.1" 301 5 "ikbensterdam.com" "Mozilla/5.1 (Windows NT 6.0; WOW64) AppleWebKit/537.37 (KHTML, like Gecko) Chrome/58.0.1145.75 Safari/537.37"
2001:41d0:52:100::447 - - [01/Nov/2018:03:57:30 +0000] "GET /wp-content/themes/clean-commerce/test2.php HTTP/1.1" 404 35326 "ikbensterdam.com" "Mozilla/5.1 (Windows NT 6.0; WOW64) AppleWebKit/537.37 (KHTML, like Gecko) Chrome/58.0.1145.75 Safari/537.37"
2001:41d0:52:100::447 - - [01/Nov/2018:03:59:29 +0000] "GET /seos.php HTTP/1.1" 301 5 "ikbensterdam.com" "Mozilla/5.1 (Windows NT 6.0; WOW64) AppleWebKit/537.37 (KHTML, like Gecko) Chrome/58.0.1145.75 Safari/537.37"
2001:41d0:52:100::447 - - [01/Nov/2018:03:59:29 +0000] "GET /seos.php HTTP/1.1" 404 35193 "ikbensterdam.com" "Mozilla/5.1 (Windows NT 6.0; WOW64) AppleWebKit/537.37 (KHTML, like Gecko) Chrome/58.0.1145.75 Safari/537.37"
2001:41d0:52:100::447 - - [01/Nov/2018:03:59:50 +0000] "GET /wp-content/uploads/2018/08/seo_script.php HTTP/1.1" 301 5 "ikbensterdam.com" "Mozilla/5.1 (Windows NT 6.0; WOW64) AppleWebKit/537.37 (KHTML, like Gecko) Chrome/58.0.1145.75 Safari/537.37"
2001:41d0:52:100::447 - - [01/Nov/2018:03:59:51 +0000] "GET /wp-content/uploads/2018/08/seo_script.php HTTP/1.1" 404 35341 "ikbensterdam.com" "Mozilla/5.1 (Windows NT 6.0; WOW64) AppleWebKit/537.37 (KHTML, like Gecko) Chrome/58.0.1145.75 Safari/537.37"
52.165.148.51 - - [01/Nov/2018:04:36:30 +0000] "GET / HTTP/1.1" 301 5 "-" "Mozilla/5.0 (Windows NT 10.0; Win64; x64) AppleWebKit/537.36 (KHTML, like Gecko) Chrome/65.0.3325.181 Safari/537.36"
31.170.123.73 - - [01/Nov/2018:05:09:58 +0000] "POST /wp-cron.php?doing_wp_cron=1541048998.1769120693206787109375 HTTP/1.0" 200 0 "-" "WordPress/4.3.17; http://www.ikbensterdam.com"
34.238.155.175 - - [01/Nov/2018:05:09:58 +0000] "GET /wp-login.php HTTP/1.1" 200 1787 "https://www.google.com/url?48c1bb7daf35faf37570d1bad88963f8" "Mozilla/5.0 (Windows NT 5.1; rv:31.0) Gecko/20100101 Firefox/31.0"
34.238.155.175 - - [01/Nov/2018:05:09:59 +0000] "POST /wp-login.php HTTP/1.1" 200 2209 "https://www.google.com/url?48c1bb7daf35faf37570d1bad88963f8" "Mozilla/5.0 (Windows NT 5.1; rv:31.0) Gecko/20100101 Firefox/31.0"
97.74.228.245 - - [01/Nov/2018:05:17:05 +0000] "POST /xmlrpc.php HTTP/1.1" 200 403 "-" "Mozilla/5.0 (Macintosh; U; Intel Mac OS X 10.6; fr; rv:1.9.2.8) Gecko/20100722 Firefox/3.6.8"
40.77.167.65 - - [01/Nov/2018:05:30:57 +0000] "GET / HTTP/1.1" 301 5 "-" "Mozilla/5.0 (iPhone; CPU iPhone OS 7_0 like Mac OS X) AppleWebKit/537.51.1 (KHTML, like Gecko) Version/7.0 Mobile/11A465 Safari/9537.53 (compatible; bingbot/2.0; +http://www.bing.com/bingbot.htm)"
31.170.123.73 - - [01/Nov/2018:06:11:11 +0000] "POST /wp-cron.php?doing_wp_cron=1541052671.0160570144653320312500 HTTP/1.0" 200 0 "-" "WordPress/4.3.17; http://www.ikbensterdam.com"
2a01:4f8:201:1153::2 - - [01/Nov/2018:06:11:11 +0000] "GET /index.php?sort=cHJpbnQgbWQ1KDIxMzEyMyk7 HTTP/1.1" 301 5 "ikbensterdam.com" "Mozilla/5.0 (Windows NT 6.1; WOW64) AppleWebKit/537.36 (KHTML, like Gecko) Chrome/50.0.2661.75 Safari/537.36"
2a01:4f8:201:1153::2 - - [01/Nov/2018:06:11:12 +0000] "GET /?sort=cHJpbnQgbWQ1KDIxMzEyMyk7 HTTP/1.1" 200 48840 "ikbensterdam.com" "Mozilla/5.0 (Windows NT 6.1; WOW64) AppleWebKit/537.36 (KHTML, like Gecko) Chrome/50.0.2661.75 Safari/537.36"
67.231.16.204 - - [01/Nov/2018:06:26:42 +0000] "HEAD / HTTP/1.1" 301 0 "-" "Mozilla/5.0 (compatible; Uptimebot/1.0; +http://www.uptime.com/uptimebot)"
31.170.123.73 - - [01/Nov/2018:07:27:43 +0000] "POST /wp-cron.php?doing_wp_cron=1541057262.6411368846893310546875 HTTP/1.0" 499 0 "-" "WordPress/4.3.17; http://www.ikbensterdam.com"
97.74.228.245 - - [01/Nov/2018:07:27:43 +0000] "POST /xmlrpc.php HTTP/1.1" 200 403 "-" "Mozilla/5.0 (Macintosh; U; Intel Mac OS X 10.6; fr; rv:1.9.2.8) Gecko/20100722 Firefox/3.6.8"
31.170.123.73 - - [01/Nov/2018:08:59:20 +0000] "POST /wp-cron.php?doing_wp_cron=1541062759.8106019496917724609375 HTTP/1.0" 200 0 "-" "WordPress/4.3.17; http://www.ikbensterdam.com"
185.86.164.104 - - [01/Nov/2018:08:59:20 +0000] "GET /wp-login.php HTTP/1.1" 200 7092 "-" "Mozilla/5.0 (Windows NT 10.0; WOW64) AppleWebKit/537.36 (KHTML, like Gecko) Chrome/51.0.2704.103 Safari/537.36"
185.86.164.104 - - [01/Nov/2018:08:59:21 +0000] "POST /wp-login.php HTTP/1.1" 200 8035 "http://www.ikbensterdam.com/wp-login.php" "Mozilla/5.0 (Windows NT 10.0; WOW64) AppleWebKit/537.36 (KHTML, like Gecko) Chrome/51.0.2704.103 Safari/537.36"
97.74.228.245 - - [01/Nov/2018:09:42:37 +0000] "POST /xmlrpc.php HTTP/1.1" 200 403 "-" "Mozilla/5.0 (Macintosh; U; Intel Mac OS X 10.6; fr; rv:1.9.2.8) Gecko/20100722 Firefox/3.6.8"
54.190.134.249 - - [01/Nov/2018:09:52:22 +0000] "GET /wp-login.php HTTP/1.1" 200 1787 "https://www.google.com/url?48c1bb7daf35faf37570d1bad88963f8" "Mozilla/5.0 (Windows NT 6.0; rv:29.0) Gecko/20120101 Firefox/29.0"
54.190.134.249 - - [01/Nov/2018:09:52:24 +0000] "POST /wp-login.php HTTP/1.1" 200 2209 "https://www.google.com/url?48c1bb7daf35faf37570d1bad88963f8" "Mozilla/5.0 (Windows NT 6.0; rv:29.0) Gecko/20120101 Firefox/29.0"
180.76.15.24 - - [01/Nov/2018:10:56:02 +0000] "GET /wp-includes/wlwmanifest.xml HTTP/1.1" 200 503 "-" "Mozilla/5.0 (compatible; Baiduspider/2.0; +http://www.baidu.com/search/spider.html)"
31.170.123.73 - - [01/Nov/2018:10:57:52 +0000] "POST /wp-cron.php?doing_wp_cron=1541069871.9236509799957275390625 HTTP/1.0" 200 0 "-" "WordPress/4.3.17; http://www.ikbensterdam.com"
188.166.116.151 - - [01/Nov/2018:10:57:52 +0000] "GET / HTTP/1.1" 301 5 "-" "Mozilla/4.0 (compatible; MSIE 7.0; Windows NT 6.1; WOW64; Trident/6.0;)"
188.166.116.151 - - [01/Nov/2018:10:57:53 +0000] "GET / HTTP/1.1" 200 12067 "-" "Mozilla/4.0 (compatible; MSIE 7.0; Windows NT 6.1; WOW64; Trident/6.0;)"
123.57.254.142 - - [01/Nov/2018:11:23:03 +0000] "POST /xmlrpc.php HTTP/1.1" 200 403 "-" "Mozilla/5.0 (Macintosh; U; Intel Mac OS X 10.6; fr; rv:1.9.2.8) Gecko/20100722 Firefox/3.6.8"
123.57.254.142 - - [01/Nov/2018:11:23:03 +0000] "POST /xmlrpc.php HTTP/1.1" 200 403 "-" "Mozilla/5.0 (Macintosh; U; Intel Mac OS X 10.6; fr; rv:1.9.2.8) Gecko/20100722 Firefox/3.6.8"
89.248.169.130 - - [01/Nov/2018:11:45:34 +0000] "POST /xmlrpc.php HTTP/1.1" 200 403 "-" "Mozilla/5.0 (Macintosh; U; Intel Mac OS X 10.6; fr; rv:1.9.2.8) Gecko/20100722 Firefox/3.6.8"
89.248.169.130 - - [01/Nov/2018:11:45:34 +0000] "POST /xmlrpc.php HTTP/1.1" 200 403 "-" "Mozilla/5.0 (Macintosh; U; Intel Mac OS X 10.6; fr; rv:1.9.2.8) Gecko/20100722 Firefox/3.6.8"
89.248.169.130 - - [01/Nov/2018:11:45:35 +0000] "POST /xmlrpc.php HTTP/1.1" 200 403 "-" "Mozilla/5.0 (Macintosh; U; Intel Mac OS X 10.6; fr; rv:1.9.2.8) Gecko/20100722 Firefox/3.6.8"
89.248.169.130 - - [01/Nov/2018:11:45:35 +0000] "POST /xmlrpc.php HTTP/1.1" 200 403 "-" "Mozilla/5.0 (Macintosh; U; Intel Mac OS X 10.6; fr; rv:1.9.2.8) Gecko/20100722 Firefox/3.6.8"
94.50.250.134 - - [01/Nov/2018:11:47:14 +0000] "POST /wp-login.php HTTP/1.1" 200 8086 "-" "Opera/9.80 (Windows NT 6.0) Presto/2.12.388 Version/12.14"
31.170.123.73 - - [01/Nov/2018:11:57:54 +0000] "POST /wp-cron.php?doing_wp_cron=1541073473.6405110359191894531250 HTTP/1.0" 200 0 "-" "WordPress/4.3.17; http://www.ikbensterdam.com"
97.74.228.245 - - [01/Nov/2018:11:57:54 +0000] "POST /xmlrpc.php HTTP/1.1" 200 403 "-" "Mozilla/5.0 (Macintosh; U; Intel Mac OS X 10.6; fr; rv:1.9.2.8) Gecko/20100722 Firefox/3.6.8"
31.170.123.73 - - [01/Nov/2018:13:46:03 +0000] "POST /wp-cron.php?doing_wp_cron=1541079962.9675929546356201171875 HTTP/1.0" 200 0 "-" "WordPress/4.3.17; http://www.ikbensterdam.com"
45.40.143.13 - - [01/Nov/2018:13:46:04 +0000] "GET /wp-content/themes/pridmag/db.php HTTP/1.1" 301 5 "ikbensterdam.com" "Mozilla/5.0 (Windows NT 6.1; WOW64) AppleWebKit/537.36 (KHTML, like Gecko) Chrome/50.0.2661.75 Safari/537.36"
45.40.143.13 - - [01/Nov/2018:13:46:05 +0000] "GET /wp-content/themes/pridmag/db.php HTTP/1.1" 404 35293 "ikbensterdam.com" "Mozilla/5.0 (Windows NT 6.1; WOW64) AppleWebKit/537.36 (KHTML, like Gecko) Chrome/50.0.2661.75 Safari/537.36"
31.170.123.73 - - [01/Nov/2018:14:30:28 +0000] "POST /wp-cron.php?doing_wp_cron=1541082628.2895910739898681640625 HTTP/1.0" 200 0 "-" "WordPress/4.3.17; http://www.ikbensterdam.com"
18.191.248.249 - - [01/Nov/2018:14:30:28 +0000] "GET /wp-login.php HTTP/1.1" 200 1787 "https://www.google.com/url?48c1bb7daf35faf37570d1bad88963f8" "Mozilla/5.0 (Windows NT 6.1; rv:28.0) Gecko/20100101 Firefox/28.0"
18.191.248.249 - - [01/Nov/2018:14:30:29 +0000] "POST /wp-login.php HTTP/1.1" 200 2185 "https://www.google.com/url?48c1bb7daf35faf37570d1bad88963f8" "Mozilla/5.0 (Windows NT 6.1; rv:28.0) Gecko/20100101 Firefox/28.0"
97.74.228.245 - - [01/Nov/2018:14:33:16 +0000] "POST /xmlrpc.php HTTP/1.1" 200 403 "-" "Mozilla/5.0 (Macintosh; U; Intel Mac OS X 10.6; fr; rv:1.9.2.8) Gecko/20100722 Firefox/3.6.8"
31.170.123.73 - - [01/Nov/2018:15:59:33 +0000] "POST /wp-cron.php?doing_wp_cron=1541087972.8334360122680664062500 HTTP/1.0" 200 0 "-" "WordPress/4.3.17; http://www.ikbensterdam.com"
193.201.224.210 - - [01/Nov/2018:15:59:33 +0000] "GET /wp-content/themes/RightNow/includes/uploadify/upload_settings_image.php HTTP/1.1" 301 5 "http://ikbensterdam.com/wp-content/themes/RightNow/includes/uploadify/upload_settings_image.php" "Mozilla/5.0 (Windows NT 6.1; WOW64) AppleWebKit/537.36 (KHTML, like Gecko) Chrome/42.0.2311.152 Safari/537.36"
193.201.224.210 - - [01/Nov/2018:15:59:36 +0000] "GET /wp-content/themes/RightNow/includes/uploadify/upload_settings_image.php HTTP/1.1" 404 8935 "http://ikbensterdam.com/wp-content/themes/RightNow/includes/uploadify/upload_settings_image.php" "Mozilla/5.0 (Windows NT 6.1; WOW64) AppleWebKit/537.36 (KHTML, like Gecko) Chrome/42.0.2311.152 Safari/537.36"
178.137.82.233 - - [01/Nov/2018:16:07:30 +0000] "GET /groups/ HTTP/1.0" 301 0 "-" "Mozilla/5.0 (Windows NT 6.3; Win64; x64) AppleWebKit/537.36 (KHTML, like Gecko) Chrome/62.0.3202.89 Safari/537.36 OPR/49.0.2725.47"
185.117.118.153 - - [01/Nov/2018:16:37:46 +0000] "HEAD / HTTP/1.1" 301 0 "-" "Mozilla/5.0 (compatible; Uptimebot/1.0; +http://www.uptime.com/uptimebot)"
97.74.228.245 - - [01/Nov/2018:16:51:40 +0000] "POST /xmlrpc.php HTTP/1.1" 200 403 "-" "Mozilla/5.0 (Macintosh; U; Intel Mac OS X 10.6; fr; rv:1.9.2.8) Gecko/20100722 Firefox/3.6.8"
31.170.123.73 - - [01/Nov/2018:17:02:40 +0000] "POST /wp-cron.php?doing_wp_cron=1541091760.3134930133819580078125 HTTP/1.0" 200 0 "-" "WordPress/4.3.17; http://www.ikbensterdam.com"
91.90.192.171 - - [01/Nov/2018:17:02:40 +0000] "GET / HTTP/1.1" 301 0 "-" "Mozilla/5.0 (X11; Ubuntu; Linux x86_64; rv:42.0) Gecko/20100101 Firefox/42.0"
91.90.192.171 - - [01/Nov/2018:17:02:41 +0000] "GET / HTTP/1.1" 200 12069 "-" "Mozilla/5.0 (X11; Ubuntu; Linux x86_64; rv:42.0) Gecko/20100101 Firefox/42.0"
31.170.123.73 - - [01/Nov/2018:18:18:02 +0000] "POST /wp-cron.php?doing_wp_cron=1541096281.8085479736328125000000 HTTP/1.0" 200 0 "-" "WordPress/4.3.17; http://www.ikbensterdam.com"
13.78.24.40 - - [01/Nov/2018:18:18:02 +0000] "GET /robots.txt HTTP/1.1" 200 46 "-" "Mozilla/5.0 (Windows NT 10.0; Win64; x64; rv:50.0) Gecko/20100101 Firefox/50.0"
13.78.24.40 - - [01/Nov/2018:18:18:03 +0000] "GET /?author=1 HTTP/1.1" 301 5 "-" "Mozilla/5.0 (Windows NT 10.0; Win64; x64; rv:50.0) Gecko/20100101 Firefox/50.0"
13.78.24.40 - - [01/Nov/2018:18:18:07 +0000] "POST /xmlrpc.php HTTP/1.1" 200 86001 "-" "Mozilla/5.0 (Windows NT 10.0; Win64; x64; rv:50.0) Gecko/20100101 Firefox/50.0"
13.78.24.40 - - [01/Nov/2018:18:18:09 +0000] "POST /xmlrpc.php HTTP/1.1" 200 86001 "-" "Mozilla/5.0 (Windows NT 10.0; Win64; x64; rv:50.0) Gecko/20100101 Firefox/50.0"
13.78.24.40 - - [01/Nov/2018:18:18:12 +0000] "POST /xmlrpc.php HTTP/1.1" 200 86001 "-" "Mozilla/5.0 (Windows NT 10.0; Win64; x64; rv:50.0) Gecko/20100101 Firefox/50.0"
13.78.24.40 - - [01/Nov/2018:18:18:15 +0000] "POST /xmlrpc.php HTTP/1.1" 200 86001 "-" "Mozilla/5.0 (Windows NT 10.0; Win64; x64; rv:50.0) Gecko/20100101 Firefox/50.0"
13.78.24.40 - - [01/Nov/2018:18:18:18 +0000] "POST /xmlrpc.php HTTP/1.1" 200 86001 "-" "Mozilla/5.0 (Windows NT 10.0; Win64; x64; rv:50.0) Gecko/20100101 Firefox/50.0"
13.78.24.40 - - [01/Nov/2018:18:18:21 +0000] "POST /xmlrpc.php HTTP/1.1" 200 86001 "-" "Mozilla/5.0 (Windows NT 10.0; Win64; x64; rv:50.0) Gecko/20100101 Firefox/50.0"
13.78.24.40 - - [01/Nov/2018:18:18:24 +0000] "POST /xmlrpc.php HTTP/1.1" 200 86001 "-" "Mozilla/5.0 (Windows NT 10.0; Win64; x64; rv:50.0) Gecko/20100101 Firefox/50.0"
18.188.173.93 - - [01/Nov/2018:18:51:32 +0000] "GET /wp-login.php HTTP/1.1" 200 1787 "https://www.google.com/url?48c1bb7daf35faf37570d1bad88963f8" "Mozilla/5.0 (Windows NT 6.0; rv:28.0) Gecko/20100101 Firefox/28.0"
18.188.173.93 - - [01/Nov/2018:18:52:01 +0000] "POST /wp-login.php HTTP/1.1" 200 2209 "https://www.google.com/url?48c1bb7daf35faf37570d1bad88963f8" "Mozilla/5.0 (Windows NT 6.0; rv:28.0) Gecko/20100101 Firefox/28.0"
31.170.123.73 - - [01/Nov/2018:18:58:00 +0000] "POST /wp-cron.php?doing_wp_cron=1541098679.7811450958251953125000 HTTP/1.0" 200 0 "-" "WordPress/4.3.17; http://www.ikbensterdam.com"
67.231.16.204 - - [01/Nov/2018:18:58:00 +0000] "GET /robots.txt HTTP/1.1" 200 77 "-" "Mozilla/5.0 (compatible; Uptimebot/1.0; +http://www.uptime.com/uptimebot)"
67.231.16.204 - - [01/Nov/2018:18:58:02 +0000] "HEAD / HTTP/1.1" 200 0 "-" "Mozilla/5.0 (compatible; Uptimebot/1.0; +http://www.uptime.com/uptimebot)"
31.170.123.73 - - [01/Nov/2018:19:07:35 +0000] "POST /wp-cron.php?doing_wp_cron=1541099254.1638569831848144531250 HTTP/1.0" 499 0 "-" "WordPress/4.3.17; http://www.ikbensterdam.com"
97.74.228.245 - - [01/Nov/2018:19:07:35 +0000] "POST /xmlrpc.php HTTP/1.1" 200 403 "-" "Mozilla/5.0 (Macintosh; U; Intel Mac OS X 10.6; fr; rv:1.9.2.8) Gecko/20100722 Firefox/3.6.8"
31.170.123.73 - - [01/Nov/2018:19:19:12 +0000] "POST /wp-cron.php?doing_wp_cron=1541099951.7382600307464599609375 HTTP/1.0" 200 0 "-" "WordPress/4.3.17; http://www.ikbensterdam.com"
5.45.74.17 - - [01/Nov/2018:19:19:12 +0000] "GET / HTTP/1.1" 301 0 "-" "Mozilla/4.0 (compatible; MSIE 6.0; Windows NT 5.1; SV1)"
5.45.74.17 - - [01/Nov/2018:19:19:13 +0000] "GET / HTTP/1.1" 200 12069 "-" "Mozilla/4.0 (compatible; MSIE 6.0; Windows NT 5.1; SV1)"
89.248.169.130 - - [01/Nov/2018:20:09:08 +0000] "POST /xmlrpc.php HTTP/1.1" 200 403 "-" "Mozilla/5.0 (Macintosh; U; Intel Mac OS X 10.6; fr; rv:1.9.2.8) Gecko/20100722 Firefox/3.6.8"
89.248.169.130 - - [01/Nov/2018:20:09:09 +0000] "POST /xmlrpc.php HTTP/1.1" 200 403 "-" "Mozilla/5.0 (Macintosh; U; Intel Mac OS X 10.6; fr; rv:1.9.2.8) Gecko/20100722 Firefox/3.6.8"
31.170.123.73 - - [01/Nov/2018:20:09:09 +0000] "POST /wp-cron.php?doing_wp_cron=1541102948.7205250263214111328125 HTTP/1.0" 200 0 "-" "WordPress/4.3.17; http://www.ikbensterdam.com"
89.248.169.130 - - [01/Nov/2018:20:09:09 +0000] "POST /xmlrpc.php HTTP/1.1" 200 403 "-" "Mozilla/5.0 (Macintosh; U; Intel Mac OS X 10.6; fr; rv:1.9.2.8) Gecko/20100722 Firefox/3.6.8"
89.248.169.130 - - [01/Nov/2018:20:09:09 +0000] "POST /xmlrpc.php HTTP/1.1" 200 403 "-" "Mozilla/5.0 (Macintosh; U; Intel Mac OS X 10.6; fr; rv:1.9.2.8) Gecko/20100722 Firefox/3.6.8"
194.99.106.147 - - [01/Nov/2018:20:14:09 +0000] "GET /wp-login.php HTTP/1.1" 200 7092 "-" "Mozilla/5.0 (Windows; U; Windows NT 2.0) Gecko/20091201 Firefox/3.5.6 GTB5"
31.170.123.73 - - [01/Nov/2018:21:21:02 +0000] "POST /wp-cron.php?doing_wp_cron=1541107262.1620309352874755859375 HTTP/1.0" 200 0 "-" "WordPress/4.3.17; http://www.ikbensterdam.com"
97.74.228.245 - - [01/Nov/2018:21:21:02 +0000] "POST /xmlrpc.php HTTP/1.1" 200 403 "-" "Mozilla/5.0 (Macintosh; U; Intel Mac OS X 10.6; fr; rv:1.9.2.8) Gecko/20100722 Firefox/3.6.8"
120.35.38.212 - - [01/Nov/2018:21:50:41 +0000] "HEAD /wp-content/themes/twentyseventeen/search.php HTTP/1.1" 404 0 "-" "-"
31.170.123.73 - - [01/Nov/2018:22:43:12 +0000] "POST /wp-cron.php?doing_wp_cron=1541112191.4805879592895507812500 HTTP/1.0" 200 0 "-" "WordPress/4.3.17; http://www.ikbensterdam.com"
50.63.26.13 - - [01/Nov/2018:22:43:12 +0000] "GET /wp-content/plugins/accelerated-mobile-pages/README.md HTTP/1.1" 301 5 "-" "Mozilla/4.0 (compatible; MSIE 6.0; Windows NT 5.1; SV1)"
202.182.116.151 - - [01/Nov/2018:22:43:12 +0000] "GET /wp-content/plugins/accelerated-mobile-pages/LICENSE HTTP/1.1" 301 5 "-" "Mozilla/4.0 (compatible; MSIE 6.0; Windows NT 5.1; SV1)"
1.35.180.85 - - [01/Nov/2018:22:43:12 +0000] "GET /wp-content/plugins/accelerated-mobile-pages/languages/how-to-use-a-pot-file.txt HTTP/1.1" 301 5 "-" "Mozilla/4.0 (compatible; MSIE 6.0; Windows NT 5.1; SV1)"
42.51.216.43 - - [01/Nov/2018:22:43:12 +0000] "GET /wp-content/plugins/accelerated-mobile-pages/readme.txt HTTP/1.1" 301 5 "-" "Mozilla/4.0 (compatible; MSIE 6.0; Windows NT 5.1; SV1)"
50.63.26.13 - - [01/Nov/2018:22:43:14 +0000] "GET /wp-content/plugins/accelerated-mobile-pages/README.md HTTP/1.1" 404 8927 "http://ikbensterdam.com/wp-content/plugins/accelerated-mobile-pages/README.md" "Mozilla/4.0 (compatible; MSIE 6.0; Windows NT 5.1; SV1)"
1.35.180.85 - - [01/Nov/2018:22:43:15 +0000] "GET /wp-content/plugins/accelerated-mobile-pages/languages/how-to-use-a-pot-file.txt HTTP/1.1" 404 8957 "http://ikbensterdam.com/wp-content/plugins/accelerated-mobile-pages/languages/how-to-use-a-pot-file.txt" "Mozilla/4.0 (compatible; MSIE 6.0; Windows NT 5.1; SV1)"
42.51.216.43 - - [01/Nov/2018:22:43:15 +0000] "GET /wp-content/plugins/accelerated-mobile-pages/readme.txt HTTP/1.1" 404 8924 "http://ikbensterdam.com/wp-content/plugins/accelerated-mobile-pages/readme.txt" "Mozilla/4.0 (compatible; MSIE 6.0; Windows NT 5.1; SV1)"
202.182.116.151 - - [01/Nov/2018:22:43:15 +0000] "GET /wp-content/plugins/accelerated-mobile-pages/LICENSE HTTP/1.1" 404 8944 "http://ikbensterdam.com/wp-content/plugins/accelerated-mobile-pages/LICENSE" "Mozilla/4.0 (compatible; MSIE 6.0; Windows NT 5.1; SV1)"
162.144.67.158 - - [01/Nov/2018:22:44:11 +0000] "GET /wp-content/plugins/accelerated-mobile-pages/templates/custom-amp-content-button.js HTTP/1.1" 301 5 "-" "Mozilla/4.0 (compatible; MSIE 6.0; Windows NT 5.1; SV1)"
162.144.67.158 - - [01/Nov/2018:22:44:13 +0000] "GET /wp-content/plugins/accelerated-mobile-pages/templates/custom-amp-content-button.js HTTP/1.1" 404 8936 "http://ikbensterdam.com/wp-content/plugins/accelerated-mobile-pages/templates/custom-amp-content-button.js" "Mozilla/4.0 (compatible; MSIE 6.0; Windows NT 5.1; SV1)"
31.170.123.73 - - [01/Nov/2018:22:56:11 +0000] "POST /wp-cron.php?doing_wp_cron=1541112971.1578640937805175781250 HTTP/1.0" 200 0 "-" "WordPress/4.3.17; http://www.ikbensterdam.com"
216.244.66.247 - - [01/Nov/2018:22:56:11 +0000] "GET /robots.txt HTTP/1.1" 200 46 "-" "Mozilla/5.0 (compatible; DotBot/1.1; http://www.opensiteexplorer.org/dotbot, help@moz.com)"
18.206.231.127 - - [01/Nov/2018:23:18:54 +0000] "GET /wp-login.php HTTP/1.1" 200 1787 "https://www.google.com/url?48c1bb7daf35faf37570d1bad88963f8" "Mozilla/5.0 (Windows NT 6.1; rv:31.0) Gecko/20100101 Firefox/31.0"
18.206.231.127 - - [01/Nov/2018:23:18:57 +0000] "POST /wp-login.php HTTP/1.1" 200 2209 "https://www.google.com/url?48c1bb7daf35faf37570d1bad88963f8" "Mozilla/5.0 (Windows NT 6.1; rv:31.0) Gecko/20100101 Firefox/31.0"
216.244.66.247 - - [01/Nov/2018:23:24:11 +0000] "GET /shop/feed/?product_cat=kids HTTP/1.1" 200 2196 "-" "Mozilla/5.0 (compatible; DotBot/1.1; http://www.opensiteexplorer.org/dotbot, help@moz.com)"
97.74.228.245 - - [01/Nov/2018:23:29:36 +0000] "POST /xmlrpc.php HTTP/1.1" 200 403 "-" "Mozilla/5.0 (Macintosh; U; Intel Mac OS X 10.6; fr; rv:1.9.2.8) Gecko/20100722 Firefox/3.6.8"
31.170.123.73 - - [02/Nov/2018:00:03:46 +0000] "POST /wp-cron.php?doing_wp_cron=1541117025.6842589378356933593750 HTTP/1.0" 200 0 "-" "WordPress/4.3.17; http://www.ikbensterdam.com"
95.108.181.113 - - [02/Nov/2018:00:03:46 +0000] "GET /robots.txt HTTP/1.1" 200 46 "-" "Mozilla/5.0 (compatible; YandexBot/3.0; +http://yandex.com/bots)"
178.154.244.15 - - [02/Nov/2018:00:03:49 +0000] "GET /xmlrpc.php?rsd HTTP/1.1" 200 318 "-" "Mozilla/5.0 (compatible; YandexBot/3.0; +http://yandex.com/bots)"
2601:2c6:4600:68bf:902a:b90f:8294:d12a - - [02/Nov/2018:00:33:32 +0000] "GET /wp-content/uploads/2016/01/mockup-a356d246.jpg HTTP/1.1" 200 66899 "https://www.google.com/" "Mozilla/5.0 (Windows NT 6.1; Win64; x64) AppleWebKit/537.36 (KHTML, like Gecko) Chrome/64.0.3282.119 Safari/537.36"
185.117.118.147 - - [02/Nov/2018:00:46:11 +0000] "HEAD / HTTP/1.1" 301 0 "-" "Mozilla/5.0 (compatible; Uptimebot/1.0; +http://www.uptime.com/uptimebot)"
31.170.123.73 - - [02/Nov/2018:00:53:49 +0000] "POST /wp-cron.php?doing_wp_cron=1541120028.9800920486450195312500 HTTP/1.0" 200 0 "-" "WordPress/4.3.17; http://www.ikbensterdam.com"
83.172.59.6 - - [02/Nov/2018:00:53:49 +0000] "GET //?author=1 HTTP/1.1" 301 5 "-" "Python-urllib/2.7"
83.172.59.6 - - [02/Nov/2018:00:53:50 +0000] "GET /author/radicalg/ HTTP/1.1" 200 37717 "-" "Python-urllib/2.7"
83.172.59.6 - - [02/Nov/2018:00:53:51 +0000] "POST //xmlrpc.php HTTP/1.1" 200 403 "-" "Python-urllib/2.7"
83.172.59.6 - - [02/Nov/2018:00:53:53 +0000] "POST //xmlrpc.php HTTP/1.1" 200 403 "-" "Python-urllib/2.7"
83.172.59.6 - - [02/Nov/2018:00:53:56 +0000] "POST //xmlrpc.php HTTP/1.1" 200 403 "-" "Python-urllib/2.7"
83.172.59.6 - - [02/Nov/2018:00:53:58 +0000] "POST //xmlrpc.php HTTP/1.1" 200 403 "-" "Python-urllib/2.7"
83.172.59.6 - - [02/Nov/2018:00:54:00 +0000] "POST //xmlrpc.php HTTP/1.1" 200 403 "-" "Python-urllib/2.7"
83.172.59.6 - - [02/Nov/2018:00:54:02 +0000] "POST //xmlrpc.php HTTP/1.1" 200 403 "-" "Python-urllib/2.7"
83.172.59.6 - - [02/Nov/2018:00:54:05 +0000] "POST //xmlrpc.php HTTP/1.1" 200 403 "-" "Python-urllib/2.7"
83.172.59.6 - - [02/Nov/2018:00:54:08 +0000] "POST //xmlrpc.php HTTP/1.1" 200 403 "-" "Python-urllib/2.7"
83.172.59.6 - - [02/Nov/2018:00:54:10 +0000] "POST //xmlrpc.php HTTP/1.1" 200 403 "-" "Python-urllib/2.7"
83.172.59.6 - - [02/Nov/2018:00:54:12 +0000] "POST //xmlrpc.php HTTP/1.1" 200 403 "-" "Python-urllib/2.7"
83.172.59.6 - - [02/Nov/2018:00:54:15 +0000] "POST //xmlrpc.php HTTP/1.1" 200 403 "-" "Python-urllib/2.7"
83.172.59.6 - - [02/Nov/2018:00:54:18 +0000] "POST //xmlrpc.php HTTP/1.1" 200 403 "-" "Python-urllib/2.7"
83.172.59.6 - - [02/Nov/2018:00:54:19 +0000] "POST //xmlrpc.php HTTP/1.1" 200 403 "-" "Python-urllib/2.7"
83.172.59.6 - - [02/Nov/2018:00:54:22 +0000] "POST //xmlrpc.php HTTP/1.1" 200 403 "-" "Python-urllib/2.7"
83.172.59.6 - - [02/Nov/2018:00:54:25 +0000] "POST //xmlrpc.php HTTP/1.1" 200 403 "-" "Python-urllib/2.7"
83.172.59.6 - - [02/Nov/2018:00:54:28 +0000] "POST //xmlrpc.php HTTP/1.1" 200 403 "-" "Python-urllib/2.7"
83.172.59.6 - - [02/Nov/2018:00:54:30 +0000] "POST //xmlrpc.php HTTP/1.1" 200 403 "-" "Python-urllib/2.7"
83.172.59.6 - - [02/Nov/2018:00:54:32 +0000] "POST //xmlrpc.php HTTP/1.1" 200 403 "-" "Python-urllib/2.7"
83.172.59.6 - - [02/Nov/2018:00:54:34 +0000] "POST //xmlrpc.php HTTP/1.1" 200 403 "-" "Python-urllib/2.7"
83.172.59.6 - - [02/Nov/2018:00:54:36 +0000] "POST //xmlrpc.php HTTP/1.1" 200 403 "-" "Python-urllib/2.7"
83.172.59.6 - - [02/Nov/2018:00:54:38 +0000] "POST //xmlrpc.php HTTP/1.1" 403 212 "-" "Python-urllib/2.7"
83.172.59.6 - - [02/Nov/2018:01:05:26 +0000] "POST //xmlrpc.php HTTP/1.1" 403 212 "-" "Python-urllib/2.7"
123.57.254.142 - - [02/Nov/2018:01:15:20 +0000] "POST /xmlrpc.php HTTP/1.1" 200 403 "-" "Mozilla/5.0 (Macintosh; U; Intel Mac OS X 10.6; fr; rv:1.9.2.8) Gecko/20100722 Firefox/3.6.8"
31.170.123.73 - - [02/Nov/2018:01:15:20 +0000] "POST /wp-cron.php?doing_wp_cron=1541121320.3284959793090820312500 HTTP/1.0" 200 0 "-" "WordPress/4.3.17; http://www.ikbensterdam.com"
123.57.254.142 - - [02/Nov/2018:01:15:20 +0000] "POST /xmlrpc.php HTTP/1.1" 200 403 "-" "Mozilla/5.0 (Macintosh; U; Intel Mac OS X 10.6; fr; rv:1.9.2.8) Gecko/20100722 Firefox/3.6.8"
166.62.33.164 - - [02/Nov/2018:01:22:24 +0000] "GET /seomarket.php HTTP/1.1" 301 5 "ikbensterdam.com" "Mozilla/5.0 (Windows NT 6.1; WOW64) AppleWebKit/537.36 (KHTML, like Gecko) Chrome/50.0.2661.75 Safari/537.36"
166.62.33.164 - - [02/Nov/2018:01:22:25 +0000] "GET /seomarket.php HTTP/1.1" 404 35213 "ikbensterdam.com" "Mozilla/5.0 (Windows NT 6.1; WOW64) AppleWebKit/537.36 (KHTML, like Gecko) Chrome/50.0.2661.75 Safari/537.36"
83.172.59.6 - - [02/Nov/2018:01:23:11 +0000] "POST //xmlrpc.php HTTP/1.1" 200 403 "-" "Python-urllib/2.7"
83.172.59.6 - - [02/Nov/2018:01:23:13 +0000] "POST //xmlrpc.php HTTP/1.1" 200 403 "-" "Python-urllib/2.7"
83.172.59.6 - - [02/Nov/2018:01:23:14 +0000] "POST //xmlrpc.php HTTP/1.1" 200 403 "-" "Python-urllib/2.7"
83.172.59.6 - - [02/Nov/2018:01:23:16 +0000] "POST //xmlrpc.php HTTP/1.1" 200 403 "-" "Python-urllib/2.7"
83.172.59.6 - - [02/Nov/2018:01:23:19 +0000] "POST //xmlrpc.php HTTP/1.1" 200 403 "-" "Python-urllib/2.7"
83.172.59.6 - - [02/Nov/2018:01:23:21 +0000] "POST //xmlrpc.php HTTP/1.1" 200 403 "-" "Python-urllib/2.7"
83.172.59.6 - - [02/Nov/2018:01:23:23 +0000] "POST //xmlrpc.php HTTP/1.1" 200 403 "-" "Python-urllib/2.7"
83.172.59.6 - - [02/Nov/2018:01:23:26 +0000] "POST //xmlrpc.php HTTP/1.1" 200 403 "-" "Python-urllib/2.7"
83.172.59.6 - - [02/Nov/2018:01:23:29 +0000] "POST //xmlrpc.php HTTP/1.1" 200 403 "-" "Python-urllib/2.7"
83.172.59.6 - - [02/Nov/2018:01:23:31 +0000] "POST //xmlrpc.php HTTP/1.1" 200 403 "-" "Python-urllib/2.7"
83.172.59.6 - - [02/Nov/2018:01:23:33 +0000] "POST //xmlrpc.php HTTP/1.1" 200 403 "-" "Python-urllib/2.7"
83.172.59.6 - - [02/Nov/2018:01:23:36 +0000] "POST //xmlrpc.php HTTP/1.1" 200 403 "-" "Python-urllib/2.7"
83.172.59.6 - - [02/Nov/2018:01:23:39 +0000] "POST //xmlrpc.php HTTP/1.1" 200 403 "-" "Python-urllib/2.7"
97.74.228.245 - - [02/Nov/2018:01:40:43 +0000] "POST /xmlrpc.php HTTP/1.1" 200 403 "-" "Mozilla/5.0 (Macintosh; U; Intel Mac OS X 10.6; fr; rv:1.9.2.8) Gecko/20100722 Firefox/3.6.8"
31.170.123.73 - - [02/Nov/2018:02:12:46 +0000] "POST /wp-cron.php?doing_wp_cron=1541124766.0694339275360107421875 HTTP/1.0" 200 0 "-" "WordPress/4.3.17; http://www.ikbensterdam.com"
104.236.75.170 - - [02/Nov/2018:02:12:46 +0000] "GET /wp-main.php HTTP/1.1" 301 5 "ikbensterdam.com" "Mozilla/5.0 (Windows NT 6.1; WOW64) AppleWebKit/537.36 (KHTML, like Gecko) Chrome/50.0.2661.75 Safari/537.36"
104.236.75.170 - - [02/Nov/2018:02:12:47 +0000] "GET /wp-main.php HTTP/1.1" 404 35197 "ikbensterdam.com" "Mozilla/5.0 (Windows NT 6.1; WOW64) AppleWebKit/537.36 (KHTML, like Gecko) Chrome/50.0.2661.75 Safari/537.36"
31.170.123.73 - - [02/Nov/2018:02:48:35 +0000] "POST /wp-cron.php?doing_wp_cron=1541126915.3501529693603515625000 HTTP/1.0" 200 0 "-" "WordPress/4.3.17; http://www.ikbensterdam.com"
67.231.16.206 - - [02/Nov/2018:02:48:36 +0000] "GET /robots.txt HTTP/1.1" 200 77 "-" "Mozilla/5.0 (compatible; Uptimebot/1.0; +http://www.uptime.com/uptimebot)"
