54.200.204.120 - - [31/Oct/2018:04:45:14 +0000] "GET /wp-login.php HTTP/1.1" 200 1536 "https://www.google.com/url?ea6a4673af35e054fba356c46b5de485" "Mozilla/5.0 (Windows NT 5.1; rv:31.0) Gecko/20100101 Firefox/31.0"
54.200.204.120 - - [31/Oct/2018:04:45:27 +0000] "POST /wp-login.php HTTP/1.1" 200 2047 "https://www.google.com/url?ea6a4673af35e054fba356c46b5de485" "Mozilla/5.0 (Windows NT 5.1; rv:31.0) Gecko/20100101 Firefox/31.0"
18.236.136.2 - - [31/Oct/2018:10:36:47 +0000] "GET /wp-login.php HTTP/1.1" 200 1465 "https://www.google.com/url?ea6a4673af35e054fba356c46b5de485" "Mozilla/5.0 (Windows NT 6.1; rv:31.0) Gecko/20100101 Firefox/31.0"
18.236.136.2 - - [31/Oct/2018:10:36:48 +0000] "POST /wp-login.php HTTP/1.1" 200 1883 "https://www.google.com/url?ea6a4673af35e054fba356c46b5de485" "Mozilla/5.0 (Windows NT 6.1; rv:31.0) Gecko/20100101 Firefox/31.0"
207.200.8.184 - - [31/Oct/2018:16:08:35 +0000] "GET / HTTP/1.1" 301 5 "-" "LightspeedSystemsCrawler Mozilla/5.0 (Windows; U; MSIE 9.0; Windows NT 9.0; en-US)"
207.200.8.184 - - [31/Oct/2018:16:08:47 +0000] "GET / HTTP/1.1" 301 5 "-" "LightspeedSystemsCrawler Mozilla/5.0 (Windows; U; MSIE 9.0; Windows NT 9.0; en-US)"
31.170.123.73 - - [31/Oct/2018:19:02:26 +0000] "POST /wp-cron.php?doing_wp_cron=1541012545.1594669818878173828125 HTTP/1.1" 499 0 "http://magicbyafrica.com/wp-cron.php?doing_wp_cron=1541012545.1594669818878173828125" "WordPress/4.8.7; http://magicbyafrica.com"
18.207.203.70 - - [31/Oct/2018:19:02:26 +0000] "GET /wp-login.php HTTP/1.1" 200 1472 "https://www.google.com/url?ea6a4673af35e054fba356c46b5de485" "Mozilla/5.0 (Windows NT 6.2; WOW64; rv:31.0) Gecko/20100101 Firefox/31.0"
18.207.203.70 - - [31/Oct/2018:19:02:46 +0000] "POST /wp-login.php HTTP/1.1" 200 1845 "https://www.google.com/url?ea6a4673af35e054fba356c46b5de485" "Mozilla/5.0 (Windows NT 6.2; WOW64; rv:31.0) Gecko/20100101 Firefox/31.0"
31.170.123.73 - - [01/Nov/2018:01:48:51 +0000] "POST /wp-cron.php?doing_wp_cron=1541036930.9478220939636230468750 HTTP/1.1" 499 0 "http://magicbyafrica.com/wp-cron.php?doing_wp_cron=1541036930.9478220939636230468750" "WordPress/4.8.7; http://magicbyafrica.com"
67.205.1.151 - - [01/Nov/2018:01:48:52 +0000] "GET /wp-content/themes/clean-commerce/test2.php HTTP/1.1" 404 50332 "magicbyafrica.com" "Mozilla/5.1 (Windows NT 6.0; WOW64) AppleWebKit/537.37 (KHTML, like Gecko) Chrome/58.0.1145.75 Safari/537.37"
67.205.1.151 - - [01/Nov/2018:01:49:04 +0000] "GET /assets/images/seo_script.php HTTP/1.1" 404 50299 "magicbyafrica.com" "Mozilla/5.1 (Windows NT 6.0; WOW64) AppleWebKit/537.37 (KHTML, like Gecko) Chrome/58.0.1145.75 Safari/537.37"
67.205.1.151 - - [01/Nov/2018:01:50:16 +0000] "GET /wp-content/plugins/background-image-cropper/image/ico/seo_script.php HTTP/1.1" 404 50332 "magicbyafrica.com" "Mozilla/5.1 (Windows NT 6.0; WOW64) AppleWebKit/537.37 (KHTML, like Gecko) Chrome/58.0.1145.75 Safari/537.37"
67.205.1.151 - - [01/Nov/2018:01:50:42 +0000] "GET /wp-content/uploads/2018/08/seo_script.php HTTP/1.1" 404 50273 "magicbyafrica.com" "Mozilla/5.1 (Windows NT 6.0; WOW64) AppleWebKit/537.37 (KHTML, like Gecko) Chrome/58.0.1145.75 Safari/537.37"
67.205.1.151 - - [01/Nov/2018:01:51:17 +0000] "GET /wp-content/uploads/2018/08/seos.php HTTP/1.1" 404 50328 "magicbyafrica.com" "Mozilla/5.1 (Windows NT 6.0; WOW64) AppleWebKit/537.37 (KHTML, like Gecko) Chrome/58.0.1145.75 Safari/537.37"
67.205.1.151 - - [01/Nov/2018:01:52:04 +0000] "GET /seos.php HTTP/1.1" 404 50327 "magicbyafrica.com" "Mozilla/5.1 (Windows NT 6.0; WOW64) AppleWebKit/537.37 (KHTML, like Gecko) Chrome/58.0.1145.75 Safari/537.37"
67.205.1.151 - - [01/Nov/2018:01:52:50 +0000] "GET /wp-content/uploads/2018/08/st.php HTTP/1.1" 404 50323 "magicbyafrica.com" "Mozilla/5.1 (Windows NT 6.0; WOW64) AppleWebKit/537.37 (KHTML, like Gecko) Chrome/58.0.1145.75 Safari/537.37"
67.205.1.151 - - [01/Nov/2018:01:54:49 +0000] "GET /wp-content/themes/twentyeleven/seo_script.php HTTP/1.1" 404 50361 "magicbyafrica.com" "Mozilla/5.1 (Windows NT 6.0; WOW64) AppleWebKit/537.37 (KHTML, like Gecko) Chrome/58.0.1145.75 Safari/537.37"
52.55.77.136 - - [01/Nov/2018:02:31:30 +0000] "GET /wp-login.php HTTP/1.1" 200 1489 "https://www.google.com/url?ea6a4673af35e054fba356c46b5de485" "Mozilla/5.0 (Windows NT 5.1; rv:31.0) Gecko/20100101 Firefox/31.0"
52.55.77.136 - - [01/Nov/2018:02:31:30 +0000] "POST /wp-login.php HTTP/1.1" 200 1856 "https://www.google.com/url?ea6a4673af35e054fba356c46b5de485" "Mozilla/5.0 (Windows NT 5.1; rv:31.0) Gecko/20100101 Firefox/31.0"
