31.170.123.73 - - [02/Nov/2018:03:28:37 +0000] "POST /wp-cron.php?doing_wp_cron=1541129316.8084919452667236328125 HTTP/1.0" 200 0 "-" "WordPress/4.3.17; http://www.ikbensterdam.com"
195.154.118.41 - - [02/Nov/2018:03:28:37 +0000] "GET /wp-clear.php HTTP/1.1" 301 5 "ikbensterdam.com" "Mozilla/5.0 (Windows NT 6.1; WOW64) AppleWebKit/537.36 (KHTML, like Gecko) Chrome/50.0.2661.75 Safari/537.36"
195.154.118.41 - - [02/Nov/2018:03:28:38 +0000] "GET /wp-clear.php HTTP/1.1" 404 35201 "ikbensterdam.com" "Mozilla/5.0 (Windows NT 6.1; WOW64) AppleWebKit/537.36 (KHTML, like Gecko) Chrome/50.0.2661.75 Safari/537.36"
31.170.123.73 - - [02/Nov/2018:03:55:53 +0000] "POST /wp-cron.php?doing_wp_cron=1541130953.0842549800872802734375 HTTP/1.0" 200 0 "-" "WordPress/4.3.17; http://www.ikbensterdam.com"
97.74.228.245 - - [02/Nov/2018:03:55:53 +0000] "POST /xmlrpc.php HTTP/1.1" 200 403 "-" "Mozilla/5.0 (Macintosh; U; Intel Mac OS X 10.6; fr; rv:1.9.2.8) Gecko/20100722 Firefox/3.6.8"
18.219.54.52 - - [02/Nov/2018:03:55:56 +0000] "GET /wp-login.php HTTP/1.1" 200 1787 "https://www.google.com/url?48c1bb7daf35faf37570d1bad88963f8" "Mozilla/5.0 (Windows NT 6.1; rv:33.0) Gecko/20100101 Firefox/33.0"
18.219.54.52 - - [02/Nov/2018:03:55:57 +0000] "POST /wp-login.php HTTP/1.1" 200 2209 "https://www.google.com/url?48c1bb7daf35faf37570d1bad88963f8" "Mozilla/5.0 (Windows NT 6.1; rv:33.0) Gecko/20100101 Firefox/33.0"
89.248.169.130 - - [02/Nov/2018:04:33:42 +0000] "POST /xmlrpc.php HTTP/1.1" 200 403 "-" "Mozilla/5.0 (Macintosh; U; Intel Mac OS X 10.6; fr; rv:1.9.2.8) Gecko/20100722 Firefox/3.6.8"
89.248.169.130 - - [02/Nov/2018:04:33:43 +0000] "POST /xmlrpc.php HTTP/1.1" 200 403 "-" "Mozilla/5.0 (Macintosh; U; Intel Mac OS X 10.6; fr; rv:1.9.2.8) Gecko/20100722 Firefox/3.6.8"
89.248.169.130 - - [02/Nov/2018:04:33:44 +0000] "POST /xmlrpc.php HTTP/1.1" 200 403 "-" "Mozilla/5.0 (Macintosh; U; Intel Mac OS X 10.6; fr; rv:1.9.2.8) Gecko/20100722 Firefox/3.6.8"
89.248.169.130 - - [02/Nov/2018:04:33:46 +0000] "POST /xmlrpc.php HTTP/1.1" 200 403 "-" "Mozilla/5.0 (Macintosh; U; Intel Mac OS X 10.6; fr; rv:1.9.2.8) Gecko/20100722 Firefox/3.6.8"
31.170.123.73 - - [02/Nov/2018:06:08:44 +0000] "POST /wp-cron.php?doing_wp_cron=1541138923.8211359977722167968750 HTTP/1.0" 200 0 "-" "WordPress/4.3.17; http://www.ikbensterdam.com"
97.74.228.245 - - [02/Nov/2018:06:08:44 +0000] "POST /xmlrpc.php HTTP/1.1" 200 403 "-" "Mozilla/5.0 (Macintosh; U; Intel Mac OS X 10.6; fr; rv:1.9.2.8) Gecko/20100722 Firefox/3.6.8"
31.170.123.73 - - [02/Nov/2018:08:26:38 +0000] "POST /wp-cron.php?doing_wp_cron=1541147197.9939520359039306640625 HTTP/1.0" 499 0 "-" "WordPress/4.3.17; http://www.ikbensterdam.com"
97.74.228.245 - - [02/Nov/2018:08:26:39 +0000] "POST /xmlrpc.php HTTP/1.1" 200 403 "-" "Mozilla/5.0 (Macintosh; U; Intel Mac OS X 10.6; fr; rv:1.9.2.8) Gecko/20100722 Firefox/3.6.8"
18.219.150.18 - - [02/Nov/2018:08:31:07 +0000] "GET /wp-login.php HTTP/1.1" 200 1787 "https://www.google.com/url?48c1bb7daf35faf37570d1bad88963f8" "Mozilla/5.0 (Windows NT 6.1; rv:36.0) Gecko/20100101 Firefox/36.0"
18.219.150.18 - - [02/Nov/2018:08:31:21 +0000] "POST /wp-login.php HTTP/1.1" 200 2209 "https://www.google.com/url?48c1bb7daf35faf37570d1bad88963f8" "Mozilla/5.0 (Windows NT 6.1; rv:36.0) Gecko/20100101 Firefox/36.0"
31.170.123.73 - - [02/Nov/2018:09:27:05 +0000] "POST /wp-cron.php?doing_wp_cron=1541150824.4349930286407470703125 HTTP/1.0" 200 0 "-" "WordPress/4.3.17; http://www.ikbensterdam.com"
94.185.251.147 - - [02/Nov/2018:09:27:05 +0000] "GET / HTTP/1.1" 301 5 "-" "-"
94.185.251.147 - - [02/Nov/2018:09:27:06 +0000] "GET / HTTP/1.1" 200 48712 "-" "-"
185.86.164.100 - - [02/Nov/2018:09:36:05 +0000] "GET /wp-login.php HTTP/1.1" 200 7092 "-" "Mozilla/5.0 (Windows NT 10.0; WOW64) AppleWebKit/537.36 (KHTML, like Gecko) Chrome/51.0.2704.103 Safari/537.36"
185.86.164.100 - - [02/Nov/2018:09:36:06 +0000] "POST /wp-login.php HTTP/1.1" 200 8035 "http://www.ikbensterdam.com/wp-login.php" "Mozilla/5.0 (Windows NT 10.0; WOW64) AppleWebKit/537.36 (KHTML, like Gecko) Chrome/51.0.2704.103 Safari/537.36"
31.170.123.73 - - [02/Nov/2018:10:17:14 +0000] "POST /wp-cron.php?doing_wp_cron=1541153834.0459799766540527343750 HTTP/1.0" 200 0 "-" "WordPress/4.3.17; http://www.ikbensterdam.com"
95.108.181.102 - - [02/Nov/2018:10:17:14 +0000] "GET /robots.txt HTTP/1.1" 200 46 "-" "Mozilla/5.0 (compatible; YandexBot/3.0; +http://yandex.com/bots)"
37.9.113.42 - - [02/Nov/2018:10:17:17 +0000] "GET /xmlrpc.php?rsd HTTP/1.1" 200 318 "-" "Mozilla/5.0 (compatible; YandexBot/3.0; +http://yandex.com/bots)"
178.154.244.10 - - [02/Nov/2018:10:25:21 +0000] "GET /wp-includes/wlwmanifest.xml HTTP/1.1" 200 503 "-" "Mozilla/5.0 (compatible; YandexBot/3.0; +http://yandex.com/bots)"
31.170.123.73 - - [02/Nov/2018:10:44:27 +0000] "POST /wp-cron.php?doing_wp_cron=1541155467.1499590873718261718750 HTTP/1.0" 200 0 "-" "WordPress/4.3.17; http://www.ikbensterdam.com"
97.74.228.245 - - [02/Nov/2018:10:44:27 +0000] "POST /xmlrpc.php HTTP/1.1" 200 403 "-" "Mozilla/5.0 (Macintosh; U; Intel Mac OS X 10.6; fr; rv:1.9.2.8) Gecko/20100722 Firefox/3.6.8"
31.170.123.73 - - [02/Nov/2018:11:45:42 +0000] "POST /wp-cron.php?doing_wp_cron=1541159141.9299190044403076171875 HTTP/1.0" 200 0 "-" "WordPress/4.3.17; http://www.ikbensterdam.com"
51.158.25.47 - - [02/Nov/2018:11:45:42 +0000] "GET /wp-content/uploads/2018/10/mod_config.php HTTP/1.1" 301 5 "-" "Mozilla/5.0 (Windows NT 6.1.7600; WOW64; rv:26.0) Gecko/20100101 Firefox/26.0"
51.158.25.47 - - [02/Nov/2018:11:45:43 +0000] "GET /wp-content/uploads/2018/10/mod_config.php HTTP/1.1" 404 8917 "-" "Mozilla/5.0 (Windows NT 6.1.7600; WOW64; rv:26.0) Gecko/20100101 Firefox/26.0"
31.170.123.73 - - [02/Nov/2018:12:35:26 +0000] "POST /wp-cron.php?doing_wp_cron=1541162125.7898490428924560546875 HTTP/1.0" 200 0 "-" "WordPress/4.3.17; http://www.ikbensterdam.com"
209.17.96.226 - - [02/Nov/2018:12:35:26 +0000] "GET / HTTP/1.1" 301 5 "-" "Mozilla/5.0 (compatible; Nimbostratus-Bot/v1.3.2; http://cloudsystemnetworks.com)"
89.248.169.130 - - [02/Nov/2018:12:55:26 +0000] "POST /xmlrpc.php HTTP/1.1" 200 403 "-" "Mozilla/5.0 (Macintosh; U; Intel Mac OS X 10.6; fr; rv:1.9.2.8) Gecko/20100722 Firefox/3.6.8"
31.170.123.73 - - [02/Nov/2018:12:55:26 +0000] "POST /wp-cron.php?doing_wp_cron=1541163326.1653079986572265625000 HTTP/1.0" 200 0 "-" "WordPress/4.3.17; http://www.ikbensterdam.com"
89.248.169.130 - - [02/Nov/2018:12:55:26 +0000] "POST /xmlrpc.php HTTP/1.1" 200 403 "-" "Mozilla/5.0 (Macintosh; U; Intel Mac OS X 10.6; fr; rv:1.9.2.8) Gecko/20100722 Firefox/3.6.8"
89.248.169.130 - - [02/Nov/2018:12:55:27 +0000] "POST /xmlrpc.php HTTP/1.1" 200 403 "-" "Mozilla/5.0 (Macintosh; U; Intel Mac OS X 10.6; fr; rv:1.9.2.8) Gecko/20100722 Firefox/3.6.8"
89.248.169.130 - - [02/Nov/2018:12:55:29 +0000] "POST /xmlrpc.php HTTP/1.1" 200 403 "-" "Mozilla/5.0 (Macintosh; U; Intel Mac OS X 10.6; fr; rv:1.9.2.8) Gecko/20100722 Firefox/3.6.8"
18.188.131.147 - - [02/Nov/2018:13:07:38 +0000] "GET /wp-login.php HTTP/1.1" 200 1787 "https://www.google.com/url?48c1bb7daf35faf37570d1bad88963f8" "Mozilla/5.0 (Windows NT 6.1; rv:33.0) Gecko/20100101 Firefox/33.0"
18.188.131.147 - - [02/Nov/2018:13:07:42 +0000] "POST /wp-login.php HTTP/1.1" 200 2209 "https://www.google.com/url?48c1bb7daf35faf37570d1bad88963f8" "Mozilla/5.0 (Windows NT 6.1; rv:33.0) Gecko/20100101 Firefox/33.0"
97.74.228.245 - - [02/Nov/2018:13:15:03 +0000] "POST /xmlrpc.php HTTP/1.1" 200 403 "-" "Mozilla/5.0 (Macintosh; U; Intel Mac OS X 10.6; fr; rv:1.9.2.8) Gecko/20100722 Firefox/3.6.8"
31.170.123.73 - - [02/Nov/2018:14:33:57 +0000] "POST /wp-cron.php?doing_wp_cron=1541169237.0798819065093994140625 HTTP/1.0" 200 0 "-" "WordPress/4.3.17; http://www.ikbensterdam.com"
180.76.15.26 - - [02/Nov/2018:14:33:58 +0000] "GET /shop/ HTTP/1.1" 200 10243 "-" "Mozilla/5.0 (compatible; Baiduspider/2.0; +http://www.baidu.com/search/spider.html)"
31.170.123.73 - - [02/Nov/2018:15:11:39 +0000] "POST /wp-cron.php?doing_wp_cron=1541171499.0029981136322021484375 HTTP/1.0" 200 0 "-" "WordPress/4.3.17; http://www.ikbensterdam.com"
80.90.55.169 - - [02/Nov/2018:15:11:39 +0000] "HEAD / HTTP/1.1" 200 0 "-" "Mozilla/5.0 (compatible; Uptimebot/1.0; +http://www.uptime.com/uptimebot)"
141.196.134.233 - - [02/Nov/2018:15:18:26 +0000] "POST /wp-login.php HTTP/1.1" 200 8086 "-" "Opera/9.80 (Windows NT 6.0) Presto/2.12.388 Version/12.14"
97.74.228.245 - - [02/Nov/2018:15:30:35 +0000] "POST /xmlrpc.php HTTP/1.1" 200 403 "-" "Mozilla/5.0 (Macintosh; U; Intel Mac OS X 10.6; fr; rv:1.9.2.8) Gecko/20100722 Firefox/3.6.8"
178.154.171.76 - - [02/Nov/2018:15:31:32 +0000] "GET /robots.txt HTTP/1.1" 200 46 "-" "Mozilla/5.0 (compatible; YandexBot/3.0; +http://yandex.com/bots)"
95.108.181.113 - - [02/Nov/2018:15:31:36 +0000] "GET / HTTP/1.1" 200 12080 "-" "Mozilla/5.0 (compatible; YandexBot/3.0; +http://yandex.com/bots)"
178.154.171.84 - - [02/Nov/2018:15:31:40 +0000] "GET /?p=1 HTTP/1.1" 301 5 "-" "Mozilla/5.0 (compatible; YandexBot/3.0; +http://yandex.com/bots)"
37.9.113.181 - - [02/Nov/2018:15:32:06 +0000] "GET /hello-world/ HTTP/1.1" 200 10008 "-" "Mozilla/5.0 (compatible; YandexBot/3.0; +http://yandex.com/bots)"
31.170.123.73 - - [02/Nov/2018:16:19:30 +0000] "POST /wp-cron.php?doing_wp_cron=1541175569.5202190876007080078125 HTTP/1.0" 200 0 "-" "WordPress/4.3.17; http://www.ikbensterdam.com"
123.57.254.142 - - [02/Nov/2018:16:19:30 +0000] "POST /xmlrpc.php HTTP/1.1" 200 403 "-" "Mozilla/5.0 (Macintosh; U; Intel Mac OS X 10.6; fr; rv:1.9.2.8) Gecko/20100722 Firefox/3.6.8"
123.57.254.142 - - [02/Nov/2018:16:19:30 +0000] "POST /xmlrpc.php HTTP/1.1" 200 403 "-" "Mozilla/5.0 (Macintosh; U; Intel Mac OS X 10.6; fr; rv:1.9.2.8) Gecko/20100722 Firefox/3.6.8"
87.244.9.221 - - [02/Nov/2018:16:29:00 +0000] "POST /wp-login.php HTTP/1.1" 200 8086 "-" "Opera/9.80 (Windows NT 6.0) Presto/2.12.388 Version/12.14"
31.170.123.73 - - [02/Nov/2018:17:30:58 +0000] "POST /wp-cron.php?doing_wp_cron=1541179857.9875309467315673828125 HTTP/1.0" 200 0 "-" "WordPress/4.3.17; http://www.ikbensterdam.com"
34.211.202.90 - - [02/Nov/2018:17:30:58 +0000] "GET /wp-login.php HTTP/1.1" 200 1787 "https://www.google.com/url?48c1bb7daf35faf37570d1bad88963f8" "Mozilla/5.0 (Windows NT 5.1; rv:33.0) Gecko/20100101 Firefox/33.0"
34.211.202.90 - - [02/Nov/2018:17:30:59 +0000] "POST /wp-login.php HTTP/1.1" 200 2209 "https://www.google.com/url?48c1bb7daf35faf37570d1bad88963f8" "Mozilla/5.0 (Windows NT 5.1; rv:33.0) Gecko/20100101 Firefox/33.0"
97.74.228.245 - - [02/Nov/2018:17:45:43 +0000] "POST /xmlrpc.php HTTP/1.1" 200 403 "-" "Mozilla/5.0 (Macintosh; U; Intel Mac OS X 10.6; fr; rv:1.9.2.8) Gecko/20100722 Firefox/3.6.8"
31.170.123.73 - - [02/Nov/2018:19:58:27 +0000] "POST /wp-cron.php?doing_wp_cron=1541188706.2189838886260986328125 HTTP/1.0" 499 0 "-" "WordPress/4.3.17; http://www.ikbensterdam.com"
97.74.228.245 - - [02/Nov/2018:19:58:27 +0000] "POST /xmlrpc.php HTTP/1.1" 200 403 "-" "Mozilla/5.0 (Macintosh; U; Intel Mac OS X 10.6; fr; rv:1.9.2.8) Gecko/20100722 Firefox/3.6.8"
89.248.169.130 - - [02/Nov/2018:21:11:42 +0000] "POST /xmlrpc.php HTTP/1.1" 200 403 "-" "Mozilla/5.0 (Macintosh; U; Intel Mac OS X 10.6; fr; rv:1.9.2.8) Gecko/20100722 Firefox/3.6.8"
31.170.123.73 - - [02/Nov/2018:21:11:42 +0000] "POST /wp-cron.php?doing_wp_cron=1541193102.2814230918884277343750 HTTP/1.0" 200 0 "-" "WordPress/4.3.17; http://www.ikbensterdam.com"
89.248.169.130 - - [02/Nov/2018:21:11:42 +0000] "POST /xmlrpc.php HTTP/1.1" 200 403 "-" "Mozilla/5.0 (Macintosh; U; Intel Mac OS X 10.6; fr; rv:1.9.2.8) Gecko/20100722 Firefox/3.6.8"
89.248.169.130 - - [02/Nov/2018:21:11:42 +0000] "POST /xmlrpc.php HTTP/1.1" 200 403 "-" "Mozilla/5.0 (Macintosh; U; Intel Mac OS X 10.6; fr; rv:1.9.2.8) Gecko/20100722 Firefox/3.6.8"
89.248.169.130 - - [02/Nov/2018:21:11:43 +0000] "POST /xmlrpc.php HTTP/1.1" 200 403 "-" "Mozilla/5.0 (Macintosh; U; Intel Mac OS X 10.6; fr; rv:1.9.2.8) Gecko/20100722 Firefox/3.6.8"
220.164.2.91 - - [02/Nov/2018:21:18:24 +0000] "POST /wp-login.php HTTP/1.1" 200 8086 "-" "Opera/9.80 (Windows NT 6.0) Presto/2.12.388 Version/12.14"
120.35.38.212 - - [02/Nov/2018:21:40:31 +0000] "HEAD /wp-content/themes/twentyseventeen/comments.php HTTP/1.1" 404 0 "-" "-"
31.170.123.73 - - [02/Nov/2018:22:08:37 +0000] "POST /wp-cron.php?doing_wp_cron=1541196516.7500989437103271484375 HTTP/1.0" 200 0 "-" "WordPress/4.3.17; http://www.ikbensterdam.com"
97.74.228.245 - - [02/Nov/2018:22:08:37 +0000] "POST /xmlrpc.php HTTP/1.1" 200 403 "-" "Mozilla/5.0 (Macintosh; U; Intel Mac OS X 10.6; fr; rv:1.9.2.8) Gecko/20100722 Firefox/3.6.8"
31.170.123.73 - - [02/Nov/2018:22:11:36 +0000] "POST /wp-cron.php?doing_wp_cron=1541196695.7713129520416259765625 HTTP/1.0" 200 0 "-" "WordPress/4.3.17; http://www.ikbensterdam.com"
209.90.225.82 - - [02/Nov/2018:22:11:36 +0000] "GET /modules/namamodule/uploadimage.php HTTP/1.1" 404 8912 "http://www.ikbensterdam.com/modules/namamodule/uploadimage.php" "Mozilla/5.0 (Windows NT 6.1; WOW64) AppleWebKit/537.36 (KHTML, like Gecko) Chrome/42.0.2311.152 Safari/537.36"
31.170.123.73 - - [02/Nov/2018:22:25:35 +0000] "POST /wp-cron.php?doing_wp_cron=1541197534.9158980846405029296875 HTTP/1.0" 200 0 "-" "WordPress/4.3.17; http://www.ikbensterdam.com"
113.161.81.31 - - [02/Nov/2018:22:25:35 +0000] "POST /wp-login.php HTTP/1.1" 200 8086 "-" "Opera/9.80 (Windows NT 6.0) Presto/2.12.388 Version/12.14"
147.135.11.234 - - [02/Nov/2018:22:32:50 +0000] "GET / HTTP/1.1" 301 5 "-" "python-requests/2.18.4"
147.135.11.234 - - [02/Nov/2018:22:32:52 +0000] "GET / HTTP/1.1" 200 12080 "-" "python-requests/2.18.4"
147.135.11.234 - - [02/Nov/2018:22:32:54 +0000] "GET //adminer.php HTTP/1.1" 301 5 "-" "python-requests/2.18.4"
147.135.11.234 - - [02/Nov/2018:22:32:55 +0000] "GET /adminer.php HTTP/1.1" 404 8901 "-" "python-requests/2.18.4"
31.170.123.73 - - [02/Nov/2018:23:10:41 +0000] "POST /wp-cron.php?doing_wp_cron=1541200240.9018199443817138671875 HTTP/1.0" 200 0 "-" "WordPress/4.3.17; http://www.ikbensterdam.com"
198.199.100.240 - - [02/Nov/2018:23:10:41 +0000] "GET /login.php?login=cmd HTTP/1.1" 301 5 "ikbensterdam.com" "Mozilla/5.1 (Windows NT 6.0; WOW64) AppleWebKit/537.37 (KHTML, like Gecko) Chrome/58.0.1145.75 Safari/537.37"
198.199.100.240 - - [02/Nov/2018:23:10:43 +0000] "GET /login.php?login=cmd HTTP/1.1" 404 35222 "ikbensterdam.com" "Mozilla/5.1 (Windows NT 6.0; WOW64) AppleWebKit/537.37 (KHTML, like Gecko) Chrome/58.0.1145.75 Safari/537.37"
195.154.118.41 - - [02/Nov/2018:23:16:11 +0000] "GET /wp-content/wp-object-cache.php?ver=123 HTTP/1.1" 301 5 "ikbensterdam.com" "en.support.wordpress.com"
195.154.118.41 - - [02/Nov/2018:23:16:11 +0000] "GET /wp-content/wp-object-cache.php?ver=123 HTTP/1.1" 404 35309 "ikbensterdam.com" "en.support.wordpress.com"
31.170.123.73 - - [03/Nov/2018:00:16:29 +0000] "POST /wp-cron.php?doing_wp_cron=1541204188.5476469993591308593750 HTTP/1.0" 200 0 "-" "WordPress/4.3.17; http://www.ikbensterdam.com"
97.74.228.245 - - [03/Nov/2018:00:16:29 +0000] "POST /xmlrpc.php HTTP/1.1" 200 403 "-" "Mozilla/5.0 (Macintosh; U; Intel Mac OS X 10.6; fr; rv:1.9.2.8) Gecko/20100722 Firefox/3.6.8"
31.170.123.73 - - [03/Nov/2018:01:00:51 +0000] "POST /wp-cron.php?doing_wp_cron=1541206850.7574410438537597656250 HTTP/1.0" 200 0 "-" "WordPress/4.3.17; http://www.ikbensterdam.com"
193.169.252.91 - - [03/Nov/2018:01:00:51 +0000] "GET / HTTP/1.1" 301 0 "-" "Mozilla/5.0 (compatible; MSIE 9.0; Windows NT 6.1; Trident/5.0)"
193.169.252.91 - - [03/Nov/2018:01:00:52 +0000] "GET / HTTP/1.1" 200 48696 "-" "Mozilla/5.0 (compatible; MSIE 9.0; Windows NT 6.1; Trident/5.0)"
193.169.252.91 - - [03/Nov/2018:01:00:53 +0000] "POST /wp-content/plugins/Login-wall-etgFB/login_wall.php?login=cmd&z3=c2ZuLnBocA%3D%3D&z4=L3dwLWNvbnRlbnQvcGx1Z2lucy8%3d HTTP/1.1" 404 35614 "-" "Mozilla/5.0 (compatible; MSIE 9.0; Windows NT 6.1; Trident/5.0)"
193.169.252.91 - - [03/Nov/2018:01:00:54 +0000] "POST / HTTP/1.1" 200 48704 "-" "Mozilla/5.0 (compatible; MSIE 9.0; Windows NT 6.1; Trident/5.0)"
193.169.252.91 - - [03/Nov/2018:01:00:54 +0000] "GET /wp-content/uploads/sfn.php HTTP/1.1" 301 0 "-" "Mozilla/5.0 (compatible; MSIE 9.0; Windows NT 6.1; Trident/5.0)"
193.169.252.91 - - [03/Nov/2018:01:00:56 +0000] "POST /wp-admin/admin-ajax.php HTTP/1.1" 200 54 "-" "Mozilla/5.0 (compatible; MSIE 9.0; Windows NT 6.1; Trident/5.0)"
193.169.252.91 - - [03/Nov/2018:01:00:57 +0000] "GET /wp-content/plugins/revslider/temp/update_extract/sfn.php HTTP/1.1" 301 5 "-" "Mozilla/5.0 (compatible; MSIE 9.0; Windows NT 6.1; Trident/5.0)"
193.169.252.91 - - [03/Nov/2018:01:00:57 +0000] "GET /wp-content/plugins/revslider/sfn.php HTTP/1.1" 301 5 "-" "Mozilla/5.0 (compatible; MSIE 9.0; Windows NT 6.1; Trident/5.0)"
193.169.252.91 - - [03/Nov/2018:01:00:58 +0000] "POST /license.php HTTP/1.1" 404 35190 "-" "Mozilla/5.0 (compatible; MSIE 9.0; Windows NT 6.1; Trident/5.0)"
193.169.252.91 - - [03/Nov/2018:01:00:59 +0000] "POST /uploadify/uploadify.php?folder=/ HTTP/1.1" 404 35286 "-" "Mozilla/5.0 (compatible; MSIE 9.0; Windows NT 6.1; Trident/5.0)"
193.169.252.91 - - [03/Nov/2018:01:01:00 +0000] "POST /tiny_mce/plugins/tinybrowser/upload_file.php?folder=/&type=file&feid=&obfuscate=&sessidpass= HTTP/1.1" 404 35529 "-" "Mozilla/5.0 (compatible; MSIE 9.0; Windows NT 6.1; Trident/5.0)"
193.169.252.91 - - [03/Nov/2018:01:01:00 +0000] "GET /sfn.php HTTP/1.1" 301 5 "-" "Mozilla/5.0 (compatible; MSIE 9.0; Windows NT 6.1; Trident/5.0)"
193.169.252.91 - - [03/Nov/2018:01:01:01 +0000] "POST /sites/all/libraries/elfinder/php/connector.minimal.php HTTP/1.1" 404 35389 "-" "Mozilla/5.0 (compatible; MSIE 9.0; Windows NT 6.1; Trident/5.0)"
193.169.252.91 - - [03/Nov/2018:01:01:02 +0000] "POST /wp-content/plugins/jquery-html5-file-upload/jquery-html5-file-upload.php HTTP/1.1" 404 35446 "-" "Mozilla/5.0 (compatible; MSIE 9.0; Windows NT 6.1; Trident/5.0)"
193.169.252.91 - - [03/Nov/2018:01:01:02 +0000] "POST /wp-content/plugins/woocommerce-product-options/includes/image-upload.php HTTP/1.1" 404 35449 "-" "Mozilla/5.0 (compatible; MSIE 9.0; Windows NT 6.1; Trident/5.0)"
193.169.252.91 - - [03/Nov/2018:01:01:03 +0000] "POST /modules/mod_simplefileuploadv1.3/elements/udd.php HTTP/1.1" 404 35361 "-" "Mozilla/5.0 (compatible; MSIE 9.0; Windows NT 6.1; Trident/5.0)"
193.169.252.91 - - [03/Nov/2018:01:01:04 +0000] "GET /?feed=rss2 HTTP/1.1" 301 5 "-" "Mozilla/5.0 (compatible; MSIE 9.0; Windows NT 6.1; Trident/5.0)"
193.169.252.91 - - [03/Nov/2018:01:01:04 +0000] "GET /feed/ HTTP/1.1" 200 25931 "-" "Mozilla/5.0 (compatible; MSIE 9.0; Windows NT 6.1; Trident/5.0)"
193.169.252.91 - - [03/Nov/2018:01:01:05 +0000] "GET /wp-login.php HTTP/1.1" 200 7092 "-" "Mozilla/5.0 (compatible; MSIE 9.0; Windows NT 6.1; Trident/5.0)"
193.169.252.91 - - [03/Nov/2018:01:01:06 +0000] "POST /wp-login.php HTTP/1.1" 200 8028 "-" "Mozilla/5.0 (compatible; MSIE 9.0; Windows NT 6.1; Trident/5.0)"
193.169.252.91 - - [03/Nov/2018:01:01:06 +0000] "POST /wp-login.php HTTP/1.1" 200 8079 "-" "Mozilla/5.0 (compatible; MSIE 9.0; Windows NT 6.1; Trident/5.0)"
193.169.252.91 - - [03/Nov/2018:01:01:11 +0000] "POST /xmlrpc.php HTTP/1.1" 200 213331 "-" "Mozilla/5.0 (compatible; MSIE 9.0; Windows NT 6.1; Trident/5.0)"
193.169.252.91 - - [03/Nov/2018:01:01:16 +0000] "POST /xmlrpc.php HTTP/1.1" 200 213331 "-" "Mozilla/5.0 (compatible; MSIE 9.0; Windows NT 6.1; Trident/5.0)"
193.169.252.91 - - [03/Nov/2018:01:01:16 +0000] "POST /xmlrpc.php HTTP/1.1" 200 3183 "-" "Mozilla/5.0 (compatible; MSIE 9.0; Windows NT 6.1; Trident/5.0)"
193.169.252.91 - - [03/Nov/2018:01:01:17 +0000] "POST /wp-login.php HTTP/1.1" 200 8028 "-" "Mozilla/5.0 (compatible; MSIE 9.0; Windows NT 6.1; Trident/5.0)"
193.169.252.91 - - [03/Nov/2018:01:01:18 +0000] "POST /wp-login.php HTTP/1.1" 200 8028 "-" "Mozilla/5.0 (compatible; MSIE 9.0; Windows NT 6.1; Trident/5.0)"
193.169.252.91 - - [03/Nov/2018:01:01:18 +0000] "POST /wp-login.php HTTP/1.1" 200 8028 "-" "Mozilla/5.0 (compatible; MSIE 9.0; Windows NT 6.1; Trident/5.0)"
193.169.252.91 - - [03/Nov/2018:01:01:19 +0000] "POST /wp-login.php HTTP/1.1" 200 8028 "-" "Mozilla/5.0 (compatible; MSIE 9.0; Windows NT 6.1; Trident/5.0)"
193.169.252.91 - - [03/Nov/2018:01:01:20 +0000] "POST /wp-login.php HTTP/1.1" 200 8028 "-" "Mozilla/5.0 (compatible; MSIE 9.0; Windows NT 6.1; Trident/5.0)"
193.169.252.91 - - [03/Nov/2018:01:01:20 +0000] "POST /wp-login.php HTTP/1.1" 200 8028 "-" "Mozilla/5.0 (compatible; MSIE 9.0; Windows NT 6.1; Trident/5.0)"
193.169.252.91 - - [03/Nov/2018:01:01:21 +0000] "POST /wp-login.php HTTP/1.1" 200 8028 "-" "Mozilla/5.0 (compatible; MSIE 9.0; Windows NT 6.1; Trident/5.0)"
193.169.252.91 - - [03/Nov/2018:01:01:22 +0000] "POST /wp-login.php HTTP/1.1" 200 8028 "-" "Mozilla/5.0 (compatible; MSIE 9.0; Windows NT 6.1; Trident/5.0)"
193.169.252.91 - - [03/Nov/2018:01:01:22 +0000] "POST /wp-login.php HTTP/1.1" 200 8028 "-" "Mozilla/5.0 (compatible; MSIE 9.0; Windows NT 6.1; Trident/5.0)"
193.169.252.91 - - [03/Nov/2018:01:01:23 +0000] "POST /wp-login.php HTTP/1.1" 200 8028 "-" "Mozilla/5.0 (compatible; MSIE 9.0; Windows NT 6.1; Trident/5.0)"
193.169.252.91 - - [03/Nov/2018:01:01:24 +0000] "POST /wp-login.php HTTP/1.1" 200 8028 "-" "Mozilla/5.0 (compatible; MSIE 9.0; Windows NT 6.1; Trident/5.0)"
193.169.252.91 - - [03/Nov/2018:01:01:25 +0000] "POST /wp-login.php HTTP/1.1" 200 8028 "-" "Mozilla/5.0 (compatible; MSIE 9.0; Windows NT 6.1; Trident/5.0)"
193.169.252.91 - - [03/Nov/2018:01:01:25 +0000] "POST /wp-login.php HTTP/1.1" 200 8028 "-" "Mozilla/5.0 (compatible; MSIE 9.0; Windows NT 6.1; Trident/5.0)"
193.169.252.91 - - [03/Nov/2018:01:01:26 +0000] "POST /wp-login.php HTTP/1.1" 200 8028 "-" "Mozilla/5.0 (compatible; MSIE 9.0; Windows NT 6.1; Trident/5.0)"
193.169.252.91 - - [03/Nov/2018:01:01:27 +0000] "POST /wp-login.php HTTP/1.1" 200 8028 "-" "Mozilla/5.0 (compatible; MSIE 9.0; Windows NT 6.1; Trident/5.0)"
193.169.252.91 - - [03/Nov/2018:01:01:27 +0000] "POST /wp-login.php HTTP/1.1" 403 214 "-" "Mozilla/5.0 (compatible; MSIE 9.0; Windows NT 6.1; Trident/5.0)"
193.169.252.91 - - [03/Nov/2018:01:02:27 +0000] "POST /xmlrpc.php HTTP/1.1" 408 0 "-" "Mozilla/5.0 (compatible; MSIE 9.0; Windows NT 6.1; Trident/5.0)"
31.170.123.73 - - [03/Nov/2018:02:07:30 +0000] "POST /wp-cron.php?doing_wp_cron=1541210849.7947158813476562500000 HTTP/1.0" 200 0 "-" "WordPress/4.3.17; http://www.ikbensterdam.com"
180.76.15.5 - - [03/Nov/2018:02:07:30 +0000] "GET / HTTP/1.1" 301 5 "-" "Mozilla/5.0 (compatible; Baiduspider/2.0; +http://www.baidu.com/search/spider.html)"
180.76.15.156 - - [03/Nov/2018:02:07:31 +0000] "GET / HTTP/1.1" 200 12072 "-" "Mozilla/5.0 (compatible; Baiduspider/2.0; +http://www.baidu.com/search/spider.html)"
97.74.228.245 - - [03/Nov/2018:02:27:53 +0000] "POST /xmlrpc.php HTTP/1.1" 200 403 "-" "Mozilla/5.0 (Macintosh; U; Intel Mac OS X 10.6; fr; rv:1.9.2.8) Gecko/20100722 Firefox/3.6.8"
193.201.224.210 - - [03/Nov/2018:02:29:16 +0000] "GET /wp-content/plugins/reflex-gallery/admin/scripts/FileUploader/php.php HTTP/1.1" 301 5 "http://ikbensterdam.com/wp-content/plugins/reflex-gallery/admin/scripts/FileUploader/php.php" "Mozilla/5.0 (Windows NT 6.1; WOW64) AppleWebKit/537.36 (KHTML, like Gecko) Chrome/42.0.2311.152 Safari/537.36"
193.201.224.210 - - [03/Nov/2018:02:29:17 +0000] "GET /wp-content/plugins/reflex-gallery/admin/scripts/FileUploader/php.php HTTP/1.1" 404 8935 "http://ikbensterdam.com/wp-content/plugins/reflex-gallery/admin/scripts/FileUploader/php.php" "Mozilla/5.0 (Windows NT 6.1; WOW64) AppleWebKit/537.36 (KHTML, like Gecko) Chrome/42.0.2311.152 Safari/537.36"
180.76.15.140 - - [03/Nov/2018:02:40:48 +0000] "GET /wp-content/plugins/designthemes-core-features/page-builder/js/custom-public.js HTTP/1.1" 200 375 "-" "Mozilla/5.0 (compatible; Baiduspider/2.0; +http://www.baidu.com/search/spider.html)"
