80.90.55.168 - - [04/Nov/2018:03:00:54 +0000] "HEAD / HTTP/1.1" 301 0 "-" "Mozilla/5.0 (compatible; Uptimebot/1.0; +http://www.uptime.com/uptimebot)"
104.227.246.106 - - [04/Nov/2018:04:32:07 +0000] "GET / HTTP/1.1" 301 5 "-" "Mozilla/5.0 (Windows NT 6.1; WOW64) AppleWebKit/537.36 (KHTML, like Gecko) Chrome/34.0.1847.131 Safari/537.36"
37.187.26.42 - - [04/Nov/2018:07:08:29 +0000] "GET / HTTP/1.1" 301 5 "-" "Mozilla/5.0 (compatible; Googlebot/2.1; +http://www.google.com/bot.html)"
52.53.201.78 - - [04/Nov/2018:08:08:08 +0000] "GET / HTTP/1.1" 301 5 "-" "Mozilla/5.0 (Macintosh; Intel Mac OS X 10_12_6) AppleWebKit/537.36 (KHTML, like Gecko) Chrome/61.0.3163.100 Safari/537.36"
52.173.241.248 - - [04/Nov/2018:08:09:24 +0000] "GET / HTTP/1.1" 301 5 "-" "Mozilla/5.0 (Windows NT 10.0; Win64; x64) AppleWebKit/537.36 (KHTML, like Gecko) Chrome/64.0.3282.186 Safari/537.36"
31.170.123.73 - - [04/Nov/2018:09:03:45 +0000] "POST /wp-cron.php?doing_wp_cron=1541322224.7669169902801513671875 HTTP/1.1" 499 0 "http://magicbyafrica.com/wp-cron.php?doing_wp_cron=1541322224.7669169902801513671875" "WordPress/4.8.7; http://magicbyafrica.com"
54.188.237.192 - - [04/Nov/2018:09:03:45 +0000] "GET /wp-login.php HTTP/1.1" 200 1556 "https://www.google.com/url?ea6a4673af35e054fba356c46b5de485" "Mozilla/5.0 (Windows NT 5.1; rv:29.0) Gecko/20120101 Firefox/29.0"
54.188.237.192 - - [04/Nov/2018:09:03:48 +0000] "POST /wp-login.php HTTP/1.1" 200 1969 "https://www.google.com/url?ea6a4673af35e054fba356c46b5de485" "Mozilla/5.0 (Windows NT 5.1; rv:29.0) Gecko/20120101 Firefox/29.0"
194.99.106.147 - - [04/Nov/2018:11:01:52 +0000] "GET /?author=1 HTTP/1.1" 301 5 "-" "Mozilla/5.0 (Windows; U; Windows NT 2.0) Gecko/20091201 Firefox/3.5.6 GTB5"
194.99.106.147 - - [04/Nov/2018:11:01:55 +0000] "GET /?author=1 HTTP/1.1" 301 5 "-" "Mozilla/5.0 (Windows; U; Windows NT 2.0) Gecko/20091201 Firefox/3.5.6 GTB5"
194.99.106.147 - - [04/Nov/2018:11:02:04 +0000] "GET /?author=1 HTTP/1.1" 301 5 "-" "Mozilla/5.0 (Windows; U; Windows NT 2.0) Gecko/20091201 Firefox/3.5.6 GTB5"
79.110.18.33 - - [04/Nov/2018:11:02:17 +0000] "GET /?author=1 HTTP/1.1" 301 5 "-" "Mozilla/5.0 (Windows; U; Windows NT 2.0) Gecko/20091201 Firefox/3.5.6 GTB5"
194.99.106.147 - - [04/Nov/2018:11:02:29 +0000] "GET /?author=2 HTTP/1.1" 301 5 "-" "Mozilla/5.0 (Windows; U; Windows NT 2.0) Gecko/20091201 Firefox/3.5.6 GTB5"
194.99.106.147 - - [04/Nov/2018:11:02:37 +0000] "GET /?author=2 HTTP/1.1" 301 5 "-" "Mozilla/5.0 (Windows; U; Windows NT 2.0) Gecko/20091201 Firefox/3.5.6 GTB5"
194.99.106.147 - - [04/Nov/2018:11:02:40 +0000] "GET /?author=2 HTTP/1.1" 301 5 "-" "Mozilla/5.0 (Windows; U; Windows NT 2.0) Gecko/20091201 Firefox/3.5.6 GTB5"
5.188.216.144 - - [04/Nov/2018:11:02:53 +0000] "GET /?author=2 HTTP/1.1" 301 5 "-" "Mozilla/5.0 (Windows; U; Windows NT 2.0) Gecko/20091201 Firefox/3.5.6 GTB5"
194.99.106.147 - - [04/Nov/2018:11:02:59 +0000] "GET /?author=3 HTTP/1.1" 301 5 "-" "Mozilla/5.0 (Windows; U; Windows NT 2.0) Gecko/20091201 Firefox/3.5.6 GTB5"
194.99.106.147 - - [04/Nov/2018:11:03:04 +0000] "GET /?author=3 HTTP/1.1" 301 5 "-" "Mozilla/5.0 (Windows; U; Windows NT 2.0) Gecko/20091201 Firefox/3.5.6 GTB5"
194.99.106.147 - - [04/Nov/2018:11:03:13 +0000] "GET /?author=3 HTTP/1.1" 301 5 "-" "Mozilla/5.0 (Windows; U; Windows NT 2.0) Gecko/20091201 Firefox/3.5.6 GTB5"
46.161.58.168 - - [04/Nov/2018:11:03:25 +0000] "GET /?author=3 HTTP/1.1" 301 5 "-" "Mozilla/5.0 (Windows; U; Windows NT 2.0) Gecko/20091201 Firefox/3.5.6 GTB5"
194.99.106.147 - - [04/Nov/2018:11:03:35 +0000] "GET /?author=4 HTTP/1.1" 301 5 "-" "Mozilla/5.0 (Windows; U; Windows NT 2.0) Gecko/20091201 Firefox/3.5.6 GTB5"
194.99.106.147 - - [04/Nov/2018:11:03:43 +0000] "GET /?author=4 HTTP/1.1" 301 5 "-" "Mozilla/5.0 (Windows; U; Windows NT 2.0) Gecko/20091201 Firefox/3.5.6 GTB5"
194.99.106.147 - - [04/Nov/2018:11:03:54 +0000] "GET /?author=4 HTTP/1.1" 301 5 "-" "Mozilla/5.0 (Windows; U; Windows NT 2.0) Gecko/20091201 Firefox/3.5.6 GTB5"
185.14.195.226 - - [04/Nov/2018:11:04:12 +0000] "GET /?author=4 HTTP/1.1" 301 5 "-" "Mozilla/5.0 (Windows; U; Windows NT 2.0) Gecko/20091201 Firefox/3.5.6 GTB5"
194.99.106.147 - - [04/Nov/2018:11:04:17 +0000] "GET /?author=5 HTTP/1.1" 301 5 "-" "Mozilla/5.0 (Windows; U; Windows NT 2.0) Gecko/20091201 Firefox/3.5.6 GTB5"
194.99.106.147 - - [04/Nov/2018:11:04:24 +0000] "GET /?author=5 HTTP/1.1" 301 5 "-" "Mozilla/5.0 (Windows; U; Windows NT 2.0) Gecko/20091201 Firefox/3.5.6 GTB5"
194.99.106.147 - - [04/Nov/2018:11:04:36 +0000] "GET /?author=5 HTTP/1.1" 301 5 "-" "Mozilla/5.0 (Windows; U; Windows NT 2.0) Gecko/20091201 Firefox/3.5.6 GTB5"
194.99.106.147 - - [04/Nov/2018:11:04:58 +0000] "GET /author/admin/ HTTP/1.1" 404 50360 "-" "Mozilla/5.0 (Windows; U; Windows NT 2.0) Gecko/20091201 Firefox/3.5.6 GTB5"
194.99.106.147 - - [04/Nov/2018:11:04:58 +0000] "GET /author/admin/ HTTP/1.1" 404 50310 "-" "Mozilla/5.0 (Windows; U; Windows NT 2.0) Gecko/20091201 Firefox/3.5.6 GTB5"
46.161.59.126 - - [04/Nov/2018:11:04:59 +0000] "GET /author/admin/ HTTP/1.1" 404 50382 "-" "Mozilla/5.0 (Windows; U; Windows NT 2.0) Gecko/20091201 Firefox/3.5.6 GTB5"
31.170.123.73 - - [04/Nov/2018:17:08:36 +0000] "POST /wp-cron.php?doing_wp_cron=1541351315.0400838851928710937500 HTTP/1.1" 499 0 "http://magicbyafrica.com/wp-cron.php?doing_wp_cron=1541351315.0400838851928710937500" "WordPress/4.8.7; http://magicbyafrica.com"
66.249.69.24 - - [04/Nov/2018:17:08:36 +0000] "GET /robots.txt HTTP/1.1" 200 92 "-" "Mozilla/5.0 (compatible; Googlebot/2.1; +http://www.google.com/bot.html)"
66.249.69.26 - - [04/Nov/2018:17:09:00 +0000] "GET / HTTP/1.1" 301 5 "-" "Mozilla/5.0 (compatible; Googlebot/2.1; +http://www.google.com/bot.html)"
