34.210.223.121 - - [31/Oct/2018:05:25:51 +0000] "GET /wp-login.php HTTP/1.0" 200 2242 "https://www.google.com/url?5d6c8f725d83672c7c6a5d7ecd21bc6a" "Mozilla/5.0 (Windows NT 6.2; rv:33.0) Gecko/20100101 Firefox/33.0"
34.210.223.121 - - [31/Oct/2018:05:25:53 +0000] "POST /wp-login.php HTTP/1.0" 200 3198 "https://www.google.com/url?5d6c8f725d83672c7c6a5d7ecd21bc6a" "Mozilla/5.0 (Windows NT 6.2; rv:33.0) Gecko/20100101 Firefox/33.0"
31.170.123.73 - - [31/Oct/2018:05:25:52 +0000] "POST /wp-cron.php?doing_wp_cron=1540963552.3202359676361083984375 HTTP/1.0" 200 - "http://royalgeekness.com/wp-cron.php?doing_wp_cron=1540963552.3202359676361083984375" "WordPress/4.9.8; http://royalgeekness.com"
31.170.123.73 - - [31/Oct/2018:08:18:13 +0000] "POST /wp-cron.php?doing_wp_cron=1540973893.0171000957489013671875 HTTP/1.0" 200 - "http://royalgeekness.com/wp-cron.php?doing_wp_cron=1540973893.0171000957489013671875" "WordPress/4.9.8; http://royalgeekness.com"
103.244.168.110 - - [31/Oct/2018:08:18:12 +0000] "POST /wp-login.php HTTP/1.0" 200 3198 "-" "Opera/9.80 (Windows NT 6.0) Presto/2.12.388 Version/12.14"
31.170.123.73 - - [31/Oct/2018:09:09:26 +0000] "POST /wp-cron.php?doing_wp_cron=1540976966.8619909286499023437500 HTTP/1.0" 200 - "http://royalgeekness.com/wp-cron.php?doing_wp_cron=1540976966.8619909286499023437500" "WordPress/4.9.8; http://royalgeekness.com"
193.171.202.150 - - [31/Oct/2018:09:09:26 +0000] "POST /xmlrpc.php HTTP/1.0" 200 401 "-" "Mozilla/5.0 (Windows NT 6.2; WOW64) AppleWebKit/537.36 (KHTML, like Gecko) Chrome/27.0.1453.93 Safari/537.36"
31.170.123.73 - - [31/Oct/2018:12:29:06 +0000] "POST /wp-cron.php?doing_wp_cron=1540988946.2129321098327636718750 HTTP/1.0" 200 - "http://royalgeekness.com/wp-cron.php?doing_wp_cron=1540988946.2129321098327636718750" "WordPress/4.9.8; http://royalgeekness.com"
52.42.115.130 - - [31/Oct/2018:12:29:05 +0000] "GET /wp-login.php HTTP/1.0" 200 2242 "https://www.google.com/url?5d6c8f725d83672c7c6a5d7ecd21bc6a" "Mozilla/5.0 (Windows NT 5.1; WOW64; rv:28.0) Gecko/20100101 Firefox/28.0"
52.42.115.130 - - [31/Oct/2018:12:29:10 +0000] "POST /wp-login.php HTTP/1.0" 200 3198 "https://www.google.com/url?5d6c8f725d83672c7c6a5d7ecd21bc6a" "Mozilla/5.0 (Windows NT 5.1; WOW64; rv:28.0) Gecko/20100101 Firefox/28.0"
5.45.74.17 - - [31/Oct/2018:15:17:31 +0000] "GET / HTTP/1.0" 200 5032 "-" "Mozilla/4.0 (compatible; MSIE 6.0; Windows NT 5.1; SV1)"
31.170.123.73 - - [31/Oct/2018:15:17:32 +0000] "POST /wp-cron.php?doing_wp_cron=1540999052.1577599048614501953125 HTTP/1.0" 200 246 "http://royalgeekness.com/wp-cron.php?doing_wp_cron=1540999052.1577599048614501953125" "WordPress/4.9.8; http://royalgeekness.com"
31.170.123.73 - - [31/Oct/2018:15:56:42 +0000] "POST /wp-cron.php?doing_wp_cron=1541001402.6736481189727783203125 HTTP/1.0" 200 - "http://royalgeekness.com/wp-cron.php?doing_wp_cron=1541001402.6736481189727783203125" "WordPress/4.9.8; http://royalgeekness.com"
69.12.66.241 - - [31/Oct/2018:15:56:42 +0000] "GET /wp-content/plugins/wp-option-tree/up.php HTTP/1.0" 404 5032 "http://royalgeekness.com/wp-content/plugins/wp-option-tree/up.php" "Mozilla/5.0 (Windows NT 6.1; WOW64) AppleWebKit/537.36 (KHTML, like Gecko) Chrome/42.0.2311.152 Safari/537.36"
128.199.194.131 - - [31/Oct/2018:15:57:01 +0000] "GET /wp-content/plugins/background-image-cropper/image/ico/seo_script.php HTTP/1.0" 404 5032 "royalgeekness.com" "Mozilla/5.1 (Windows NT 6.0; WOW64) AppleWebKit/537.37 (KHTML, like Gecko) Chrome/58.0.1145.75 Safari/537.37"
128.199.194.131 - - [31/Oct/2018:15:57:06 +0000] "GET /wp-content/uploads/2018/08/seo_script.php HTTP/1.0" 404 5032 "royalgeekness.com" "Mozilla/5.1 (Windows NT 6.0; WOW64) AppleWebKit/537.37 (KHTML, like Gecko) Chrome/58.0.1145.75 Safari/537.37"
128.199.194.131 - - [31/Oct/2018:15:59:23 +0000] "GET /assets/images/seo_script.php HTTP/1.0" 404 5032 "royalgeekness.com" "Mozilla/5.1 (Windows NT 6.0; WOW64) AppleWebKit/537.37 (KHTML, like Gecko) Chrome/58.0.1145.75 Safari/537.37"
128.199.194.131 - - [31/Oct/2018:16:02:19 +0000] "GET /wp-content/uploads/2018/08/seos.php HTTP/1.0" 404 5032 "royalgeekness.com" "Mozilla/5.1 (Windows NT 6.0; WOW64) AppleWebKit/537.37 (KHTML, like Gecko) Chrome/58.0.1145.75 Safari/537.37"
128.199.194.131 - - [31/Oct/2018:16:04:10 +0000] "GET /wp-content/uploads/2018/08/st.php HTTP/1.0" 404 5032 "royalgeekness.com" "Mozilla/5.1 (Windows NT 6.0; WOW64) AppleWebKit/537.37 (KHTML, like Gecko) Chrome/58.0.1145.75 Safari/537.37"
128.199.194.131 - - [31/Oct/2018:16:04:49 +0000] "GET /wp-content/themes/twentyeleven/seo_script.php HTTP/1.0" 404 5032 "royalgeekness.com" "Mozilla/5.1 (Windows NT 6.0; WOW64) AppleWebKit/537.37 (KHTML, like Gecko) Chrome/58.0.1145.75 Safari/537.37"
128.199.194.131 - - [31/Oct/2018:16:06:47 +0000] "GET /wp-content/themes/clean-commerce/test2.php HTTP/1.0" 404 5032 "royalgeekness.com" "Mozilla/5.1 (Windows NT 6.0; WOW64) AppleWebKit/537.37 (KHTML, like Gecko) Chrome/58.0.1145.75 Safari/537.37"
128.199.194.131 - - [31/Oct/2018:16:06:59 +0000] "GET /seos.php HTTP/1.0" 404 5032 "royalgeekness.com" "Mozilla/5.1 (Windows NT 6.0; WOW64) AppleWebKit/537.37 (KHTML, like Gecko) Chrome/58.0.1145.75 Safari/537.37"
193.201.224.210 - - [31/Oct/2018:18:33:20 +0000] "GET /wp-content/themes/Ghost/includes/uploadify/upload_settings_image.php HTTP/1.0" 404 5032 "http://royalgeekness.com/wp-content/themes/Ghost/includes/uploadify/upload_settings_image.php" "Mozilla/5.0 (Windows NT 6.1; WOW64) AppleWebKit/537.36 (KHTML, like Gecko) Chrome/42.0.2311.152 Safari/537.36"
31.170.123.73 - - [31/Oct/2018:18:33:20 +0000] "POST /wp-cron.php?doing_wp_cron=1541010800.8027839660644531250000 HTTP/1.0" 200 - "http://royalgeekness.com/wp-cron.php?doing_wp_cron=1541010800.8027839660644531250000" "WordPress/4.9.8; http://royalgeekness.com"
31.170.123.73 - - [31/Oct/2018:19:06:01 +0000] "POST /wp-cron.php?doing_wp_cron=1541012761.5823760032653808593750 HTTP/1.0" 200 - "http://royalgeekness.com/wp-cron.php?doing_wp_cron=1541012761.5823760032653808593750" "WordPress/4.9.8; http://royalgeekness.com"
180.76.15.146 - - [31/Oct/2018:19:06:01 +0000] "GET / HTTP/1.0" 301 - "-" "Mozilla/5.0 (compatible; Baiduspider/2.0; +http://www.baidu.com/search/spider.html)"
180.76.15.7 - - [31/Oct/2018:19:06:02 +0000] "GET / HTTP/1.0" 200 5032 "-" "Mozilla/5.0 (compatible; Baiduspider/2.0; +http://www.baidu.com/search/spider.html)"
31.170.123.73 - - [31/Oct/2018:21:25:08 +0000] "POST /wp-cron.php?doing_wp_cron=1541021108.7359030246734619140625 HTTP/1.0" 200 - "http://royalgeekness.com/wp-cron.php?doing_wp_cron=1541021108.7359030246734619140625" "WordPress/4.9.8; http://royalgeekness.com"
13.58.134.7 - - [31/Oct/2018:21:25:08 +0000] "GET /wp-login.php HTTP/1.0" 200 2242 "https://www.google.com/url?5d6c8f725d83672c7c6a5d7ecd21bc6a" "Mozilla/5.0 (Windows NT 5.1; rv:29.0) Gecko/20120101 Firefox/29.0"
13.58.134.7 - - [31/Oct/2018:21:25:09 +0000] "POST /wp-login.php HTTP/1.0" 200 3198 "https://www.google.com/url?5d6c8f725d83672c7c6a5d7ecd21bc6a" "Mozilla/5.0 (Windows NT 5.1; rv:29.0) Gecko/20120101 Firefox/29.0"
31.170.123.73 - - [31/Oct/2018:23:55:28 +0000] "POST /wp-cron.php?doing_wp_cron=1541030128.5032770633697509765625 HTTP/1.0" 200 - "http://royalgeekness.com/wp-cron.php?doing_wp_cron=1541030128.5032770633697509765625" "WordPress/4.9.8; http://royalgeekness.com"
34.254.225.229 - - [31/Oct/2018:23:55:27 +0000] "GET / HTTP/1.0" 200 5032 "-" "Mozilla/5.0 (X11; Ubuntu; Linux x86_64) AppleWebKit/537.36 (KHTML, like Gecko) Chrome/60.0.3112.101 Safari/537.36"
31.170.123.73 - - [01/Nov/2018:00:34:37 +0000] "POST /wp-cron.php?doing_wp_cron=1541032477.9801499843597412109375 HTTP/1.0" 200 - "http://royalgeekness.com/wp-cron.php?doing_wp_cron=1541032477.9801499843597412109375" "WordPress/4.9.8; http://royalgeekness.com"
51.158.25.61 - - [01/Nov/2018:00:34:37 +0000] "GET /wp-content/uploads/2018/10/mod_config.php HTTP/1.0" 404 5032 "-" "Mozilla/5.0 (Windows NT 6.1.7600; WOW64; rv:26.0) Gecko/20100101 Firefox/26.0"
46.36.35.96 - - [01/Nov/2018:00:41:43 +0000] "GET /wp-login.php HTTP/1.0" 200 2242 "-" "Mozilla/5.0 (Macintosh; Intel Mac OS X 10_13_3) AppleWebKit/604.5.6 (KHTML, like Gecko) Version/11.0.3 Safari/604.5.6"
46.36.35.96 - - [01/Nov/2018:00:41:45 +0000] "POST /wp-login.php HTTP/1.0" 200 2528 "-" "Mozilla/5.0 (Macintosh; Intel Mac OS X 10_13_3) AppleWebKit/604.5.6 (KHTML, like Gecko) Version/11.0.3 Safari/604.5.6"
31.170.123.73 - - [01/Nov/2018:02:25:38 +0000] "POST /wp-cron.php?doing_wp_cron=1541039138.5010740756988525390625 HTTP/1.0" 200 - "http://royalgeekness.com/wp-cron.php?doing_wp_cron=1541039138.5010740756988525390625" "WordPress/4.9.8; http://royalgeekness.com"
103.48.80.184 - - [01/Nov/2018:02:25:37 +0000] "GET /index.php?sort=cHJpbnQgbWQ1KDIxMzEyMyk7 HTTP/1.0" 301 - "royalgeekness.com" "Mozilla/5.0 (Windows NT 6.1; WOW64) AppleWebKit/537.36 (KHTML, like Gecko) Chrome/50.0.2661.75 Safari/537.36"
103.48.80.184 - - [01/Nov/2018:02:25:39 +0000] "GET /?sort=cHJpbnQgbWQ1KDIxMzEyMyk7 HTTP/1.0" 200 5032 "royalgeekness.com" "Mozilla/5.0 (Windows NT 6.1; WOW64) AppleWebKit/537.36 (KHTML, like Gecko) Chrome/50.0.2661.75 Safari/537.36"
31.170.123.73 - - [01/Nov/2018:02:56:29 +0000] "POST /wp-cron.php?doing_wp_cron=1541040989.7564909458160400390625 HTTP/1.0" 200 - "http://royalgeekness.com/wp-cron.php?doing_wp_cron=1541040989.7564909458160400390625" "WordPress/4.9.8; http://royalgeekness.com"
18.224.202.189 - - [01/Nov/2018:02:56:29 +0000] "GET /wp-login.php HTTP/1.0" 200 2242 "https://www.google.com/url?5d6c8f725d83672c7c6a5d7ecd21bc6a" "Mozilla/5.0 (Windows NT 6.0; rv:36.0) Gecko/20100101 Firefox/36.0"
18.224.202.189 - - [01/Nov/2018:02:56:30 +0000] "POST /wp-login.php HTTP/1.0" 200 3198 "https://www.google.com/url?5d6c8f725d83672c7c6a5d7ecd21bc6a" "Mozilla/5.0 (Windows NT 6.0; rv:36.0) Gecko/20100101 Firefox/36.0"
