52.173.241.248 - - [01/Nov/2018:03:27:49 +0000] "GET / HTTP/1.0" 301 - "-" "Mozilla/5.0 (Windows NT 6.1; WOW64; Trident/7.0; rv:11.0) like Gecko"
52.165.148.51 - - [01/Nov/2018:05:18:05 +0000] "GET / HTTP/1.0" 301 - "-" "Mozilla/5.0 (Windows NT 10.0; Win64; x64) AppleWebKit/537.36 (KHTML, like Gecko) Chrome/65.0.3325.181 Safari/537.36"
54.81.141.240 - - [01/Nov/2018:05:27:11 +0000] "GET /wp-login.php HTTP/1.0" 200 2422 "https://www.google.com/url?ea6a4673af35e054fba356c46b5de485" "Mozilla/5.0 (Windows NT 6.0; rv:31.0) Gecko/20100101 Firefox/31.0"
54.81.141.240 - - [01/Nov/2018:05:27:11 +0000] "POST /wp-login.php HTTP/1.0" 200 3369 "https://www.google.com/url?ea6a4673af35e054fba356c46b5de485" "Mozilla/5.0 (Windows NT 6.0; rv:31.0) Gecko/20100101 Firefox/31.0"
132.255.220.2 - - [01/Nov/2018:05:44:21 +0000] "GET /index.php?sort=cHJpbnQgbWQ1KDIxMzEyMyk7 HTTP/1.0" 301 - "magicbyafrica.com" "Mozilla/5.0 (Windows NT 6.1; WOW64) AppleWebKit/537.36 (KHTML, like Gecko) Chrome/50.0.2661.75 Safari/537.36"
132.255.220.2 - - [01/Nov/2018:05:44:32 +0000] "GET /?sort=cHJpbnQgbWQ1KDIxMzEyMyk7 HTTP/1.0" 301 - "magicbyafrica.com" "Mozilla/5.0 (Windows NT 6.1; WOW64) AppleWebKit/537.36 (KHTML, like Gecko) Chrome/50.0.2661.75 Safari/537.36"
52.165.148.51 - - [01/Nov/2018:06:58:33 +0000] "GET / HTTP/1.0" 301 - "-" "Mozilla/5.0 (Windows NT 10.0; Win64; x64) AppleWebKit/537.36 (KHTML, like Gecko) Chrome/65.0.3325.181 Safari/537.36"
54.188.237.192 - - [01/Nov/2018:10:27:59 +0000] "GET /wp-login.php HTTP/1.0" 200 2422 "https://www.google.com/url?ea6a4673af35e054fba356c46b5de485" "Mozilla/5.0 (Windows NT 6.2; rv:33.0) Gecko/20100101 Firefox/33.0"
54.188.237.192 - - [01/Nov/2018:10:28:12 +0000] "POST /wp-login.php HTTP/1.0" 200 3369 "https://www.google.com/url?ea6a4673af35e054fba356c46b5de485" "Mozilla/5.0 (Windows NT 6.2; rv:33.0) Gecko/20100101 Firefox/33.0"
194.99.106.147 - - [01/Nov/2018:11:48:44 +0000] "GET /wp-login.php HTTP/1.0" 200 2422 "-" "Mozilla/5.0 (Windows; U; Windows NT 2.0) Gecko/20091201 Firefox/3.5.6 GTB5"
31.170.123.73 - - [01/Nov/2018:11:48:44 +0000] "POST /wp-cron.php?doing_wp_cron=1541072924.7919349670410156250000 HTTP/1.0" 200 - "http://magicbyafrica.com/wp-cron.php?doing_wp_cron=1541072924.7919349670410156250000" "WordPress/4.8.7; http://magicbyafrica.com"
5.249.226.63 - - [01/Nov/2018:13:19:36 +0000] "GET /wp-content/themes/pridmag/db.php HTTP/1.0" 404 50025 "magicbyafrica.com" "Mozilla/5.0 (Windows NT 6.1; WOW64) AppleWebKit/537.36 (KHTML, like Gecko) Chrome/50.0.2661.75 Safari/537.36"
13.58.134.7 - - [01/Nov/2018:15:09:53 +0000] "GET /wp-login.php HTTP/1.0" 200 2422 "https://www.google.com/url?ea6a4673af35e054fba356c46b5de485" "Mozilla/5.0 (Windows NT 5.1; rv:36.0) Gecko/20100101 Firefox/36.0"
13.58.134.7 - - [01/Nov/2018:15:09:54 +0000] "POST /wp-login.php HTTP/1.0" 200 3369 "https://www.google.com/url?ea6a4673af35e054fba356c46b5de485" "Mozilla/5.0 (Windows NT 5.1; rv:36.0) Gecko/20100101 Firefox/36.0"
18.236.136.2 - - [01/Nov/2018:19:48:14 +0000] "GET /wp-login.php HTTP/1.0" 200 2422 "https://www.google.com/url?ea6a4673af35e054fba356c46b5de485" "Mozilla/5.0 (Windows NT 6.2; rv:31.0) Gecko/20100101 Firefox/31.0"
18.236.136.2 - - [01/Nov/2018:19:48:21 +0000] "POST /wp-login.php HTTP/1.0" 200 3369 "https://www.google.com/url?ea6a4673af35e054fba356c46b5de485" "Mozilla/5.0 (Windows NT 6.2; rv:31.0) Gecko/20100101 Firefox/31.0"
138.197.101.165 - - [01/Nov/2018:22:08:03 +0000] "GET / HTTP/1.0" 301 - "-" "Mozilla/5.0 (compatible; NetcraftSurveyAgent/1.0; +info@netcraft.com)"
18.222.142.209 - - [02/Nov/2018:00:15:09 +0000] "GET /wp-login.php HTTP/1.0" 200 2422 "https://www.google.com/url?ea6a4673af35e054fba356c46b5de485" "Mozilla/5.0 (Windows NT 6.1; WOW64; rv:29.0) Gecko/20120101 Firefox/29.0"
18.222.142.209 - - [02/Nov/2018:00:15:11 +0000] "POST /wp-login.php HTTP/1.0" 200 3369 "https://www.google.com/url?ea6a4673af35e054fba356c46b5de485" "Mozilla/5.0 (Windows NT 6.1; WOW64; rv:29.0) Gecko/20120101 Firefox/29.0"
31.170.123.73 - - [02/Nov/2018:00:15:09 +0000] "POST /wp-cron.php?doing_wp_cron=1541117709.9362959861755371093750 HTTP/1.0" 200 - "http://magicbyafrica.com/wp-cron.php?doing_wp_cron=1541117709.9362959861755371093750" "WordPress/4.8.7; http://magicbyafrica.com"
128.199.194.131 - - [02/Nov/2018:01:06:49 +0000] "GET /wp-main.php HTTP/1.0" 404 50025 "magicbyafrica.com" "Mozilla/5.0 (Windows NT 6.1; WOW64) AppleWebKit/537.36 (KHTML, like Gecko) Chrome/50.0.2661.75 Safari/537.36"
52.53.201.78 - - [02/Nov/2018:01:32:38 +0000] "GET / HTTP/1.0" 301 - "-" "Mozilla/5.0 (Macintosh; Intel Mac OS X 10_12_6) AppleWebKit/537.36 (KHTML, like Gecko) Chrome/61.0.3163.100 Safari/537.36"
188.166.114.112 - - [02/Nov/2018:02:02:28 +0000] "GET / HTTP/1.0" 301 - "-" "Mozilla/4.0 (compatible; MSIE 7.0; Windows NT 6.1; WOW64; Trident/6.0;)"
212.178.211.132 - - [02/Nov/2018:02:58:19 +0000] "GET /wp-clear.php HTTP/1.0" 404 50025 "magicbyafrica.com" "Mozilla/5.0 (Windows NT 6.1; WOW64) AppleWebKit/537.36 (KHTML, like Gecko) Chrome/50.0.2661.75 Safari/537.36"
