31.170.123.73 - - [05/Nov/2018:03:18:33 +0000] "POST /wp-cron.php?doing_wp_cron=1541387913.1232430934906005859375 HTTP/1.1" 200 40 "http://xintanalegends.com/wp-cron.php?doing_wp_cron=1541387913.1232430934906005859375" "WordPress/4.9.8; http://xintanalegends.com"
54.36.148.63 - - [05/Nov/2018:03:18:33 +0000] "GET / HTTP/1.1" 200 14784 "-" "Mozilla/5.0 (compatible; AhrefsBot/5.2; +http://ahrefs.com/robot/)"
193.201.224.210 - - [05/Nov/2018:03:22:47 +0000] "GET /wp-content/themes/ThisWay/includes/uploadify/upload_settings_image.php HTTP/1.1" 404 248 "http://xintana.com/wp-content/themes/ThisWay/includes/uploadify/upload_settings_image.php" "Mozilla/5.0 (Windows NT 6.1; WOW64) AppleWebKit/537.36 (KHTML, like Gecko) Chrome/42.0.2311.152 Safari/537.36"
123.57.254.142 - - [05/Nov/2018:04:13:16 +0000] "POST /xmlrpc.php HTTP/1.1" 200 415 "-" "Mozilla/5.0 (Macintosh; U; Intel Mac OS X 10.6; fr; rv:1.9.2.8) Gecko/20100722 Firefox/3.6.8"
31.170.123.73 - - [05/Nov/2018:04:13:17 +0000] "POST /wp-cron.php?doing_wp_cron=1541391196.5446069240570068359375 HTTP/1.1" 499 0 "http://xintanalegends.com/wp-cron.php?doing_wp_cron=1541391196.5446069240570068359375" "WordPress/4.9.8; http://xintanalegends.com"
123.57.254.142 - - [05/Nov/2018:04:13:17 +0000] "POST /xmlrpc.php HTTP/1.1" 200 415 "-" "Mozilla/5.0 (Macintosh; U; Intel Mac OS X 10.6; fr; rv:1.9.2.8) Gecko/20100722 Firefox/3.6.8"
95.39.26.205 - - [05/Nov/2018:04:18:37 +0000] "GET /xmlrpz.php HTTP/1.1" 404 208 "http://site.ru" "Mozilla/5.0 (Windows; U; Windows NT 5.1; en-US) AppleWebKit/533.4 (KHTML, like Gecko) Chrome/5.0.375.99 Safari/533.4"
95.39.26.205 - - [05/Nov/2018:04:18:51 +0000] "GET /xmlrpz.php HTTP/1.1" 404 208 "http://site.ru" "Mozilla/5.0 (Windows; U; Windows NT 5.1; en-US) AppleWebKit/533.4 (KHTML, like Gecko) Chrome/5.0.375.99 Safari/533.4"
66.249.69.112 - - [05/Nov/2018:04:30:35 +0000] "GET /robots.txt HTTP/1.1" 404 204 "-" "Mozilla/5.0 (compatible; Googlebot/2.1; +http://www.google.com/bot.html)"
66.249.69.114 - - [05/Nov/2018:04:30:54 +0000] "GET / HTTP/1.1" 200 14702 "-" "Mozilla/5.0 (compatible; Googlebot/2.1; +http://www.google.com/bot.html)"
66.249.75.130 - - [05/Nov/2018:04:30:57 +0000] "GET /robots.txt HTTP/1.1" 404 204 "-" "Mozilla/5.0 (compatible; Googlebot/2.1; +http://www.google.com/bot.html)"
66.249.75.134 - - [05/Nov/2018:04:30:58 +0000] "GET /wp-content/themes/dikka-installable/assets/css/resize.css?ver=4.9.8 HTTP/1.1" 200 11007 "http://www.xintana.com/" "Mozilla/5.0 AppleWebKit/537.36 (KHTML, like Gecko; compatible; Googlebot/2.1; +http://www.google.com/bot.html) Safari/537.36"
66.249.75.134 - - [05/Nov/2018:04:31:03 +0000] "GET /wp-content/themes/dikka-installable/assets/libs/font-awesome/css/font-awesome.min.css?ver=4.9.8 HTTP/1.1" 200 5766 "http://www.xintana.com/" "Mozilla/5.0 AppleWebKit/537.36 (KHTML, like Gecko; compatible; Googlebot/2.1; +http://www.google.com/bot.html) Safari/537.36"
66.249.75.130 - - [05/Nov/2018:04:31:04 +0000] "GET /wp-content/themes/dikka-installable/assets/css/woocommerce-ux.css?ver=4.9.8 HTTP/1.1" 200 15890 "http://www.xintana.com/" "Mozilla/5.0 AppleWebKit/537.36 (KHTML, like Gecko; compatible; Googlebot/2.1; +http://www.google.com/bot.html) Safari/537.36"
66.249.75.132 - - [05/Nov/2018:04:31:08 +0000] "GET /wp-content/themes/dikka-installable/assets/js/SmoothScroll.js?ver=4.9.8 HTTP/1.1" 200 2600 "http://www.xintana.com/" "Mozilla/5.0 AppleWebKit/537.36 (KHTML, like Gecko; compatible; Googlebot/2.1; +http://www.google.com/bot.html) Safari/537.36"
180.76.15.33 - - [05/Nov/2018:04:31:32 +0000] "GET / HTTP/1.1" 200 14889 "-" "Mozilla/5.0 (compatible; Baiduspider/2.0; +http://www.baidu.com/search/spider.html)"
52.173.241.248 - - [05/Nov/2018:04:49:24 +0000] "GET / HTTP/1.1" 200 14700 "-" "Mozilla/5.0 (Macintosh; Intel Mac OS X 10_13_3) AppleWebKit/537.36 (KHTML, like Gecko) Chrome/65.0.3325.181 Safari/537.36"
193.201.224.210 - - [05/Nov/2018:05:07:54 +0000] "GET /wp-content/themes/organizer/lib_upload/server/php/index.php HTTP/1.1" 404 240 "http://xintanalegends.com/wp-content/themes/organizer/lib_upload/server/php/index.php" "Mozilla/5.0 (Windows NT 6.1; WOW64) AppleWebKit/537.36 (KHTML, like Gecko) Chrome/42.0.2311.152 Safari/537.36"
193.201.224.210 - - [05/Nov/2018:05:07:54 +0000] "GET /wp-content/plugins/csv2wpec-coupon/csv2wpecCoupon_FileUpload.php HTTP/1.1" 404 240 "http://xintanalegends.com/wp-content/plugins/csv2wpec-coupon/csv2wpecCoupon_FileUpload.php" "Mozilla/5.0 (Windows NT 6.1; WOW64) AppleWebKit/537.36 (KHTML, like Gecko) Chrome/42.0.2311.152 Safari/537.36"
137.117.152.181 - - [05/Nov/2018:05:28:39 +0000] "GET /kickstart.php HTTP/1.1" 404 211 "-" "Mozilla/5.0 (Windows NT 6.1) AppleWebKit/537.36 (KHTML, like Gecko) Chrome/67.0.3396.87 Safari/537.36 OPR/54.0.2952.51"
137.117.152.181 - - [05/Nov/2018:05:28:39 +0000] "GET /kickstart.php HTTP/1.1" 404 211 "-" "Mozilla/5.0 (Windows NT 6.1) AppleWebKit/537.36 (KHTML, like Gecko) Chrome/67.0.3396.87 Safari/537.36 OPR/54.0.2952.51"
31.170.123.73 - - [05/Nov/2018:06:12:44 +0000] "POST /wp-cron.php?doing_wp_cron=1541398364.3873209953308105468750 HTTP/1.1" 200 40 "http://xintanalegends.com/wp-cron.php?doing_wp_cron=1541398364.3873209953308105468750" "WordPress/4.9.8; http://xintanalegends.com"
185.86.164.104 - - [05/Nov/2018:06:12:44 +0000] "GET /wp-login.php HTTP/1.1" 200 2407 "-" "Mozilla/5.0 (Windows NT 10.0; WOW64) AppleWebKit/537.36 (KHTML, like Gecko) Chrome/51.0.2704.103 Safari/537.36"
185.86.164.104 - - [05/Nov/2018:06:12:45 +0000] "POST /wp-login.php HTTP/1.1" 200 2669 "http://xintana.com/wp-login.php" "Mozilla/5.0 (Windows NT 10.0; WOW64) AppleWebKit/537.36 (KHTML, like Gecko) Chrome/51.0.2704.103 Safari/537.36"
185.86.164.104 - - [05/Nov/2018:06:12:45 +0000] "POST /wp-login.php HTTP/1.1" 200 3354 "http://xintana.com/wp-login.php" "Mozilla/5.0 (Windows NT 10.0; WOW64) AppleWebKit/537.36 (KHTML, like Gecko) Chrome/51.0.2704.103 Safari/537.36"
31.170.123.73 - - [05/Nov/2018:07:20:36 +0000] "POST /wp-cron.php?doing_wp_cron=1541402436.5220301151275634765625 HTTP/1.1" 200 40 "http://xintanalegends.com/wp-cron.php?doing_wp_cron=1541402436.5220301151275634765625" "WordPress/4.9.8; http://xintanalegends.com"
180.249.95.12 - - [05/Nov/2018:07:20:36 +0000] "GET /wp-login.php HTTP/1.1" 200 2427 "-" "Mozilla/5.0 (Windows NT 6.1; WOW64; rv:40.0) Gecko/20100101 Firefox/40.1"
180.249.95.12 - - [05/Nov/2018:07:20:37 +0000] "GET / HTTP/1.1" 301 5 "-" "Mozilla/5.0 (Windows NT 6.1; WOW64; rv:40.0) Gecko/20100101 Firefox/40.1"
180.249.95.12 - - [05/Nov/2018:07:20:39 +0000] "GET / HTTP/1.1" 200 60669 "-" "Mozilla/5.0 (Windows NT 6.1; WOW64; rv:40.0) Gecko/20100101 Firefox/40.1"
180.249.95.12 - - [05/Nov/2018:07:23:09 +0000] "GET /wp-login.php HTTP/1.1" 200 2417 "-" "Mozilla/5.0 (Windows NT 6.1; WOW64; rv:40.0) Gecko/20100101 Firefox/40.1"
180.249.95.12 - - [05/Nov/2018:07:23:10 +0000] "GET / HTTP/1.1" 200 60626 "-" "Mozilla/5.0 (Windows NT 6.1; WOW64; rv:40.0) Gecko/20100101 Firefox/40.1"
89.248.169.130 - - [05/Nov/2018:07:49:44 +0000] "POST /xmlrpc.php HTTP/1.1" 200 410 "-" "Mozilla/5.0 (Macintosh; U; Intel Mac OS X 10.6; fr; rv:1.9.2.8) Gecko/20100722 Firefox/3.6.8"
89.248.169.130 - - [05/Nov/2018:07:49:44 +0000] "POST /xmlrpc.php HTTP/1.1" 200 410 "-" "Mozilla/5.0 (Macintosh; U; Intel Mac OS X 10.6; fr; rv:1.9.2.8) Gecko/20100722 Firefox/3.6.8"
89.248.169.130 - - [05/Nov/2018:07:49:44 +0000] "POST /xmlrpc.php HTTP/1.1" 200 410 "-" "Mozilla/5.0 (Macintosh; U; Intel Mac OS X 10.6; fr; rv:1.9.2.8) Gecko/20100722 Firefox/3.6.8"
89.248.169.130 - - [05/Nov/2018:07:49:47 +0000] "POST /xmlrpc.php HTTP/1.1" 200 410 "-" "Mozilla/5.0 (Macintosh; U; Intel Mac OS X 10.6; fr; rv:1.9.2.8) Gecko/20100722 Firefox/3.6.8"
54.36.148.42 - - [05/Nov/2018:08:12:53 +0000] "GET /robots.txt HTTP/1.1" 404 204 "-" "Mozilla/5.0 (compatible; AhrefsBot/5.2; +http://ahrefs.com/robot/)"
31.170.123.73 - - [05/Nov/2018:08:16:51 +0000] "POST /wp-cron.php?doing_wp_cron=1541405811.2379300594329833984375 HTTP/1.1" 200 40 "http://xintanalegends.com/wp-cron.php?doing_wp_cron=1541405811.2379300594329833984375" "WordPress/4.9.8; http://xintanalegends.com"
185.117.118.154 - - [05/Nov/2018:08:16:51 +0000] "HEAD / HTTP/1.1" 200 0 "-" "Mozilla/5.0 (compatible; Uptimebot/1.0; +http://www.uptime.com/uptimebot)"
5.188.210.55 - - [05/Nov/2018:08:17:30 +0000] "GET /administrator/index.php HTTP/1.1" 404 213 "http://XINTANA.COM/administrator/index.php" "Mozilla/4.0 (compatible; MSIE 6.0; Windows NT 5.1; SV1)"
5.188.210.55 - - [05/Nov/2018:08:17:30 +0000] "GET /administrator/index.php HTTP/1.1" 404 213 "http://XINTANALEGENDS.COM/administrator/index.php" "Mozilla/4.0 (compatible; MSIE 6.0; Windows NT 5.1; SV1)"
54.36.148.206 - - [05/Nov/2018:08:22:28 +0000] "GET /robots.txt HTTP/1.1" 404 204 "-" "Mozilla/5.0 (compatible; AhrefsBot/5.2; +http://ahrefs.com/robot/)"
77.232.66.165 - - [05/Nov/2018:08:40:37 +0000] "GET /htaccess.php HTTP/1.1" 404 210 "http://site.ru" "Mozilla/5.0 (Windows; U; Windows NT 5.1; en-US) AppleWebKit/533.4 (KHTML, like Gecko) Chrome/5.0.375.99 Safari/533.4"
77.232.66.165 - - [05/Nov/2018:08:40:38 +0000] "GET /htaccess.php HTTP/1.1" 404 210 "http://site.ru" "Mozilla/5.0 (Windows; U; Windows NT 5.1; en-US) AppleWebKit/533.4 (KHTML, like Gecko) Chrome/5.0.375.99 Safari/533.4"
151.80.39.152 - - [05/Nov/2018:08:55:46 +0000] "GET / HTTP/1.1" 200 14798 "-" "Mozilla/5.0 (compatible; AhrefsBot/5.2; +http://ahrefs.com/robot/)"
31.170.123.73 - - [05/Nov/2018:09:10:12 +0000] "POST /wp-cron.php?doing_wp_cron=1541409012.0658938884735107421875 HTTP/1.1" 200 40 "http://xintanalegends.com/wp-cron.php?doing_wp_cron=1541409012.0658938884735107421875" "WordPress/4.9.8; http://xintanalegends.com"
185.86.164.109 - - [05/Nov/2018:09:10:12 +0000] "GET /wp-login.php HTTP/1.1" 200 2435 "-" "Mozilla/5.0 (Windows NT 10.0; WOW64) AppleWebKit/537.36 (KHTML, like Gecko) Chrome/51.0.2704.103 Safari/537.36"
185.86.164.109 - - [05/Nov/2018:09:10:12 +0000] "POST /wp-login.php HTTP/1.1" 200 3337 "http://xintanalegends.com/wp-login.php" "Mozilla/5.0 (Windows NT 10.0; WOW64) AppleWebKit/537.36 (KHTML, like Gecko) Chrome/51.0.2704.103 Safari/537.36"
178.154.244.10 - - [05/Nov/2018:09:16:22 +0000] "GET /robots.txt HTTP/1.1" 404 208 "-" "Mozilla/5.0 (compatible; YandexBot/3.0; +http://yandex.com/bots)"
178.154.244.10 - - [05/Nov/2018:09:16:26 +0000] "GET /wp-includes/wlwmanifest.xml HTTP/1.1" 200 503 "-" "Mozilla/5.0 (compatible; YandexBot/3.0; +http://yandex.com/bots)"
141.8.142.120 - - [05/Nov/2018:09:18:12 +0000] "GET /xmlrpc.php?rsd HTTP/1.1" 200 444 "-" "Mozilla/5.0 (compatible; YandexBot/3.0; +http://yandex.com/bots)"
185.86.167.4 - - [05/Nov/2018:09:31:13 +0000] "GET /wp-login.php HTTP/1.1" 200 2406 "-" "Mozilla/5.0 (Windows NT 10.0; WOW64) AppleWebKit/537.36 (KHTML, like Gecko) Chrome/51.0.2704.103 Safari/537.36"
185.86.167.4 - - [05/Nov/2018:09:31:14 +0000] "POST /wp-login.php HTTP/1.1" 200 2670 "http://xintana.com/wp-login.php" "Mozilla/5.0 (Windows NT 10.0; WOW64) AppleWebKit/537.36 (KHTML, like Gecko) Chrome/51.0.2704.103 Safari/537.36"
185.86.167.4 - - [05/Nov/2018:09:31:14 +0000] "POST /wp-login.php HTTP/1.1" 200 3371 "http://xintana.com/wp-login.php" "Mozilla/5.0 (Windows NT 10.0; WOW64) AppleWebKit/537.36 (KHTML, like Gecko) Chrome/51.0.2704.103 Safari/537.36"
198.23.202.38 - - [05/Nov/2018:09:44:39 +0000] "GET /robots.txt HTTP/1.1" 404 208 "-" "Mozilla/5.0 (Windows NT 10.0; Win64; x64; rv:50.0) Gecko/20100101 Firefox/50.0"
198.23.202.38 - - [05/Nov/2018:09:44:39 +0000] "GET /xmlrpc.php?rsd HTTP/1.1" 200 915 "-" "Mozilla/5.0 (Windows NT 10.0; Win64; x64; rv:50.0) Gecko/20100101 Firefox/50.0"
198.23.202.38 - - [05/Nov/2018:09:44:40 +0000] "GET /?author=1 HTTP/1.1" 200 87084 "-" "Mozilla/5.0 (Windows NT 10.0; Win64; x64; rv:50.0) Gecko/20100101 Firefox/50.0"
198.23.202.38 - - [05/Nov/2018:09:44:41 +0000] "GET /wp-json/wp/v2/users/ HTTP/1.1" 404 218 "-" "Mozilla/5.0 (Windows NT 10.0; Win64; x64; rv:50.0) Gecko/20100101 Firefox/50.0"
198.23.202.38 - - [05/Nov/2018:09:44:41 +0000] "POST /xmlrpc.php HTTP/1.1" 200 85840 "-" "Mozilla/5.0 (Windows NT 10.0; Win64; x64; rv:50.0) Gecko/20100101 Firefox/50.0"
198.23.202.38 - - [05/Nov/2018:09:44:42 +0000] "POST /xmlrpc.php HTTP/1.1" 200 85816 "-" "Mozilla/5.0 (Windows NT 10.0; Win64; x64; rv:50.0) Gecko/20100101 Firefox/50.0"
185.86.164.104 - - [05/Nov/2018:09:54:16 +0000] "GET /wp-login.php HTTP/1.1" 200 2382 "-" "Mozilla/5.0 (Windows NT 10.0; WOW64) AppleWebKit/537.36 (KHTML, like Gecko) Chrome/51.0.2704.103 Safari/537.36"
185.86.164.104 - - [05/Nov/2018:09:54:17 +0000] "POST /wp-login.php HTTP/1.1" 200 2685 "http://xintana.com/wp-login.php" "Mozilla/5.0 (Windows NT 10.0; WOW64) AppleWebKit/537.36 (KHTML, like Gecko) Chrome/51.0.2704.103 Safari/537.36"
185.86.164.104 - - [05/Nov/2018:09:54:17 +0000] "POST /wp-login.php HTTP/1.1" 200 3348 "http://xintana.com/wp-login.php" "Mozilla/5.0 (Windows NT 10.0; WOW64) AppleWebKit/537.36 (KHTML, like Gecko) Chrome/51.0.2704.103 Safari/537.36"
31.170.123.73 - - [05/Nov/2018:10:09:07 +0000] "POST /wp-cron.php?doing_wp_cron=1541412547.3960990905761718750000 HTTP/1.1" 200 40 "http://xintanalegends.com/wp-cron.php?doing_wp_cron=1541412547.3960990905761718750000" "WordPress/4.9.8; http://xintanalegends.com"
52.173.241.248 - - [05/Nov/2018:10:09:07 +0000] "GET / HTTP/1.1" 200 14792 "-" "Mozilla/5.0 (Macintosh; Intel Mac OS X 10.13; rv:59.0) Gecko/20100101 Firefox/59.0"
18.188.255.25 - - [05/Nov/2018:10:35:58 +0000] "GET /wp-login.php HTTP/1.1" 200 1529 "https://www.google.com/url?643b51bb24d9057381ea7bbb069c88c5" "Mozilla/5.0 (Windows NT 6.1; rv:33.0) Gecko/20100101 Firefox/33.0"
18.188.255.25 - - [05/Nov/2018:10:36:19 +0000] "POST /wp-login.php HTTP/1.1" 200 1898 "https://www.google.com/url?643b51bb24d9057381ea7bbb069c88c5" "Mozilla/5.0 (Windows NT 6.1; rv:33.0) Gecko/20100101 Firefox/33.0"
27.254.81.248 - - [05/Nov/2018:10:38:10 +0000] "GET /wp-backup.php HTTP/1.1" 404 211 "http://site.ru" "Mozilla/5.0 (Windows; U; Windows NT 5.1; en-US) AppleWebKit/533.4 (KHTML, like Gecko) Chrome/5.0.375.99 Safari/533.4"
54.36.148.156 - - [05/Nov/2018:10:38:18 +0000] "GET /?m=201411 HTTP/1.1" 200 14591 "-" "Mozilla/5.0 (compatible; AhrefsBot/5.2; +http://ahrefs.com/robot/)"
85.233.160.31 - - [05/Nov/2018:11:21:55 +0000] "GET /logo_img.php HTTP/1.1" 404 210 "http://site.ru" "Mozilla/5.0 (Windows; U; Windows NT 5.1; en-US) AppleWebKit/533.4 (KHTML, like Gecko) Chrome/5.0.375.99 Safari/533.4"
139.99.54.70 - - [05/Nov/2018:11:30:06 +0000] "GET /wp-blog-posts.php HTTP/1.1" 404 215 "http://site.ru" "Mozilla/5.0 (Windows; U; Windows NT 5.1; en-US) AppleWebKit/533.4 (KHTML, like Gecko) Chrome/5.0.375.99 Safari/533.4"
139.99.54.70 - - [05/Nov/2018:11:30:10 +0000] "GET /wp-blog-posts.php HTTP/1.1" 404 215 "http://site.ru" "Mozilla/5.0 (Windows; U; Windows NT 5.1; en-US) AppleWebKit/533.4 (KHTML, like Gecko) Chrome/5.0.375.99 Safari/533.4"
95.108.181.102 - - [05/Nov/2018:12:02:38 +0000] "GET /robots.txt HTTP/1.1" 404 208 "-" "Mozilla/5.0 (compatible; YandexBot/3.0; +http://yandex.com/bots)"
31.170.123.73 - - [05/Nov/2018:12:02:43 +0000] "POST /wp-cron.php?doing_wp_cron=1541419363.0179960727691650390625 HTTP/1.1" 200 40 "http://xintanalegends.com/wp-cron.php?doing_wp_cron=1541419363.0179960727691650390625" "WordPress/4.9.8; http://xintanalegends.com"
37.9.113.56 - - [05/Nov/2018:12:02:43 +0000] "GET / HTTP/1.1" 200 14941 "-" "Mozilla/5.0 (compatible; YandexBot/3.0; +http://yandex.com/bots)"
192.145.239.32 - - [05/Nov/2018:12:27:48 +0000] "GET /modules/mod_ariimageslidersa/098.php HTTP/1.1" 404 234 "http://site.ru" "Mozilla/5.0 (Windows; U; Windows NT 5.1; en-US) AppleWebKit/533.4 (KHTML, like Gecko) Chrome/5.0.375.99 Safari/533.4"
193.201.224.210 - - [05/Nov/2018:13:00:07 +0000] "GET /wp-content/plugins/csv2wpec-coupon/csv2wpecCoupon_FileUpload.php HTTP/1.1" 404 240 "http://xintana.com/wp-content/plugins/csv2wpec-coupon/csv2wpecCoupon_FileUpload.php" "Mozilla/5.0 (Windows NT 6.1; WOW64) AppleWebKit/537.36 (KHTML, like Gecko) Chrome/42.0.2311.152 Safari/537.36"
193.201.224.210 - - [05/Nov/2018:13:03:05 +0000] "GET /wp-content/themes/organizer/lib_upload/server/php/index.php HTTP/1.1" 404 240 "http://xintana.com/wp-content/themes/organizer/lib_upload/server/php/index.php" "Mozilla/5.0 (Windows NT 6.1; WOW64) AppleWebKit/537.36 (KHTML, like Gecko) Chrome/42.0.2311.152 Safari/537.36"
31.170.123.73 - - [05/Nov/2018:13:15:25 +0000] "POST /wp-cron.php?doing_wp_cron=1541423725.2594089508056640625000 HTTP/1.1" 200 40 "http://xintanalegends.com/wp-cron.php?doing_wp_cron=1541423725.2594089508056640625000" "WordPress/4.9.8; http://xintanalegends.com"
31.192.109.200 - - [05/Nov/2018:13:15:25 +0000] "GET /xmlrpc.php HTTP/1.1" 405 53 "-" "Mozilla/5.0 (compatible; Googlebot/2.1; +http://www.google.com/bot.html)"
31.192.109.200 - - [05/Nov/2018:13:15:27 +0000] "GET /?author=1 HTTP/1.1" 200 87114 "-" "Mozilla/5.0 (compatible; Googlebot/2.1; +http://www.google.com/bot.html)"
31.192.109.200 - - [05/Nov/2018:13:15:27 +0000] "GET /?author=2 HTTP/1.1" 200 40458 "-" "Mozilla/5.0 (compatible; Googlebot/2.1; +http://www.google.com/bot.html)"
31.192.109.200 - - [05/Nov/2018:13:15:28 +0000] "GET /?author=3 HTTP/1.1" 404 40264 "-" "Mozilla/5.0 (compatible; Googlebot/2.1; +http://www.google.com/bot.html)"
31.192.109.200 - - [05/Nov/2018:13:15:29 +0000] "GET /xmlrpc.php HTTP/1.1" 405 53 "-" "Mozilla/5.0 (compatible; Googlebot/2.1; +http://www.google.com/bot.html)"
31.192.109.200 - - [05/Nov/2018:13:15:29 +0000] "GET /?author=1 HTTP/1.1" 301 5 "-" "Mozilla/5.0 (compatible; Googlebot/2.1; +http://www.google.com/bot.html)"
31.192.109.200 - - [05/Nov/2018:13:15:31 +0000] "GET /?author=1 HTTP/1.1" 200 87166 "-" "Mozilla/5.0 (compatible; Googlebot/2.1; +http://www.google.com/bot.html)"
31.192.109.200 - - [05/Nov/2018:13:15:31 +0000] "GET /?author=2 HTTP/1.1" 301 5 "-" "Mozilla/5.0 (compatible; Googlebot/2.1; +http://www.google.com/bot.html)"
31.192.109.200 - - [05/Nov/2018:13:15:32 +0000] "GET /?author=2 HTTP/1.1" 200 40373 "-" "Mozilla/5.0 (compatible; Googlebot/2.1; +http://www.google.com/bot.html)"
31.192.109.200 - - [05/Nov/2018:13:15:33 +0000] "GET /?author=3 HTTP/1.1" 301 5 "-" "Mozilla/5.0 (compatible; Googlebot/2.1; +http://www.google.com/bot.html)"
31.192.109.200 - - [05/Nov/2018:13:15:34 +0000] "GET /?author=3 HTTP/1.1" 404 40146 "-" "Mozilla/5.0 (compatible; Googlebot/2.1; +http://www.google.com/bot.html)"
35.240.243.123 - - [05/Nov/2018:14:16:46 +0000] "GET /htaccess.php HTTP/1.1" 404 210 "http://site.ru" "Mozilla/5.0 (Windows; U; Windows NT 5.1; en-US) AppleWebKit/533.4 (KHTML, like Gecko) Chrome/5.0.375.99 Safari/533.4"
2001:ad0:1000:1001::137 - - [05/Nov/2018:14:16:53 +0000] "GET /wp-content/upgrade/theme-compat/popup-pomo.php HTTP/1.1" 404 244 "http://site.ru" "Mozilla/5.0 (Windows; U; Windows NT 5.1; en-US) AppleWebKit/533.4 (KHTML, like Gecko) Chrome/5.0.375.99 Safari/533.4"
31.170.123.73 - - [05/Nov/2018:14:20:49 +0000] "POST /wp-cron.php?doing_wp_cron=1541427649.5168600082397460937500 HTTP/1.1" 200 40 "http://xintanalegends.com/wp-cron.php?doing_wp_cron=1541427649.5168600082397460937500" "WordPress/4.9.8; http://xintanalegends.com"
220.181.108.102 - - [05/Nov/2018:14:20:49 +0000] "GET /index.php?rest_route=/ HTTP/1.1" 200 5848 "-" "Mozilla/5.0 (compatible; Baiduspider/2.0; +http://www.baidu.com/search/spider.html)"
194.99.106.147 - - [05/Nov/2018:14:28:45 +0000] "GET /?author=1 HTTP/1.1" 200 87144 "-" "Mozilla/5.0 (Windows; U; Windows NT 2.0) Gecko/20091201 Firefox/3.5.6 GTB5"
194.99.106.147 - - [05/Nov/2018:14:28:46 +0000] "GET /?author=2 HTTP/1.1" 200 40385 "-" "Mozilla/5.0 (Windows; U; Windows NT 2.0) Gecko/20091201 Firefox/3.5.6 GTB5"
194.99.106.147 - - [05/Nov/2018:14:28:46 +0000] "GET /?author=3 HTTP/1.1" 404 40190 "-" "Mozilla/5.0 (Windows; U; Windows NT 2.0) Gecko/20091201 Firefox/3.5.6 GTB5"
194.99.106.147 - - [05/Nov/2018:14:28:47 +0000] "GET /?author=3 HTTP/1.1" 404 40167 "-" "Mozilla/5.0 (Windows; U; Windows NT 2.0) Gecko/20091201 Firefox/3.5.6 GTB5"
46.148.127.120 - - [05/Nov/2018:14:28:54 +0000] "GET /?author=3 HTTP/1.1" 404 40174 "-" "Mozilla/5.0 (Windows; U; Windows NT 2.0) Gecko/20091201 Firefox/3.5.6 GTB5"
194.99.106.147 - - [05/Nov/2018:14:28:55 +0000] "GET /?author=4 HTTP/1.1" 404 40198 "-" "Mozilla/5.0 (Windows; U; Windows NT 2.0) Gecko/20091201 Firefox/3.5.6 GTB5"
194.99.106.147 - - [05/Nov/2018:14:28:55 +0000] "GET /?author=4 HTTP/1.1" 404 40197 "-" "Mozilla/5.0 (Windows; U; Windows NT 2.0) Gecko/20091201 Firefox/3.5.6 GTB5"
193.9.158.136 - - [05/Nov/2018:14:28:59 +0000] "GET /?author=4 HTTP/1.1" 404 40192 "-" "Mozilla/5.0 (Windows; U; Windows NT 2.0) Gecko/20091201 Firefox/3.5.6 GTB5"
194.99.106.147 - - [05/Nov/2018:14:29:00 +0000] "GET /?author=5 HTTP/1.1" 404 40184 "-" "Mozilla/5.0 (Windows; U; Windows NT 2.0) Gecko/20091201 Firefox/3.5.6 GTB5"
194.99.106.147 - - [05/Nov/2018:14:29:00 +0000] "GET /?author=5 HTTP/1.1" 404 40158 "-" "Mozilla/5.0 (Windows; U; Windows NT 2.0) Gecko/20091201 Firefox/3.5.6 GTB5"
85.128.142.42 - - [05/Nov/2018:14:51:52 +0000] "GET /wp-admin/default.php HTTP/1.1" 404 218 "http://site.ru" "Mozilla/5.0 (Windows; U; Windows NT 5.1; en-US) AppleWebKit/533.4 (KHTML, like Gecko) Chrome/5.0.375.99 Safari/533.4"
85.128.142.42 - - [05/Nov/2018:14:51:52 +0000] "GET /wp-admin/default.php HTTP/1.1" 404 218 "http://site.ru" "Mozilla/5.0 (Windows; U; Windows NT 5.1; en-US) AppleWebKit/533.4 (KHTML, like Gecko) Chrome/5.0.375.99 Safari/533.4"
85.128.142.42 - - [05/Nov/2018:14:51:58 +0000] "GET /wp-admin/default.php HTTP/1.1" 404 218 "http://site.ru" "Mozilla/5.0 (Windows; U; Windows NT 5.1; en-US) AppleWebKit/533.4 (KHTML, like Gecko) Chrome/5.0.375.99 Safari/533.4"
85.128.142.42 - - [05/Nov/2018:14:52:04 +0000] "GET /wp-admin/default.php HTTP/1.1" 404 218 "http://site.ru" "Mozilla/5.0 (Windows; U; Windows NT 5.1; en-US) AppleWebKit/533.4 (KHTML, like Gecko) Chrome/5.0.375.99 Safari/533.4"
69.16.220.47 - - [05/Nov/2018:14:55:35 +0000] "GET /wp-system.php HTTP/1.1" 404 211 "http://site.ru" "Mozilla/5.0 (Windows; U; Windows NT 5.1; en-US) AppleWebKit/533.4 (KHTML, like Gecko) Chrome/5.0.375.99 Safari/533.4"
2001:41d0:a:7268:: - - [05/Nov/2018:14:57:07 +0000] "GET /wp-mains.php HTTP/1.1" 404 210 "http://site.ru" "Mozilla/5.0 (Windows; U; Windows NT 5.1; en-US) AppleWebKit/533.4 (KHTML, like Gecko) Chrome/5.0.375.99 Safari/533.4"
91.227.16.127 - - [05/Nov/2018:14:59:36 +0000] "GET /wp-mains.php HTTP/1.1" 404 210 "http://site.ru" "Mozilla/5.0 (Windows; U; Windows NT 5.1; en-US) AppleWebKit/533.4 (KHTML, like Gecko) Chrome/5.0.375.99 Safari/533.4"
31.170.123.73 - - [05/Nov/2018:16:00:29 +0000] "POST /wp-cron.php?doing_wp_cron=1541433628.5760231018066406250000 HTTP/1.1" 499 0 "http://xintanalegends.com/wp-cron.php?doing_wp_cron=1541433628.5760231018066406250000" "WordPress/4.9.8; http://xintanalegends.com"
185.86.164.104 - - [05/Nov/2018:16:00:29 +0000] "GET /wp-login.php HTTP/1.1" 200 2411 "-" "Mozilla/5.0 (Windows NT 10.0; WOW64) AppleWebKit/537.36 (KHTML, like Gecko) Chrome/51.0.2704.103 Safari/537.36"
185.86.164.104 - - [05/Nov/2018:16:00:30 +0000] "POST /wp-login.php HTTP/1.1" 200 3360 "http://xintanalegends.com/wp-login.php" "Mozilla/5.0 (Windows NT 10.0; WOW64) AppleWebKit/537.36 (KHTML, like Gecko) Chrome/51.0.2704.103 Safari/537.36"
31.170.123.73 - - [05/Nov/2018:16:15:22 +0000] "POST /wp-cron.php?doing_wp_cron=1541434522.5950860977172851562500 HTTP/1.1" 200 40 "http://xintanalegends.com/wp-cron.php?doing_wp_cron=1541434522.5950860977172851562500" "WordPress/4.9.8; http://xintanalegends.com"
209.17.96.26 - - [05/Nov/2018:16:15:23 +0000] "GET / HTTP/1.1" 200 60659 "-" "Mozilla/5.0 (compatible; Nimbostratus-Bot/v1.3.2; http://cloudsystemnetworks.com)"
77.221.130.148 - - [05/Nov/2018:16:18:53 +0000] "GET /wp-admin/logo_img.php HTTP/1.1" 404 219 "http://site.ru" "Mozilla/5.0 (Windows; U; Windows NT 5.1; en-US) AppleWebKit/533.4 (KHTML, like Gecko) Chrome/5.0.375.99 Safari/533.4"
188.128.175.127 - - [05/Nov/2018:16:34:05 +0000] "GET /wp-organizer.php HTTP/1.1" 404 214 "http://site.ru" "Mozilla/5.0 (Windows; U; Windows NT 5.1; en-US) AppleWebKit/533.4 (KHTML, like Gecko) Chrome/5.0.375.99 Safari/533.4"
189.111.181.250 - - [05/Nov/2018:16:35:46 +0000] "GET /wp-login.php HTTP/1.1" 200 2395 "-" "Mozilla/5.0 (Windows NT 6.1; WOW64; rv:40.0) Gecko/20100101 Firefox/40.1"
189.111.181.250 - - [05/Nov/2018:16:35:47 +0000] "GET / HTTP/1.1" 301 5 "-" "Mozilla/5.0 (Windows NT 6.1; WOW64; rv:40.0) Gecko/20100101 Firefox/40.1"
189.111.181.250 - - [05/Nov/2018:16:35:48 +0000] "GET / HTTP/1.1" 200 60665 "-" "Mozilla/5.0 (Windows NT 6.1; WOW64; rv:40.0) Gecko/20100101 Firefox/40.1"
189.111.181.250 - - [05/Nov/2018:16:50:23 +0000] "GET /wp-login.php HTTP/1.1" 200 2417 "-" "Mozilla/5.0 (Windows NT 6.1; WOW64; rv:40.0) Gecko/20100101 Firefox/40.1"
189.111.181.250 - - [05/Nov/2018:16:50:24 +0000] "GET / HTTP/1.1" 200 60628 "-" "Mozilla/5.0 (Windows NT 6.1; WOW64; rv:40.0) Gecko/20100101 Firefox/40.1"
89.248.169.130 - - [05/Nov/2018:17:06:17 +0000] "POST /xmlrpc.php HTTP/1.1" 200 410 "-" "Mozilla/5.0 (Macintosh; U; Intel Mac OS X 10.6; fr; rv:1.9.2.8) Gecko/20100722 Firefox/3.6.8"
89.248.169.130 - - [05/Nov/2018:17:06:17 +0000] "POST /xmlrpc.php HTTP/1.1" 200 410 "-" "Mozilla/5.0 (Macintosh; U; Intel Mac OS X 10.6; fr; rv:1.9.2.8) Gecko/20100722 Firefox/3.6.8"
31.170.123.73 - - [05/Nov/2018:17:06:17 +0000] "POST /wp-cron.php?doing_wp_cron=1541437577.1372361183166503906250 HTTP/1.1" 200 40 "http://xintanalegends.com/wp-cron.php?doing_wp_cron=1541437577.1372361183166503906250" "WordPress/4.9.8; http://xintanalegends.com"
89.248.169.130 - - [05/Nov/2018:17:06:17 +0000] "POST /xmlrpc.php HTTP/1.1" 200 410 "-" "Mozilla/5.0 (Macintosh; U; Intel Mac OS X 10.6; fr; rv:1.9.2.8) Gecko/20100722 Firefox/3.6.8"
89.248.169.130 - - [05/Nov/2018:17:06:23 +0000] "POST /xmlrpc.php HTTP/1.1" 200 410 "-" "Mozilla/5.0 (Macintosh; U; Intel Mac OS X 10.6; fr; rv:1.9.2.8) Gecko/20100722 Firefox/3.6.8"
123.125.67.224 - - [05/Nov/2018:17:14:54 +0000] "GET /robots.txt HTTP/1.1" 404 204 "-" "Mozilla/5.0 (Windows NT 10.0; WOW64) AppleWebKit/537.36 (KHTML, like Gecko) Chrome/45.0.2454.93 Safari/537.36"
67.231.16.204 - - [05/Nov/2018:17:29:20 +0000] "HEAD / HTTP/1.1" 200 0 "-" "Mozilla/5.0 (compatible; Uptimebot/1.0; +http://www.uptime.com/uptimebot)"
180.76.15.162 - - [05/Nov/2018:17:58:11 +0000] "GET /wp-content/plugins/contact-form-7/includes/js/scripts.js HTTP/1.1" 200 4781 "-" "Mozilla/5.0 (compatible; Baiduspider/2.0; +http://www.baidu.com/search/spider.html)"
54.36.150.98 - - [05/Nov/2018:18:00:09 +0000] "GET /robots.txt HTTP/1.1" 404 204 "-" "Mozilla/5.0 (compatible; AhrefsBot/5.2; +http://ahrefs.com/robot/)"
54.36.149.106 - - [05/Nov/2018:18:00:10 +0000] "GET /?p=1493 HTTP/1.1" 200 13888 "-" "Mozilla/5.0 (compatible; AhrefsBot/5.2; +http://ahrefs.com/robot/)"
31.170.123.73 - - [05/Nov/2018:18:03:33 +0000] "POST /wp-cron.php?doing_wp_cron=1541441012.9510428905487060546875 HTTP/1.1" 200 40 "http://xintanalegends.com/wp-cron.php?doing_wp_cron=1541441012.9510428905487060546875" "WordPress/4.9.8; http://xintanalegends.com"
212.92.23.81 - - [05/Nov/2018:18:03:33 +0000] "GET /wp-login.php HTTP/1.1" 200 2433 "http://xintanalegends.com/wp-login.php" "Mozilla/5.0 (Windows NT 10.0; Win64; x64) AppleWebKit/537.36 (KHTML, like Gecko) Chrome/63.0.3239.84 Safari/537.36"
212.92.23.81 - - [05/Nov/2018:18:03:35 +0000] "POST /wp-login.php HTTP/1.1" 200 3394 "http://xintanalegends.com/wp-login.php" "Mozilla/5.0 (Windows NT 10.0; Win64; x64) AppleWebKit/537.36 (KHTML, like Gecko) Chrome/63.0.3239.84 Safari/537.36"
123.125.67.222 - - [05/Nov/2018:18:05:49 +0000] "GET /robots.txt HTTP/1.1" 404 204 "-" "Mozilla/5.0 (Windows NT 10.0; WOW64) AppleWebKit/537.36 (KHTML, like Gecko) Chrome/45.0.2454.93 Safari/537.36"
180.76.15.16 - - [05/Nov/2018:19:10:15 +0000] "GET /wp-content/plugins/contact-form-7/includes/css/styles.css?ver=5.0.1 HTTP/1.1" 200 734 "-" "Mozilla/5.0 (compatible; Baiduspider/2.0; +http://www.baidu.com/search/spider.html)"
123.57.254.142 - - [05/Nov/2018:19:31:14 +0000] "POST /xmlrpc.php HTTP/1.1" 200 415 "-" "Mozilla/5.0 (Macintosh; U; Intel Mac OS X 10.6; fr; rv:1.9.2.8) Gecko/20100722 Firefox/3.6.8"
31.170.123.73 - - [05/Nov/2018:19:31:14 +0000] "POST /wp-cron.php?doing_wp_cron=1541446274.4448809623718261718750 HTTP/1.1" 200 40 "http://xintanalegends.com/wp-cron.php?doing_wp_cron=1541446274.4448809623718261718750" "WordPress/4.9.8; http://xintanalegends.com"
123.57.254.142 - - [05/Nov/2018:19:31:14 +0000] "POST /xmlrpc.php HTTP/1.1" 200 415 "-" "Mozilla/5.0 (Macintosh; U; Intel Mac OS X 10.6; fr; rv:1.9.2.8) Gecko/20100722 Firefox/3.6.8"
123.125.71.88 - - [05/Nov/2018:19:39:39 +0000] "GET /robots.txt HTTP/1.1" 404 204 "-" "Mozilla/5.0 (compatible; Baiduspider/2.0; +http://www.baidu.com/search/spider.html)"
64.31.23.2 - - [05/Nov/2018:19:55:39 +0000] "GET /wp-content/plugins/resizer-img/accdb.php HTTP/1.1" 404 238 "http://site.ru" "Mozilla/5.0 (Windows; U; Windows NT 5.1; en-US) AppleWebKit/533.4 (KHTML, like Gecko) Chrome/5.0.375.99 Safari/533.4"
31.170.123.73 - - [05/Nov/2018:20:11:42 +0000] "POST /wp-cron.php?doing_wp_cron=1541448702.3554480075836181640625 HTTP/1.1" 200 40 "http://xintanalegends.com/wp-cron.php?doing_wp_cron=1541448702.3554480075836181640625" "WordPress/4.9.8; http://xintanalegends.com"
158.69.70.181 - - [05/Nov/2018:20:11:42 +0000] "GET /wp-login.php HTTP/1.1" 200 2422 "http://xintanalegends.com/wp-login.php" "Mozilla/5.0 (Windows NT 10.0; Win64; x64) AppleWebKit/537.36 (KHTML, like Gecko) Chrome/63.0.3239.84 Safari/537.36"
158.69.70.181 - - [05/Nov/2018:20:11:45 +0000] "POST /wp-login.php HTTP/1.1" 200 3417 "http://xintanalegends.com/wp-login.php" "Mozilla/5.0 (Windows NT 10.0; Win64; x64) AppleWebKit/537.36 (KHTML, like Gecko) Chrome/63.0.3239.84 Safari/537.36"
66.223.129.209 - - [05/Nov/2018:20:13:48 +0000] "GET /wp-content/uploads/2018/02/RadLogoVerticalRed-White.png HTTP/1.1" 200 1518775 "-" "Mozilla/5.0 (Windows NT 10.0; Win64; x64; rv:63.0) Gecko/20100101 Firefox/63.0"
123.125.67.166 - - [05/Nov/2018:20:31:09 +0000] "GET /robots.txt HTTP/1.1" 404 204 "-" "Mozilla/5.0 (Windows NT 10.0; WOW64) AppleWebKit/537.36 (KHTML, like Gecko) Chrome/45.0.2454.93 Safari/537.36"
69.12.66.212 - - [05/Nov/2018:20:31:14 +0000] "GET /wp-content/plugins/xnxx/xnxx.php HTTP/1.1" 404 219 "http://www.xintana.com/wp-content/plugins/xnxx/xnxx.php" "Mozilla/5.0 (Windows NT 6.1; WOW64) AppleWebKit/537.36 (KHTML, like Gecko) Chrome/42.0.2311.152 Safari/537.36"
69.12.66.233 - - [05/Nov/2018:21:20:27 +0000] "GET /wp-content/plugins/xnxx/xnxx.php HTTP/1.1" 404 219 "http://xintanalegends.com/wp-content/plugins/xnxx/xnxx.php" "Mozilla/5.0 (Windows NT 6.1; WOW64) AppleWebKit/537.36 (KHTML, like Gecko) Chrome/42.0.2311.152 Safari/537.36"
2001:41d0:a:2110::1 - - [05/Nov/2018:22:00:03 +0000] "GET /wp-admin/network/green.php HTTP/1.1" 404 224 "http://site.ru" "Mozilla/5.0 (Windows; U; Windows NT 5.1; en-US) AppleWebKit/533.4 (KHTML, like Gecko) Chrome/5.0.375.99 Safari/533.4"
104.238.96.125 - - [05/Nov/2018:22:04:01 +0000] "GET /wp-logout.php HTTP/1.1" 404 211 "http://site.ru" "Mozilla/5.0 (Windows; U; Windows NT 5.1; en-US) AppleWebKit/533.4 (KHTML, like Gecko) Chrome/5.0.375.99 Safari/533.4"
104.238.96.125 - - [05/Nov/2018:22:04:06 +0000] "GET /wp-logout.php HTTP/1.1" 404 211 "http://site.ru" "Mozilla/5.0 (Windows; U; Windows NT 5.1; en-US) AppleWebKit/533.4 (KHTML, like Gecko) Chrome/5.0.375.99 Safari/533.4"
209.205.206.58 - - [05/Nov/2018:22:06:59 +0000] "GET /wp-blog-mail.php HTTP/1.1" 404 214 "http://site.ru" "Mozilla/5.0 (Windows; U; Windows NT 5.1; en-US) AppleWebKit/533.4 (KHTML, like Gecko) Chrome/5.0.375.99 Safari/533.4"
209.205.206.58 - - [05/Nov/2018:22:07:04 +0000] "GET /wp-blog-mail.php HTTP/1.1" 404 214 "http://site.ru" "Mozilla/5.0 (Windows; U; Windows NT 5.1; en-US) AppleWebKit/533.4 (KHTML, like Gecko) Chrome/5.0.375.99 Safari/533.4"
208.109.53.211 - - [05/Nov/2018:22:07:52 +0000] "GET /modules/mod_ariimageslidersa/098.php HTTP/1.1" 404 234 "http://site.ru" "Mozilla/5.0 (Windows; U; Windows NT 5.1; en-US) AppleWebKit/533.4 (KHTML, like Gecko) Chrome/5.0.375.99 Safari/533.4"
31.170.123.73 - - [05/Nov/2018:22:08:57 +0000] "POST /wp-cron.php?doing_wp_cron=1541455737.0830790996551513671875 HTTP/1.1" 200 40 "http://xintanalegends.com/wp-cron.php?doing_wp_cron=1541455737.0830790996551513671875" "WordPress/4.9.8; http://xintanalegends.com"
209.17.96.18 - - [05/Nov/2018:22:08:57 +0000] "GET / HTTP/1.1" 200 60591 "-" "Mozilla/5.0 (compatible; Nimbostratus-Bot/v1.3.2; http://cloudsystemnetworks.com)"
74.207.234.140 - - [05/Nov/2018:22:09:24 +0000] "GET /wp-seo.php HTTP/1.1" 404 208 "http://site.ru" "Mozilla/5.0 (Windows; U; Windows NT 5.1; en-US) AppleWebKit/533.4 (KHTML, like Gecko) Chrome/5.0.375.99 Safari/533.4"
61.181.128.227 - - [05/Nov/2018:22:19:38 +0000] "GET /wp-login.php HTTP/1.1" 200 2388 "http://xintanalegends.com/wp-login.php" "Mozilla/5.0 (Windows NT 10.0; Win64; x64) AppleWebKit/537.36 (KHTML, like Gecko) Chrome/63.0.3239.84 Safari/537.36"
61.181.128.227 - - [05/Nov/2018:22:19:59 +0000] "POST /wp-login.php HTTP/1.1" 200 3423 "http://xintanalegends.com/wp-login.php" "Mozilla/5.0 (Windows NT 10.0; Win64; x64) AppleWebKit/537.36 (KHTML, like Gecko) Chrome/63.0.3239.84 Safari/537.36"
180.76.15.157 - - [05/Nov/2018:22:33:32 +0000] "GET / HTTP/1.1" 200 14691 "-" "Mozilla/5.0 (compatible; Baiduspider/2.0; +http://www.baidu.com/search/spider.html)"
180.76.15.12 - - [05/Nov/2018:23:36:43 +0000] "GET /wp-content/plugins/merobuilder/css/front.css?ver=1.5.3 HTTP/1.1" 200 393 "-" "Mozilla/5.0 (compatible; Baiduspider/2.0; +http://www.baidu.com/search/spider.html)"
200.55.240.19 - - [06/Nov/2018:00:08:41 +0000] "GET /rois.php HTTP/1.1" 404 206 "http://site.ru" "Mozilla/5.0 (Windows; U; Windows NT 5.1; en-US) AppleWebKit/533.4 (KHTML, like Gecko) Chrome/5.0.375.99 Safari/533.4"
200.55.240.19 - - [06/Nov/2018:00:08:52 +0000] "GET /rois.php HTTP/1.1" 404 206 "http://site.ru" "Mozilla/5.0 (Windows; U; Windows NT 5.1; en-US) AppleWebKit/533.4 (KHTML, like Gecko) Chrome/5.0.375.99 Safari/533.4"
31.170.123.73 - - [06/Nov/2018:00:30:29 +0000] "POST /wp-cron.php?doing_wp_cron=1541464228.8431529998779296875000 HTTP/1.1" 200 40 "http://xintanalegends.com/wp-cron.php?doing_wp_cron=1541464228.8431529998779296875000" "WordPress/4.9.8; http://xintanalegends.com"
204.11.58.33 - - [06/Nov/2018:00:30:29 +0000] "GET /wp-login.php HTTP/1.1" 200 2400 "http://xintanalegends.com/wp-login.php" "Mozilla/5.0 (Windows NT 10.0; Win64; x64) AppleWebKit/537.36 (KHTML, like Gecko) Chrome/63.0.3239.84 Safari/537.36"
204.11.58.33 - - [06/Nov/2018:00:30:33 +0000] "POST /wp-login.php HTTP/1.1" 200 3393 "http://xintanalegends.com/wp-login.php" "Mozilla/5.0 (Windows NT 10.0; Win64; x64) AppleWebKit/537.36 (KHTML, like Gecko) Chrome/63.0.3239.84 Safari/537.36"
180.76.15.145 - - [06/Nov/2018:00:32:52 +0000] "GET / HTTP/1.1" 200 14837 "-" "Mozilla/5.0 (compatible; Baiduspider/2.0; +http://www.baidu.com/search/spider.html)"
77.232.66.11 - - [06/Nov/2018:00:40:53 +0000] "GET /wp-content/uploads/logo_img.php HTTP/1.1" 404 229 "http://site.ru" "Mozilla/5.0 (Windows; U; Windows NT 5.1; en-US) AppleWebKit/533.4 (KHTML, like Gecko) Chrome/5.0.375.99 Safari/533.4"
77.232.66.11 - - [06/Nov/2018:00:41:01 +0000] "GET /wp-content/uploads/logo_img.php HTTP/1.1" 404 229 "http://site.ru" "Mozilla/5.0 (Windows; U; Windows NT 5.1; en-US) AppleWebKit/533.4 (KHTML, like Gecko) Chrome/5.0.375.99 Safari/533.4"
31.170.123.73 - - [06/Nov/2018:01:31:59 +0000] "POST /wp-cron.php?doing_wp_cron=1541467918.9779620170593261718750 HTTP/1.1" 200 40 "http://xintanalegends.com/wp-cron.php?doing_wp_cron=1541467918.9779620170593261718750" "WordPress/4.9.8; http://xintanalegends.com"
52.53.201.78 - - [06/Nov/2018:01:31:59 +0000] "GET / HTTP/1.1" 301 5 "-" "Mozilla/5.0 (Macintosh; Intel Mac OS X 10_12_6) AppleWebKit/537.36 (KHTML, like Gecko) Chrome/61.0.3163.100 Safari/537.36"
52.53.201.78 - - [06/Nov/2018:01:32:00 +0000] "GET / HTTP/1.1" 200 14797 "http://www.xintanalegends.com/" "Mozilla/5.0 (Macintosh; Intel Mac OS X 10_12_6) AppleWebKit/537.36 (KHTML, like Gecko) Chrome/61.0.3163.100 Safari/537.36"
185.86.164.110 - - [06/Nov/2018:01:58:28 +0000] "GET /wp-login.php HTTP/1.1" 200 2400 "-" "Mozilla/5.0 (Windows NT 10.0; WOW64) AppleWebKit/537.36 (KHTML, like Gecko) Chrome/51.0.2704.103 Safari/537.36"
185.86.164.110 - - [06/Nov/2018:01:58:28 +0000] "POST /wp-login.php HTTP/1.1" 200 3333 "http://xintanalegends.com/wp-login.php" "Mozilla/5.0 (Windows NT 10.0; WOW64) AppleWebKit/537.36 (KHTML, like Gecko) Chrome/51.0.2704.103 Safari/537.36"
31.170.123.73 - - [06/Nov/2018:02:10:09 +0000] "POST /wp-cron.php?doing_wp_cron=1541470209.3056490421295166015625 HTTP/1.1" 200 40 "http://xintanalegends.com/wp-cron.php?doing_wp_cron=1541470209.3056490421295166015625" "WordPress/4.9.8; http://xintanalegends.com"
185.86.164.109 - - [06/Nov/2018:02:10:09 +0000] "GET /wp-login.php HTTP/1.1" 200 2432 "-" "Mozilla/5.0 (Windows NT 10.0; WOW64) AppleWebKit/537.36 (KHTML, like Gecko) Chrome/51.0.2704.103 Safari/537.36"
185.86.164.109 - - [06/Nov/2018:02:10:10 +0000] "POST /wp-login.php HTTP/1.1" 200 3348 "http://xintanalegends.com/wp-login.php" "Mozilla/5.0 (Windows NT 10.0; WOW64) AppleWebKit/537.36 (KHTML, like Gecko) Chrome/51.0.2704.103 Safari/537.36"
89.248.169.130 - - [06/Nov/2018:02:15:33 +0000] "POST /xmlrpc.php HTTP/1.1" 200 410 "-" "Mozilla/5.0 (Macintosh; U; Intel Mac OS X 10.6; fr; rv:1.9.2.8) Gecko/20100722 Firefox/3.6.8"
89.248.169.130 - - [06/Nov/2018:02:15:33 +0000] "POST /xmlrpc.php HTTP/1.1" 200 410 "-" "Mozilla/5.0 (Macintosh; U; Intel Mac OS X 10.6; fr; rv:1.9.2.8) Gecko/20100722 Firefox/3.6.8"
89.248.169.130 - - [06/Nov/2018:02:15:33 +0000] "POST /xmlrpc.php HTTP/1.1" 200 410 "-" "Mozilla/5.0 (Macintosh; U; Intel Mac OS X 10.6; fr; rv:1.9.2.8) Gecko/20100722 Firefox/3.6.8"
89.248.169.130 - - [06/Nov/2018:02:15:37 +0000] "POST /xmlrpc.php HTTP/1.1" 200 410 "-" "Mozilla/5.0 (Macintosh; U; Intel Mac OS X 10.6; fr; rv:1.9.2.8) Gecko/20100722 Firefox/3.6.8"
