35.161.24.165 - - [02/Nov/2018:03:05:12 +0000] "GET / HTTP/1.1" 302 31 "-" "Mozilla/5.0 (Windows NT 10.0; Win64; x64) AppleWebKit/537.36 (KHTML, like Gecko) Chrome/66.0.3359.181 Safari/537.36"
35.161.24.165 - - [02/Nov/2018:03:05:12 +0000] "GET /login_page.php HTTP/1.1" 200 1387 "-" "Mozilla/5.0 (Windows NT 10.0; Win64; x64) AppleWebKit/537.36 (KHTML, like Gecko) Chrome/66.0.3359.181 Safari/537.36"
18.216.20.127 - - [02/Nov/2018:03:21:15 +0000] "GET /login_page.php HTTP/1.1" 200 1387 "-" "Mozilla/5.0 (Macintosh; Intel Mac OS X x.y; rv:42.0) AppleWebKit/537.36 (KHTML, like Gecko) Chrome/51.0.2704.106 Safari/537.36 OPR/38.0.2220.41"
18.223.247.156 - - [02/Nov/2018:03:51:30 +0000] "GET /login_page.php HTTP/1.1" 200 1387 "-" "Mozilla/5.0 (X11; Linux x86_64) Gecko/20100101 Chrome/67.0.3396.79 Safari/537.36"
18.223.156.199 - - [02/Nov/2018:04:20:40 +0000] "GET /login_page.php HTTP/1.1" 200 1387 "-" "Mozilla/5.0 (X11; Linux x86_64) Trident/5.0 Chrome/67.0.3396.79 Safari/537.36"
18.188.69.31 - - [02/Nov/2018:04:51:39 +0000] "GET /login_page.php HTTP/1.1" 200 1387 "-" "Mozilla/5.0 (Macintosh; Intel Mac OS X x.y; rv:42.0) Trident/5.0 Firefox/42.0"
18.217.89.105 - - [02/Nov/2018:05:21:56 +0000] "GET /login_page.php HTTP/1.1" 200 1387 "-" "Mozilla/5.0 (X11; Linux x86_64) Trident/5.0 Chrome/67.0.3396.79 Safari/537.36"
18.223.156.199 - - [02/Nov/2018:05:51:55 +0000] "GET /login_page.php HTTP/1.1" 200 1387 "-" "Mozilla/5.0 (X11; Linux x86_64) Trident/5.0 Safari/602.1"
18.223.115.234 - - [02/Nov/2018:06:15:34 +0000] "GET /login_page.php HTTP/1.1" 200 1387 "-" "Mozilla/5.0 (Windows NT 6.1; Win64; x64; rv:47.0) AppleWebKit/537.36 (KHTML, like Gecko) Chrome/51.0.2704.106 Safari/537.36 OPR/38.0.2220.41"
66.249.66.57 - - [02/Nov/2018:09:04:02 +0000] "GET /robots.txt HTTP/1.1" 404 204 "-" "Mozilla/5.0 (compatible; Googlebot/2.1; +http://www.google.com/bot.html)"
66.249.66.55 - - [02/Nov/2018:09:04:29 +0000] "GET /my_view_page.php HTTP/1.1" 302 31 "-" "Mozilla/5.0 (compatible; Googlebot/2.1; +http://www.google.com/bot.html)"
66.249.66.55 - - [02/Nov/2018:09:04:58 +0000] "GET /login_page.php?return=%2Fmy_view_page.php HTTP/1.1" 200 1386 "-" "Mozilla/5.0 (compatible; Googlebot/2.1; +http://www.google.com/bot.html)"
66.249.66.55 - - [02/Nov/2018:09:05:05 +0000] "GET /css/common_config.php HTTP/1.1" 200 151 "http://orangepotion.com/login_page.php?return=%2Fmy_view_page.php" "Mozilla/5.0 AppleWebKit/537.36 (KHTML, like Gecko; compatible; Googlebot/2.1; +http://www.google.com/bot.html) Safari/537.36"
66.249.66.55 - - [02/Nov/2018:09:05:10 +0000] "GET /favicon.ico HTTP/1.1" 404 206 "-" "Googlebot-Image/1.0"
52.53.201.78 - - [02/Nov/2018:09:20:03 +0000] "GET / HTTP/1.1" 302 31 "-" "Mozilla/5.0 (Macintosh; Intel Mac OS X 10_12_6) AppleWebKit/537.36 (KHTML, like Gecko) Chrome/61.0.3163.100 Safari/537.36"
52.53.201.78 - - [02/Nov/2018:09:20:04 +0000] "GET /login_page.php HTTP/1.1" 200 1390 "http://www.orangepotion.com/" "Mozilla/5.0 (Macintosh; Intel Mac OS X 10_12_6) AppleWebKit/537.36 (KHTML, like Gecko) Chrome/61.0.3163.100 Safari/537.36"
66.249.66.55 - - [02/Nov/2018:09:55:40 +0000] "GET /favicon.ico HTTP/1.1" 404 206 "-" "Googlebot-Image/1.0"
18.223.115.234 - - [02/Nov/2018:10:18:04 +0000] "GET /login_page.php HTTP/1.1" 200 1387 "-" "Mozilla/5.0 (Windows NT 6.1; Win64; x64; rv:47.0) Trident/5.0 Safari/602.1"
18.224.135.194 - - [02/Nov/2018:10:47:04 +0000] "GET /login_page.php HTTP/1.1" 200 1387 "-" "Mozilla/5.0 (Windows NT 6.1; Win64; x64; rv:47.0) AppleWebKit/537.36 (KHTML, like Gecko) Chrome/51.0.2704.106 Safari/537.36 OPR/38.0.2220.41"
18.188.206.157 - - [02/Nov/2018:11:19:17 +0000] "GET /login_page.php HTTP/1.1" 200 1387 "-" "Mozilla/5.0 (X11; Linux x86_64) Gecko/20100101 Chrome/67.0.3396.79 Safari/537.36"
80.31.122.59 - - [02/Nov/2018:11:53:31 +0000] "GET /view_all_bug_page.php HTTP/1.1" 200 8836 "-" "Mozilla/5.0 (Windows NT 10.0; Win64; x64; rv:63.0) Gecko/20100101 Firefox/63.0"
80.31.122.59 - - [02/Nov/2018:11:53:31 +0000] "GET /css/default.css HTTP/1.1" 200 896 "http://orangepotion.com/view_all_bug_page.php" "Mozilla/5.0 (Windows NT 10.0; Win64; x64; rv:63.0) Gecko/20100101 Firefox/63.0"
80.31.122.59 - - [02/Nov/2018:11:53:31 +0000] "GET /css/open-sans.css HTTP/1.1" 200 692 "http://orangepotion.com/view_all_bug_page.php" "Mozilla/5.0 (Windows NT 10.0; Win64; x64; rv:63.0) Gecko/20100101 Firefox/63.0"
80.31.122.59 - - [02/Nov/2018:11:53:31 +0000] "GET /css/dropzone-4.3.0.min.css HTTP/1.1" 200 1791 "http://orangepotion.com/view_all_bug_page.php" "Mozilla/5.0 (Windows NT 10.0; Win64; x64; rv:63.0) Gecko/20100101 Firefox/63.0"
80.31.122.59 - - [02/Nov/2018:11:53:31 +0000] "GET /css/font-awesome-4.6.3.min.css HTTP/1.1" 200 7523 "http://orangepotion.com/view_all_bug_page.php" "Mozilla/5.0 (Windows NT 10.0; Win64; x64; rv:63.0) Gecko/20100101 Firefox/63.0"
80.31.122.59 - - [02/Nov/2018:11:53:31 +0000] "GET /css/bootstrap-3.3.6.min.css HTTP/1.1" 200 25138 "http://orangepotion.com/view_all_bug_page.php" "Mozilla/5.0 (Windows NT 10.0; Win64; x64; rv:63.0) Gecko/20100101 Firefox/63.0"
80.31.122.59 - - [02/Nov/2018:11:53:31 +0000] "GET /css/bootstrap-datetimepicker-4.17.47.min.css HTTP/1.1" 200 1501 "http://orangepotion.com/view_all_bug_page.php" "Mozilla/5.0 (Windows NT 10.0; Win64; x64; rv:63.0) Gecko/20100101 Firefox/63.0"
80.31.122.59 - - [02/Nov/2018:11:53:31 +0000] "GET /css/ace-mantis.css HTTP/1.1" 200 3489 "http://orangepotion.com/view_all_bug_page.php" "Mozilla/5.0 (Windows NT 10.0; Win64; x64; rv:63.0) Gecko/20100101 Firefox/63.0"
80.31.122.59 - - [02/Nov/2018:11:53:31 +0000] "GET /css/ace-skins.min.css HTTP/1.1" 200 3264 "http://orangepotion.com/view_all_bug_page.php" "Mozilla/5.0 (Windows NT 10.0; Win64; x64; rv:63.0) Gecko/20100101 Firefox/63.0"
80.31.122.59 - - [02/Nov/2018:11:53:31 +0000] "GET /css/ace.min.css HTTP/1.1" 200 60724 "http://orangepotion.com/view_all_bug_page.php" "Mozilla/5.0 (Windows NT 10.0; Win64; x64; rv:63.0) Gecko/20100101 Firefox/63.0"
80.31.122.59 - - [02/Nov/2018:11:53:31 +0000] "GET /css/common_config.php HTTP/1.1" 200 156 "http://orangepotion.com/view_all_bug_page.php" "Mozilla/5.0 (Windows NT 10.0; Win64; x64; rv:63.0) Gecko/20100101 Firefox/63.0"
80.31.122.59 - - [02/Nov/2018:11:53:31 +0000] "GET /js/jquery-2.2.4.min.js HTTP/1.1" 200 34800 "http://orangepotion.com/view_all_bug_page.php" "Mozilla/5.0 (Windows NT 10.0; Win64; x64; rv:63.0) Gecko/20100101 Firefox/63.0"
80.31.122.59 - - [02/Nov/2018:11:53:31 +0000] "GET /css/status_config.php HTTP/1.1" 200 171 "http://orangepotion.com/view_all_bug_page.php" "Mozilla/5.0 (Windows NT 10.0; Win64; x64; rv:63.0) Gecko/20100101 Firefox/63.0"
80.31.122.59 - - [02/Nov/2018:11:53:31 +0000] "GET /js/dropzone-4.3.0.min.js HTTP/1.1" 200 11672 "http://orangepotion.com/view_all_bug_page.php" "Mozilla/5.0 (Windows NT 10.0; Win64; x64; rv:63.0) Gecko/20100101 Firefox/63.0"
80.31.122.59 - - [02/Nov/2018:11:53:31 +0000] "GET /js/common.js HTTP/1.1" 200 5743 "http://orangepotion.com/view_all_bug_page.php" "Mozilla/5.0 (Windows NT 10.0; Win64; x64; rv:63.0) Gecko/20100101 Firefox/63.0"
80.31.122.59 - - [02/Nov/2018:11:53:31 +0000] "GET /js/bugFilter.js HTTP/1.1" 200 1343 "http://orangepotion.com/view_all_bug_page.php" "Mozilla/5.0 (Windows NT 10.0; Win64; x64; rv:63.0) Gecko/20100101 Firefox/63.0"
80.31.122.59 - - [02/Nov/2018:11:53:31 +0000] "GET /plugin_file.php?file=Source/style.css HTTP/1.1" 200 2928 "http://orangepotion.com/view_all_bug_page.php" "Mozilla/5.0 (Windows NT 10.0; Win64; x64; rv:63.0) Gecko/20100101 Firefox/63.0"
80.31.122.59 - - [02/Nov/2018:11:53:31 +0000] "GET /js/bootstrap-3.3.6.min.js HTTP/1.1" 200 11846 "http://orangepotion.com/view_all_bug_page.php" "Mozilla/5.0 (Windows NT 10.0; Win64; x64; rv:63.0) Gecko/20100101 Firefox/63.0"
80.31.122.59 - - [02/Nov/2018:11:53:31 +0000] "GET /javascript_config.php HTTP/1.1" 200 118 "http://orangepotion.com/view_all_bug_page.php" "Mozilla/5.0 (Windows NT 10.0; Win64; x64; rv:63.0) Gecko/20100101 Firefox/63.0"
80.31.122.59 - - [02/Nov/2018:11:53:31 +0000] "GET /javascript_translations.php HTTP/1.1" 200 141 "http://orangepotion.com/view_all_bug_page.php" "Mozilla/5.0 (Windows NT 10.0; Win64; x64; rv:63.0) Gecko/20100101 Firefox/63.0"
80.31.122.59 - - [02/Nov/2018:11:53:31 +0000] "GET /js/bootstrap-datetimepicker-4.17.47.min.js HTTP/1.1" 200 11073 "http://orangepotion.com/view_all_bug_page.php" "Mozilla/5.0 (Windows NT 10.0; Win64; x64; rv:63.0) Gecko/20100101 Firefox/63.0"
80.31.122.59 - - [02/Nov/2018:11:53:31 +0000] "GET /js/moment-with-locales-2.15.2.min.js HTTP/1.1" 200 74888 "http://orangepotion.com/view_all_bug_page.php" "Mozilla/5.0 (Windows NT 10.0; Win64; x64; rv:63.0) Gecko/20100101 Firefox/63.0"
80.31.122.59 - - [02/Nov/2018:11:53:32 +0000] "GET /js/list-1.4.1.min.js HTTP/1.1" 200 5973 "http://orangepotion.com/view_all_bug_page.php" "Mozilla/5.0 (Windows NT 10.0; Win64; x64; rv:63.0) Gecko/20100101 Firefox/63.0"
80.31.122.59 - - [02/Nov/2018:11:53:32 +0000] "GET /js/typeahead.jquery-1.1.1.min.js HTTP/1.1" 200 12357 "http://orangepotion.com/view_all_bug_page.php" "Mozilla/5.0 (Windows NT 10.0; Win64; x64; rv:63.0) Gecko/20100101 Firefox/63.0"
80.31.122.59 - - [02/Nov/2018:11:53:32 +0000] "GET /plugin_file.php?file=MantisGraph/chart-2.1.6.min.js HTTP/1.1" 200 37223 "http://orangepotion.com/view_all_bug_page.php" "Mozilla/5.0 (Windows NT 10.0; Win64; x64; rv:63.0) Gecko/20100101 Firefox/63.0"
80.31.122.59 - - [02/Nov/2018:11:53:32 +0000] "GET /js/ace.min.js HTTP/1.1" 200 14176 "http://orangepotion.com/view_all_bug_page.php" "Mozilla/5.0 (Windows NT 10.0; Win64; x64; rv:63.0) Gecko/20100101 Firefox/63.0"
80.31.122.59 - - [02/Nov/2018:11:53:32 +0000] "GET /plugin_file.php?file=MantisGraph/chart.bundle-2.1.6.min.js HTTP/1.1" 200 52163 "http://orangepotion.com/view_all_bug_page.php" "Mozilla/5.0 (Windows NT 10.0; Win64; x64; rv:63.0) Gecko/20100101 Firefox/63.0"
80.31.122.59 - - [02/Nov/2018:11:53:32 +0000] "GET /plugin_file.php?file=MantisGraph/MantisGraph.js HTTP/1.1" 200 508 "http://orangepotion.com/view_all_bug_page.php" "Mozilla/5.0 (Windows NT 10.0; Win64; x64; rv:63.0) Gecko/20100101 Firefox/63.0"
80.31.122.59 - - [02/Nov/2018:11:53:32 +0000] "GET /images/mantis_logo.png HTTP/1.1" 200 77114 "http://orangepotion.com/view_all_bug_page.php" "Mozilla/5.0 (Windows NT 10.0; Win64; x64; rv:63.0) Gecko/20100101 Firefox/63.0"
80.31.122.59 - - [02/Nov/2018:11:53:32 +0000] "GET /fonts/cJZKeOuBrn4kERxqtaUH3T8E0i7KZn-EPnyo3HZu7kw.woff HTTP/1.1" 200 21956 "http://orangepotion.com/css/open-sans.css" "Mozilla/5.0 (Windows NT 10.0; Win64; x64; rv:63.0) Gecko/20100101 Firefox/63.0"
80.31.122.59 - - [02/Nov/2018:11:53:32 +0000] "GET /fonts/DXI1ORHCpsQm3Vp6mXoaTXhCUOGz7vYGh680lGh-uXM.woff HTTP/1.1" 200 22656 "http://orangepotion.com/css/open-sans.css" "Mozilla/5.0 (Windows NT 10.0; Win64; x64; rv:63.0) Gecko/20100101 Firefox/63.0"
80.31.122.59 - - [02/Nov/2018:11:53:32 +0000] "GET /fonts/fontawesome-webfont.woff2?v=4.6.3 HTTP/1.1" 200 71896 "http://orangepotion.com/css/font-awesome-4.6.3.min.css" "Mozilla/5.0 (Windows NT 10.0; Win64; x64; rv:63.0) Gecko/20100101 Firefox/63.0"
80.31.122.59 - - [02/Nov/2018:11:53:32 +0000] "GET /images/favicon.ico HTTP/1.1" 200 5254 "-" "Mozilla/5.0 (Windows NT 10.0; Win64; x64; rv:63.0) Gecko/20100101 Firefox/63.0"
80.31.122.59 - - [02/Nov/2018:11:53:44 +0000] "GET /view_all_bug_page.php HTTP/1.1" 200 8837 "-" "Mozilla/5.0 (Windows NT 10.0; Win64; x64; rv:63.0) Gecko/20100101 Firefox/63.0"
80.31.122.59 - - [02/Nov/2018:11:53:44 +0000] "GET /css/default.css HTTP/1.1" 304 0 "http://orangepotion.com/view_all_bug_page.php" "Mozilla/5.0 (Windows NT 10.0; Win64; x64; rv:63.0) Gecko/20100101 Firefox/63.0"
80.31.122.59 - - [02/Nov/2018:11:53:44 +0000] "GET /css/dropzone-4.3.0.min.css HTTP/1.1" 304 0 "http://orangepotion.com/view_all_bug_page.php" "Mozilla/5.0 (Windows NT 10.0; Win64; x64; rv:63.0) Gecko/20100101 Firefox/63.0"
80.31.122.59 - - [02/Nov/2018:11:53:44 +0000] "GET /css/bootstrap-3.3.6.min.css HTTP/1.1" 304 0 "http://orangepotion.com/view_all_bug_page.php" "Mozilla/5.0 (Windows NT 10.0; Win64; x64; rv:63.0) Gecko/20100101 Firefox/63.0"
80.31.122.59 - - [02/Nov/2018:11:53:44 +0000] "GET /css/open-sans.css HTTP/1.1" 304 0 "http://orangepotion.com/view_all_bug_page.php" "Mozilla/5.0 (Windows NT 10.0; Win64; x64; rv:63.0) Gecko/20100101 Firefox/63.0"
80.31.122.59 - - [02/Nov/2018:11:53:44 +0000] "GET /css/font-awesome-4.6.3.min.css HTTP/1.1" 304 0 "http://orangepotion.com/view_all_bug_page.php" "Mozilla/5.0 (Windows NT 10.0; Win64; x64; rv:63.0) Gecko/20100101 Firefox/63.0"
80.31.122.59 - - [02/Nov/2018:11:53:44 +0000] "GET /css/bootstrap-datetimepicker-4.17.47.min.css HTTP/1.1" 304 0 "http://orangepotion.com/view_all_bug_page.php" "Mozilla/5.0 (Windows NT 10.0; Win64; x64; rv:63.0) Gecko/20100101 Firefox/63.0"
80.31.122.59 - - [02/Nov/2018:11:53:44 +0000] "GET /css/ace.min.css HTTP/1.1" 304 0 "http://orangepotion.com/view_all_bug_page.php" "Mozilla/5.0 (Windows NT 10.0; Win64; x64; rv:63.0) Gecko/20100101 Firefox/63.0"
80.31.122.59 - - [02/Nov/2018:11:53:44 +0000] "GET /css/ace-mantis.css HTTP/1.1" 304 0 "http://orangepotion.com/view_all_bug_page.php" "Mozilla/5.0 (Windows NT 10.0; Win64; x64; rv:63.0) Gecko/20100101 Firefox/63.0"
80.31.122.59 - - [02/Nov/2018:11:53:44 +0000] "GET /css/ace-skins.min.css HTTP/1.1" 304 0 "http://orangepotion.com/view_all_bug_page.php" "Mozilla/5.0 (Windows NT 10.0; Win64; x64; rv:63.0) Gecko/20100101 Firefox/63.0"
80.31.122.59 - - [02/Nov/2018:11:53:44 +0000] "GET /js/jquery-2.2.4.min.js HTTP/1.1" 304 0 "http://orangepotion.com/view_all_bug_page.php" "Mozilla/5.0 (Windows NT 10.0; Win64; x64; rv:63.0) Gecko/20100101 Firefox/63.0"
80.31.122.59 - - [02/Nov/2018:11:53:44 +0000] "GET /js/dropzone-4.3.0.min.js HTTP/1.1" 304 0 "http://orangepotion.com/view_all_bug_page.php" "Mozilla/5.0 (Windows NT 10.0; Win64; x64; rv:63.0) Gecko/20100101 Firefox/63.0"
80.31.122.59 - - [02/Nov/2018:11:53:44 +0000] "GET /js/common.js HTTP/1.1" 304 0 "http://orangepotion.com/view_all_bug_page.php" "Mozilla/5.0 (Windows NT 10.0; Win64; x64; rv:63.0) Gecko/20100101 Firefox/63.0"
80.31.122.59 - - [02/Nov/2018:11:53:44 +0000] "GET /js/bugFilter.js HTTP/1.1" 304 0 "http://orangepotion.com/view_all_bug_page.php" "Mozilla/5.0 (Windows NT 10.0; Win64; x64; rv:63.0) Gecko/20100101 Firefox/63.0"
80.31.122.59 - - [02/Nov/2018:11:53:44 +0000] "GET /css/status_config.php HTTP/1.1" 200 171 "http://orangepotion.com/view_all_bug_page.php" "Mozilla/5.0 (Windows NT 10.0; Win64; x64; rv:63.0) Gecko/20100101 Firefox/63.0"
80.31.122.59 - - [02/Nov/2018:11:53:44 +0000] "GET /css/common_config.php HTTP/1.1" 200 156 "http://orangepotion.com/view_all_bug_page.php" "Mozilla/5.0 (Windows NT 10.0; Win64; x64; rv:63.0) Gecko/20100101 Firefox/63.0"
80.31.122.59 - - [02/Nov/2018:11:53:44 +0000] "GET /javascript_translations.php HTTP/1.1" 200 141 "http://orangepotion.com/view_all_bug_page.php" "Mozilla/5.0 (Windows NT 10.0; Win64; x64; rv:63.0) Gecko/20100101 Firefox/63.0"
80.31.122.59 - - [02/Nov/2018:11:53:45 +0000] "GET /javascript_config.php HTTP/1.1" 200 118 "http://orangepotion.com/view_all_bug_page.php" "Mozilla/5.0 (Windows NT 10.0; Win64; x64; rv:63.0) Gecko/20100101 Firefox/63.0"
80.31.122.59 - - [02/Nov/2018:11:53:45 +0000] "GET /js/bootstrap-3.3.6.min.js HTTP/1.1" 304 0 "http://orangepotion.com/view_all_bug_page.php" "Mozilla/5.0 (Windows NT 10.0; Win64; x64; rv:63.0) Gecko/20100101 Firefox/63.0"
80.31.122.59 - - [02/Nov/2018:11:53:45 +0000] "GET /js/moment-with-locales-2.15.2.min.js HTTP/1.1" 304 0 "http://orangepotion.com/view_all_bug_page.php" "Mozilla/5.0 (Windows NT 10.0; Win64; x64; rv:63.0) Gecko/20100101 Firefox/63.0"
80.31.122.59 - - [02/Nov/2018:11:53:45 +0000] "GET /js/bootstrap-datetimepicker-4.17.47.min.js HTTP/1.1" 304 0 "http://orangepotion.com/view_all_bug_page.php" "Mozilla/5.0 (Windows NT 10.0; Win64; x64; rv:63.0) Gecko/20100101 Firefox/63.0"
80.31.122.59 - - [02/Nov/2018:11:53:45 +0000] "GET /plugin_file.php?file=MantisGraph/chart-2.1.6.min.js HTTP/1.1" 304 0 "http://orangepotion.com/view_all_bug_page.php" "Mozilla/5.0 (Windows NT 10.0; Win64; x64; rv:63.0) Gecko/20100101 Firefox/63.0"
80.31.122.59 - - [02/Nov/2018:11:53:45 +0000] "GET /plugin_file.php?file=MantisGraph/MantisGraph.js HTTP/1.1" 304 0 "http://orangepotion.com/view_all_bug_page.php" "Mozilla/5.0 (Windows NT 10.0; Win64; x64; rv:63.0) Gecko/20100101 Firefox/63.0"
80.31.122.59 - - [02/Nov/2018:11:53:45 +0000] "GET /js/typeahead.jquery-1.1.1.min.js HTTP/1.1" 304 0 "http://orangepotion.com/view_all_bug_page.php" "Mozilla/5.0 (Windows NT 10.0; Win64; x64; rv:63.0) Gecko/20100101 Firefox/63.0"
80.31.122.59 - - [02/Nov/2018:11:53:45 +0000] "GET /js/list-1.4.1.min.js HTTP/1.1" 304 0 "http://orangepotion.com/view_all_bug_page.php" "Mozilla/5.0 (Windows NT 10.0; Win64; x64; rv:63.0) Gecko/20100101 Firefox/63.0"
80.31.122.59 - - [02/Nov/2018:11:53:45 +0000] "GET /js/ace.min.js HTTP/1.1" 304 0 "http://orangepotion.com/view_all_bug_page.php" "Mozilla/5.0 (Windows NT 10.0; Win64; x64; rv:63.0) Gecko/20100101 Firefox/63.0"
80.31.122.59 - - [02/Nov/2018:11:53:45 +0000] "GET /plugin_file.php?file=MantisGraph/chart.bundle-2.1.6.min.js HTTP/1.1" 304 0 "http://orangepotion.com/view_all_bug_page.php" "Mozilla/5.0 (Windows NT 10.0; Win64; x64; rv:63.0) Gecko/20100101 Firefox/63.0"
80.31.122.59 - - [02/Nov/2018:11:53:45 +0000] "GET /plugin_file.php?file=Source/style.css HTTP/1.1" 304 0 "http://orangepotion.com/view_all_bug_page.php" "Mozilla/5.0 (Windows NT 10.0; Win64; x64; rv:63.0) Gecko/20100101 Firefox/63.0"
80.31.122.59 - - [02/Nov/2018:11:53:45 +0000] "GET /images/mantis_logo.png HTTP/1.1" 304 0 "http://orangepotion.com/view_all_bug_page.php" "Mozilla/5.0 (Windows NT 10.0; Win64; x64; rv:63.0) Gecko/20100101 Firefox/63.0"
80.31.122.59 - - [02/Nov/2018:11:53:45 +0000] "GET /images/favicon.ico HTTP/1.1" 304 0 "-" "Mozilla/5.0 (Windows NT 10.0; Win64; x64; rv:63.0) Gecko/20100101 Firefox/63.0"
46.226.58.62 - - [02/Nov/2018:11:54:37 +0000] "GET / HTTP/1.1" 302 31 "-" "Mozilla/5.0 (Windows NT 10.0; WOW64) AppleWebKit/537.36 (KHTML, like Gecko) Chrome/70.0.3538.77 Safari/537.36"
46.226.58.62 - - [02/Nov/2018:11:54:38 +0000] "GET /my_view_page.php HTTP/1.1" 200 6218 "-" "Mozilla/5.0 (Windows NT 10.0; WOW64) AppleWebKit/537.36 (KHTML, like Gecko) Chrome/70.0.3538.77 Safari/537.36"
46.226.58.62 - - [02/Nov/2018:11:54:38 +0000] "GET /plugin_file.php?file=MantisGraph/chart-2.1.6.min.js HTTP/1.1" 304 0 "http://orangepotion.com/my_view_page.php" "Mozilla/5.0 (Windows NT 10.0; WOW64) AppleWebKit/537.36 (KHTML, like Gecko) Chrome/70.0.3538.77 Safari/537.36"
46.226.58.62 - - [02/Nov/2018:11:54:38 +0000] "GET /javascript_translations.php HTTP/1.1" 200 127 "http://orangepotion.com/my_view_page.php" "Mozilla/5.0 (Windows NT 10.0; WOW64) AppleWebKit/537.36 (KHTML, like Gecko) Chrome/70.0.3538.77 Safari/537.36"
46.226.58.62 - - [02/Nov/2018:11:54:38 +0000] "GET /javascript_config.php HTTP/1.1" 200 118 "http://orangepotion.com/my_view_page.php" "Mozilla/5.0 (Windows NT 10.0; WOW64) AppleWebKit/537.36 (KHTML, like Gecko) Chrome/70.0.3538.77 Safari/537.36"
46.226.58.62 - - [02/Nov/2018:11:54:38 +0000] "GET /images/mantis_logo.png HTTP/1.1" 200 77114 "http://orangepotion.com/my_view_page.php" "Mozilla/5.0 (Windows NT 10.0; WOW64) AppleWebKit/537.36 (KHTML, like Gecko) Chrome/70.0.3538.77 Safari/537.36"
46.226.58.62 - - [02/Nov/2018:11:54:38 +0000] "GET /css/status_config.php HTTP/1.1" 200 171 "http://orangepotion.com/my_view_page.php" "Mozilla/5.0 (Windows NT 10.0; WOW64) AppleWebKit/537.36 (KHTML, like Gecko) Chrome/70.0.3538.77 Safari/537.36"
46.226.58.62 - - [02/Nov/2018:11:54:38 +0000] "GET /css/common_config.php HTTP/1.1" 200 151 "http://orangepotion.com/my_view_page.php" "Mozilla/5.0 (Windows NT 10.0; WOW64) AppleWebKit/537.36 (KHTML, like Gecko) Chrome/70.0.3538.77 Safari/537.36"
46.226.58.62 - - [02/Nov/2018:11:54:38 +0000] "GET /plugin_file.php?file=MantisGraph/chart.bundle-2.1.6.min.js HTTP/1.1" 304 0 "http://orangepotion.com/my_view_page.php" "Mozilla/5.0 (Windows NT 10.0; WOW64) AppleWebKit/537.36 (KHTML, like Gecko) Chrome/70.0.3538.77 Safari/537.36"
46.226.58.62 - - [02/Nov/2018:11:54:38 +0000] "GET /plugin_file.php?file=MantisGraph/MantisGraph.js HTTP/1.1" 304 0 "http://orangepotion.com/my_view_page.php" "Mozilla/5.0 (Windows NT 10.0; WOW64) AppleWebKit/537.36 (KHTML, like Gecko) Chrome/70.0.3538.77 Safari/537.36"
46.226.58.62 - - [02/Nov/2018:11:54:38 +0000] "GET /plugin_file.php?file=Source/style.css HTTP/1.1" 304 0 "http://orangepotion.com/my_view_page.php" "Mozilla/5.0 (Windows NT 10.0; WOW64) AppleWebKit/537.36 (KHTML, like Gecko) Chrome/70.0.3538.77 Safari/537.36"
46.226.58.62 - - [02/Nov/2018:11:54:38 +0000] "GET /fonts/DXI1ORHCpsQm3Vp6mXoaTXhCUOGz7vYGh680lGh-uXM.woff HTTP/1.1" 200 22656 "http://orangepotion.com/css/open-sans.css" "Mozilla/5.0 (Windows NT 10.0; WOW64) AppleWebKit/537.36 (KHTML, like Gecko) Chrome/70.0.3538.77 Safari/537.36"
46.226.58.62 - - [02/Nov/2018:11:54:38 +0000] "GET /fonts/fontawesome-webfont.woff2?v=4.6.3 HTTP/1.1" 200 71896 "http://orangepotion.com/css/font-awesome-4.6.3.min.css" "Mozilla/5.0 (Windows NT 10.0; WOW64) AppleWebKit/537.36 (KHTML, like Gecko) Chrome/70.0.3538.77 Safari/537.36"
46.226.58.62 - - [02/Nov/2018:11:54:38 +0000] "GET /images/favicon.ico HTTP/1.1" 200 5254 "http://orangepotion.com/my_view_page.php" "Mozilla/5.0 (Windows NT 10.0; WOW64) AppleWebKit/537.36 (KHTML, like Gecko) Chrome/70.0.3538.77 Safari/537.36"
46.226.58.62 - - [02/Nov/2018:11:54:43 +0000] "GET /view_all_bug_page.php HTTP/1.1" 200 9564 "http://orangepotion.com/my_view_page.php" "Mozilla/5.0 (Windows NT 10.0; WOW64) AppleWebKit/537.36 (KHTML, like Gecko) Chrome/70.0.3538.77 Safari/537.36"
46.226.58.62 - - [02/Nov/2018:11:54:43 +0000] "GET /css/status_config.php HTTP/1.1" 200 171 "http://orangepotion.com/view_all_bug_page.php" "Mozilla/5.0 (Windows NT 10.0; WOW64) AppleWebKit/537.36 (KHTML, like Gecko) Chrome/70.0.3538.77 Safari/537.36"
46.226.58.62 - - [02/Nov/2018:11:54:43 +0000] "GET /javascript_config.php HTTP/1.1" 200 118 "http://orangepotion.com/view_all_bug_page.php" "Mozilla/5.0 (Windows NT 10.0; WOW64) AppleWebKit/537.36 (KHTML, like Gecko) Chrome/70.0.3538.77 Safari/537.36"
46.226.58.62 - - [02/Nov/2018:11:54:43 +0000] "GET /css/common_config.php HTTP/1.1" 200 151 "http://orangepotion.com/view_all_bug_page.php" "Mozilla/5.0 (Windows NT 10.0; WOW64) AppleWebKit/537.36 (KHTML, like Gecko) Chrome/70.0.3538.77 Safari/537.36"
46.226.58.62 - - [02/Nov/2018:11:54:43 +0000] "GET /javascript_translations.php HTTP/1.1" 200 127 "http://orangepotion.com/view_all_bug_page.php" "Mozilla/5.0 (Windows NT 10.0; WOW64) AppleWebKit/537.36 (KHTML, like Gecko) Chrome/70.0.3538.77 Safari/537.36"
46.226.58.62 - - [02/Nov/2018:11:54:47 +0000] "GET /return_dynamic_filters.php?view_type=simple&filter_target=handler_id_filter&filter_id=70&_=1541159684034 HTTP/1.1" 200 302 "http://orangepotion.com/view_all_bug_page.php" "Mozilla/5.0 (Windows NT 10.0; WOW64) AppleWebKit/537.36 (KHTML, like Gecko) Chrome/70.0.3538.77 Safari/537.36"
46.226.58.62 - - [02/Nov/2018:11:54:50 +0000] "POST /view_all_set.php?f=3 HTTP/1.1" 302 31 "http://orangepotion.com/view_all_bug_page.php" "Mozilla/5.0 (Windows NT 10.0; WOW64) AppleWebKit/537.36 (KHTML, like Gecko) Chrome/70.0.3538.77 Safari/537.36"
46.226.58.62 - - [02/Nov/2018:11:54:50 +0000] "GET /view_all_bug_page.php HTTP/1.1" 200 7211 "http://orangepotion.com/view_all_bug_page.php" "Mozilla/5.0 (Windows NT 10.0; WOW64) AppleWebKit/537.36 (KHTML, like Gecko) Chrome/70.0.3538.77 Safari/537.36"
46.226.58.62 - - [02/Nov/2018:11:54:50 +0000] "GET /css/status_config.php HTTP/1.1" 200 171 "http://orangepotion.com/view_all_bug_page.php" "Mozilla/5.0 (Windows NT 10.0; WOW64) AppleWebKit/537.36 (KHTML, like Gecko) Chrome/70.0.3538.77 Safari/537.36"
46.226.58.62 - - [02/Nov/2018:11:54:50 +0000] "GET /css/common_config.php HTTP/1.1" 200 151 "http://orangepotion.com/view_all_bug_page.php" "Mozilla/5.0 (Windows NT 10.0; WOW64) AppleWebKit/537.36 (KHTML, like Gecko) Chrome/70.0.3538.77 Safari/537.36"
46.226.58.62 - - [02/Nov/2018:11:54:50 +0000] "GET /javascript_config.php HTTP/1.1" 200 118 "http://orangepotion.com/view_all_bug_page.php" "Mozilla/5.0 (Windows NT 10.0; WOW64) AppleWebKit/537.36 (KHTML, like Gecko) Chrome/70.0.3538.77 Safari/537.36"
46.226.58.62 - - [02/Nov/2018:11:54:50 +0000] "GET /javascript_translations.php HTTP/1.1" 200 127 "http://orangepotion.com/view_all_bug_page.php" "Mozilla/5.0 (Windows NT 10.0; WOW64) AppleWebKit/537.36 (KHTML, like Gecko) Chrome/70.0.3538.77 Safari/537.36"
18.191.165.74 - - [02/Nov/2018:12:16:19 +0000] "GET /login_page.php HTTP/1.1" 200 1387 "-" "Mozilla/5.0 (Macintosh; Intel Mac OS X x.y; rv:42.0) Gecko/20100101 Chrome/51.0.2704.106 Safari/537.36 OPR/38.0.2220.41"
46.226.58.62 - - [02/Nov/2018:12:24:51 +0000] "GET /view_all_bug_page.php?refresh=true HTTP/1.1" 200 7219 "http://orangepotion.com/view_all_bug_page.php" "Mozilla/5.0 (Windows NT 10.0; WOW64) AppleWebKit/537.36 (KHTML, like Gecko) Chrome/70.0.3538.77 Safari/537.36"
46.226.58.62 - - [02/Nov/2018:12:24:51 +0000] "GET /css/status_config.php HTTP/1.1" 200 171 "http://orangepotion.com/view_all_bug_page.php?refresh=true" "Mozilla/5.0 (Windows NT 10.0; WOW64) AppleWebKit/537.36 (KHTML, like Gecko) Chrome/70.0.3538.77 Safari/537.36"
46.226.58.62 - - [02/Nov/2018:12:24:51 +0000] "GET /javascript_translations.php HTTP/1.1" 200 127 "http://orangepotion.com/view_all_bug_page.php?refresh=true" "Mozilla/5.0 (Windows NT 10.0; WOW64) AppleWebKit/537.36 (KHTML, like Gecko) Chrome/70.0.3538.77 Safari/537.36"
46.226.58.62 - - [02/Nov/2018:12:24:51 +0000] "GET /css/common_config.php HTTP/1.1" 200 151 "http://orangepotion.com/view_all_bug_page.php?refresh=true" "Mozilla/5.0 (Windows NT 10.0; WOW64) AppleWebKit/537.36 (KHTML, like Gecko) Chrome/70.0.3538.77 Safari/537.36"
46.226.58.62 - - [02/Nov/2018:12:24:51 +0000] "GET /javascript_config.php HTTP/1.1" 200 118 "http://orangepotion.com/view_all_bug_page.php?refresh=true" "Mozilla/5.0 (Windows NT 10.0; WOW64) AppleWebKit/537.36 (KHTML, like Gecko) Chrome/70.0.3538.77 Safari/537.36"
66.249.66.59 - - [02/Nov/2018:12:49:16 +0000] "GET /my_view_page.php HTTP/1.1" 302 31 "-" "Mozilla/5.0 (Linux; Android 6.0.1; Nexus 5X Build/MMB29P) AppleWebKit/537.36 (KHTML, like Gecko) Chrome/41.0.2272.96 Mobile Safari/537.36 (compatible; Googlebot/2.1; +http://www.google.com/bot.html)"
66.249.66.55 - - [02/Nov/2018:12:49:37 +0000] "GET /login_page.php?return=%2Fmy_view_page.php HTTP/1.1" 200 1386 "-" "Mozilla/5.0 (Linux; Android 6.0.1; Nexus 5X Build/MMB29P) AppleWebKit/537.36 (KHTML, like Gecko) Chrome/41.0.2272.96 Mobile Safari/537.36 (compatible; Googlebot/2.1; +http://www.google.com/bot.html)"
66.249.66.55 - - [02/Nov/2018:12:49:50 +0000] "GET /favicon.ico HTTP/1.1" 404 206 "-" "Googlebot-Image/1.0"
46.226.58.62 - - [02/Nov/2018:12:54:52 +0000] "GET /view_all_bug_page.php?refresh=true HTTP/1.1" 200 7217 "http://orangepotion.com/view_all_bug_page.php?refresh=true" "Mozilla/5.0 (Windows NT 10.0; WOW64) AppleWebKit/537.36 (KHTML, like Gecko) Chrome/70.0.3538.77 Safari/537.36"
46.226.58.62 - - [02/Nov/2018:12:54:52 +0000] "GET /css/status_config.php HTTP/1.1" 200 171 "http://orangepotion.com/view_all_bug_page.php?refresh=true" "Mozilla/5.0 (Windows NT 10.0; WOW64) AppleWebKit/537.36 (KHTML, like Gecko) Chrome/70.0.3538.77 Safari/537.36"
46.226.58.62 - - [02/Nov/2018:12:54:52 +0000] "GET /css/common_config.php HTTP/1.1" 200 151 "http://orangepotion.com/view_all_bug_page.php?refresh=true" "Mozilla/5.0 (Windows NT 10.0; WOW64) AppleWebKit/537.36 (KHTML, like Gecko) Chrome/70.0.3538.77 Safari/537.36"
46.226.58.62 - - [02/Nov/2018:12:54:52 +0000] "GET /javascript_config.php HTTP/1.1" 200 118 "http://orangepotion.com/view_all_bug_page.php?refresh=true" "Mozilla/5.0 (Windows NT 10.0; WOW64) AppleWebKit/537.36 (KHTML, like Gecko) Chrome/70.0.3538.77 Safari/537.36"
46.226.58.62 - - [02/Nov/2018:12:54:52 +0000] "GET /javascript_translations.php HTTP/1.1" 200 127 "http://orangepotion.com/view_all_bug_page.php?refresh=true" "Mozilla/5.0 (Windows NT 10.0; WOW64) AppleWebKit/537.36 (KHTML, like Gecko) Chrome/70.0.3538.77 Safari/537.36"
18.188.206.157 - - [02/Nov/2018:13:17:36 +0000] "GET /login_page.php HTTP/1.1" 200 1387 "-" "Mozilla/5.0 (Macintosh; Intel Mac OS X x.y; rv:42.0) AppleWebKit/537.36 (KHTML, like Gecko) Safari/602.1"
46.226.58.62 - - [02/Nov/2018:13:24:53 +0000] "GET /view_all_bug_page.php?refresh=true HTTP/1.1" 200 7220 "http://orangepotion.com/view_all_bug_page.php?refresh=true" "Mozilla/5.0 (Windows NT 10.0; WOW64) AppleWebKit/537.36 (KHTML, like Gecko) Chrome/70.0.3538.77 Safari/537.36"
46.226.58.62 - - [02/Nov/2018:13:24:53 +0000] "GET /css/common_config.php HTTP/1.1" 200 151 "http://orangepotion.com/view_all_bug_page.php?refresh=true" "Mozilla/5.0 (Windows NT 10.0; WOW64) AppleWebKit/537.36 (KHTML, like Gecko) Chrome/70.0.3538.77 Safari/537.36"
46.226.58.62 - - [02/Nov/2018:13:24:53 +0000] "GET /javascript_config.php HTTP/1.1" 200 118 "http://orangepotion.com/view_all_bug_page.php?refresh=true" "Mozilla/5.0 (Windows NT 10.0; WOW64) AppleWebKit/537.36 (KHTML, like Gecko) Chrome/70.0.3538.77 Safari/537.36"
46.226.58.62 - - [02/Nov/2018:13:24:53 +0000] "GET /css/status_config.php HTTP/1.1" 200 171 "http://orangepotion.com/view_all_bug_page.php?refresh=true" "Mozilla/5.0 (Windows NT 10.0; WOW64) AppleWebKit/537.36 (KHTML, like Gecko) Chrome/70.0.3538.77 Safari/537.36"
46.226.58.62 - - [02/Nov/2018:13:24:53 +0000] "GET /javascript_translations.php HTTP/1.1" 200 127 "http://orangepotion.com/view_all_bug_page.php?refresh=true" "Mozilla/5.0 (Windows NT 10.0; WOW64) AppleWebKit/537.36 (KHTML, like Gecko) Chrome/70.0.3538.77 Safari/537.36"
18.222.34.244 - - [02/Nov/2018:13:51:13 +0000] "GET /login_page.php HTTP/1.1" 200 1387 "-" "Mozilla/5.0 (Windows NT 6.1; Win64; x64; rv:47.0) AppleWebKit/537.36 (KHTML, like Gecko) Chrome/51.0.2704.106 Safari/537.36 OPR/38.0.2220.41"
46.226.58.62 - - [02/Nov/2018:13:54:54 +0000] "GET /view_all_bug_page.php?refresh=true HTTP/1.1" 200 7219 "http://orangepotion.com/view_all_bug_page.php?refresh=true" "Mozilla/5.0 (Windows NT 10.0; WOW64) AppleWebKit/537.36 (KHTML, like Gecko) Chrome/70.0.3538.77 Safari/537.36"
46.226.58.62 - - [02/Nov/2018:13:54:54 +0000] "GET /css/status_config.php HTTP/1.1" 200 171 "http://orangepotion.com/view_all_bug_page.php?refresh=true" "Mozilla/5.0 (Windows NT 10.0; WOW64) AppleWebKit/537.36 (KHTML, like Gecko) Chrome/70.0.3538.77 Safari/537.36"
46.226.58.62 - - [02/Nov/2018:13:54:54 +0000] "GET /css/common_config.php HTTP/1.1" 200 151 "http://orangepotion.com/view_all_bug_page.php?refresh=true" "Mozilla/5.0 (Windows NT 10.0; WOW64) AppleWebKit/537.36 (KHTML, like Gecko) Chrome/70.0.3538.77 Safari/537.36"
46.226.58.62 - - [02/Nov/2018:13:54:54 +0000] "GET /javascript_config.php HTTP/1.1" 200 118 "http://orangepotion.com/view_all_bug_page.php?refresh=true" "Mozilla/5.0 (Windows NT 10.0; WOW64) AppleWebKit/537.36 (KHTML, like Gecko) Chrome/70.0.3538.77 Safari/537.36"
46.226.58.62 - - [02/Nov/2018:13:54:54 +0000] "GET /javascript_translations.php HTTP/1.1" 200 127 "http://orangepotion.com/view_all_bug_page.php?refresh=true" "Mozilla/5.0 (Windows NT 10.0; WOW64) AppleWebKit/537.36 (KHTML, like Gecko) Chrome/70.0.3538.77 Safari/537.36"
167.99.211.55 - - [02/Nov/2018:14:14:10 +0000] "GET / HTTP/1.1" 302 31 "-" "Mozilla/4.0 (compatible; MSIE 7.0; Windows NT 6.1; WOW64; Trident/6.0;)"
167.99.211.55 - - [02/Nov/2018:14:14:10 +0000] "GET /login_page.php HTTP/1.1" 200 1387 "-" "Mozilla/4.0 (compatible; MSIE 7.0; Windows NT 6.1; WOW64; Trident/6.0;)"
18.218.156.196 - - [02/Nov/2018:14:20:10 +0000] "GET /login_page.php HTTP/1.1" 200 1387 "-" "Mozilla/5.0 (Windows NT 6.1; Win64; x64; rv:47.0) Gecko/20100101 Chrome/67.0.3396.79 Safari/537.36"
46.226.58.62 - - [02/Nov/2018:14:24:54 +0000] "GET /view_all_bug_page.php?refresh=true HTTP/1.1" 200 7218 "http://orangepotion.com/view_all_bug_page.php?refresh=true" "Mozilla/5.0 (Windows NT 10.0; WOW64) AppleWebKit/537.36 (KHTML, like Gecko) Chrome/70.0.3538.77 Safari/537.36"
46.226.58.62 - - [02/Nov/2018:14:24:55 +0000] "GET /css/common_config.php HTTP/1.1" 200 151 "http://orangepotion.com/view_all_bug_page.php?refresh=true" "Mozilla/5.0 (Windows NT 10.0; WOW64) AppleWebKit/537.36 (KHTML, like Gecko) Chrome/70.0.3538.77 Safari/537.36"
46.226.58.62 - - [02/Nov/2018:14:24:55 +0000] "GET /css/status_config.php HTTP/1.1" 200 171 "http://orangepotion.com/view_all_bug_page.php?refresh=true" "Mozilla/5.0 (Windows NT 10.0; WOW64) AppleWebKit/537.36 (KHTML, like Gecko) Chrome/70.0.3538.77 Safari/537.36"
46.226.58.62 - - [02/Nov/2018:14:24:55 +0000] "GET /javascript_translations.php HTTP/1.1" 200 127 "http://orangepotion.com/view_all_bug_page.php?refresh=true" "Mozilla/5.0 (Windows NT 10.0; WOW64) AppleWebKit/537.36 (KHTML, like Gecko) Chrome/70.0.3538.77 Safari/537.36"
46.226.58.62 - - [02/Nov/2018:14:24:55 +0000] "GET /javascript_config.php HTTP/1.1" 200 118 "http://orangepotion.com/view_all_bug_page.php?refresh=true" "Mozilla/5.0 (Windows NT 10.0; WOW64) AppleWebKit/537.36 (KHTML, like Gecko) Chrome/70.0.3538.77 Safari/537.36"
18.222.238.207 - - [02/Nov/2018:14:50:39 +0000] "GET /login_page.php HTTP/1.1" 200 1387 "-" "Mozilla/5.0 (Macintosh; Intel Mac OS X x.y; rv:42.0) Trident/5.0 Chrome/67.0.3396.79 Safari/537.36"
46.226.58.62 - - [02/Nov/2018:14:54:55 +0000] "GET /view_all_bug_page.php?refresh=true HTTP/1.1" 200 7219 "http://orangepotion.com/view_all_bug_page.php?refresh=true" "Mozilla/5.0 (Windows NT 10.0; WOW64) AppleWebKit/537.36 (KHTML, like Gecko) Chrome/70.0.3538.77 Safari/537.36"
46.226.58.62 - - [02/Nov/2018:14:54:55 +0000] "GET /css/common_config.php HTTP/1.1" 200 151 "http://orangepotion.com/view_all_bug_page.php?refresh=true" "Mozilla/5.0 (Windows NT 10.0; WOW64) AppleWebKit/537.36 (KHTML, like Gecko) Chrome/70.0.3538.77 Safari/537.36"
46.226.58.62 - - [02/Nov/2018:14:54:55 +0000] "GET /css/status_config.php HTTP/1.1" 200 171 "http://orangepotion.com/view_all_bug_page.php?refresh=true" "Mozilla/5.0 (Windows NT 10.0; WOW64) AppleWebKit/537.36 (KHTML, like Gecko) Chrome/70.0.3538.77 Safari/537.36"
46.226.58.62 - - [02/Nov/2018:14:54:56 +0000] "GET /plugin_file.php?file=Source/style.css HTTP/1.1" 304 0 "http://orangepotion.com/view_all_bug_page.php?refresh=true" "Mozilla/5.0 (Windows NT 10.0; WOW64) AppleWebKit/537.36 (KHTML, like Gecko) Chrome/70.0.3538.77 Safari/537.36"
46.226.58.62 - - [02/Nov/2018:14:54:56 +0000] "GET /javascript_config.php HTTP/1.1" 200 118 "http://orangepotion.com/view_all_bug_page.php?refresh=true" "Mozilla/5.0 (Windows NT 10.0; WOW64) AppleWebKit/537.36 (KHTML, like Gecko) Chrome/70.0.3538.77 Safari/537.36"
46.226.58.62 - - [02/Nov/2018:14:54:56 +0000] "GET /javascript_translations.php HTTP/1.1" 200 127 "http://orangepotion.com/view_all_bug_page.php?refresh=true" "Mozilla/5.0 (Windows NT 10.0; WOW64) AppleWebKit/537.36 (KHTML, like Gecko) Chrome/70.0.3538.77 Safari/537.36"
46.226.58.62 - - [02/Nov/2018:14:54:56 +0000] "GET /plugin_file.php?file=MantisGraph/chart-2.1.6.min.js HTTP/1.1" 304 0 "http://orangepotion.com/view_all_bug_page.php?refresh=true" "Mozilla/5.0 (Windows NT 10.0; WOW64) AppleWebKit/537.36 (KHTML, like Gecko) Chrome/70.0.3538.77 Safari/537.36"
46.226.58.62 - - [02/Nov/2018:14:54:56 +0000] "GET /plugin_file.php?file=MantisGraph/chart.bundle-2.1.6.min.js HTTP/1.1" 304 0 "http://orangepotion.com/view_all_bug_page.php?refresh=true" "Mozilla/5.0 (Windows NT 10.0; WOW64) AppleWebKit/537.36 (KHTML, like Gecko) Chrome/70.0.3538.77 Safari/537.36"
46.226.58.62 - - [02/Nov/2018:14:54:56 +0000] "GET /plugin_file.php?file=MantisGraph/MantisGraph.js HTTP/1.1" 304 0 "http://orangepotion.com/view_all_bug_page.php?refresh=true" "Mozilla/5.0 (Windows NT 10.0; WOW64) AppleWebKit/537.36 (KHTML, like Gecko) Chrome/70.0.3538.77 Safari/537.36"
95.108.181.61 - - [02/Nov/2018:14:58:33 +0000] "GET /robots.txt HTTP/1.1" 404 208 "-" "Mozilla/5.0 (compatible; YandexBot/3.0; +http://yandex.com/bots)"
178.154.171.84 - - [02/Nov/2018:14:58:33 +0000] "GET /robots.txt HTTP/1.1" 404 208 "-" "Mozilla/5.0 (compatible; YandexBot/3.0; +http://yandex.com/bots)"
95.108.181.49 - - [02/Nov/2018:14:58:37 +0000] "GET / HTTP/1.1" 302 31 "-" "Mozilla/5.0 (compatible; YandexBot/3.0; +http://yandex.com/bots)"
178.154.200.41 - - [02/Nov/2018:14:58:37 +0000] "GET / HTTP/1.1" 302 31 "-" "Mozilla/5.0 (compatible; YandexBot/3.0; +http://yandex.com/bots)"
37.9.113.168 - - [02/Nov/2018:14:58:41 +0000] "GET /login_page.php HTTP/1.1" 200 1477 "-" "Mozilla/5.0 (compatible; YandexBot/3.0; +http://yandex.com/bots)"
213.180.203.23 - - [02/Nov/2018:14:58:41 +0000] "GET /login_page.php HTTP/1.1" 200 1479 "-" "Mozilla/5.0 (compatible; YandexBot/3.0; +http://yandex.com/bots)"
18.222.143.109 - - [02/Nov/2018:15:22:31 +0000] "GET /login_page.php HTTP/1.1" 200 1387 "-" "Mozilla/5.0 (Macintosh; Intel Mac OS X x.y; rv:42.0) Trident/5.0 Firefox/42.0"
46.226.58.62 - - [02/Nov/2018:15:24:56 +0000] "GET /view_all_bug_page.php?refresh=true HTTP/1.1" 200 7220 "http://orangepotion.com/view_all_bug_page.php?refresh=true" "Mozilla/5.0 (Windows NT 10.0; WOW64) AppleWebKit/537.36 (KHTML, like Gecko) Chrome/70.0.3538.77 Safari/537.36"
46.226.58.62 - - [02/Nov/2018:15:24:56 +0000] "GET /css/common_config.php HTTP/1.1" 200 151 "http://orangepotion.com/view_all_bug_page.php?refresh=true" "Mozilla/5.0 (Windows NT 10.0; WOW64) AppleWebKit/537.36 (KHTML, like Gecko) Chrome/70.0.3538.77 Safari/537.36"
46.226.58.62 - - [02/Nov/2018:15:24:57 +0000] "GET /css/status_config.php HTTP/1.1" 200 171 "http://orangepotion.com/view_all_bug_page.php?refresh=true" "Mozilla/5.0 (Windows NT 10.0; WOW64) AppleWebKit/537.36 (KHTML, like Gecko) Chrome/70.0.3538.77 Safari/537.36"
46.226.58.62 - - [02/Nov/2018:15:24:57 +0000] "GET /javascript_config.php HTTP/1.1" 200 118 "http://orangepotion.com/view_all_bug_page.php?refresh=true" "Mozilla/5.0 (Windows NT 10.0; WOW64) AppleWebKit/537.36 (KHTML, like Gecko) Chrome/70.0.3538.77 Safari/537.36"
46.226.58.62 - - [02/Nov/2018:15:24:57 +0000] "GET /javascript_translations.php HTTP/1.1" 200 127 "http://orangepotion.com/view_all_bug_page.php?refresh=true" "Mozilla/5.0 (Windows NT 10.0; WOW64) AppleWebKit/537.36 (KHTML, like Gecko) Chrome/70.0.3538.77 Safari/537.36"
18.218.10.23 - - [02/Nov/2018:15:50:56 +0000] "GET /login_page.php HTTP/1.1" 200 1387 "-" "Mozilla/5.0 (Macintosh; Intel Mac OS X x.y; rv:42.0) Trident/5.0 Chrome/67.0.3396.79 Safari/537.36"
46.226.58.62 - - [02/Nov/2018:15:54:57 +0000] "GET /view_all_bug_page.php?refresh=true HTTP/1.1" 200 7218 "http://orangepotion.com/view_all_bug_page.php?refresh=true" "Mozilla/5.0 (Windows NT 10.0; WOW64) AppleWebKit/537.36 (KHTML, like Gecko) Chrome/70.0.3538.77 Safari/537.36"
46.226.58.62 - - [02/Nov/2018:15:54:57 +0000] "GET /css/status_config.php HTTP/1.1" 200 171 "http://orangepotion.com/view_all_bug_page.php?refresh=true" "Mozilla/5.0 (Windows NT 10.0; WOW64) AppleWebKit/537.36 (KHTML, like Gecko) Chrome/70.0.3538.77 Safari/537.36"
46.226.58.62 - - [02/Nov/2018:15:54:58 +0000] "GET /css/common_config.php HTTP/1.1" 200 151 "http://orangepotion.com/view_all_bug_page.php?refresh=true" "Mozilla/5.0 (Windows NT 10.0; WOW64) AppleWebKit/537.36 (KHTML, like Gecko) Chrome/70.0.3538.77 Safari/537.36"
46.226.58.62 - - [02/Nov/2018:15:54:58 +0000] "GET /javascript_config.php HTTP/1.1" 200 118 "http://orangepotion.com/view_all_bug_page.php?refresh=true" "Mozilla/5.0 (Windows NT 10.0; WOW64) AppleWebKit/537.36 (KHTML, like Gecko) Chrome/70.0.3538.77 Safari/537.36"
46.226.58.62 - - [02/Nov/2018:15:54:58 +0000] "GET /javascript_translations.php HTTP/1.1" 200 127 "http://orangepotion.com/view_all_bug_page.php?refresh=true" "Mozilla/5.0 (Windows NT 10.0; WOW64) AppleWebKit/537.36 (KHTML, like Gecko) Chrome/70.0.3538.77 Safari/537.36"
18.222.207.230 - - [02/Nov/2018:16:19:37 +0000] "GET /login_page.php HTTP/1.1" 200 1387 "-" "Mozilla/5.0 (Windows NT 6.1; Win64; x64; rv:47.0) Gecko/20100101 Safari/602.1"
46.226.58.62 - - [02/Nov/2018:16:24:58 +0000] "GET /view_all_bug_page.php?refresh=true HTTP/1.1" 200 7220 "http://orangepotion.com/view_all_bug_page.php?refresh=true" "Mozilla/5.0 (Windows NT 10.0; WOW64) AppleWebKit/537.36 (KHTML, like Gecko) Chrome/70.0.3538.77 Safari/537.36"
46.226.58.62 - - [02/Nov/2018:16:24:58 +0000] "GET /css/common_config.php HTTP/1.1" 200 151 "http://orangepotion.com/view_all_bug_page.php?refresh=true" "Mozilla/5.0 (Windows NT 10.0; WOW64) AppleWebKit/537.36 (KHTML, like Gecko) Chrome/70.0.3538.77 Safari/537.36"
46.226.58.62 - - [02/Nov/2018:16:24:58 +0000] "GET /css/status_config.php HTTP/1.1" 200 171 "http://orangepotion.com/view_all_bug_page.php?refresh=true" "Mozilla/5.0 (Windows NT 10.0; WOW64) AppleWebKit/537.36 (KHTML, like Gecko) Chrome/70.0.3538.77 Safari/537.36"
46.226.58.62 - - [02/Nov/2018:16:24:59 +0000] "GET /javascript_config.php HTTP/1.1" 200 118 "http://orangepotion.com/view_all_bug_page.php?refresh=true" "Mozilla/5.0 (Windows NT 10.0; WOW64) AppleWebKit/537.36 (KHTML, like Gecko) Chrome/70.0.3538.77 Safari/537.36"
46.226.58.62 - - [02/Nov/2018:16:24:59 +0000] "GET /javascript_translations.php HTTP/1.1" 200 127 "http://orangepotion.com/view_all_bug_page.php?refresh=true" "Mozilla/5.0 (Windows NT 10.0; WOW64) AppleWebKit/537.36 (KHTML, like Gecko) Chrome/70.0.3538.77 Safari/537.36"
18.191.84.64 - - [02/Nov/2018:16:49:19 +0000] "GET /login_page.php HTTP/1.1" 200 1387 "-" "Mozilla/5.0 (Macintosh; Intel Mac OS X x.y; rv:42.0) AppleWebKit/537.36 (KHTML, like Gecko) Chrome/51.0.2704.106 Safari/537.36 OPR/38.0.2220.41"
18.220.209.234 - - [02/Nov/2018:17:21:18 +0000] "GET /login_page.php HTTP/1.1" 200 1387 "-" "Mozilla/5.0 (Windows NT 6.1; Win64; x64; rv:47.0) Gecko/20100101 Chrome/67.0.3396.79 Safari/537.36"
18.222.143.109 - - [02/Nov/2018:17:50:20 +0000] "GET /login_page.php HTTP/1.1" 200 1387 "-" "Mozilla/5.0 (Windows NT 6.1; Win64; x64; rv:47.0) AppleWebKit/537.36 (KHTML, like Gecko) Safari/602.1"
178.154.244.10 - - [02/Nov/2018:18:13:39 +0000] "GET /robots.txt HTTP/1.1" 404 208 "-" "Mozilla/5.0 (compatible; YandexBot/3.0; +http://yandex.com/bots)"
178.154.244.10 - - [02/Nov/2018:18:13:43 +0000] "GET /login_page.php HTTP/1.1" 200 1387 "-" "Mozilla/5.0 (compatible; YandexBot/3.0; +http://yandex.com/bots)"
178.154.244.10 - - [02/Nov/2018:18:15:22 +0000] "GET / HTTP/1.1" 302 31 "-" "Mozilla/5.0 (compatible; YandexBot/3.0; +http://yandex.com/bots)"
37.9.113.40 - - [02/Nov/2018:18:15:25 +0000] "GET /login_page.php HTTP/1.1" 200 1390 "-" "Mozilla/5.0 (compatible; YandexBot/3.0; +http://yandex.com/bots)"
18.223.132.225 - - [02/Nov/2018:18:18:55 +0000] "GET /login_page.php HTTP/1.1" 200 1387 "-" "Mozilla/5.0 (Macintosh; Intel Mac OS X x.y; rv:42.0) Gecko/20100101 Firefox/42.0"
18.217.24.3 - - [02/Nov/2018:18:49:33 +0000] "GET /login_page.php HTTP/1.1" 200 1387 "-" "Mozilla/5.0 (Macintosh; Intel Mac OS X x.y; rv:42.0) AppleWebKit/537.36 (KHTML, like Gecko) Chrome/67.0.3396.79 Safari/537.36"
18.222.254.149 - - [02/Nov/2018:19:20:16 +0000] "GET /login_page.php HTTP/1.1" 200 1387 "-" "Mozilla/5.0 (Windows NT 6.1; Win64; x64; rv:47.0) AppleWebKit/537.36 (KHTML, like Gecko) Chrome/51.0.2704.106 Safari/537.36 OPR/38.0.2220.41"
18.221.249.123 - - [02/Nov/2018:19:48:24 +0000] "GET /login_page.php HTTP/1.1" 200 1387 "-" "Mozilla/5.0 (X11; Linux x86_64) AppleWebKit/537.36 (KHTML, like Gecko) Chrome/67.0.3396.79 Safari/537.36"
18.220.65.247 - - [02/Nov/2018:20:18:44 +0000] "GET /login_page.php HTTP/1.1" 200 1387 "-" "Mozilla/5.0 (Windows NT 6.1; Win64; x64; rv:47.0) Gecko/20100101 Chrome/67.0.3396.79 Safari/537.36"
209.17.96.66 - - [02/Nov/2018:20:35:40 +0000] "GET / HTTP/1.1" 302 5 "-" "Mozilla/5.0 (compatible; Nimbostratus-Bot/v1.3.2; http://cloudsystemnetworks.com)"
18.222.207.230 - - [02/Nov/2018:20:49:37 +0000] "GET /login_page.php HTTP/1.1" 200 1387 "-" "Mozilla/5.0 (Macintosh; Intel Mac OS X x.y; rv:42.0) AppleWebKit/537.36 (KHTML, like Gecko) Chrome/51.0.2704.106 Safari/537.36 OPR/38.0.2220.41"
18.222.143.109 - - [02/Nov/2018:21:17:50 +0000] "GET /login_page.php HTTP/1.1" 200 1387 "-" "Mozilla/5.0 (X11; Linux x86_64) Trident/5.0 Safari/602.1"
18.188.208.82 - - [02/Nov/2018:21:49:44 +0000] "GET /login_page.php HTTP/1.1" 200 1387 "-" "Mozilla/5.0 (Macintosh; Intel Mac OS X x.y; rv:42.0) AppleWebKit/537.36 (KHTML, like Gecko) Safari/602.1"
18.223.156.199 - - [02/Nov/2018:22:21:33 +0000] "GET /login_page.php HTTP/1.1" 200 1387 "-" "Mozilla/5.0 (Windows NT 6.1; Win64; x64; rv:47.0) Gecko/20100101 Safari/602.1"
18.222.238.207 - - [02/Nov/2018:22:51:32 +0000] "GET /login_page.php HTTP/1.1" 200 1387 "-" "Mozilla/5.0 (X11; Linux x86_64) Gecko/20100101 Chrome/51.0.2704.106 Safari/537.36 OPR/38.0.2220.41"
141.8.142.120 - - [02/Nov/2018:22:54:09 +0000] "GET /robots.txt HTTP/1.1" 404 208 "-" "Mozilla/5.0 (compatible; YandexBot/3.0; +http://yandex.com/bots)"
141.8.142.120 - - [02/Nov/2018:22:54:14 +0000] "GET /browser_search_plugin.php?type=id HTTP/1.1" 200 379 "-" "Mozilla/5.0 (compatible; YandexBot/3.0; +http://yandex.com/bots)"
