178.154.244.10 - - [04/Nov/2018:07:12:24 +0000] "GET /robots.txt HTTP/1.1" 404 208 "-" "Mozilla/5.0 (compatible; YandexBot/3.0; +http://yandex.com/bots)"
178.154.244.10 - - [04/Nov/2018:07:12:28 +0000] "GET /browser_search_plugin.php?type=text HTTP/1.1" 200 415 "-" "Mozilla/5.0 (compatible; YandexBot/3.0; +http://yandex.com/bots)"
66.249.66.150 - - [04/Nov/2018:09:26:26 +0000] "GET /robots.txt HTTP/1.1" 404 204 "-" "Mozilla/5.0 (compatible; Googlebot/2.1; +http://www.google.com/bot.html)"
66.249.66.148 - - [04/Nov/2018:09:26:49 +0000] "GET / HTTP/1.1" 302 31 "-" "Mozilla/5.0 (Linux; Android 6.0.1; Nexus 5X Build/MMB29P) AppleWebKit/537.36 (KHTML, like Gecko) Chrome/41.0.2272.96 Mobile Safari/537.36 (compatible; Googlebot/2.1; +http://www.google.com/bot.html)"
66.249.66.152 - - [04/Nov/2018:09:27:01 +0000] "GET /login_page.php HTTP/1.1" 200 1390 "-" "Mozilla/5.0 (Linux; Android 6.0.1; Nexus 5X Build/MMB29P) AppleWebKit/537.36 (KHTML, like Gecko) Chrome/41.0.2272.96 Mobile Safari/537.36 (compatible; Googlebot/2.1; +http://www.google.com/bot.html)"
66.249.66.150 - - [04/Nov/2018:09:27:08 +0000] "GET /js/list-1.4.1.min.js HTTP/1.1" 200 5973 "http://www.orangepotion.com/login_page.php" "Mozilla/5.0 (Linux; Android 6.0.1; Nexus 5X Build/MMB29P) AppleWebKit/537.36 (KHTML, like Gecko) Chrome/41.0.2272.96 Mobile Safari/537.36 (compatible; Googlebot/2.1; +http://www.google.com/bot.html)"
66.249.66.150 - - [04/Nov/2018:09:27:09 +0000] "GET /plugin_file.php?file=MantisGraph/chart-2.1.6.min.js HTTP/1.1" 200 37215 "http://www.orangepotion.com/login_page.php" "Mozilla/5.0 (Linux; Android 6.0.1; Nexus 5X Build/MMB29P) AppleWebKit/537.36 (KHTML, like Gecko) Chrome/41.0.2272.96 Mobile Safari/537.36 (compatible; Googlebot/2.1; +http://www.google.com/bot.html)"
66.249.66.148 - - [04/Nov/2018:09:27:10 +0000] "GET /css/bootstrap-3.3.6.min.css HTTP/1.1" 200 25138 "http://www.orangepotion.com/login_page.php" "Mozilla/5.0 (Linux; Android 6.0.1; Nexus 5X Build/MMB29P) AppleWebKit/537.36 (KHTML, like Gecko) Chrome/41.0.2272.96 Mobile Safari/537.36 (compatible; Googlebot/2.1; +http://www.google.com/bot.html)"
66.249.66.150 - - [04/Nov/2018:09:27:12 +0000] "GET /css/status_config.php HTTP/1.1" 200 31 "http://www.orangepotion.com/login_page.php" "Mozilla/5.0 (Linux; Android 6.0.1; Nexus 5X Build/MMB29P) AppleWebKit/537.36 (KHTML, like Gecko) Chrome/41.0.2272.96 Mobile Safari/537.36 (compatible; Googlebot/2.1; +http://www.google.com/bot.html)"
66.249.66.150 - - [04/Nov/2018:09:27:12 +0000] "GET /css/font-awesome-4.6.3.min.css HTTP/1.1" 200 7523 "http://www.orangepotion.com/login_page.php" "Mozilla/5.0 (Linux; Android 6.0.1; Nexus 5X Build/MMB29P) AppleWebKit/537.36 (KHTML, like Gecko) Chrome/41.0.2272.96 Mobile Safari/537.36 (compatible; Googlebot/2.1; +http://www.google.com/bot.html)"
66.249.66.148 - - [04/Nov/2018:09:27:13 +0000] "GET /css/default.css HTTP/1.1" 200 896 "http://www.orangepotion.com/login_page.php" "Mozilla/5.0 (Linux; Android 6.0.1; Nexus 5X Build/MMB29P) AppleWebKit/537.36 (KHTML, like Gecko) Chrome/41.0.2272.96 Mobile Safari/537.36 (compatible; Googlebot/2.1; +http://www.google.com/bot.html)"
66.249.66.148 - - [04/Nov/2018:09:27:15 +0000] "GET /css/open-sans.css HTTP/1.1" 200 692 "http://www.orangepotion.com/login_page.php" "Mozilla/5.0 (Linux; Android 6.0.1; Nexus 5X Build/MMB29P) AppleWebKit/537.36 (KHTML, like Gecko) Chrome/41.0.2272.96 Mobile Safari/537.36 (compatible; Googlebot/2.1; +http://www.google.com/bot.html)"
66.249.66.148 - - [04/Nov/2018:09:27:17 +0000] "GET /css/bootstrap-datetimepicker-4.17.47.min.css HTTP/1.1" 200 1501 "http://www.orangepotion.com/login_page.php" "Mozilla/5.0 (Linux; Android 6.0.1; Nexus 5X Build/MMB29P) AppleWebKit/537.36 (KHTML, like Gecko) Chrome/41.0.2272.96 Mobile Safari/537.36 (compatible; Googlebot/2.1; +http://www.google.com/bot.html)"
66.249.66.148 - - [04/Nov/2018:09:27:18 +0000] "GET /js/bootstrap-datetimepicker-4.17.47.min.js HTTP/1.1" 200 11043 "http://www.orangepotion.com/login_page.php" "Mozilla/5.0 (Linux; Android 6.0.1; Nexus 5X Build/MMB29P) AppleWebKit/537.36 (KHTML, like Gecko) Chrome/41.0.2272.96 Mobile Safari/537.36 (compatible; Googlebot/2.1; +http://www.google.com/bot.html)"
66.249.66.148 - - [04/Nov/2018:09:27:19 +0000] "GET /css/common_config.php HTTP/1.1" 200 151 "http://www.orangepotion.com/login_page.php" "Mozilla/5.0 (Linux; Android 6.0.1; Nexus 5X Build/MMB29P) AppleWebKit/537.36 (KHTML, like Gecko) Chrome/41.0.2272.96 Mobile Safari/537.36 (compatible; Googlebot/2.1; +http://www.google.com/bot.html)"
220.181.108.144 - - [04/Nov/2018:10:13:17 +0000] "GET /login_page.php?return=%2Fmy_view_page.php HTTP/1.1" 200 1435 "-" "Mozilla/5.0 (compatible; Baiduspider/2.0; +http://www.baidu.com/search/spider.html)"
111.206.198.36 - - [04/Nov/2018:10:13:27 +0000] "GET /javascript_translations.php HTTP/1.1" 200 203 "http://orangepotion.com/login_page.php?return=%2Fmy_view_page.php" "Mozilla/5.0 (iPhone; CPU iPhone OS 9_1 like Mac OS X) AppleWebKit/601.1.46 (KHTML, like Gecko) Version/9.0 Mobile/13B143 Safari/601.1 (compatible; Baiduspider-render/2.0; +http://www.baidu.com/search/spider.html)"
111.206.221.114 - - [04/Nov/2018:10:13:27 +0000] "GET /javascript_config.php HTTP/1.1" 200 117 "http://orangepotion.com/login_page.php?return=%2Fmy_view_page.php" "Mozilla/5.0 (iPhone; CPU iPhone OS 9_1 like Mac OS X) AppleWebKit/601.1.46 (KHTML, like Gecko) Version/9.0 Mobile/13B143 Safari/601.1 (compatible; Baiduspider-render/2.0; +http://www.baidu.com/search/spider.html)"
111.206.198.109 - - [04/Nov/2018:10:13:27 +0000] "GET /js/jquery-2.2.4.min.js HTTP/1.1" 200 85578 "http://orangepotion.com/login_page.php?return=%2Fmy_view_page.php" "Mozilla/5.0 (iPhone; CPU iPhone OS 9_1 like Mac OS X) AppleWebKit/601.1.46 (KHTML, like Gecko) Version/9.0 Mobile/13B143 Safari/601.1 (compatible; Baiduspider-render/2.0; +http://www.baidu.com/search/spider.html)"
111.206.221.37 - - [04/Nov/2018:10:13:27 +0000] "GET /plugin_file.php?file=MantisGraph/chart.bundle-2.1.6.min.js HTTP/1.1" 200 185989 "http://orangepotion.com/login_page.php?return=%2Fmy_view_page.php" "Mozilla/5.0 (iPhone; CPU iPhone OS 9_1 like Mac OS X) AppleWebKit/601.1.46 (KHTML, like Gecko) Version/9.0 Mobile/13B143 Safari/601.1 (compatible; Baiduspider-render/2.0; +http://www.baidu.com/search/spider.html)"
111.206.221.8 - - [04/Nov/2018:10:13:27 +0000] "GET /plugin_file.php?file=MantisGraph/chart-2.1.6.min.js HTTP/1.1" 200 139485 "http://orangepotion.com/login_page.php?return=%2Fmy_view_page.php" "Mozilla/5.0 (iPhone; CPU iPhone OS 9_1 like Mac OS X) AppleWebKit/601.1.46 (KHTML, like Gecko) Version/9.0 Mobile/13B143 Safari/601.1 (compatible; Baiduspider-render/2.0; +http://www.baidu.com/search/spider.html)"
111.206.221.115 - - [04/Nov/2018:10:13:28 +0000] "GET /css/status_config.php HTTP/1.1" 200 5 "http://orangepotion.com/login_page.php?return=%2Fmy_view_page.php" "Mozilla/5.0 (iPhone; CPU iPhone OS 9_1 like Mac OS X) AppleWebKit/601.1.46 (KHTML, like Gecko) Version/9.0 Mobile/13B143 Safari/601.1 (compatible; Baiduspider-render/2.0; +http://www.baidu.com/search/spider.html)"
111.206.221.109 - - [04/Nov/2018:10:13:28 +0000] "GET /plugin_file.php?file=MantisGraph/MantisGraph.js HTTP/1.1" 200 2553 "http://orangepotion.com/login_page.php?return=%2Fmy_view_page.php" "Mozilla/5.0 (iPhone; CPU iPhone OS 9_1 like Mac OS X) AppleWebKit/601.1.46 (KHTML, like Gecko) Version/9.0 Mobile/13B143 Safari/601.1 (compatible; Baiduspider-render/2.0; +http://www.baidu.com/search/spider.html)"
220.181.108.176 - - [04/Nov/2018:10:46:37 +0000] "GET /javascript_config.php HTTP/1.1" 200 118 "-" "Mozilla/5.0 (compatible; Baiduspider/2.0; +http://www.baidu.com/search/spider.html)"
178.154.244.10 - - [04/Nov/2018:12:03:44 +0000] "GET /robots.txt HTTP/1.1" 404 208 "-" "Mozilla/5.0 (compatible; YandexBot/3.0; +http://yandex.com/bots)"
178.154.244.10 - - [04/Nov/2018:12:03:48 +0000] "GET /browser_search_plugin.php?type=text HTTP/1.1" 200 416 "-" "Mozilla/5.0 (compatible; YandexBot/3.0; +http://yandex.com/bots)"
52.53.201.78 - - [04/Nov/2018:15:51:58 +0000] "GET / HTTP/1.1" 302 31 "-" "Mozilla/5.0 (Macintosh; Intel Mac OS X 10_12_6) AppleWebKit/537.36 (KHTML, like Gecko) Chrome/61.0.3163.100 Safari/537.36"
52.53.201.78 - - [04/Nov/2018:15:51:58 +0000] "GET /login_page.php HTTP/1.1" 200 1390 "http://www.orangepotion.com/" "Mozilla/5.0 (Macintosh; Intel Mac OS X 10_12_6) AppleWebKit/537.36 (KHTML, like Gecko) Chrome/61.0.3163.100 Safari/537.36"
95.108.181.75 - - [04/Nov/2018:16:31:43 +0000] "GET /robots.txt HTTP/1.1" 404 208 "-" "Mozilla/5.0 (compatible; YandexBot/3.0; +http://yandex.com/bots)"
178.154.171.69 - - [04/Nov/2018:16:31:43 +0000] "GET /robots.txt HTTP/1.1" 404 208 "-" "Mozilla/5.0 (compatible; YandexBot/3.0; +http://yandex.com/bots)"
37.9.113.56 - - [04/Nov/2018:16:31:47 +0000] "GET / HTTP/1.1" 302 31 "-" "Mozilla/5.0 (compatible; YandexBot/3.0; +http://yandex.com/bots)"
178.154.244.60 - - [04/Nov/2018:16:31:47 +0000] "GET / HTTP/1.1" 302 31 "-" "Mozilla/5.0 (compatible; YandexBot/3.0; +http://yandex.com/bots)"
178.154.244.31 - - [04/Nov/2018:16:31:51 +0000] "GET /login_page.php HTTP/1.1" 200 1477 "-" "Mozilla/5.0 (compatible; YandexBot/3.0; +http://yandex.com/bots)"
178.154.244.10 - - [04/Nov/2018:16:31:51 +0000] "GET /login_page.php HTTP/1.1" 200 1479 "-" "Mozilla/5.0 (compatible; YandexBot/3.0; +http://yandex.com/bots)"
80.90.55.169 - - [04/Nov/2018:18:24:04 +0000] "HEAD /login_page.php HTTP/1.1" 200 0 "-" "Mozilla/5.0 (compatible; Uptimebot/1.0; +http://www.uptime.com/uptimebot)"
95.108.181.102 - - [04/Nov/2018:19:04:41 +0000] "GET /robots.txt HTTP/1.1" 404 208 "-" "Mozilla/5.0 (compatible; YandexBot/3.0; +http://yandex.com/bots)"
178.154.244.60 - - [04/Nov/2018:19:04:45 +0000] "GET /login_page.php HTTP/1.1" 200 1387 "-" "Mozilla/5.0 (compatible; YandexBot/3.0; +http://yandex.com/bots)"
86.110.118.172 - - [04/Nov/2018:22:55:02 +0000] "GET /wp-login.php HTTP/1.1" 404 210 "-" "Mozilla/5.0 (compatible; MSIE 9.0; Windows NT 6.1; Trident/5.0)"
86.110.118.172 - - [04/Nov/2018:22:55:02 +0000] "GET //wp-login.php HTTP/1.1" 404 210 "-" "Mozilla/5.0 (compatible; MSIE 9.0; Windows NT 6.1; Trident/5.0)"
