141.8.142.120 - - [05/Nov/2018:04:43:39 +0000] "GET /robots.txt HTTP/1.1" 404 208 "-" "Mozilla/5.0 (compatible; YandexBot/3.0; +http://yandex.com/bots)"
178.154.244.10 - - [05/Nov/2018:04:43:43 +0000] "GET /browser_search_plugin.php?type=id HTTP/1.1" 200 378 "-" "Mozilla/5.0 (compatible; YandexBot/3.0; +http://yandex.com/bots)"
198.23.202.38 - - [05/Nov/2018:05:22:23 +0000] "GET /robots.txt HTTP/1.1" 404 208 "-" "Mozilla/5.0 (Windows NT 10.0; Win64; x64; rv:50.0) Gecko/20100101 Firefox/50.0"
198.23.202.38 - - [05/Nov/2018:05:22:23 +0000] "GET /xmlrpc.php?rsd HTTP/1.1" 404 208 "-" "Mozilla/5.0 (Windows NT 10.0; Win64; x64; rv:50.0) Gecko/20100101 Firefox/50.0"
198.23.202.38 - - [05/Nov/2018:05:22:23 +0000] "GET / HTTP/1.1" 302 5 "-" "Mozilla/5.0 (Windows NT 10.0; Win64; x64; rv:50.0) Gecko/20100101 Firefox/50.0"
198.23.202.38 - - [05/Nov/2018:05:22:23 +0000] "GET /blog/robots.txt HTTP/1.1" 404 213 "-" "Mozilla/5.0 (Windows NT 10.0; Win64; x64; rv:50.0) Gecko/20100101 Firefox/50.0"
198.23.202.38 - - [05/Nov/2018:05:22:23 +0000] "GET /blog/ HTTP/1.1" 404 203 "-" "Mozilla/5.0 (Windows NT 10.0; Win64; x64; rv:50.0) Gecko/20100101 Firefox/50.0"
198.23.202.38 - - [05/Nov/2018:05:22:23 +0000] "GET /wordpress/ HTTP/1.1" 404 208 "-" "Mozilla/5.0 (Windows NT 10.0; Win64; x64; rv:50.0) Gecko/20100101 Firefox/50.0"
198.23.202.38 - - [05/Nov/2018:05:22:24 +0000] "GET /wp/ HTTP/1.1" 404 201 "-" "Mozilla/5.0 (Windows NT 10.0; Win64; x64; rv:50.0) Gecko/20100101 Firefox/50.0"
120.35.38.212 - - [05/Nov/2018:05:37:25 +0000] "HEAD /wp-blog-header.php HTTP/1.1" 404 0 "-" "-"
18.216.19.83 - - [05/Nov/2018:06:49:17 +0000] "GET /login_page.php HTTP/1.1" 200 1387 "-" "Mozilla/5.0 (Macintosh; Intel Mac OS X x.y; rv:42.0) Trident/5.0 Safari/602.1"
18.224.135.194 - - [05/Nov/2018:07:21:21 +0000] "GET /login_page.php HTTP/1.1" 200 1387 "-" "Mozilla/5.0 (Windows NT 6.1; Win64; x64; rv:47.0) AppleWebKit/537.36 (KHTML, like Gecko) Firefox/42.0"
18.218.10.23 - - [05/Nov/2018:07:46:18 +0000] "GET /login_page.php HTTP/1.1" 200 1387 "-" "Mozilla/5.0 (X11; Linux x86_64) Gecko/20100101 Chrome/51.0.2704.106 Safari/537.36 OPR/38.0.2220.41"
52.14.98.62 - - [05/Nov/2018:08:15:37 +0000] "GET /login_page.php HTTP/1.1" 200 1387 "-" "Mozilla/5.0 (Windows NT 6.1; Win64; x64; rv:47.0) AppleWebKit/537.36 (KHTML, like Gecko) Chrome/51.0.2704.106 Safari/537.36 OPR/38.0.2220.41"
18.188.69.31 - - [05/Nov/2018:09:15:35 +0000] "GET /login_page.php HTTP/1.1" 200 1387 "-" "Mozilla/5.0 (Windows NT 6.1; Win64; x64; rv:47.0) Trident/5.0 Firefox/42.0"
18.224.96.63 - - [05/Nov/2018:09:45:48 +0000] "GET /login_page.php HTTP/1.1" 200 1387 "-" "Mozilla/5.0 (Windows NT 6.1; Win64; x64; rv:47.0) Trident/5.0 Chrome/51.0.2704.106 Safari/537.36 OPR/38.0.2220.41"
34.221.152.249 - - [05/Nov/2018:10:00:18 +0000] "GET / HTTP/1.1" 302 31 "-" "Mozilla/5.0 (Windows NT 10.0; Win64; x64) AppleWebKit/537.36 (KHTML, like Gecko) Chrome/66.0.3359.181 Safari/537.36"
34.221.152.249 - - [05/Nov/2018:10:00:18 +0000] "GET /login_page.php HTTP/1.1" 200 1387 "-" "Mozilla/5.0 (Windows NT 10.0; Win64; x64) AppleWebKit/537.36 (KHTML, like Gecko) Chrome/66.0.3359.181 Safari/537.36"
34.221.152.249 - - [05/Nov/2018:10:00:19 +0000] "GET / HTTP/1.1" 302 31 "-" "Mozilla/5.0 (Windows NT 10.0; Win64; x64) AppleWebKit/537.36 (KHTML, like Gecko) Chrome/66.0.3359.181 Safari/537.36"
34.221.152.249 - - [05/Nov/2018:10:00:20 +0000] "GET /login_page.php HTTP/1.1" 200 1387 "-" "Mozilla/5.0 (Windows NT 10.0; Win64; x64) AppleWebKit/537.36 (KHTML, like Gecko) Chrome/66.0.3359.181 Safari/537.36"
34.221.152.249 - - [05/Nov/2018:10:00:21 +0000] "GET / HTTP/1.1" 302 31 "-" "Mozilla/5.0 (Windows NT 10.0; Win64; x64) AppleWebKit/537.36 (KHTML, like Gecko) Chrome/66.0.3359.181 Safari/537.36"
34.221.152.249 - - [05/Nov/2018:10:00:21 +0000] "GET /login_page.php HTTP/1.1" 200 1387 "-" "Mozilla/5.0 (Windows NT 10.0; Win64; x64) AppleWebKit/537.36 (KHTML, like Gecko) Chrome/66.0.3359.181 Safari/537.36"
34.221.152.249 - - [05/Nov/2018:10:00:21 +0000] "GET / HTTP/1.1" 302 31 "-" "Mozilla/5.0 (Windows NT 10.0; Win64; x64) AppleWebKit/537.36 (KHTML, like Gecko) Chrome/66.0.3359.181 Safari/537.36"
34.221.152.249 - - [05/Nov/2018:10:00:22 +0000] "GET /login_page.php HTTP/1.1" 200 1387 "-" "Mozilla/5.0 (Windows NT 10.0; Win64; x64) AppleWebKit/537.36 (KHTML, like Gecko) Chrome/66.0.3359.181 Safari/537.36"
34.221.152.249 - - [05/Nov/2018:10:00:22 +0000] "GET / HTTP/1.1" 302 31 "-" "Mozilla/5.0 (Windows NT 10.0; Win64; x64) AppleWebKit/537.36 (KHTML, like Gecko) Chrome/66.0.3359.181 Safari/537.36"
34.221.152.249 - - [05/Nov/2018:10:00:22 +0000] "GET /login_page.php HTTP/1.1" 200 1387 "-" "Mozilla/5.0 (Windows NT 10.0; Win64; x64) AppleWebKit/537.36 (KHTML, like Gecko) Chrome/66.0.3359.181 Safari/537.36"
34.221.152.249 - - [05/Nov/2018:10:00:23 +0000] "GET / HTTP/1.1" 302 31 "-" "Mozilla/5.0 (Windows NT 10.0; Win64; x64) AppleWebKit/537.36 (KHTML, like Gecko) Chrome/66.0.3359.181 Safari/537.36"
34.221.152.249 - - [05/Nov/2018:10:00:23 +0000] "GET /login_page.php HTTP/1.1" 200 1387 "-" "Mozilla/5.0 (Windows NT 10.0; Win64; x64) AppleWebKit/537.36 (KHTML, like Gecko) Chrome/66.0.3359.181 Safari/537.36"
66.249.81.87 - - [05/Nov/2018:10:07:20 +0000] "GET / HTTP/1.1" 302 31 "-" "Mozilla/5.0 (Windows NT 6.3; Win64; x64) AppleWebKit/537.36 (KHTML, like Gecko) Chrome/68.0.3440.106 Safari/537.36"
66.249.81.89 - - [05/Nov/2018:10:07:21 +0000] "GET /login_page.php HTTP/1.1" 200 1387 "-" "Mozilla/5.0 (Windows NT 6.3; Win64; x64) AppleWebKit/537.36 (KHTML, like Gecko) Chrome/68.0.3440.106 Safari/537.36"
66.249.81.87 - - [05/Nov/2018:10:07:21 +0000] "GET /js/jquery-2.2.4.min.js HTTP/1.1" 200 85578 "http://orangepotion.com/login_page.php" "Mozilla/5.0 (Windows NT 6.3; Win64; x64) AppleWebKit/537.36 (KHTML, like Gecko) Chrome/68.0.3440.106 Safari/537.36"
66.249.81.89 - - [05/Nov/2018:10:07:21 +0000] "GET /css/bootstrap-datetimepicker-4.17.47.min.css HTTP/1.1" 200 7785 "http://orangepotion.com/login_page.php" "Mozilla/5.0 (Windows NT 6.3; Win64; x64) AppleWebKit/537.36 (KHTML, like Gecko) Chrome/68.0.3440.106 Safari/537.36"
66.249.81.89 - - [05/Nov/2018:10:07:21 +0000] "GET /css/bootstrap-3.3.6.min.css HTTP/1.1" 200 115813 "http://orangepotion.com/login_page.php" "Mozilla/5.0 (Windows NT 6.3; Win64; x64) AppleWebKit/537.36 (KHTML, like Gecko) Chrome/68.0.3440.106 Safari/537.36"
66.249.81.89 - - [05/Nov/2018:10:07:21 +0000] "GET /js/dropzone-4.3.0.min.js HTTP/1.1" 200 33588 "http://orangepotion.com/login_page.php" "Mozilla/5.0 (Windows NT 6.3; Win64; x64) AppleWebKit/537.36 (KHTML, like Gecko) Chrome/68.0.3440.106 Safari/537.36"
66.249.81.89 - - [05/Nov/2018:10:07:21 +0000] "GET /css/ace-skins.min.css HTTP/1.1" 200 14106 "http://orangepotion.com/login_page.php" "Mozilla/5.0 (Windows NT 6.3; Win64; x64) AppleWebKit/537.36 (KHTML, like Gecko) Chrome/68.0.3440.106 Safari/537.36"
66.249.81.89 - - [05/Nov/2018:10:07:21 +0000] "GET /css/login.css HTTP/1.1" 200 827 "http://orangepotion.com/login_page.php" "Mozilla/5.0 (Windows NT 6.3; Win64; x64) AppleWebKit/537.36 (KHTML, like Gecko) Chrome/68.0.3440.106 Safari/537.36"
66.249.81.91 - - [05/Nov/2018:10:07:21 +0000] "GET /css/font-awesome-4.6.3.min.css HTTP/1.1" 200 29063 "http://orangepotion.com/login_page.php" "Mozilla/5.0 (Windows NT 6.3; Win64; x64) AppleWebKit/537.36 (KHTML, like Gecko) Chrome/68.0.3440.106 Safari/537.36"
66.249.81.91 - - [05/Nov/2018:10:07:21 +0000] "GET /css/open-sans.css HTTP/1.1" 200 1175 "http://orangepotion.com/login_page.php" "Mozilla/5.0 (Windows NT 6.3; Win64; x64) AppleWebKit/537.36 (KHTML, like Gecko) Chrome/68.0.3440.106 Safari/537.36"
66.249.81.89 - - [05/Nov/2018:10:07:21 +0000] "GET /css/ace-mantis.css HTTP/1.1" 200 12793 "http://orangepotion.com/login_page.php" "Mozilla/5.0 (Windows NT 6.3; Win64; x64) AppleWebKit/537.36 (KHTML, like Gecko) Chrome/68.0.3440.106 Safari/537.36"
66.249.81.91 - - [05/Nov/2018:10:07:21 +0000] "GET /css/ace.min.css HTTP/1.1" 200 298300 "http://orangepotion.com/login_page.php" "Mozilla/5.0 (Windows NT 6.3; Win64; x64) AppleWebKit/537.36 (KHTML, like Gecko) Chrome/68.0.3440.106 Safari/537.36"
66.249.81.91 - - [05/Nov/2018:10:07:21 +0000] "GET /css/common_config.php HTTP/1.1" 200 151 "http://orangepotion.com/login_page.php" "Mozilla/5.0 (Windows NT 6.3; Win64; x64) AppleWebKit/537.36 (KHTML, like Gecko) Chrome/68.0.3440.106 Safari/537.36"
66.249.81.91 - - [05/Nov/2018:10:07:21 +0000] "GET /js/common.js HTTP/1.1" 200 17147 "http://orangepotion.com/login_page.php" "Mozilla/5.0 (Windows NT 6.3; Win64; x64) AppleWebKit/537.36 (KHTML, like Gecko) Chrome/68.0.3440.106 Safari/537.36"
66.249.81.89 - - [05/Nov/2018:10:07:21 +0000] "GET /plugin_file.php?file=MantisGraph/chart-2.1.6.min.js HTTP/1.1" 200 37207 "http://orangepotion.com/login_page.php" "Mozilla/5.0 (Windows NT 6.3; Win64; x64) AppleWebKit/537.36 (KHTML, like Gecko) Chrome/68.0.3440.106 Safari/537.36"
66.249.81.87 - - [05/Nov/2018:10:07:21 +0000] "GET /css/default.css HTTP/1.1" 200 2084 "http://orangepotion.com/login_page.php" "Mozilla/5.0 (Windows NT 6.3; Win64; x64) AppleWebKit/537.36 (KHTML, like Gecko) Chrome/68.0.3440.106 Safari/537.36"
66.249.81.87 - - [05/Nov/2018:10:07:21 +0000] "GET /css/dropzone-4.3.0.min.css HTTP/1.1" 200 9716 "http://orangepotion.com/login_page.php" "Mozilla/5.0 (Windows NT 6.3; Win64; x64) AppleWebKit/537.36 (KHTML, like Gecko) Chrome/68.0.3440.106 Safari/537.36"
66.249.81.87 - - [05/Nov/2018:10:07:21 +0000] "GET /javascript_translations.php HTTP/1.1" 200 127 "http://orangepotion.com/login_page.php" "Mozilla/5.0 (Windows NT 6.3; Win64; x64) AppleWebKit/537.36 (KHTML, like Gecko) Chrome/68.0.3440.106 Safari/537.36"
66.249.81.91 - - [05/Nov/2018:10:07:21 +0000] "GET /css/status_config.php HTTP/1.1" 200 31 "http://orangepotion.com/login_page.php" "Mozilla/5.0 (Windows NT 6.3; Win64; x64) AppleWebKit/537.36 (KHTML, like Gecko) Chrome/68.0.3440.106 Safari/537.36"
66.249.81.87 - - [05/Nov/2018:10:07:21 +0000] "GET /js/bootstrap-3.3.6.min.js HTTP/1.1" 200 36868 "http://orangepotion.com/login_page.php" "Mozilla/5.0 (Windows NT 6.3; Win64; x64) AppleWebKit/537.36 (KHTML, like Gecko) Chrome/68.0.3440.106 Safari/537.36"
66.249.81.87 - - [05/Nov/2018:10:07:21 +0000] "GET /plugin_file.php?file=Source/style.css HTTP/1.1" 200 1554 "http://orangepotion.com/login_page.php" "Mozilla/5.0 (Windows NT 6.3; Win64; x64) AppleWebKit/537.36 (KHTML, like Gecko) Chrome/68.0.3440.106 Safari/537.36"
66.249.81.91 - - [05/Nov/2018:10:07:21 +0000] "GET /images/mantis_logo.png HTTP/1.1" 200 77114 "http://orangepotion.com/login_page.php" "Mozilla/5.0 (Windows NT 6.3; Win64; x64) AppleWebKit/537.36 (KHTML, like Gecko) Chrome/68.0.3440.106 Safari/537.36"
66.249.81.89 - - [05/Nov/2018:10:07:21 +0000] "GET /plugin_file.php?file=MantisGraph/chart.bundle-2.1.6.min.js HTTP/1.1" 200 52179 "http://orangepotion.com/login_page.php" "Mozilla/5.0 (Windows NT 6.3; Win64; x64) AppleWebKit/537.36 (KHTML, like Gecko) Chrome/68.0.3440.106 Safari/537.36"
66.249.81.91 - - [05/Nov/2018:10:07:21 +0000] "GET /js/moment-with-locales-2.15.2.min.js HTTP/1.1" 200 232806 "http://orangepotion.com/login_page.php" "Mozilla/5.0 (Windows NT 6.3; Win64; x64) AppleWebKit/537.36 (KHTML, like Gecko) Chrome/68.0.3440.106 Safari/537.36"
66.249.81.87 - - [05/Nov/2018:10:07:21 +0000] "GET /javascript_config.php HTTP/1.1" 200 118 "http://orangepotion.com/login_page.php" "Mozilla/5.0 (Windows NT 6.3; Win64; x64) AppleWebKit/537.36 (KHTML, like Gecko) Chrome/68.0.3440.106 Safari/537.36"
66.249.81.91 - - [05/Nov/2018:10:07:21 +0000] "GET /js/bootstrap-datetimepicker-4.17.47.min.js HTTP/1.1" 200 38510 "http://orangepotion.com/login_page.php" "Mozilla/5.0 (Windows NT 6.3; Win64; x64) AppleWebKit/537.36 (KHTML, like Gecko) Chrome/68.0.3440.106 Safari/537.36"
66.249.81.87 - - [05/Nov/2018:10:07:21 +0000] "GET /plugin_file.php?file=MantisGraph/MantisGraph.js HTTP/1.1" 200 508 "http://orangepotion.com/login_page.php" "Mozilla/5.0 (Windows NT 6.3; Win64; x64) AppleWebKit/537.36 (KHTML, like Gecko) Chrome/68.0.3440.106 Safari/537.36"
66.249.81.89 - - [05/Nov/2018:10:07:21 +0000] "GET /js/typeahead.jquery-1.1.1.min.js HTTP/1.1" 200 31010 "http://orangepotion.com/login_page.php" "Mozilla/5.0 (Windows NT 6.3; Win64; x64) AppleWebKit/537.36 (KHTML, like Gecko) Chrome/68.0.3440.106 Safari/537.36"
66.249.81.87 - - [05/Nov/2018:10:07:21 +0000] "GET /js/list-1.4.1.min.js HTTP/1.1" 200 15689 "http://orangepotion.com/login_page.php" "Mozilla/5.0 (Windows NT 6.3; Win64; x64) AppleWebKit/537.36 (KHTML, like Gecko) Chrome/68.0.3440.106 Safari/537.36"
66.249.81.87 - - [05/Nov/2018:10:07:21 +0000] "GET /js/ace.min.js HTTP/1.1" 200 41178 "http://orangepotion.com/login_page.php" "Mozilla/5.0 (Windows NT 6.3; Win64; x64) AppleWebKit/537.36 (KHTML, like Gecko) Chrome/68.0.3440.106 Safari/537.36"
66.249.81.87 - - [05/Nov/2018:10:07:21 +0000] "GET /fonts/fontawesome-webfont.woff2?v=4.6.3 HTTP/1.1" 200 71896 "http://orangepotion.com/css/font-awesome-4.6.3.min.css" "Mozilla/5.0 (Windows NT 6.3; Win64; x64) AppleWebKit/537.36 (KHTML, like Gecko) Chrome/68.0.3440.106 Safari/537.36"
66.249.81.89 - - [05/Nov/2018:10:07:21 +0000] "GET /fonts/cJZKeOuBrn4kERxqtaUH3T8E0i7KZn-EPnyo3HZu7kw.woff HTTP/1.1" 200 21956 "http://orangepotion.com/css/open-sans.css" "Mozilla/5.0 (Windows NT 6.3; Win64; x64) AppleWebKit/537.36 (KHTML, like Gecko) Chrome/68.0.3440.106 Safari/537.36"
66.249.81.87 - - [05/Nov/2018:10:07:21 +0000] "GET /fonts/DXI1ORHCpsQm3Vp6mXoaTXhCUOGz7vYGh680lGh-uXM.woff HTTP/1.1" 200 22656 "http://orangepotion.com/css/open-sans.css" "Mozilla/5.0 (Windows NT 6.3; Win64; x64) AppleWebKit/537.36 (KHTML, like Gecko) Chrome/68.0.3440.106 Safari/537.36"
46.226.58.62 - - [05/Nov/2018:10:07:21 +0000] "GET /fonts/cJZKeOuBrn4kERxqtaUH3T8E0i7KZn-EPnyo3HZu7kw.woff HTTP/1.1" 200 21956 "http://orangepotion.com/css/open-sans.css" "Mozilla/5.0 (Windows NT 6.3; Win64; x64) AppleWebKit/537.36 (KHTML, like Gecko) Chrome/68.0.3440.106 Safari/537.36"
46.226.58.62 - - [05/Nov/2018:10:07:21 +0000] "GET /fonts/DXI1ORHCpsQm3Vp6mXoaTXhCUOGz7vYGh680lGh-uXM.woff HTTP/1.1" 200 22656 "http://orangepotion.com/css/open-sans.css" "Mozilla/5.0 (Windows NT 6.3; Win64; x64) AppleWebKit/537.36 (KHTML, like Gecko) Chrome/68.0.3440.106 Safari/537.36"
46.226.58.62 - - [05/Nov/2018:10:07:21 +0000] "GET /fonts/fontawesome-webfont.woff2?v=4.6.3 HTTP/1.1" 200 71896 "http://orangepotion.com/css/font-awesome-4.6.3.min.css" "Mozilla/5.0 (Windows NT 6.3; Win64; x64) AppleWebKit/537.36 (KHTML, like Gecko) Chrome/68.0.3440.106 Safari/537.36"
46.226.58.62 - - [05/Nov/2018:10:07:25 +0000] "POST /login_password_page.php HTTP/1.1" 200 1541 "http://orangepotion.com/login_page.php" "Mozilla/5.0 (Windows NT 6.3; Win64; x64) AppleWebKit/537.36 (KHTML, like Gecko) Chrome/68.0.3440.106 Safari/537.36"
66.249.81.89 - - [05/Nov/2018:10:07:25 +0000] "GET /javascript_config.php HTTP/1.1" 200 118 "http://orangepotion.com/login_password_page.php" "Mozilla/5.0 (Windows NT 6.3; Win64; x64) AppleWebKit/537.36 (KHTML, like Gecko) Chrome/68.0.3440.106 Safari/537.36"
66.249.81.87 - - [05/Nov/2018:10:07:25 +0000] "GET /css/common_config.php HTTP/1.1" 200 151 "http://orangepotion.com/login_password_page.php" "Mozilla/5.0 (Windows NT 6.3; Win64; x64) AppleWebKit/537.36 (KHTML, like Gecko) Chrome/68.0.3440.106 Safari/537.36"
66.249.81.89 - - [05/Nov/2018:10:07:25 +0000] "GET /css/status_config.php HTTP/1.1" 200 31 "http://orangepotion.com/login_password_page.php" "Mozilla/5.0 (Windows NT 6.3; Win64; x64) AppleWebKit/537.36 (KHTML, like Gecko) Chrome/68.0.3440.106 Safari/537.36"
66.249.81.89 - - [05/Nov/2018:10:07:25 +0000] "GET /javascript_translations.php HTTP/1.1" 200 127 "http://orangepotion.com/login_password_page.php" "Mozilla/5.0 (Windows NT 6.3; Win64; x64) AppleWebKit/537.36 (KHTML, like Gecko) Chrome/68.0.3440.106 Safari/537.36"
46.226.58.62 - - [05/Nov/2018:10:07:28 +0000] "POST /login.php HTTP/1.1" 302 31 "http://orangepotion.com/login_password_page.php" "Mozilla/5.0 (Windows NT 6.3; Win64; x64) AppleWebKit/537.36 (KHTML, like Gecko) Chrome/68.0.3440.106 Safari/537.36"
66.249.81.87 - - [05/Nov/2018:10:07:28 +0000] "GET /login_cookie_test.php?return=index.php HTTP/1.1" 302 31 "http://orangepotion.com/login_password_page.php" "Mozilla/5.0 (Windows NT 6.3; Win64; x64) AppleWebKit/537.36 (KHTML, like Gecko) Chrome/68.0.3440.106 Safari/537.36"
66.249.81.87 - - [05/Nov/2018:10:07:29 +0000] "GET /index.php HTTP/1.1" 302 31 "http://orangepotion.com/login_password_page.php" "Mozilla/5.0 (Windows NT 6.3; Win64; x64) AppleWebKit/537.36 (KHTML, like Gecko) Chrome/68.0.3440.106 Safari/537.36"
66.249.81.91 - - [05/Nov/2018:10:07:29 +0000] "GET /my_view_page.php HTTP/1.1" 200 4672 "http://orangepotion.com/login_password_page.php" "Mozilla/5.0 (Windows NT 6.3; Win64; x64) AppleWebKit/537.36 (KHTML, like Gecko) Chrome/68.0.3440.106 Safari/537.36"
66.249.81.87 - - [05/Nov/2018:10:07:29 +0000] "GET /javascript_translations.php HTTP/1.1" 200 127 "http://orangepotion.com/my_view_page.php" "Mozilla/5.0 (Windows NT 6.3; Win64; x64) AppleWebKit/537.36 (KHTML, like Gecko) Chrome/68.0.3440.106 Safari/537.36"
66.249.81.89 - - [05/Nov/2018:10:07:29 +0000] "GET /css/common_config.php HTTP/1.1" 200 151 "http://orangepotion.com/my_view_page.php" "Mozilla/5.0 (Windows NT 6.3; Win64; x64) AppleWebKit/537.36 (KHTML, like Gecko) Chrome/68.0.3440.106 Safari/537.36"
66.249.81.89 - - [05/Nov/2018:10:07:29 +0000] "GET /javascript_config.php HTTP/1.1" 200 118 "http://orangepotion.com/my_view_page.php" "Mozilla/5.0 (Windows NT 6.3; Win64; x64) AppleWebKit/537.36 (KHTML, like Gecko) Chrome/68.0.3440.106 Safari/537.36"
66.249.81.89 - - [05/Nov/2018:10:07:29 +0000] "GET /css/status_config.php HTTP/1.1" 200 171 "http://orangepotion.com/my_view_page.php" "Mozilla/5.0 (Windows NT 6.3; Win64; x64) AppleWebKit/537.36 (KHTML, like Gecko) Chrome/68.0.3440.106 Safari/537.36"
66.249.81.89 - - [05/Nov/2018:10:07:32 +0000] "GET /view_all_bug_page.php HTTP/1.1" 200 7508 "http://orangepotion.com/my_view_page.php" "Mozilla/5.0 (Windows NT 6.3; Win64; x64) AppleWebKit/537.36 (KHTML, like Gecko) Chrome/68.0.3440.106 Safari/537.36"
66.249.81.89 - - [05/Nov/2018:10:07:32 +0000] "GET /js/bugFilter.js HTTP/1.1" 200 3834 "http://orangepotion.com/view_all_bug_page.php" "Mozilla/5.0 (Windows NT 6.3; Win64; x64) AppleWebKit/537.36 (KHTML, like Gecko) Chrome/68.0.3440.106 Safari/537.36"
66.249.81.87 - - [05/Nov/2018:10:07:32 +0000] "GET /javascript_config.php HTTP/1.1" 200 118 "http://orangepotion.com/view_all_bug_page.php" "Mozilla/5.0 (Windows NT 6.3; Win64; x64) AppleWebKit/537.36 (KHTML, like Gecko) Chrome/68.0.3440.106 Safari/537.36"
66.249.81.91 - - [05/Nov/2018:10:07:32 +0000] "GET /css/common_config.php HTTP/1.1" 200 151 "http://orangepotion.com/view_all_bug_page.php" "Mozilla/5.0 (Windows NT 6.3; Win64; x64) AppleWebKit/537.36 (KHTML, like Gecko) Chrome/68.0.3440.106 Safari/537.36"
66.249.81.89 - - [05/Nov/2018:10:07:32 +0000] "GET /css/status_config.php HTTP/1.1" 200 171 "http://orangepotion.com/view_all_bug_page.php" "Mozilla/5.0 (Windows NT 6.3; Win64; x64) AppleWebKit/537.36 (KHTML, like Gecko) Chrome/68.0.3440.106 Safari/537.36"
66.249.81.91 - - [05/Nov/2018:10:07:32 +0000] "GET /javascript_translations.php HTTP/1.1" 200 127 "http://orangepotion.com/view_all_bug_page.php" "Mozilla/5.0 (Windows NT 6.3; Win64; x64) AppleWebKit/537.36 (KHTML, like Gecko) Chrome/68.0.3440.106 Safari/537.36"
52.15.34.116 - - [05/Nov/2018:10:14:58 +0000] "GET /login_page.php HTTP/1.1" 200 1387 "-" "Mozilla/5.0 (Macintosh; Intel Mac OS X x.y; rv:42.0) Trident/5.0 Chrome/51.0.2704.106 Safari/537.36 OPR/38.0.2220.41"
141.8.142.11 - - [05/Nov/2018:10:25:29 +0000] "GET /robots.txt HTTP/1.1" 404 208 "-" "Mozilla/5.0 (compatible; YandexBot/3.0; +http://yandex.com/bots)"
95.108.181.113 - - [05/Nov/2018:10:25:29 +0000] "GET /robots.txt HTTP/1.1" 404 208 "-" "Mozilla/5.0 (compatible; YandexBot/3.0; +http://yandex.com/bots)"
178.154.244.15 - - [05/Nov/2018:10:25:33 +0000] "GET / HTTP/1.1" 302 31 "-" "Mozilla/5.0 (compatible; YandexBot/3.0; +http://yandex.com/bots)"
95.108.181.61 - - [05/Nov/2018:10:25:37 +0000] "GET /login_page.php HTTP/1.1" 200 1479 "-" "Mozilla/5.0 (compatible; YandexBot/3.0; +http://yandex.com/bots)"
95.108.181.61 - - [05/Nov/2018:10:25:38 +0000] "GET / HTTP/1.1" 302 31 "-" "Mozilla/5.0 (compatible; YandexBot/3.0; +http://yandex.com/bots)"
95.108.181.49 - - [05/Nov/2018:10:25:42 +0000] "GET /login_page.php HTTP/1.1" 200 1477 "-" "Mozilla/5.0 (compatible; YandexBot/3.0; +http://yandex.com/bots)"
67.231.16.204 - - [05/Nov/2018:10:38:36 +0000] "HEAD /login_page.php HTTP/1.1" 200 0 "-" "Mozilla/5.0 (compatible; Uptimebot/1.0; +http://www.uptime.com/uptimebot)"
18.218.10.23 - - [05/Nov/2018:10:45:34 +0000] "GET /login_page.php HTTP/1.1" 200 1387 "-" "Mozilla/5.0 (Windows NT 6.1; Win64; x64; rv:47.0) AppleWebKit/537.36 (KHTML, like Gecko) Safari/602.1"
18.217.34.193 - - [05/Nov/2018:11:17:13 +0000] "GET /login_page.php HTTP/1.1" 200 1387 "-" "Mozilla/5.0 (X11; Linux x86_64) AppleWebKit/537.36 (KHTML, like Gecko) Firefox/42.0"
18.191.84.64 - - [05/Nov/2018:11:18:48 +0000] "GET /login_page.php HTTP/1.1" 200 1387 "-" "Mozilla/5.0 (Windows NT 6.1; Win64; x64; rv:47.0) AppleWebKit/537.36 (KHTML, like Gecko) Safari/602.1"
18.188.175.209 - - [05/Nov/2018:11:45:10 +0000] "GET /login_page.php HTTP/1.1" 200 1387 "-" "Mozilla/5.0 (Macintosh; Intel Mac OS X x.y; rv:42.0) AppleWebKit/537.36 (KHTML, like Gecko) Chrome/51.0.2704.106 Safari/537.36 OPR/38.0.2220.41"
18.220.65.247 - - [05/Nov/2018:12:19:06 +0000] "GET /login_page.php HTTP/1.1" 200 1387 "-" "Mozilla/5.0 (X11; Linux x86_64) Gecko/20100101 Chrome/51.0.2704.106 Safari/537.36 OPR/38.0.2220.41"
18.224.212.83 - - [05/Nov/2018:12:46:02 +0000] "GET /login_page.php HTTP/1.1" 200 1387 "-" "Mozilla/5.0 (Windows NT 6.1; Win64; x64; rv:47.0) AppleWebKit/537.36 (KHTML, like Gecko) Chrome/67.0.3396.79 Safari/537.36"
168.91.9.148 - - [05/Nov/2018:12:55:22 +0000] "GET / HTTP/1.0" 302 20 "-" "Mozilla/5.0 (Windows NT 10.0; Win64; x64) AppleWebKit/537.36 (KHTML, like Gecko) Chrome/69.0.3497.100 Safari/537.36"
168.91.9.148 - - [05/Nov/2018:12:55:23 +0000] "GET /login_page.php HTTP/1.0" 200 1375 "http://orangepotion.com" "Mozilla/5.0 (Windows NT 10.0; Win64; x64) AppleWebKit/537.36 (KHTML, like Gecko) Chrome/69.0.3497.100 Safari/537.36"
168.91.9.148 - - [05/Nov/2018:12:55:24 +0000] "GET /css/status_config.php HTTP/1.0" 200 20 "http://orangepotion.com/login_page.php" "Mozilla/5.0 (Windows NT 10.0; Win64; x64) AppleWebKit/537.36 (KHTML, like Gecko) Chrome/69.0.3497.100 Safari/537.36"
168.91.9.148 - - [05/Nov/2018:12:55:25 +0000] "GET /css/status_config.php HTTP/1.0" 200 0 "http://orangepotion.com/login_page.php" "Mozilla/5.0 (Windows NT 10.0; Win64; x64) AppleWebKit/537.36 (KHTML, like Gecko) Chrome/69.0.3497.100 Safari/537.36"
168.91.9.148 - - [05/Nov/2018:12:55:27 +0000] "GET /css/open-sans.css HTTP/1.0" 200 1175 "http://orangepotion.com/login_page.php" "Mozilla/5.0 (Windows NT 10.0; Win64; x64) AppleWebKit/537.36 (KHTML, like Gecko) Chrome/69.0.3497.100 Safari/537.36"
168.91.9.148 - - [05/Nov/2018:12:55:29 +0000] "GET /css/login.css HTTP/1.0" 200 827 "http://orangepotion.com/login_page.php" "Mozilla/5.0 (Windows NT 10.0; Win64; x64) AppleWebKit/537.36 (KHTML, like Gecko) Chrome/69.0.3497.100 Safari/537.36"
168.91.9.148 - - [05/Nov/2018:12:55:29 +0000] "GET /css/font-awesome-4.6.3.min.css HTTP/1.0" 200 29063 "http://orangepotion.com/login_page.php" "Mozilla/5.0 (Windows NT 10.0; Win64; x64) AppleWebKit/537.36 (KHTML, like Gecko) Chrome/69.0.3497.100 Safari/537.36"
168.91.9.148 - - [05/Nov/2018:12:55:30 +0000] "GET /css/dropzone-4.3.0.min.css HTTP/1.0" 200 9716 "http://orangepotion.com/login_page.php" "Mozilla/5.0 (Windows NT 10.0; Win64; x64) AppleWebKit/537.36 (KHTML, like Gecko) Chrome/69.0.3497.100 Safari/537.36"
168.91.9.148 - - [05/Nov/2018:12:55:31 +0000] "GET /css/default.css HTTP/1.0" 200 2084 "http://orangepotion.com/login_page.php" "Mozilla/5.0 (Windows NT 10.0; Win64; x64) AppleWebKit/537.36 (KHTML, like Gecko) Chrome/69.0.3497.100 Safari/537.36"
168.91.9.148 - - [05/Nov/2018:12:55:35 +0000] "GET /css/common_config.php HTTP/1.0" 200 140 "http://orangepotion.com/login_page.php" "Mozilla/5.0 (Windows NT 10.0; Win64; x64) AppleWebKit/537.36 (KHTML, like Gecko) Chrome/69.0.3497.100 Safari/537.36"
168.91.9.148 - - [05/Nov/2018:12:55:36 +0000] "GET /css/bootstrap-datetimepicker-4.17.47.min.css HTTP/1.0" 200 7785 "http://orangepotion.com/login_page.php" "Mozilla/5.0 (Windows NT 10.0; Win64; x64) AppleWebKit/537.36 (KHTML, like Gecko) Chrome/69.0.3497.100 Safari/537.36"
168.91.9.148 - - [05/Nov/2018:12:55:36 +0000] "GET /css/bootstrap-3.3.6.min.css HTTP/1.0" 200 115813 "http://orangepotion.com/login_page.php" "Mozilla/5.0 (Windows NT 10.0; Win64; x64) AppleWebKit/537.36 (KHTML, like Gecko) Chrome/69.0.3497.100 Safari/537.36"
168.91.9.148 - - [05/Nov/2018:12:55:38 +0000] "GET /css/ace.min.css HTTP/1.0" 200 298300 "http://orangepotion.com/login_page.php" "Mozilla/5.0 (Windows NT 10.0; Win64; x64) AppleWebKit/537.36 (KHTML, like Gecko) Chrome/69.0.3497.100 Safari/537.36"
168.91.9.148 - - [05/Nov/2018:12:55:41 +0000] "GET /css/ace-skins.min.css HTTP/1.0" 200 14106 "http://orangepotion.com/login_page.php" "Mozilla/5.0 (Windows NT 10.0; Win64; x64) AppleWebKit/537.36 (KHTML, like Gecko) Chrome/69.0.3497.100 Safari/537.36"
168.91.9.148 - - [05/Nov/2018:12:55:41 +0000] "GET /css/ace-part2.min.css HTTP/1.0" 200 29694 "http://orangepotion.com/login_page.php" "Mozilla/5.0 (Windows NT 10.0; Win64; x64) AppleWebKit/537.36 (KHTML, like Gecko) Chrome/69.0.3497.100 Safari/537.36"
168.91.9.148 - - [05/Nov/2018:12:55:42 +0000] "GET /css/ace-mantis.css HTTP/1.0" 200 12793 "http://orangepotion.com/login_page.php" "Mozilla/5.0 (Windows NT 10.0; Win64; x64) AppleWebKit/537.36 (KHTML, like Gecko) Chrome/69.0.3497.100 Safari/537.36"
168.91.9.148 - - [05/Nov/2018:12:55:43 +0000] "GET /css/ace-ie.min.css HTTP/1.0" 200 10334 "http://orangepotion.com/login_page.php" "Mozilla/5.0 (Windows NT 10.0; Win64; x64) AppleWebKit/537.36 (KHTML, like Gecko) Chrome/69.0.3497.100 Safari/537.36"
168.91.9.148 - - [05/Nov/2018:12:55:44 +0000] "GET /browser_search_plugin.php?type=text HTTP/1.0" 200 403 "http://orangepotion.com/login_page.php" "Mozilla/5.0 (Windows NT 10.0; Win64; x64) AppleWebKit/537.36 (KHTML, like Gecko) Chrome/69.0.3497.100 Safari/537.36"
168.91.9.148 - - [05/Nov/2018:12:55:45 +0000] "GET /browser_search_plugin.php?type=id HTTP/1.0" 200 366 "http://orangepotion.com/login_page.php" "Mozilla/5.0 (Windows NT 10.0; Win64; x64) AppleWebKit/537.36 (KHTML, like Gecko) Chrome/69.0.3497.100 Safari/537.36"
168.91.9.148 - - [05/Nov/2018:12:55:47 +0000] "GET /signup_page.php HTTP/1.0" 200 2022 "http://orangepotion.com/login_page.php" "Mozilla/5.0 (Windows NT 10.0; Win64; x64) AppleWebKit/537.36 (KHTML, like Gecko) Chrome/69.0.3497.100 Safari/537.36"
168.91.9.148 - - [05/Nov/2018:12:55:49 +0000] "GET /my_view_page.php HTTP/1.0" 302 20 "http://orangepotion.com/login_page.php" "Mozilla/5.0 (Windows NT 10.0; Win64; x64) AppleWebKit/537.36 (KHTML, like Gecko) Chrome/69.0.3497.100 Safari/537.36"
168.91.9.148 - - [05/Nov/2018:12:55:50 +0000] "GET /login_page.php?return=%2Fmy_view_page.php HTTP/1.0" 200 1374 "http://orangepotion.com/my_view_page.php" "Mozilla/5.0 (Windows NT 10.0; Win64; x64) AppleWebKit/537.36 (KHTML, like Gecko) Chrome/69.0.3497.100 Safari/537.36"
18.191.114.91 - - [05/Nov/2018:13:15:48 +0000] "GET /login_page.php HTTP/1.1" 200 1387 "-" "Mozilla/5.0 (Macintosh; Intel Mac OS X x.y; rv:42.0) Gecko/20100101 Chrome/67.0.3396.79 Safari/537.36"
18.222.69.217 - - [05/Nov/2018:13:15:58 +0000] "GET /login_page.php HTTP/1.1" 200 1387 "-" "Mozilla/5.0 (X11; Linux x86_64) AppleWebKit/537.36 (KHTML, like Gecko) Firefox/42.0"
66.249.81.89 - - [05/Nov/2018:13:36:31 +0000] "GET / HTTP/1.1" 302 31 "-" "Mozilla/5.0 (Windows NT 6.3; Win64; x64) AppleWebKit/537.36 (KHTML, like Gecko) Chrome/68.0.3440.106 Safari/537.36"
66.249.81.89 - - [05/Nov/2018:13:36:31 +0000] "GET /my_view_page.php HTTP/1.1" 200 4672 "-" "Mozilla/5.0 (Windows NT 6.3; Win64; x64) AppleWebKit/537.36 (KHTML, like Gecko) Chrome/68.0.3440.106 Safari/537.36"
66.249.81.91 - - [05/Nov/2018:13:36:31 +0000] "GET /css/default.css HTTP/1.1" 200 2084 "http://orangepotion.com/my_view_page.php" "Mozilla/5.0 (Windows NT 6.3; Win64; x64) AppleWebKit/537.36 (KHTML, like Gecko) Chrome/68.0.3440.106 Safari/537.36"
66.249.81.89 - - [05/Nov/2018:13:36:31 +0000] "GET /css/ace-mantis.css HTTP/1.1" 200 12793 "http://orangepotion.com/my_view_page.php" "Mozilla/5.0 (Windows NT 6.3; Win64; x64) AppleWebKit/537.36 (KHTML, like Gecko) Chrome/68.0.3440.106 Safari/537.36"
66.249.81.91 - - [05/Nov/2018:13:36:31 +0000] "GET /css/dropzone-4.3.0.min.css HTTP/1.1" 200 9716 "http://orangepotion.com/my_view_page.php" "Mozilla/5.0 (Windows NT 6.3; Win64; x64) AppleWebKit/537.36 (KHTML, like Gecko) Chrome/68.0.3440.106 Safari/537.36"
66.249.81.91 - - [05/Nov/2018:13:36:31 +0000] "GET /css/font-awesome-4.6.3.min.css HTTP/1.1" 200 29063 "http://orangepotion.com/my_view_page.php" "Mozilla/5.0 (Windows NT 6.3; Win64; x64) AppleWebKit/537.36 (KHTML, like Gecko) Chrome/68.0.3440.106 Safari/537.36"
66.249.81.91 - - [05/Nov/2018:13:36:31 +0000] "GET /css/bootstrap-datetimepicker-4.17.47.min.css HTTP/1.1" 200 7785 "http://orangepotion.com/my_view_page.php" "Mozilla/5.0 (Windows NT 6.3; Win64; x64) AppleWebKit/537.36 (KHTML, like Gecko) Chrome/68.0.3440.106 Safari/537.36"
66.249.81.87 - - [05/Nov/2018:13:36:31 +0000] "GET /css/open-sans.css HTTP/1.1" 200 1175 "http://orangepotion.com/my_view_page.php" "Mozilla/5.0 (Windows NT 6.3; Win64; x64) AppleWebKit/537.36 (KHTML, like Gecko) Chrome/68.0.3440.106 Safari/537.36"
66.249.81.91 - - [05/Nov/2018:13:36:31 +0000] "GET /css/ace-skins.min.css HTTP/1.1" 200 14106 "http://orangepotion.com/my_view_page.php" "Mozilla/5.0 (Windows NT 6.3; Win64; x64) AppleWebKit/537.36 (KHTML, like Gecko) Chrome/68.0.3440.106 Safari/537.36"
66.249.81.91 - - [05/Nov/2018:13:36:31 +0000] "GET /js/common.js HTTP/1.1" 200 17147 "http://orangepotion.com/my_view_page.php" "Mozilla/5.0 (Windows NT 6.3; Win64; x64) AppleWebKit/537.36 (KHTML, like Gecko) Chrome/68.0.3440.106 Safari/537.36"
66.249.81.87 - - [05/Nov/2018:13:36:31 +0000] "GET /js/jquery-2.2.4.min.js HTTP/1.1" 200 85578 "http://orangepotion.com/my_view_page.php" "Mozilla/5.0 (Windows NT 6.3; Win64; x64) AppleWebKit/537.36 (KHTML, like Gecko) Chrome/68.0.3440.106 Safari/537.36"
66.249.81.87 - - [05/Nov/2018:13:36:31 +0000] "GET /css/bootstrap-3.3.6.min.css HTTP/1.1" 200 115813 "http://orangepotion.com/my_view_page.php" "Mozilla/5.0 (Windows NT 6.3; Win64; x64) AppleWebKit/537.36 (KHTML, like Gecko) Chrome/68.0.3440.106 Safari/537.36"
66.249.81.87 - - [05/Nov/2018:13:36:31 +0000] "GET /css/ace.min.css HTTP/1.1" 200 298300 "http://orangepotion.com/my_view_page.php" "Mozilla/5.0 (Windows NT 6.3; Win64; x64) AppleWebKit/537.36 (KHTML, like Gecko) Chrome/68.0.3440.106 Safari/537.36"
66.249.81.91 - - [05/Nov/2018:13:36:31 +0000] "GET /plugin_file.php?file=Source/style.css HTTP/1.1" 200 2858 "http://orangepotion.com/my_view_page.php" "Mozilla/5.0 (Windows NT 6.3; Win64; x64) AppleWebKit/537.36 (KHTML, like Gecko) Chrome/68.0.3440.106 Safari/537.36"
66.249.81.91 - - [05/Nov/2018:13:36:31 +0000] "GET /css/status_config.php HTTP/1.1" 200 171 "http://orangepotion.com/my_view_page.php" "Mozilla/5.0 (Windows NT 6.3; Win64; x64) AppleWebKit/537.36 (KHTML, like Gecko) Chrome/68.0.3440.106 Safari/537.36"
66.249.81.89 - - [05/Nov/2018:13:36:31 +0000] "GET /plugin_file.php?file=MantisGraph/MantisGraph.js HTTP/1.1" 200 508 "http://orangepotion.com/my_view_page.php" "Mozilla/5.0 (Windows NT 6.3; Win64; x64) AppleWebKit/537.36 (KHTML, like Gecko) Chrome/68.0.3440.106 Safari/537.36"
66.249.81.89 - - [05/Nov/2018:13:36:31 +0000] "GET /js/dropzone-4.3.0.min.js HTTP/1.1" 200 33588 "http://orangepotion.com/my_view_page.php" "Mozilla/5.0 (Windows NT 6.3; Win64; x64) AppleWebKit/537.36 (KHTML, like Gecko) Chrome/68.0.3440.106 Safari/537.36"
66.249.81.89 - - [05/Nov/2018:13:36:31 +0000] "GET /javascript_config.php HTTP/1.1" 200 118 "http://orangepotion.com/my_view_page.php" "Mozilla/5.0 (Windows NT 6.3; Win64; x64) AppleWebKit/537.36 (KHTML, like Gecko) Chrome/68.0.3440.106 Safari/537.36"
66.249.81.89 - - [05/Nov/2018:13:36:31 +0000] "GET /js/bootstrap-3.3.6.min.js HTTP/1.1" 200 36868 "http://orangepotion.com/my_view_page.php" "Mozilla/5.0 (Windows NT 6.3; Win64; x64) AppleWebKit/537.36 (KHTML, like Gecko) Chrome/68.0.3440.106 Safari/537.36"
66.249.81.91 - - [05/Nov/2018:13:36:31 +0000] "GET /plugin_file.php?file=MantisGraph/chart.bundle-2.1.6.min.js HTTP/1.1" 200 52171 "http://orangepotion.com/my_view_page.php" "Mozilla/5.0 (Windows NT 6.3; Win64; x64) AppleWebKit/537.36 (KHTML, like Gecko) Chrome/68.0.3440.106 Safari/537.36"
66.249.81.91 - - [05/Nov/2018:13:36:31 +0000] "GET /images/mantis_logo.png HTTP/1.1" 200 77114 "http://orangepotion.com/my_view_page.php" "Mozilla/5.0 (Windows NT 6.3; Win64; x64) AppleWebKit/537.36 (KHTML, like Gecko) Chrome/68.0.3440.106 Safari/537.36"
66.249.81.87 - - [05/Nov/2018:13:36:31 +0000] "GET /javascript_translations.php HTTP/1.1" 200 127 "http://orangepotion.com/my_view_page.php" "Mozilla/5.0 (Windows NT 6.3; Win64; x64) AppleWebKit/537.36 (KHTML, like Gecko) Chrome/68.0.3440.106 Safari/537.36"
66.249.81.87 - - [05/Nov/2018:13:36:31 +0000] "GET /js/moment-with-locales-2.15.2.min.js HTTP/1.1" 200 232806 "http://orangepotion.com/my_view_page.php" "Mozilla/5.0 (Windows NT 6.3; Win64; x64) AppleWebKit/537.36 (KHTML, like Gecko) Chrome/68.0.3440.106 Safari/537.36"
66.249.81.89 - - [05/Nov/2018:13:36:31 +0000] "GET /js/bootstrap-datetimepicker-4.17.47.min.js HTTP/1.1" 200 38510 "http://orangepotion.com/my_view_page.php" "Mozilla/5.0 (Windows NT 6.3; Win64; x64) AppleWebKit/537.36 (KHTML, like Gecko) Chrome/68.0.3440.106 Safari/537.36"
66.249.81.89 - - [05/Nov/2018:13:36:31 +0000] "GET /css/common_config.php HTTP/1.1" 200 151 "http://orangepotion.com/my_view_page.php" "Mozilla/5.0 (Windows NT 6.3; Win64; x64) AppleWebKit/537.36 (KHTML, like Gecko) Chrome/68.0.3440.106 Safari/537.36"
66.249.81.91 - - [05/Nov/2018:13:36:31 +0000] "GET /js/typeahead.jquery-1.1.1.min.js HTTP/1.1" 200 31010 "http://orangepotion.com/my_view_page.php" "Mozilla/5.0 (Windows NT 6.3; Win64; x64) AppleWebKit/537.36 (KHTML, like Gecko) Chrome/68.0.3440.106 Safari/537.36"
66.249.81.87 - - [05/Nov/2018:13:36:31 +0000] "GET /plugin_file.php?file=MantisGraph/chart-2.1.6.min.js HTTP/1.1" 200 37207 "http://orangepotion.com/my_view_page.php" "Mozilla/5.0 (Windows NT 6.3; Win64; x64) AppleWebKit/537.36 (KHTML, like Gecko) Chrome/68.0.3440.106 Safari/537.36"
66.249.81.89 - - [05/Nov/2018:13:36:31 +0000] "GET /js/list-1.4.1.min.js HTTP/1.1" 200 15689 "http://orangepotion.com/my_view_page.php" "Mozilla/5.0 (Windows NT 6.3; Win64; x64) AppleWebKit/537.36 (KHTML, like Gecko) Chrome/68.0.3440.106 Safari/537.36"
66.249.81.89 - - [05/Nov/2018:13:36:31 +0000] "GET /js/ace.min.js HTTP/1.1" 200 41178 "http://orangepotion.com/my_view_page.php" "Mozilla/5.0 (Windows NT 6.3; Win64; x64) AppleWebKit/537.36 (KHTML, like Gecko) Chrome/68.0.3440.106 Safari/537.36"
66.249.81.89 - - [05/Nov/2018:13:36:32 +0000] "GET /fonts/cJZKeOuBrn4kERxqtaUH3T8E0i7KZn-EPnyo3HZu7kw.woff HTTP/1.1" 200 21956 "http://orangepotion.com/css/open-sans.css" "Mozilla/5.0 (Windows NT 6.3; Win64; x64) AppleWebKit/537.36 (KHTML, like Gecko) Chrome/68.0.3440.106 Safari/537.36"
66.249.81.89 - - [05/Nov/2018:13:36:32 +0000] "GET /fonts/DXI1ORHCpsQm3Vp6mXoaTXhCUOGz7vYGh680lGh-uXM.woff HTTP/1.1" 200 22656 "http://orangepotion.com/css/open-sans.css" "Mozilla/5.0 (Windows NT 6.3; Win64; x64) AppleWebKit/537.36 (KHTML, like Gecko) Chrome/68.0.3440.106 Safari/537.36"
66.249.81.89 - - [05/Nov/2018:13:36:32 +0000] "GET /fonts/fontawesome-webfont.woff2?v=4.6.3 HTTP/1.1" 200 71896 "http://orangepotion.com/css/font-awesome-4.6.3.min.css" "Mozilla/5.0 (Windows NT 6.3; Win64; x64) AppleWebKit/537.36 (KHTML, like Gecko) Chrome/68.0.3440.106 Safari/537.36"
46.226.58.62 - - [05/Nov/2018:13:36:32 +0000] "GET /fonts/cJZKeOuBrn4kERxqtaUH3T8E0i7KZn-EPnyo3HZu7kw.woff HTTP/1.1" 200 21956 "http://orangepotion.com/css/open-sans.css" "Mozilla/5.0 (Windows NT 6.3; Win64; x64) AppleWebKit/537.36 (KHTML, like Gecko) Chrome/68.0.3440.106 Safari/537.36"
46.226.58.62 - - [05/Nov/2018:13:36:32 +0000] "GET /fonts/DXI1ORHCpsQm3Vp6mXoaTXhCUOGz7vYGh680lGh-uXM.woff HTTP/1.1" 200 22656 "http://orangepotion.com/css/open-sans.css" "Mozilla/5.0 (Windows NT 6.3; Win64; x64) AppleWebKit/537.36 (KHTML, like Gecko) Chrome/68.0.3440.106 Safari/537.36"
46.226.58.62 - - [05/Nov/2018:13:36:32 +0000] "GET /fonts/fontawesome-webfont.woff2?v=4.6.3 HTTP/1.1" 200 71896 "http://orangepotion.com/css/font-awesome-4.6.3.min.css" "Mozilla/5.0 (Windows NT 6.3; Win64; x64) AppleWebKit/537.36 (KHTML, like Gecko) Chrome/68.0.3440.106 Safari/537.36"
66.249.81.91 - - [05/Nov/2018:13:36:36 +0000] "GET /view_all_bug_page.php HTTP/1.1" 200 7509 "http://orangepotion.com/my_view_page.php" "Mozilla/5.0 (Windows NT 6.3; Win64; x64) AppleWebKit/537.36 (KHTML, like Gecko) Chrome/68.0.3440.106 Safari/537.36"
66.249.81.91 - - [05/Nov/2018:13:36:36 +0000] "GET /js/bugFilter.js HTTP/1.1" 200 3834 "http://orangepotion.com/view_all_bug_page.php" "Mozilla/5.0 (Windows NT 6.3; Win64; x64) AppleWebKit/537.36 (KHTML, like Gecko) Chrome/68.0.3440.106 Safari/537.36"
66.249.81.89 - - [05/Nov/2018:13:36:36 +0000] "GET /javascript_config.php HTTP/1.1" 200 118 "http://orangepotion.com/view_all_bug_page.php" "Mozilla/5.0 (Windows NT 6.3; Win64; x64) AppleWebKit/537.36 (KHTML, like Gecko) Chrome/68.0.3440.106 Safari/537.36"
66.249.81.89 - - [05/Nov/2018:13:36:36 +0000] "GET /css/status_config.php HTTP/1.1" 200 171 "http://orangepotion.com/view_all_bug_page.php" "Mozilla/5.0 (Windows NT 6.3; Win64; x64) AppleWebKit/537.36 (KHTML, like Gecko) Chrome/68.0.3440.106 Safari/537.36"
66.249.81.87 - - [05/Nov/2018:13:36:36 +0000] "GET /javascript_translations.php HTTP/1.1" 200 127 "http://orangepotion.com/view_all_bug_page.php" "Mozilla/5.0 (Windows NT 6.3; Win64; x64) AppleWebKit/537.36 (KHTML, like Gecko) Chrome/68.0.3440.106 Safari/537.36"
66.249.81.89 - - [05/Nov/2018:13:36:36 +0000] "GET /css/common_config.php HTTP/1.1" 200 151 "http://orangepotion.com/view_all_bug_page.php" "Mozilla/5.0 (Windows NT 6.3; Win64; x64) AppleWebKit/537.36 (KHTML, like Gecko) Chrome/68.0.3440.106 Safari/537.36"
52.14.98.62 - - [05/Nov/2018:13:45:48 +0000] "GET /login_page.php HTTP/1.1" 200 1387 "-" "Mozilla/5.0 (Windows NT 6.1; Win64; x64; rv:47.0) Gecko/20100101 Safari/602.1"
66.249.81.153 - - [05/Nov/2018:14:06:37 +0000] "GET /view_all_bug_page.php?refresh=true HTTP/1.1" 200 7518 "http://orangepotion.com/view_all_bug_page.php" "Mozilla/5.0 (Windows NT 6.3; Win64; x64) AppleWebKit/537.36 (KHTML, like Gecko) Chrome/68.0.3440.106 Safari/537.36"
66.249.81.155 - - [05/Nov/2018:14:06:37 +0000] "GET /css/common_config.php HTTP/1.1" 200 151 "http://orangepotion.com/view_all_bug_page.php?refresh=true" "Mozilla/5.0 (Windows NT 6.3; Win64; x64) AppleWebKit/537.36 (KHTML, like Gecko) Chrome/68.0.3440.106 Safari/537.36"
66.249.81.151 - - [05/Nov/2018:14:06:37 +0000] "GET /javascript_config.php HTTP/1.1" 200 118 "http://orangepotion.com/view_all_bug_page.php?refresh=true" "Mozilla/5.0 (Windows NT 6.3; Win64; x64) AppleWebKit/537.36 (KHTML, like Gecko) Chrome/68.0.3440.106 Safari/537.36"
66.249.81.155 - - [05/Nov/2018:14:06:37 +0000] "GET /javascript_translations.php HTTP/1.1" 200 127 "http://orangepotion.com/view_all_bug_page.php?refresh=true" "Mozilla/5.0 (Windows NT 6.3; Win64; x64) AppleWebKit/537.36 (KHTML, like Gecko) Chrome/68.0.3440.106 Safari/537.36"
66.249.81.151 - - [05/Nov/2018:14:06:37 +0000] "GET /css/status_config.php HTTP/1.1" 200 171 "http://orangepotion.com/view_all_bug_page.php?refresh=true" "Mozilla/5.0 (Windows NT 6.3; Win64; x64) AppleWebKit/537.36 (KHTML, like Gecko) Chrome/68.0.3440.106 Safari/537.36"
3.16.42.80 - - [05/Nov/2018:14:14:54 +0000] "GET /login_page.php HTTP/1.1" 200 1387 "-" "Mozilla/5.0 (Windows NT 6.1; Win64; x64; rv:47.0) Trident/5.0 Chrome/51.0.2704.106 Safari/537.36 OPR/38.0.2220.41"
66.249.81.151 - - [05/Nov/2018:14:28:21 +0000] "GET /view_all_bug_page.php?refresh=true HTTP/1.1" 200 7518 "http://orangepotion.com/view_all_bug_page.php" "Mozilla/5.0 (Windows NT 6.3; Win64; x64) AppleWebKit/537.36 (KHTML, like Gecko) Chrome/68.0.3440.106 Safari/537.36"
66.249.81.151 - - [05/Nov/2018:14:28:21 +0000] "GET /javascript_translations.php HTTP/1.1" 200 127 "http://orangepotion.com/view_all_bug_page.php?refresh=true" "Mozilla/5.0 (Windows NT 6.3; Win64; x64) AppleWebKit/537.36 (KHTML, like Gecko) Chrome/68.0.3440.106 Safari/537.36"
66.249.81.155 - - [05/Nov/2018:14:28:21 +0000] "GET /css/common_config.php HTTP/1.1" 200 151 "http://orangepotion.com/view_all_bug_page.php?refresh=true" "Mozilla/5.0 (Windows NT 6.3; Win64; x64) AppleWebKit/537.36 (KHTML, like Gecko) Chrome/68.0.3440.106 Safari/537.36"
66.249.81.153 - - [05/Nov/2018:14:28:21 +0000] "GET /css/status_config.php HTTP/1.1" 200 171 "http://orangepotion.com/view_all_bug_page.php?refresh=true" "Mozilla/5.0 (Windows NT 6.3; Win64; x64) AppleWebKit/537.36 (KHTML, like Gecko) Chrome/68.0.3440.106 Safari/537.36"
66.249.81.153 - - [05/Nov/2018:14:28:21 +0000] "GET /javascript_config.php HTTP/1.1" 200 118 "http://orangepotion.com/view_all_bug_page.php?refresh=true" "Mozilla/5.0 (Windows NT 6.3; Win64; x64) AppleWebKit/537.36 (KHTML, like Gecko) Chrome/68.0.3440.106 Safari/537.36"
66.249.81.153 - - [05/Nov/2018:14:28:21 +0000] "GET /images/favicon.ico HTTP/1.1" 200 5254 "http://orangepotion.com/view_all_bug_page.php?refresh=true" "Mozilla/5.0 (Windows NT 6.3; Win64; x64) AppleWebKit/537.36 (KHTML, like Gecko) Chrome/68.0.3440.106 Safari/537.36"
3.16.42.80 - - [05/Nov/2018:14:45:38 +0000] "GET /login_page.php HTTP/1.1" 200 1387 "-" "Mozilla/5.0 (Windows NT 6.1; Win64; x64; rv:47.0) Gecko/20100101 Safari/602.1"
66.249.81.155 - - [05/Nov/2018:14:58:21 +0000] "GET /view_all_bug_page.php?refresh=true HTTP/1.1" 200 7518 "http://orangepotion.com/view_all_bug_page.php?refresh=true" "Mozilla/5.0 (Windows NT 6.3; Win64; x64) AppleWebKit/537.36 (KHTML, like Gecko) Chrome/68.0.3440.106 Safari/537.36"
66.249.81.155 - - [05/Nov/2018:14:58:22 +0000] "GET /css/default.css HTTP/1.1" 200 2084 "http://orangepotion.com/view_all_bug_page.php?refresh=true" "Mozilla/5.0 (Windows NT 6.3; Win64; x64) AppleWebKit/537.36 (KHTML, like Gecko) Chrome/68.0.3440.106 Safari/537.36"
66.249.81.153 - - [05/Nov/2018:14:58:22 +0000] "GET /css/ace-mantis.css HTTP/1.1" 200 12793 "http://orangepotion.com/view_all_bug_page.php?refresh=true" "Mozilla/5.0 (Windows NT 6.3; Win64; x64) AppleWebKit/537.36 (KHTML, like Gecko) Chrome/68.0.3440.106 Safari/537.36"
66.249.81.151 - - [05/Nov/2018:14:58:22 +0000] "GET /css/bootstrap-datetimepicker-4.17.47.min.css HTTP/1.1" 200 7785 "http://orangepotion.com/view_all_bug_page.php?refresh=true" "Mozilla/5.0 (Windows NT 6.3; Win64; x64) AppleWebKit/537.36 (KHTML, like Gecko) Chrome/68.0.3440.106 Safari/537.36"
66.249.81.151 - - [05/Nov/2018:14:58:22 +0000] "GET /css/bootstrap-3.3.6.min.css HTTP/1.1" 200 115813 "http://orangepotion.com/view_all_bug_page.php?refresh=true" "Mozilla/5.0 (Windows NT 6.3; Win64; x64) AppleWebKit/537.36 (KHTML, like Gecko) Chrome/68.0.3440.106 Safari/537.36"
66.249.81.151 - - [05/Nov/2018:14:58:22 +0000] "GET /css/ace.min.css HTTP/1.1" 200 298300 "http://orangepotion.com/view_all_bug_page.php?refresh=true" "Mozilla/5.0 (Windows NT 6.3; Win64; x64) AppleWebKit/537.36 (KHTML, like Gecko) Chrome/68.0.3440.106 Safari/537.36"
66.249.81.155 - - [05/Nov/2018:14:58:22 +0000] "GET /css/open-sans.css HTTP/1.1" 200 1175 "http://orangepotion.com/view_all_bug_page.php?refresh=true" "Mozilla/5.0 (Windows NT 6.3; Win64; x64) AppleWebKit/537.36 (KHTML, like Gecko) Chrome/68.0.3440.106 Safari/537.36"
66.249.81.153 - - [05/Nov/2018:14:58:22 +0000] "GET /css/dropzone-4.3.0.min.css HTTP/1.1" 200 9716 "http://orangepotion.com/view_all_bug_page.php?refresh=true" "Mozilla/5.0 (Windows NT 6.3; Win64; x64) AppleWebKit/537.36 (KHTML, like Gecko) Chrome/68.0.3440.106 Safari/537.36"
66.249.81.151 - - [05/Nov/2018:14:58:22 +0000] "GET /javascript_translations.php HTTP/1.1" 200 127 "http://orangepotion.com/view_all_bug_page.php?refresh=true" "Mozilla/5.0 (Windows NT 6.3; Win64; x64) AppleWebKit/537.36 (KHTML, like Gecko) Chrome/68.0.3440.106 Safari/537.36"
66.249.81.155 - - [05/Nov/2018:14:58:22 +0000] "GET /css/font-awesome-4.6.3.min.css HTTP/1.1" 200 29063 "http://orangepotion.com/view_all_bug_page.php?refresh=true" "Mozilla/5.0 (Windows NT 6.3; Win64; x64) AppleWebKit/537.36 (KHTML, like Gecko) Chrome/68.0.3440.106 Safari/537.36"
66.249.81.151 - - [05/Nov/2018:14:58:22 +0000] "GET /css/ace-skins.min.css HTTP/1.1" 200 14106 "http://orangepotion.com/view_all_bug_page.php?refresh=true" "Mozilla/5.0 (Windows NT 6.3; Win64; x64) AppleWebKit/537.36 (KHTML, like Gecko) Chrome/68.0.3440.106 Safari/537.36"
66.249.81.151 - - [05/Nov/2018:14:58:22 +0000] "GET /css/common_config.php HTTP/1.1" 200 151 "http://orangepotion.com/view_all_bug_page.php?refresh=true" "Mozilla/5.0 (Windows NT 6.3; Win64; x64) AppleWebKit/537.36 (KHTML, like Gecko) Chrome/68.0.3440.106 Safari/537.36"
66.249.81.153 - - [05/Nov/2018:14:58:22 +0000] "GET /javascript_config.php HTTP/1.1" 200 118 "http://orangepotion.com/view_all_bug_page.php?refresh=true" "Mozilla/5.0 (Windows NT 6.3; Win64; x64) AppleWebKit/537.36 (KHTML, like Gecko) Chrome/68.0.3440.106 Safari/537.36"
66.249.81.155 - - [05/Nov/2018:14:58:22 +0000] "GET /plugin_file.php?file=Source/style.css HTTP/1.1" 200 2858 "http://orangepotion.com/view_all_bug_page.php?refresh=true" "Mozilla/5.0 (Windows NT 6.3; Win64; x64) AppleWebKit/537.36 (KHTML, like Gecko) Chrome/68.0.3440.106 Safari/537.36"
66.249.81.155 - - [05/Nov/2018:14:58:22 +0000] "GET /css/status_config.php HTTP/1.1" 200 171 "http://orangepotion.com/view_all_bug_page.php?refresh=true" "Mozilla/5.0 (Windows NT 6.3; Win64; x64) AppleWebKit/537.36 (KHTML, like Gecko) Chrome/68.0.3440.106 Safari/537.36"
18.221.39.211 - - [05/Nov/2018:15:15:37 +0000] "GET /login_page.php HTTP/1.1" 200 1387 "-" "Mozilla/5.0 (X11; Linux x86_64) AppleWebKit/537.36 (KHTML, like Gecko) Safari/602.1"
66.249.81.151 - - [05/Nov/2018:15:28:23 +0000] "GET /view_all_bug_page.php?refresh=true HTTP/1.1" 200 7516 "http://orangepotion.com/view_all_bug_page.php?refresh=true" "Mozilla/5.0 (Windows NT 6.3; Win64; x64) AppleWebKit/537.36 (KHTML, like Gecko) Chrome/68.0.3440.106 Safari/537.36"
66.249.81.151 - - [05/Nov/2018:15:28:23 +0000] "GET /css/status_config.php HTTP/1.1" 200 171 "http://orangepotion.com/view_all_bug_page.php?refresh=true" "Mozilla/5.0 (Windows NT 6.3; Win64; x64) AppleWebKit/537.36 (KHTML, like Gecko) Chrome/68.0.3440.106 Safari/537.36"
66.249.81.153 - - [05/Nov/2018:15:28:23 +0000] "GET /css/common_config.php HTTP/1.1" 200 151 "http://orangepotion.com/view_all_bug_page.php?refresh=true" "Mozilla/5.0 (Windows NT 6.3; Win64; x64) AppleWebKit/537.36 (KHTML, like Gecko) Chrome/68.0.3440.106 Safari/537.36"
66.249.81.151 - - [05/Nov/2018:15:28:23 +0000] "GET /javascript_config.php HTTP/1.1" 200 118 "http://orangepotion.com/view_all_bug_page.php?refresh=true" "Mozilla/5.0 (Windows NT 6.3; Win64; x64) AppleWebKit/537.36 (KHTML, like Gecko) Chrome/68.0.3440.106 Safari/537.36"
66.249.81.151 - - [05/Nov/2018:15:28:23 +0000] "GET /javascript_translations.php HTTP/1.1" 200 127 "http://orangepotion.com/view_all_bug_page.php?refresh=true" "Mozilla/5.0 (Windows NT 6.3; Win64; x64) AppleWebKit/537.36 (KHTML, like Gecko) Chrome/68.0.3440.106 Safari/537.36"
18.188.90.138 - - [05/Nov/2018:15:46:28 +0000] "GET /login_page.php HTTP/1.1" 200 1387 "-" "Mozilla/5.0 (Windows NT 6.1; Win64; x64; rv:47.0) Gecko/20100101 Chrome/67.0.3396.79 Safari/537.36"
66.249.81.153 - - [05/Nov/2018:15:50:25 +0000] "GET /view_all_bug_page.php?refresh=true HTTP/1.1" 200 7518 "http://orangepotion.com/view_all_bug_page.php?refresh=true" "Mozilla/5.0 (Windows NT 6.3; Win64; x64) AppleWebKit/537.36 (KHTML, like Gecko) Chrome/68.0.3440.106 Safari/537.36"
66.249.81.151 - - [05/Nov/2018:15:50:25 +0000] "GET /javascript_config.php HTTP/1.1" 200 118 "http://orangepotion.com/view_all_bug_page.php?refresh=true" "Mozilla/5.0 (Windows NT 6.3; Win64; x64) AppleWebKit/537.36 (KHTML, like Gecko) Chrome/68.0.3440.106 Safari/537.36"
66.249.81.155 - - [05/Nov/2018:15:50:25 +0000] "GET /javascript_translations.php HTTP/1.1" 200 127 "http://orangepotion.com/view_all_bug_page.php?refresh=true" "Mozilla/5.0 (Windows NT 6.3; Win64; x64) AppleWebKit/537.36 (KHTML, like Gecko) Chrome/68.0.3440.106 Safari/537.36"
66.249.81.151 - - [05/Nov/2018:15:50:25 +0000] "GET /css/status_config.php HTTP/1.1" 200 171 "http://orangepotion.com/view_all_bug_page.php?refresh=true" "Mozilla/5.0 (Windows NT 6.3; Win64; x64) AppleWebKit/537.36 (KHTML, like Gecko) Chrome/68.0.3440.106 Safari/537.36"
66.249.81.151 - - [05/Nov/2018:15:50:25 +0000] "GET /css/common_config.php HTTP/1.1" 200 151 "http://orangepotion.com/view_all_bug_page.php?refresh=true" "Mozilla/5.0 (Windows NT 6.3; Win64; x64) AppleWebKit/537.36 (KHTML, like Gecko) Chrome/68.0.3440.106 Safari/537.36"
66.249.81.151 - - [05/Nov/2018:15:50:26 +0000] "GET /images/favicon.ico HTTP/1.1" 200 5254 "http://orangepotion.com/view_all_bug_page.php?refresh=true" "Mozilla/5.0 (Windows NT 6.3; Win64; x64) AppleWebKit/537.36 (KHTML, like Gecko) Chrome/68.0.3440.106 Safari/537.36"
66.249.81.155 - - [05/Nov/2018:15:50:28 +0000] "GET /view_all_bug_page.php?refresh=true HTTP/1.1" 200 7518 "http://orangepotion.com/view_all_bug_page.php?refresh=true" "Mozilla/5.0 (Windows NT 6.3; Win64; x64) AppleWebKit/537.36 (KHTML, like Gecko) Chrome/68.0.3440.106 Safari/537.36"
66.249.81.153 - - [05/Nov/2018:15:50:29 +0000] "GET /javascript_translations.php HTTP/1.1" 200 127 "http://orangepotion.com/view_all_bug_page.php?refresh=true" "Mozilla/5.0 (Windows NT 6.3; Win64; x64) AppleWebKit/537.36 (KHTML, like Gecko) Chrome/68.0.3440.106 Safari/537.36"
66.249.81.151 - - [05/Nov/2018:15:50:29 +0000] "GET /javascript_config.php HTTP/1.1" 200 118 "http://orangepotion.com/view_all_bug_page.php?refresh=true" "Mozilla/5.0 (Windows NT 6.3; Win64; x64) AppleWebKit/537.36 (KHTML, like Gecko) Chrome/68.0.3440.106 Safari/537.36"
66.249.81.153 - - [05/Nov/2018:15:50:29 +0000] "GET /css/status_config.php HTTP/1.1" 200 171 "http://orangepotion.com/view_all_bug_page.php?refresh=true" "Mozilla/5.0 (Windows NT 6.3; Win64; x64) AppleWebKit/537.36 (KHTML, like Gecko) Chrome/68.0.3440.106 Safari/537.36"
66.249.81.151 - - [05/Nov/2018:15:50:29 +0000] "GET /css/common_config.php HTTP/1.1" 200 151 "http://orangepotion.com/view_all_bug_page.php?refresh=true" "Mozilla/5.0 (Windows NT 6.3; Win64; x64) AppleWebKit/537.36 (KHTML, like Gecko) Chrome/68.0.3440.106 Safari/537.36"
66.249.81.151 - - [05/Nov/2018:15:50:29 +0000] "GET /images/favicon.ico HTTP/1.1" 200 5254 "http://orangepotion.com/view_all_bug_page.php?refresh=true" "Mozilla/5.0 (Windows NT 6.3; Win64; x64) AppleWebKit/537.36 (KHTML, like Gecko) Chrome/68.0.3440.106 Safari/537.36"
157.55.39.16 - - [05/Nov/2018:16:04:03 +0000] "GET /robots.txt HTTP/1.1" 404 204 "-" "Mozilla/5.0 (compatible; bingbot/2.0; +http://www.bing.com/bingbot.htm)"
207.46.13.104 - - [05/Nov/2018:16:04:06 +0000] "GET /signup_page.php HTTP/1.1" 200 2034 "-" "Mozilla/5.0 (compatible; bingbot/2.0; +http://www.bing.com/bingbot.htm)"
3.16.46.187 - - [05/Nov/2018:16:16:27 +0000] "GET /login_page.php HTTP/1.1" 200 1387 "-" "Mozilla/5.0 (X11; Linux x86_64) Trident/5.0 Chrome/51.0.2704.106 Safari/537.36 OPR/38.0.2220.41"
18.218.10.23 - - [05/Nov/2018:16:45:45 +0000] "GET /login_page.php HTTP/1.1" 200 1387 "-" "Mozilla/5.0 (X11; Linux x86_64) AppleWebKit/537.36 (KHTML, like Gecko) Firefox/42.0"
18.217.34.193 - - [05/Nov/2018:17:16:10 +0000] "GET /login_page.php HTTP/1.1" 200 1387 "-" "Mozilla/5.0 (X11; Linux x86_64) Gecko/20100101 Safari/602.1"
18.221.249.123 - - [05/Nov/2018:17:46:02 +0000] "GET /login_page.php HTTP/1.1" 200 1387 "-" "Mozilla/5.0 (Windows NT 6.1; Win64; x64; rv:47.0) Trident/5.0 Chrome/67.0.3396.79 Safari/537.36"
178.154.244.10 - - [05/Nov/2018:18:11:08 +0000] "GET /robots.txt HTTP/1.1" 404 208 "-" "Mozilla/5.0 (compatible; YandexBot/3.0; +http://yandex.com/bots)"
178.154.244.10 - - [05/Nov/2018:18:11:12 +0000] "GET /browser_search_plugin.php?type=text HTTP/1.1" 200 415 "-" "Mozilla/5.0 (compatible; YandexBot/3.0; +http://yandex.com/bots)"
18.222.69.217 - - [05/Nov/2018:18:16:17 +0000] "GET /login_page.php HTTP/1.1" 200 1387 "-" "Mozilla/5.0 (X11; Linux x86_64) AppleWebKit/537.36 (KHTML, like Gecko) Safari/602.1"
52.14.98.62 - - [05/Nov/2018:18:45:35 +0000] "GET /login_page.php HTTP/1.1" 200 1387 "-" "Mozilla/5.0 (Macintosh; Intel Mac OS X x.y; rv:42.0) Trident/5.0 Safari/602.1"
18.191.84.64 - - [05/Nov/2018:19:15:44 +0000] "GET /login_page.php HTTP/1.1" 200 1387 "-" "Mozilla/5.0 (X11; Linux x86_64) Trident/5.0 Safari/602.1"
18.223.115.234 - - [05/Nov/2018:19:45:58 +0000] "GET /login_page.php HTTP/1.1" 200 1387 "-" "Mozilla/5.0 (X11; Linux x86_64) AppleWebKit/537.36 (KHTML, like Gecko) Firefox/42.0"
18.216.244.161 - - [05/Nov/2018:20:17:02 +0000] "GET /login_page.php HTTP/1.1" 200 1387 "-" "Mozilla/5.0 (Windows NT 6.1; Win64; x64; rv:47.0) Trident/5.0 Chrome/51.0.2704.106 Safari/537.36 OPR/38.0.2220.41"
87.138.198.5 - - [05/Nov/2018:20:42:39 +0000] "GET /login_page.php?return=%2Flogin_select_proj_page.php%3Fref%3Dbug_report_page.php HTTP/1.1" 200 1406 "http://orangepotion.com/my_view_page.php" "Mozilla/5.0 (Linux; Android 7.0; SAMSUNG SM-T580 Build/NRD90M) AppleWebKit/537.36 (KHTML, like Gecko) SamsungBrowser/6.2 Chrome/56.0.2924.87 Safari/537.36"
87.138.198.5 - - [05/Nov/2018:20:42:39 +0000] "GET /javascript_translations.php HTTP/1.1" 200 127 "http://orangepotion.com/login_page.php?return=%2Flogin_select_proj_page.php%3Fref%3Dbug_report_page.php" "Mozilla/5.0 (Linux; Android 7.0; SAMSUNG SM-T580 Build/NRD90M) AppleWebKit/537.36 (KHTML, like Gecko) SamsungBrowser/6.2 Chrome/56.0.2924.87 Safari/537.36"
87.138.198.5 - - [05/Nov/2018:20:42:39 +0000] "GET /css/status_config.php HTTP/1.1" 200 31 "http://orangepotion.com/login_page.php?return=%2Flogin_select_proj_page.php%3Fref%3Dbug_report_page.php" "Mozilla/5.0 (Linux; Android 7.0; SAMSUNG SM-T580 Build/NRD90M) AppleWebKit/537.36 (KHTML, like Gecko) SamsungBrowser/6.2 Chrome/56.0.2924.87 Safari/537.36"
87.138.198.5 - - [05/Nov/2018:20:42:39 +0000] "GET /css/common_config.php HTTP/1.1" 200 151 "http://orangepotion.com/login_page.php?return=%2Flogin_select_proj_page.php%3Fref%3Dbug_report_page.php" "Mozilla/5.0 (Linux; Android 7.0; SAMSUNG SM-T580 Build/NRD90M) AppleWebKit/537.36 (KHTML, like Gecko) SamsungBrowser/6.2 Chrome/56.0.2924.87 Safari/537.36"
87.138.198.5 - - [05/Nov/2018:20:42:39 +0000] "GET /javascript_config.php HTTP/1.1" 200 118 "http://orangepotion.com/login_page.php?return=%2Flogin_select_proj_page.php%3Fref%3Dbug_report_page.php" "Mozilla/5.0 (Linux; Android 7.0; SAMSUNG SM-T580 Build/NRD90M) AppleWebKit/537.36 (KHTML, like Gecko) SamsungBrowser/6.2 Chrome/56.0.2924.87 Safari/537.36"
87.138.198.5 - - [05/Nov/2018:20:42:41 +0000] "GET /images/favicon.ico HTTP/1.1" 200 5254 "http://orangepotion.com/login_page.php?return=%2Flogin_select_proj_page.php%3Fref%3Dbug_report_page.php" "Mozilla/5.0 (Linux; Android 7.0; SAMSUNG SM-T580 Build/NRD90M) AppleWebKit/537.36 (KHTML, like Gecko) SamsungBrowser/6.2 Chrome/56.0.2924.87 Safari/537.36"
18.222.69.217 - - [05/Nov/2018:20:45:48 +0000] "GET /login_page.php HTTP/1.1" 200 1387 "-" "Mozilla/5.0 (Windows NT 6.1; Win64; x64; rv:47.0) AppleWebKit/537.36 (KHTML, like Gecko) Chrome/67.0.3396.79 Safari/537.36"
18.220.11.248 - - [05/Nov/2018:21:15:29 +0000] "GET /login_page.php HTTP/1.1" 200 1387 "-" "Mozilla/5.0 (Macintosh; Intel Mac OS X x.y; rv:42.0) Trident/5.0 Chrome/67.0.3396.79 Safari/537.36"
18.216.20.127 - - [05/Nov/2018:21:45:17 +0000] "GET /login_page.php HTTP/1.1" 200 1387 "-" "Mozilla/5.0 (X11; Linux x86_64) Trident/5.0 Firefox/42.0"
18.220.65.247 - - [05/Nov/2018:22:14:56 +0000] "GET /login_page.php HTTP/1.1" 200 1387 "-" "Mozilla/5.0 (Macintosh; Intel Mac OS X x.y; rv:42.0) Trident/5.0 Safari/602.1"
66.249.66.148 - - [05/Nov/2018:22:34:11 +0000] "GET /robots.txt HTTP/1.1" 404 204 "-" "Mozilla/5.0 (compatible; Googlebot/2.1; +http://www.google.com/bot.html)"
66.249.66.152 - - [05/Nov/2018:22:34:12 +0000] "GET / HTTP/1.1" 302 31 "-" "Mozilla/5.0 (compatible; Googlebot/2.1; +http://www.google.com/bot.html)"
66.249.66.148 - - [05/Nov/2018:22:34:12 +0000] "GET /login_page.php HTTP/1.1" 200 1390 "-" "Mozilla/5.0 (compatible; Googlebot/2.1; +http://www.google.com/bot.html)"
18.224.135.194 - - [05/Nov/2018:22:46:12 +0000] "GET /login_page.php HTTP/1.1" 200 1387 "-" "Mozilla/5.0 (Macintosh; Intel Mac OS X x.y; rv:42.0) Gecko/20100101 Safari/602.1"
18.191.114.91 - - [05/Nov/2018:23:15:04 +0000] "GET /login_page.php HTTP/1.1" 200 1387 "-" "Mozilla/5.0 (Windows NT 6.1; Win64; x64; rv:47.0) Gecko/20100101 Chrome/51.0.2704.106 Safari/537.36 OPR/38.0.2220.41"
18.222.143.109 - - [05/Nov/2018:23:46:26 +0000] "GET /login_page.php HTTP/1.1" 200 1387 "-" "Mozilla/5.0 (X11; Linux x86_64) Trident/5.0 Chrome/67.0.3396.79 Safari/537.36"
18.217.34.193 - - [06/Nov/2018:00:16:13 +0000] "GET /login_page.php HTTP/1.1" 200 1387 "-" "Mozilla/5.0 (Macintosh; Intel Mac OS X x.y; rv:42.0) AppleWebKit/537.36 (KHTML, like Gecko) Chrome/51.0.2704.106 Safari/537.36 OPR/38.0.2220.41"
18.222.143.109 - - [06/Nov/2018:00:45:43 +0000] "GET /login_page.php HTTP/1.1" 200 1387 "-" "Mozilla/5.0 (X11; Linux x86_64) AppleWebKit/537.36 (KHTML, like Gecko) Chrome/67.0.3396.79 Safari/537.36"
18.222.238.207 - - [06/Nov/2018:01:15:49 +0000] "GET /login_page.php HTTP/1.1" 200 1387 "-" "Mozilla/5.0 (X11; Linux x86_64) Trident/5.0 Firefox/42.0"
18.221.39.211 - - [06/Nov/2018:01:45:33 +0000] "GET /login_page.php HTTP/1.1" 200 1387 "-" "Mozilla/5.0 (X11; Linux x86_64) Trident/5.0 Firefox/42.0"
39.98.54.25 - - [06/Nov/2018:02:04:30 +0000] "GET / HTTP/1.1" 302 31 "-" "-"
39.98.54.25 - - [06/Nov/2018:02:04:31 +0000] "GET /login_page.php HTTP/1.1" 200 1390 "-" "-"
18.217.89.105 - - [06/Nov/2018:02:15:35 +0000] "GET /login_page.php HTTP/1.1" 200 1387 "-" "Mozilla/5.0 (X11; Linux x86_64) AppleWebKit/537.36 (KHTML, like Gecko) Safari/602.1"
18.216.244.161 - - [06/Nov/2018:02:45:03 +0000] "GET /login_page.php HTTP/1.1" 200 1387 "-" "Mozilla/5.0 (Windows NT 6.1; Win64; x64; rv:47.0) AppleWebKit/537.36 (KHTML, like Gecko) Safari/602.1"
