106.75.118.253 - - [04/Nov/2018:03:00:31 +0000] "GET / HTTP/1.1" 200 3826 "-" "Mozilla/5.0 (Windows NT 10.0; WOW64) AppleWebKit/537.36 (KHTML, like Gecko) Chrome/69.0.3497.81 Safari/537.36"
212.47.227.114 - - [04/Nov/2018:03:34:20 +0000] "GET / HTTP/1.1" 200 3826 "-" "Mozilla/5.0 (Windows NT 6.1; Win64; x64) AppleWebKit/537.36 (KHTML, like Gecko) Chrome/66.0.3359.117 Safari/537.36"
212.47.227.114 - - [04/Nov/2018:03:34:21 +0000] "GET /?email-subscribe=illberisquer%40yahoo.com& HTTP/1.1" 200 3826 "http://looklala.com/" "Mozilla/5.0 (Windows NT 6.1; Win64; x64) AppleWebKit/537.36 (KHTML, like Gecko) Chrome/66.0.3359.117 Safari/537.36"
185.24.218.172 - - [04/Nov/2018:04:00:22 +0000] "GET / HTTP/1.1" 200 3826 "-" "Mozilla/5.0 (Windows NT 10.0; Win64; x64) AppleWebKit/537.36 (KHTML, like Gecko) Chrome/52.0.2743.116 Safari/537.36 Edge/15.15063"
185.24.218.172 - - [04/Nov/2018:04:00:22 +0000] "GET /?email-subscribe=rosshorsey322%40gmail.com& HTTP/1.1" 200 3826 "http://looklala.com/" "Mozilla/5.0 (Windows NT 10.0; Win64; x64) AppleWebKit/537.36 (KHTML, like Gecko) Chrome/52.0.2743.116 Safari/537.36 Edge/15.15063"
220.181.125.86 - - [04/Nov/2018:04:05:27 +0000] "GET /robots.txt HTTP/1.1" 404 208 "-" "Sogou web spider/4.0(+http://www.sogou.com/docs/help/webmasters.htm#07)"
220.181.125.86 - - [04/Nov/2018:04:05:31 +0000] "GET / HTTP/1.1" 304 0 "-" "Sogou web spider/4.0(+http://www.sogou.com/docs/help/webmasters.htm#07)"
46.20.35.114 - - [04/Nov/2018:04:12:49 +0000] "GET / HTTP/1.1" 200 3826 "-" "Mozilla/5.0 (Windows NT 10.0; Win64; x64) AppleWebKit/537.36 (KHTML, like Gecko) Chrome/58.0.3029.110 Safari/537.36 Edge/16.16299"
46.20.35.114 - - [04/Nov/2018:04:12:50 +0000] "GET /?email-subscribe=jnimblett%40gmail.com& HTTP/1.1" 200 3826 "http://looklala.com/" "Mozilla/5.0 (Windows NT 10.0; Win64; x64) AppleWebKit/537.36 (KHTML, like Gecko) Chrome/58.0.3029.110 Safari/537.36 Edge/16.16299"
104.227.246.106 - - [04/Nov/2018:04:27:00 +0000] "GET / HTTP/1.1" 200 11888 "-" "Mozilla/5.0 (Windows NT 6.1; WOW64) AppleWebKit/537.36 (KHTML, like Gecko) Chrome/34.0.1847.131 Safari/537.36"
104.227.246.106 - - [04/Nov/2018:04:27:00 +0000] "GET / HTTP/1.1" 200 11888 "-" "Mozilla/5.0 (Windows NT 6.1; WOW64) AppleWebKit/537.36 (KHTML, like Gecko) Chrome/34.0.1847.131 Safari/537.36"
162.247.74.27 - - [04/Nov/2018:04:35:34 +0000] "GET / HTTP/1.1" 200 3826 "-" "Mozilla/5.0 (Macintosh; Intel Mac OS X 10_11_4) AppleWebKit/601.5.17 (KHTML, like Gecko)"
162.247.74.27 - - [04/Nov/2018:04:35:35 +0000] "GET /?email-subscribe=nikowright43%40yahoo.com& HTTP/1.1" 200 3826 "http://looklala.com/" "Mozilla/5.0 (Macintosh; Intel Mac OS X 10_11_4) AppleWebKit/601.5.17 (KHTML, like Gecko)"
180.76.15.28 - - [04/Nov/2018:04:41:46 +0000] "GET /?content/26233.html HTTP/1.1" 200 3826 "-" "Mozilla/5.0 (compatible; Baiduspider/2.0; +http://www.baidu.com/search/spider.html)"
42.236.99.86 - - [04/Nov/2018:05:07:27 +0000] "GET / HTTP/1.1" 200 3826 "http://www.looklala.com/" "Mozilla/5.0 (Windows NT 6.1; WOW64) AppleWebKit/537.36 (KHTML, like Gecko) Chrome/50.0.2661.102 Safari/537.36; 360Spider"
42.236.99.51 - - [04/Nov/2018:05:07:50 +0000] "GET / HTTP/1.1" 200 3826 "http://looklala.com/" "Mozilla/5.0 (Windows NT 6.1; WOW64) AppleWebKit/537.36 (KHTML, like Gecko) Chrome/50.0.2661.102 Safari/537.36; 360Spider"
180.76.15.26 - - [04/Nov/2018:05:15:06 +0000] "GET /?content/125.html HTTP/1.1" 200 3826 "-" "Mozilla/5.0 (compatible; Baiduspider/2.0; +http://www.baidu.com/search/spider.html)"
195.176.3.24 - - [04/Nov/2018:06:27:16 +0000] "GET / HTTP/1.1" 200 3826 "-" "Mozilla/5.0 (Windows NT 6.1; WOW64; rv:41.0) Gecko/20100101 Firefox/41.0"
195.176.3.24 - - [04/Nov/2018:06:27:17 +0000] "GET /?email-subscribe=austinsinbox%40gmail.com& HTTP/1.1" 200 3826 "http://looklala.com/" "Mozilla/5.0 (Windows NT 6.1; WOW64; rv:41.0) Gecko/20100101 Firefox/41.0"
185.220.101.30 - - [04/Nov/2018:06:56:36 +0000] "GET / HTTP/1.1" 200 3826 "-" "Mozilla/5.0 (Windows NT 10.0; WOW64; rv:50.0) Gecko/20100101 Firefox/50.0"
185.220.101.8 - - [04/Nov/2018:06:56:37 +0000] "GET /?email-subscribe=suewise%40delandkia.com& HTTP/1.1" 200 3826 "http://looklala.com/" "Mozilla/5.0 (Windows NT 10.0; WOW64; rv:50.0) Gecko/20100101 Firefox/50.0"
185.220.101.44 - - [04/Nov/2018:07:51:40 +0000] "GET / HTTP/1.1" 200 3826 "-" "Mozilla/5.0 (Windows NT 6.1; WOW64) AppleWebKit/537.36 (KHTML, like Gecko) Chrome/55.0.2883.87 Safari/537.36 OPR/42.0.2393.94"
185.220.101.44 - - [04/Nov/2018:07:51:40 +0000] "GET /?email-subscribe=firstnamemike%40gmail.com& HTTP/1.1" 200 3826 "http://looklala.com/" "Mozilla/5.0 (Windows NT 6.1; WOW64) AppleWebKit/537.36 (KHTML, like Gecko) Chrome/55.0.2883.87 Safari/537.36 OPR/42.0.2393.94"
180.76.15.28 - - [04/Nov/2018:07:57:11 +0000] "GET /?content/1866.html HTTP/1.1" 200 3826 "-" "Mozilla/5.0 (compatible; Baiduspider/2.0; +http://www.baidu.com/search/spider.html)"
54.36.150.67 - - [04/Nov/2018:08:14:52 +0000] "GET /robots.txt HTTP/1.1" 404 204 "-" "Mozilla/5.0 (compatible; AhrefsBot/5.2; +http://ahrefs.com/robot/)"
193.90.12.118 - - [04/Nov/2018:08:41:49 +0000] "GET / HTTP/1.1" 200 3826 "-" "Mozilla/5.0 (Windows NT 6.1; WOW64) AppleWebKit/537.36 (KHTML, like Gecko) Chrome/43.0.2357.65 Safari/537.36"
193.90.12.118 - - [04/Nov/2018:08:41:50 +0000] "GET /?email-subscribe=lehiharmers%40gmail.com& HTTP/1.1" 200 3826 "http://looklala.com/" "Mozilla/5.0 (Windows NT 6.1; WOW64) AppleWebKit/537.36 (KHTML, like Gecko) Chrome/43.0.2357.65 Safari/537.36"
220.243.136.14 - - [04/Nov/2018:09:16:07 +0000] "GET / HTTP/1.1" 200 3826 "-" "Mozilla/5.0 (Linux; Android 6.0; Nexus 5 Build/MRA58N) AppleWebKit/537.36 (KHTML, like Gecko) Chrome/50.0.7158.457 Mobile Safari/537.36"
220.243.135.180 - - [04/Nov/2018:09:16:07 +0000] "GET / HTTP/1.1" 200 3826 "-" "Mozilla/5.0 (Linux; Android 6.0; Nexus 5 Build/MRA58N) AppleWebKit/537.36 (KHTML, like Gecko) Chrome/50.0.4936.427 Mobile Safari/537.36"
220.243.136.22 - - [04/Nov/2018:09:16:07 +0000] "GET /css/jquery.vegas.css HTTP/1.1" 200 432 "http://looklala.com/" "Mozilla/5.0 (Linux; Android 6.0; Nexus 5 Build/MRA58N) AppleWebKit/537.36 (KHTML, like Gecko) Chrome/50.0.7158.457 Mobile Safari/537.36"
220.243.136.22 - - [04/Nov/2018:09:16:07 +0000] "GET /css/theme/bw.css HTTP/1.1" 200 476 "http://looklala.com/" "Mozilla/5.0 (Linux; Android 6.0; Nexus 5 Build/MRA58N) AppleWebKit/537.36 (KHTML, like Gecko) Chrome/50.0.7158.457 Mobile Safari/537.36"
220.243.136.22 - - [04/Nov/2018:09:16:07 +0000] "GET /css/jpreloader.css HTTP/1.1" 200 838 "http://looklala.com/" "Mozilla/5.0 (Linux; Android 6.0; Nexus 5 Build/MRA58N) AppleWebKit/537.36 (KHTML, like Gecko) Chrome/50.0.7158.457 Mobile Safari/537.36"
220.243.136.22 - - [04/Nov/2018:09:16:07 +0000] "GET /fonts/font-awesome/css/font-awesome.min.css HTTP/1.1" 200 4965 "http://looklala.com/" "Mozilla/5.0 (Linux; Android 6.0; Nexus 5 Build/MRA58N) AppleWebKit/537.36 (KHTML, like Gecko) Chrome/50.0.7158.457 Mobile Safari/537.36"
220.243.136.22 - - [04/Nov/2018:09:16:07 +0000] "GET /css/base.css HTTP/1.1" 200 5047 "http://looklala.com/" "Mozilla/5.0 (Linux; Android 6.0; Nexus 5 Build/MRA58N) AppleWebKit/537.36 (KHTML, like Gecko) Chrome/50.0.7158.457 Mobile Safari/537.36"
220.243.136.22 - - [04/Nov/2018:09:16:07 +0000] "GET /js/jquery.min.js HTTP/1.1" 200 38129 "http://looklala.com/" "Mozilla/5.0 (Linux; Android 6.0; Nexus 5 Build/MRA58N) AppleWebKit/537.36 (KHTML, like Gecko) Chrome/50.0.7158.457 Mobile Safari/537.36"
220.243.135.148 - - [04/Nov/2018:09:16:07 +0000] "GET /fonts/font-awesome/css/font-awesome.min.css HTTP/1.1" 200 4995 "http://www.looklala.com/" "Mozilla/5.0 (Linux; Android 6.0; Nexus 5 Build/MRA58N) AppleWebKit/537.36 (KHTML, like Gecko) Chrome/50.0.4936.427 Mobile Safari/537.36"
220.243.135.148 - - [04/Nov/2018:09:16:07 +0000] "GET /css/jpreloader.css HTTP/1.1" 200 838 "http://www.looklala.com/" "Mozilla/5.0 (Linux; Android 6.0; Nexus 5 Build/MRA58N) AppleWebKit/537.36 (KHTML, like Gecko) Chrome/50.0.4936.427 Mobile Safari/537.36"
220.243.135.148 - - [04/Nov/2018:09:16:07 +0000] "GET /css/theme/bw.css HTTP/1.1" 200 476 "http://www.looklala.com/" "Mozilla/5.0 (Linux; Android 6.0; Nexus 5 Build/MRA58N) AppleWebKit/537.36 (KHTML, like Gecko) Chrome/50.0.4936.427 Mobile Safari/537.36"
220.243.135.148 - - [04/Nov/2018:09:16:07 +0000] "GET /css/jquery.vegas.css HTTP/1.1" 200 432 "http://www.looklala.com/" "Mozilla/5.0 (Linux; Android 6.0; Nexus 5 Build/MRA58N) AppleWebKit/537.36 (KHTML, like Gecko) Chrome/50.0.4936.427 Mobile Safari/537.36"
220.243.135.148 - - [04/Nov/2018:09:16:07 +0000] "GET /js/jquery.min.js HTTP/1.1" 200 38129 "http://www.looklala.com/" "Mozilla/5.0 (Linux; Android 6.0; Nexus 5 Build/MRA58N) AppleWebKit/537.36 (KHTML, like Gecko) Chrome/50.0.4936.427 Mobile Safari/537.36"
220.243.136.22 - - [04/Nov/2018:09:16:08 +0000] "GET /js/jpreloader.min.js HTTP/1.1" 200 1460 "http://looklala.com/" "Mozilla/5.0 (Linux; Android 6.0; Nexus 5 Build/MRA58N) AppleWebKit/537.36 (KHTML, like Gecko) Chrome/50.0.7158.457 Mobile Safari/537.36"
220.243.136.22 - - [04/Nov/2018:09:16:08 +0000] "GET /js/vegas.js HTTP/1.1" 200 3945 "http://looklala.com/" "Mozilla/5.0 (Linux; Android 6.0; Nexus 5 Build/MRA58N) AppleWebKit/537.36 (KHTML, like Gecko) Chrome/50.0.7158.457 Mobile Safari/537.36"
220.243.136.22 - - [04/Nov/2018:09:16:08 +0000] "GET /js/pagescroller.js HTTP/1.1" 200 1881 "http://looklala.com/" "Mozilla/5.0 (Linux; Android 6.0; Nexus 5 Build/MRA58N) AppleWebKit/537.36 (KHTML, like Gecko) Chrome/50.0.7158.457 Mobile Safari/537.36"
220.243.135.148 - - [04/Nov/2018:09:16:08 +0000] "GET /js/vegas.js HTTP/1.1" 200 3945 "http://www.looklala.com/" "Mozilla/5.0 (Linux; Android 6.0; Nexus 5 Build/MRA58N) AppleWebKit/537.36 (KHTML, like Gecko) Chrome/50.0.4936.427 Mobile Safari/537.36"
220.243.135.148 - - [04/Nov/2018:09:16:08 +0000] "GET /js/jpreloader.min.js HTTP/1.1" 200 1460 "http://www.looklala.com/" "Mozilla/5.0 (Linux; Android 6.0; Nexus 5 Build/MRA58N) AppleWebKit/537.36 (KHTML, like Gecko) Chrome/50.0.4936.427 Mobile Safari/537.36"
220.243.135.148 - - [04/Nov/2018:09:16:08 +0000] "GET /js/jquery.easing.1.3.js HTTP/1.1" 200 2217 "http://www.looklala.com/" "Mozilla/5.0 (Linux; Android 6.0; Nexus 5 Build/MRA58N) AppleWebKit/537.36 (KHTML, like Gecko) Chrome/50.0.4936.427 Mobile Safari/537.36"
220.243.135.148 - - [04/Nov/2018:09:16:08 +0000] "GET /js/pagescroller.js HTTP/1.1" 200 1881 "http://www.looklala.com/" "Mozilla/5.0 (Linux; Android 6.0; Nexus 5 Build/MRA58N) AppleWebKit/537.36 (KHTML, like Gecko) Chrome/50.0.4936.427 Mobile Safari/537.36"
220.243.136.54 - - [04/Nov/2018:09:16:08 +0000] "GET /js/jquery.easing.1.3.js HTTP/1.1" 200 2217 "http://looklala.com/" "Mozilla/5.0 (Linux; Android 6.0; Nexus 5 Build/MRA58N) AppleWebKit/537.36 (KHTML, like Gecko) Chrome/50.0.7158.457 Mobile Safari/537.36"
220.243.136.54 - - [04/Nov/2018:09:16:08 +0000] "GET /js/waypoints.min.js HTTP/1.1" 200 2930 "http://looklala.com/" "Mozilla/5.0 (Linux; Android 6.0; Nexus 5 Build/MRA58N) AppleWebKit/537.36 (KHTML, like Gecko) Chrome/50.0.7158.457 Mobile Safari/537.36"
220.243.135.148 - - [04/Nov/2018:09:16:08 +0000] "GET /css/base.css HTTP/1.1" 200 5047 "http://www.looklala.com/" "Mozilla/5.0 (Linux; Android 6.0; Nexus 5 Build/MRA58N) AppleWebKit/537.36 (KHTML, like Gecko) Chrome/50.0.4936.427 Mobile Safari/537.36"
220.243.136.54 - - [04/Nov/2018:09:16:08 +0000] "GET /js/validate.min.js HTTP/1.1" 200 7344 "http://looklala.com/" "Mozilla/5.0 (Linux; Android 6.0; Nexus 5 Build/MRA58N) AppleWebKit/537.36 (KHTML, like Gecko) Chrome/50.0.7158.457 Mobile Safari/537.36"
220.243.136.54 - - [04/Nov/2018:09:16:08 +0000] "GET /js/script.js HTTP/1.1" 200 3200 "http://looklala.com/" "Mozilla/5.0 (Linux; Android 6.0; Nexus 5 Build/MRA58N) AppleWebKit/537.36 (KHTML, like Gecko) Chrome/50.0.7158.457 Mobile Safari/537.36"
220.243.135.180 - - [04/Nov/2018:09:16:08 +0000] "GET /js/waypoints.min.js HTTP/1.1" 200 2930 "http://www.looklala.com/" "Mozilla/5.0 (Linux; Android 6.0; Nexus 5 Build/MRA58N) AppleWebKit/537.36 (KHTML, like Gecko) Chrome/50.0.4936.427 Mobile Safari/537.36"
220.243.135.180 - - [04/Nov/2018:09:16:08 +0000] "GET /js/script.js HTTP/1.1" 200 3200 "http://www.looklala.com/" "Mozilla/5.0 (Linux; Android 6.0; Nexus 5 Build/MRA58N) AppleWebKit/537.36 (KHTML, like Gecko) Chrome/50.0.4936.427 Mobile Safari/537.36"
220.243.135.180 - - [04/Nov/2018:09:16:09 +0000] "GET /js/validate.min.js HTTP/1.1" 200 7344 "http://www.looklala.com/" "Mozilla/5.0 (Linux; Android 6.0; Nexus 5 Build/MRA58N) AppleWebKit/537.36 (KHTML, like Gecko) Chrome/50.0.4936.427 Mobile Safari/537.36"
220.243.136.54 - - [04/Nov/2018:09:16:09 +0000] "GET /fonts/font-awesome/font/fontawesome-webfontf77b.html?v=3.2.1 HTTP/1.1" 200 3124 "http://looklala.com/fonts/font-awesome/css/font-awesome.min.css" "Mozilla/5.0 (Linux; Android 6.0; Nexus 5 Build/MRA58N) AppleWebKit/537.36 (KHTML, like Gecko) Chrome/50.0.7158.457 Mobile Safari/537.36"
220.243.135.150 - - [04/Nov/2018:09:16:09 +0000] "GET /fonts/font-awesome/font/fontawesome-webfontf77b.html?v=3.2.1 HTTP/1.1" 200 3124 "http://www.looklala.com/fonts/font-awesome/css/font-awesome.min.css" "Mozilla/5.0 (Linux; Android 6.0; Nexus 5 Build/MRA58N) AppleWebKit/537.36 (KHTML, like Gecko) Chrome/50.0.4936.427 Mobile Safari/537.36"
220.243.135.150 - - [04/Nov/2018:09:16:10 +0000] "GET /fonts/font-awesome/font/fontawesome-webfontf77b.ttf?v=3.2.1 HTTP/1.1" 200 79076 "http://www.looklala.com/fonts/font-awesome/css/font-awesome.min.css" "Mozilla/5.0 (Linux; Android 6.0; Nexus 5 Build/MRA58N) AppleWebKit/537.36 (KHTML, like Gecko) Chrome/50.0.4936.427 Mobile Safari/537.36"
220.243.136.24 - - [04/Nov/2018:09:16:11 +0000] "GET /fonts/font-awesome/font/fontawesome-webfontf77b.ttf?v=3.2.1 HTTP/1.1" 200 79076 "http://looklala.com/fonts/font-awesome/css/font-awesome.min.css" "Mozilla/5.0 (Linux; Android 6.0; Nexus 5 Build/MRA58N) AppleWebKit/537.36 (KHTML, like Gecko) Chrome/50.0.7158.457 Mobile Safari/537.36"
38.94.176.220 - - [04/Nov/2018:09:46:17 +0000] "GET /robots.txt HTTP/1.1" 404 208 "-" "Dispatch/0.11.3"
38.94.186.86 - - [04/Nov/2018:09:46:20 +0000] "GET / HTTP/1.1" 200 11888 "-" "Dispatch/0.11.3"
192.42.116.20 - - [04/Nov/2018:10:36:06 +0000] "GET / HTTP/1.1" 200 3826 "-" "Mozilla/5.0 (Windows NT 6.2; Win64; x64) AppleWebKit/537.36 (KHTML, like Gecko) Chrome/52.0.2743.116 Safari/537.36 Edge/15.15063"
192.42.116.20 - - [04/Nov/2018:10:36:07 +0000] "GET /?email-subscribe=sutietoo%40gmail.com& HTTP/1.1" 200 3826 "http://looklala.com/" "Mozilla/5.0 (Windows NT 6.2; Win64; x64) AppleWebKit/537.36 (KHTML, like Gecko) Chrome/52.0.2743.116 Safari/537.36 Edge/15.15063"
93.141.165.240 - - [04/Nov/2018:12:10:22 +0000] "GET /wp-login.php HTTP/1.1" 404 210 "-" "Mozilla/5.0 (Windows NT 6.1; WOW64; rv:40.0) Gecko/20100101 Firefox/40.1"
93.141.165.240 - - [04/Nov/2018:12:10:22 +0000] "GET / HTTP/1.1" 200 11888 "-" "Mozilla/5.0 (Windows NT 6.1; WOW64; rv:40.0) Gecko/20100101 Firefox/40.1"
52.53.201.78 - - [04/Nov/2018:12:20:20 +0000] "GET / HTTP/1.1" 200 3826 "-" "Mozilla/5.0 (Macintosh; Intel Mac OS X 10_12_6) AppleWebKit/537.36 (KHTML, like Gecko) Chrome/61.0.3163.100 Safari/537.36"
46.4.86.164 - - [04/Nov/2018:12:26:21 +0000] "GET / HTTP/1.1" 200 3826 "-" "Mozilla/5.0 (Windows NT 10.0; Win64; x64) AppleWebKit/537.36 (KHTML, like Gecko) Chrome/42.0.2311.135 Safari/537.36 Edge/12.10240"
46.4.86.164 - - [04/Nov/2018:12:26:22 +0000] "GET /?email-subscribe=joshua_basulto%40yahoo.com& HTTP/1.1" 200 3826 "http://looklala.com/" "Mozilla/5.0 (Windows NT 10.0; Win64; x64) AppleWebKit/537.36 (KHTML, like Gecko) Chrome/42.0.2311.135 Safari/537.36 Edge/12.10240"
104.244.76.13 - - [04/Nov/2018:12:36:04 +0000] "GET / HTTP/1.1" 200 3826 "-" "Mozilla/5.0 (Windows NT 6.0; Win64; x64) AppleWebKit/537.36 (KHTML, like Gecko) Chrome/51.0.2704.79 Safari/537.36 Edge/14.14393"
104.244.74.59 - - [04/Nov/2018:12:36:06 +0000] "GET /?email-subscribe=familie.schmalz%40gmx.net& HTTP/1.1" 200 3826 "http://looklala.com/" "Mozilla/5.0 (Windows NT 6.0; Win64; x64) AppleWebKit/537.36 (KHTML, like Gecko) Chrome/51.0.2704.79 Safari/537.36 Edge/14.14393"
66.249.69.250 - - [04/Nov/2018:13:40:54 +0000] "GET /robots.txt HTTP/1.1" 404 204 "-" "Mozilla/5.0 (compatible; Googlebot/2.1; +http://www.google.com/bot.html)"
66.249.69.254 - - [04/Nov/2018:13:41:04 +0000] "GET / HTTP/1.1" 200 3826 "-" "Mozilla/5.0 (compatible; Googlebot/2.1; +http://www.google.com/bot.html)"
92.222.38.67 - - [04/Nov/2018:13:53:13 +0000] "GET / HTTP/1.1" 200 3826 "-" "Mozilla/5.0 (Windows NT 6.0; WOW64; rv:52.0) Gecko/20100101 Firefox/52.0"
92.222.38.67 - - [04/Nov/2018:13:53:14 +0000] "GET /?email-subscribe=austinsinbox%40gmail.com& HTTP/1.1" 200 3826 "http://looklala.com/" "Mozilla/5.0 (Windows NT 6.0; WOW64; rv:52.0) Gecko/20100101 Firefox/52.0"
2a03:2880:10ff:1a::face:b00c - - [04/Nov/2018:13:58:43 +0000] "HEAD / HTTP/1.1" 206 0 "-" "facebookexternalhit/1.1 (+http://www.facebook.com/externalhit_uatext.php)"
2a03:2880:10ff:16::face:b00c - - [04/Nov/2018:13:58:47 +0000] "GET / HTTP/1.1" 206 11888 "-" "facebookexternalhit/1.1 (+http://www.facebook.com/externalhit_uatext.php)"
178.154.200.41 - - [04/Nov/2018:14:04:08 +0000] "GET /robots.txt HTTP/1.1" 404 208 "-" "Mozilla/5.0 (compatible; YandexBot/3.0; +http://yandex.com/bots)"
213.180.203.23 - - [04/Nov/2018:14:04:08 +0000] "GET /robots.txt HTTP/1.1" 404 208 "-" "Mozilla/5.0 (compatible; YandexBot/3.0; +http://yandex.com/bots)"
141.8.132.4 - - [04/Nov/2018:14:04:12 +0000] "GET / HTTP/1.1" 200 3826 "-" "Mozilla/5.0 (compatible; YandexBot/3.0; +http://yandex.com/bots)"
178.154.171.60 - - [04/Nov/2018:14:04:12 +0000] "GET / HTTP/1.1" 200 3826 "-" "Mozilla/5.0 (compatible; YandexBot/3.0; +http://yandex.com/bots)"
199.249.230.72 - - [04/Nov/2018:15:19:07 +0000] "GET / HTTP/1.1" 200 3826 "-" "Mozilla/5.0 (Windows NT 6.0; Win64; x64) AppleWebKit/537.36 (KHTML, like Gecko) Chrome/57.0.2987.133 Safari/537.36"
51.38.69.128 - - [04/Nov/2018:15:19:08 +0000] "GET /?email-subscribe=mittaldivesh%40yahoo.com& HTTP/1.1" 200 3826 "http://looklala.com/" "Mozilla/5.0 (Windows NT 6.0; Win64; x64) AppleWebKit/537.36 (KHTML, like Gecko) Chrome/57.0.2987.133 Safari/537.36"
95.130.10.69 - - [04/Nov/2018:15:19:21 +0000] "GET / HTTP/1.1" 200 3826 "-" "Mozilla/5.0 (Windows NT 6.1; Win64; x64) AppleWebKit/537.36 (KHTML, like Gecko) Chrome/46.0.2486.0 Safari/537.36 Edge/13.10586"
95.130.10.69 - - [04/Nov/2018:15:19:22 +0000] "GET /?email-subscribe=rachelefleming%40aol.com& HTTP/1.1" 200 3826 "http://looklala.com/" "Mozilla/5.0 (Windows NT 6.1; Win64; x64) AppleWebKit/537.36 (KHTML, like Gecko) Chrome/46.0.2486.0 Safari/537.36 Edge/13.10586"
185.129.62.63 - - [04/Nov/2018:16:21:27 +0000] "GET / HTTP/1.1" 200 3826 "-" "Mozilla/5.0 (Windows NT 10.0; WOW64; rv:54.0) Gecko/20100101 Firefox/54.0"
185.129.62.63 - - [04/Nov/2018:16:21:27 +0000] "GET /?email-subscribe=blktytor%40gmail.com& HTTP/1.1" 200 3826 "http://looklala.com/" "Mozilla/5.0 (Windows NT 10.0; WOW64; rv:54.0) Gecko/20100101 Firefox/54.0"
35.192.84.7 - - [04/Nov/2018:16:24:54 +0000] "GET /robots.txt HTTP/1.1" 404 204 "-" "ltx71 - (http://ltx71.com/)"
180.76.15.143 - - [04/Nov/2018:17:27:22 +0000] "GET / HTTP/1.1" 200 3826 "-" "Mozilla/5.0 (compatible; Baiduspider/2.0; +http://www.baidu.com/search/spider.html)"
185.220.101.12 - - [04/Nov/2018:17:55:49 +0000] "GET / HTTP/1.1" 200 3826 "-" "Mozilla/5.0 (Windows NT 6.3; Win64; x64) AppleWebKit/537.36 (KHTML, like Gecko) Chrome/51.0.2704.79 Safari/537.36 Edge/14.14393"
185.220.101.12 - - [04/Nov/2018:17:55:49 +0000] "GET /?email-subscribe=jeabosr%40aol.com& HTTP/1.1" 200 3826 "http://looklala.com/" "Mozilla/5.0 (Windows NT 6.3; Win64; x64) AppleWebKit/537.36 (KHTML, like Gecko) Chrome/51.0.2704.79 Safari/537.36 Edge/14.14393"
180.76.15.20 - - [04/Nov/2018:18:00:42 +0000] "GET /?content/9992.html HTTP/1.1" 200 3826 "-" "Mozilla/5.0 (compatible; Baiduspider/2.0; +http://www.baidu.com/search/spider.html)"
185.220.101.34 - - [04/Nov/2018:18:05:18 +0000] "GET / HTTP/1.1" 200 3826 "-" "Mozilla/5.0 (Windows NT 6.1; Win64; x64) AppleWebKit/537.36 (KHTML, like Gecko) Chrome/52.0.2743.116 Safari/537.36 Edge/15.15063"
158.174.122.218 - - [04/Nov/2018:18:05:21 +0000] "GET /?email-subscribe=bgoodson%40quid.com& HTTP/1.1" 200 3826 "http://looklala.com/" "Mozilla/5.0 (Windows NT 6.1; Win64; x64) AppleWebKit/537.36 (KHTML, like Gecko) Chrome/52.0.2743.116 Safari/537.36 Edge/15.15063"
217.170.197.83 - - [04/Nov/2018:18:26:07 +0000] "GET / HTTP/1.1" 200 3826 "-" "Mozilla/5.0 (Windows NT 10.0; WOW64; rv:48.0) Gecko/20100101 Firefox/48.0"
185.220.101.28 - - [04/Nov/2018:18:26:10 +0000] "GET / HTTP/1.1" 200 3826 "-" "Mozilla/5.0 (Windows NT 10.0; WOW64; rv:48.0) Gecko/20100101 Firefox/48.0"
217.170.197.83 - - [04/Nov/2018:18:26:11 +0000] "GET /?email-subscribe=jad_despojo%40yahoo.com& HTTP/1.1" 200 3826 "http://looklala.com/" "Mozilla/5.0 (Windows NT 10.0; WOW64; rv:48.0) Gecko/20100101 Firefox/48.0"
185.220.101.28 - - [04/Nov/2018:18:26:11 +0000] "GET /?email-subscribe=jad_despojo%40yahoo.com& HTTP/1.1" 200 3826 "http://looklala.com/" "Mozilla/5.0 (Windows NT 10.0; WOW64; rv:48.0) Gecko/20100101 Firefox/48.0"
95.130.10.69 - - [04/Nov/2018:18:31:49 +0000] "GET / HTTP/1.1" 200 3826 "-" "Mozilla/5.0 (Windows NT 6.1; WOW64) AppleWebKit/537.36 (KHTML, like Gecko) Chrome/56.0.2924.87 Safari/537.36"
95.130.10.69 - - [04/Nov/2018:18:31:50 +0000] "GET /?email-subscribe=bgoodson%40quid.com& HTTP/1.1" 200 3826 "http://looklala.com/" "Mozilla/5.0 (Windows NT 6.1; WOW64) AppleWebKit/537.36 (KHTML, like Gecko) Chrome/56.0.2924.87 Safari/537.36"
180.76.15.34 - - [04/Nov/2018:18:34:02 +0000] "GET /?content/5930.html HTTP/1.1" 200 3826 "-" "Mozilla/5.0 (compatible; Baiduspider/2.0; +http://www.baidu.com/search/spider.html)"
51.15.88.249 - - [04/Nov/2018:20:47:10 +0000] "GET / HTTP/1.1" 200 3826 "-" "Mozilla/5.0 (Macintosh; Intel Mac OS X 10_10_5) AppleWebKit/603.3.8 (KHTML, like Gecko) Version/10.1.2 Safari/603.3.8"
51.15.88.249 - - [04/Nov/2018:20:47:11 +0000] "GET /?email-subscribe=ajay%40bizcom.ae& HTTP/1.1" 200 3826 "http://looklala.com/" "Mozilla/5.0 (Macintosh; Intel Mac OS X 10_10_5) AppleWebKit/603.3.8 (KHTML, like Gecko) Version/10.1.2 Safari/603.3.8"
180.76.15.155 - - [04/Nov/2018:21:52:08 +0000] "GET /?content/25071.html HTTP/1.1" 200 3826 "-" "Mozilla/5.0 (compatible; Baiduspider/2.0; +http://www.baidu.com/search/spider.html)"
198.23.202.38 - - [04/Nov/2018:21:52:25 +0000] "GET /robots.txt HTTP/1.1" 404 208 "-" "Mozilla/5.0 (Windows NT 10.0; Win64; x64; rv:50.0) Gecko/20100101 Firefox/50.0"
198.23.202.38 - - [04/Nov/2018:21:52:25 +0000] "GET /xmlrpc.php?rsd HTTP/1.1" 404 208 "-" "Mozilla/5.0 (Windows NT 10.0; Win64; x64; rv:50.0) Gecko/20100101 Firefox/50.0"
198.23.202.38 - - [04/Nov/2018:21:52:25 +0000] "GET / HTTP/1.1" 200 11888 "-" "Mozilla/5.0 (Windows NT 10.0; Win64; x64; rv:50.0) Gecko/20100101 Firefox/50.0"
198.23.202.38 - - [04/Nov/2018:21:52:25 +0000] "GET /blog/robots.txt HTTP/1.1" 404 213 "-" "Mozilla/5.0 (Windows NT 10.0; Win64; x64; rv:50.0) Gecko/20100101 Firefox/50.0"
198.23.202.38 - - [04/Nov/2018:21:52:25 +0000] "GET /blog/ HTTP/1.1" 404 203 "-" "Mozilla/5.0 (Windows NT 10.0; Win64; x64; rv:50.0) Gecko/20100101 Firefox/50.0"
198.23.202.38 - - [04/Nov/2018:21:52:25 +0000] "GET /wordpress/ HTTP/1.1" 404 208 "-" "Mozilla/5.0 (Windows NT 10.0; Win64; x64; rv:50.0) Gecko/20100101 Firefox/50.0"
198.23.202.38 - - [04/Nov/2018:21:52:26 +0000] "GET /wp/ HTTP/1.1" 404 201 "-" "Mozilla/5.0 (Windows NT 10.0; Win64; x64; rv:50.0) Gecko/20100101 Firefox/50.0"
91.148.99.78 - - [04/Nov/2018:21:58:55 +0000] "GET /wp-login.php HTTP/1.1" 404 210 "-" "Mozilla/5.0 (Windows NT 6.1; WOW64; rv:40.0) Gecko/20100101 Firefox/40.1"
91.148.99.78 - - [04/Nov/2018:21:58:55 +0000] "GET / HTTP/1.1" 200 11888 "-" "Mozilla/5.0 (Windows NT 6.1; WOW64; rv:40.0) Gecko/20100101 Firefox/40.1"
37.187.129.166 - - [04/Nov/2018:22:01:20 +0000] "GET / HTTP/1.1" 200 3826 "-" "Mozilla/5.0 (Windows NT 6.3; Win64; x64) AppleWebKit/537.36 (KHTML, like Gecko) Chrome/52.0.2743.116 Safari/537.36 Edge/15.15063"
37.187.129.166 - - [04/Nov/2018:22:01:21 +0000] "GET /?email-subscribe=ayache211%40mail.com& HTTP/1.1" 200 3826 "http://looklala.com/" "Mozilla/5.0 (Windows NT 6.3; Win64; x64) AppleWebKit/537.36 (KHTML, like Gecko) Chrome/52.0.2743.116 Safari/537.36 Edge/15.15063"
185.220.101.45 - - [04/Nov/2018:23:31:51 +0000] "GET / HTTP/1.1" 200 3826 "-" "Mozilla/5.0 (Windows NT 10.0; WOW64; rv:52.0) Gecko/20100101 Firefox/52.0"
185.220.101.45 - - [04/Nov/2018:23:31:53 +0000] "GET /?email-subscribe=carolyne.lessard%40novartis.com& HTTP/1.1" 200 3826 "http://looklala.com/" "Mozilla/5.0 (Windows NT 10.0; WOW64; rv:52.0) Gecko/20100101 Firefox/52.0"
66.70.174.11 - - [05/Nov/2018:01:11:09 +0000] "GET / HTTP/1.1" 200 3826 "-" "Mozilla/5.0 (Windows NT 6.1; WOW64; rv:46.0) Gecko/20100101 Firefox/46.0"
66.70.174.11 - - [05/Nov/2018:01:11:10 +0000] "GET /?email-subscribe=familie.schmalz%40gmx.net& HTTP/1.1" 200 3826 "http://looklala.com/" "Mozilla/5.0 (Windows NT 6.1; WOW64; rv:46.0) Gecko/20100101 Firefox/46.0"
195.176.3.19 - - [05/Nov/2018:02:29:50 +0000] "GET / HTTP/1.1" 200 3826 "-" "Mozilla/5.0 (Windows NT 10.0; Win64; x64) AppleWebKit/537.36 (KHTML, like Gecko) Chrome/57.0.2987.133 Safari/537.36"
195.176.3.19 - - [05/Nov/2018:02:29:50 +0000] "GET /?email-subscribe=ladyditoo570%40aol.com& HTTP/1.1" 200 3826 "http://looklala.com/" "Mozilla/5.0 (Windows NT 10.0; Win64; x64) AppleWebKit/537.36 (KHTML, like Gecko) Chrome/57.0.2987.133 Safari/537.36"
52.165.166.139 - - [05/Nov/2018:02:39:37 +0000] "GET / HTTP/1.1" 200 3826 "-" "Mozilla/5.0 (Windows NT 6.1; Win64; x64) AppleWebKit/537.36 (KHTML, like Gecko) Chrome/64.0.3282.186 Safari/537.36"
52.173.241.248 - - [05/Nov/2018:02:45:06 +0000] "GET / HTTP/1.1" 200 3826 "-" "Mozilla/5.0 (Windows NT 10.0; Win64; x64; rv:58.0) Gecko/20100101 Firefox/58.0"
