157.55.39.20 - - [02/Nov/2018:03:20:09 +0000] "GET /robots.txt HTTP/1.1" 404 204 "-" "Mozilla/5.0 (compatible; bingbot/2.0; +http://www.bing.com/bingbot.htm)"
31.170.123.73 - - [02/Nov/2018:03:20:16 +0000] "POST /wp-cron.php?doing_wp_cron=1541128815.9387280941009521484375 HTTP/1.1" 200 40 "http://gameworkforce.com/wp-cron.php?doing_wp_cron=1541128815.9387280941009521484375" "WordPress/4.9.8; http://gameworkforce.com"
157.55.39.234 - - [02/Nov/2018:03:20:16 +0000] "GET / HTTP/1.1" 200 16888 "-" "Mozilla/5.0 (compatible; bingbot/2.0; +http://www.bing.com/bingbot.htm)"
31.170.123.73 - - [02/Nov/2018:04:57:19 +0000] "POST /wp-cron.php?doing_wp_cron=1541134638.6286630630493164062500 HTTP/1.1" 200 40 "http://gameworkforce.com/wp-cron.php?doing_wp_cron=1541134638.6286630630493164062500" "WordPress/4.9.8; http://gameworkforce.com"
159.203.169.176 - - [02/Nov/2018:04:57:19 +0000] "GET / HTTP/1.0" 301 0 "-" "Mozilla/5.0 (compatible; NetcraftSurveyAgent/1.0; +info@netcraft.com)"
159.203.169.176 - - [02/Nov/2018:04:57:23 +0000] "GET / HTTP/1.0" 200 65588 "-" "Mozilla/5.0 (compatible; NetcraftSurveyAgent/1.0; +info@netcraft.com)"
31.170.123.73 - - [02/Nov/2018:07:00:47 +0000] "POST /wp-cron.php?doing_wp_cron=1541142047.4116220474243164062500 HTTP/1.1" 200 40 "http://gameworkforce.com/wp-cron.php?doing_wp_cron=1541142047.4116220474243164062500" "WordPress/4.9.8; http://gameworkforce.com"
3.16.90.13 - - [02/Nov/2018:07:00:47 +0000] "GET /wp-login.php HTTP/1.1" 200 1378 "https://www.google.com/url?5dbc53961246a3ebd5a882d37979a0c2" "Mozilla/5.0 (Windows NT 6.0; rv:29.0) Gecko/20120101 Firefox/29.0"
3.16.90.13 - - [02/Nov/2018:07:00:50 +0000] "POST /wp-login.php HTTP/1.1" 200 1793 "https://www.google.com/url?5dbc53961246a3ebd5a882d37979a0c2" "Mozilla/5.0 (Windows NT 6.0; rv:29.0) Gecko/20120101 Firefox/29.0"
31.170.123.73 - - [02/Nov/2018:11:34:06 +0000] "POST /wp-cron.php?doing_wp_cron=1541158445.5605680942535400390625 HTTP/1.1" 499 0 "http://gameworkforce.com/wp-cron.php?doing_wp_cron=1541158445.5605680942535400390625" "WordPress/4.9.8; http://gameworkforce.com"
13.59.56.171 - - [02/Nov/2018:11:34:06 +0000] "GET /wp-login.php HTTP/1.1" 200 1448 "https://www.google.com/url?5dbc53961246a3ebd5a882d37979a0c2" "Mozilla/5.0 (Windows NT 6.2; rv:36.0) Gecko/20100101 Firefox/36.0"
13.59.56.171 - - [02/Nov/2018:11:34:20 +0000] "POST /wp-login.php HTTP/1.1" 200 1865 "https://www.google.com/url?5dbc53961246a3ebd5a882d37979a0c2" "Mozilla/5.0 (Windows NT 6.2; rv:36.0) Gecko/20100101 Firefox/36.0"
31.170.123.73 - - [02/Nov/2018:13:48:14 +0000] "POST /wp-cron.php?doing_wp_cron=1541166493.8708689212799072265625 HTTP/1.1" 200 40 "http://gameworkforce.com/wp-cron.php?doing_wp_cron=1541166493.8708689212799072265625" "WordPress/4.9.8; http://gameworkforce.com"
194.99.106.147 - - [02/Nov/2018:13:48:14 +0000] "GET /wp-login.php HTTP/1.1" 200 2367 "-" "Mozilla/5.0 (Windows; U; Windows NT 2.0) Gecko/20091201 Firefox/3.5.6 GTB5"
31.170.123.73 - - [02/Nov/2018:14:01:04 +0000] "POST /wp-admin/admin-ajax.php?action=wp_1_wc_privacy_cleanup&nonce=2a89f69cb4 HTTP/1.1" 200 40 "http://gameworkforce.com/wp-admin/admin-ajax.php?action=wp_1_wc_privacy_cleanup&nonce=2a89f69cb4" "WordPress/4.9.8; http://gameworkforce.com"
31.170.123.73 - - [02/Nov/2018:14:01:05 +0000] "POST /wp-cron.php?doing_wp_cron=1541167264.2038280963897705078125 HTTP/1.1" 200 40 "http://gameworkforce.com/wp-cron.php?doing_wp_cron=1541167264.2038280963897705078125" "WordPress/4.9.8; http://gameworkforce.com"
77.234.68.136 - - [02/Nov/2018:14:01:05 +0000] "GET / HTTP/1.1" 200 17013 "https://brandnewblogs.com/blogs-may-2018/" "Mozilla/5.0 (Windows NT 10.0; Win64; x64; rv:61.0) Gecko/20100101 Firefox/61.0"
31.170.123.73 - - [02/Nov/2018:14:01:06 +0000] "POST /wp-cron.php?doing_wp_cron=1541167265.7133769989013671875000 HTTP/1.1" 200 40 "http://gameworkforce.com/wp-cron.php?doing_wp_cron=1541167265.7133769989013671875000" "WordPress/4.9.8; http://gameworkforce.com"
77.234.68.136 - - [02/Nov/2018:14:01:06 +0000] "GET / HTTP/1.1" 200 16782 "https://brandnewblogs.com/blogs-may-2018/" "Mozilla/5.0 (Windows NT 10.0; Win64; x64; rv:61.0) Gecko/20100101 Firefox/61.0"
77.234.68.136 - - [02/Nov/2018:14:01:06 +0000] "GET / HTTP/1.1" 200 16785 "https://brandnewblogs.com/blogs-may-2018/" "Mozilla/5.0 (Windows NT 10.0; Win64; x64; rv:61.0) Gecko/20100101 Firefox/61.0"
31.170.123.73 - - [02/Nov/2018:15:55:40 +0000] "POST /wp-cron.php?doing_wp_cron=1541174140.4067459106445312500000 HTTP/1.1" 200 40 "http://gameworkforce.com/wp-cron.php?doing_wp_cron=1541174140.4067459106445312500000" "WordPress/4.9.8; http://gameworkforce.com"
18.206.162.254 - - [02/Nov/2018:15:55:40 +0000] "GET /wp-login.php HTTP/1.1" 200 1358 "https://www.google.com/url?5dbc53961246a3ebd5a882d37979a0c2" "Mozilla/5.0 (Windows NT 6.0; rv:28.0) Gecko/20100101 Firefox/28.0"
18.206.162.254 - - [02/Nov/2018:15:55:41 +0000] "POST /wp-login.php HTTP/1.1" 200 1782 "https://www.google.com/url?5dbc53961246a3ebd5a882d37979a0c2" "Mozilla/5.0 (Windows NT 6.0; rv:28.0) Gecko/20100101 Firefox/28.0"
31.170.123.73 - - [02/Nov/2018:16:13:51 +0000] "POST /wp-cron.php?doing_wp_cron=1541175231.2325589656829833984375 HTTP/1.1" 200 40 "http://gameworkforce.com/wp-cron.php?doing_wp_cron=1541175231.2325589656829833984375" "WordPress/4.9.8; http://gameworkforce.com"
52.53.201.78 - - [02/Nov/2018:16:13:51 +0000] "GET / HTTP/1.1" 301 5 "-" "Mozilla/5.0 (Macintosh; Intel Mac OS X 10_12_6) AppleWebKit/537.36 (KHTML, like Gecko) Chrome/61.0.3163.100 Safari/537.36"
52.53.201.78 - - [02/Nov/2018:16:13:53 +0000] "GET / HTTP/1.1" 200 17231 "http://www.gameworkforce.com/" "Mozilla/5.0 (Macintosh; Intel Mac OS X 10_12_6) AppleWebKit/537.36 (KHTML, like Gecko) Chrome/61.0.3163.100 Safari/537.36"
79.137.34.35 - - [02/Nov/2018:18:28:23 +0000] "GET /login.php?login=cmd HTTP/1.1" 404 207 "gameworkforce.com" "Mozilla/5.1 (Windows NT 6.0; WOW64) AppleWebKit/537.37 (KHTML, like Gecko) Chrome/58.0.1145.75 Safari/537.37"
2001:41d0:2:8ac5:: - - [02/Nov/2018:18:30:08 +0000] "GET /wp-content/wp-object-cache.php?ver=123 HTTP/1.1" 404 228 "gameworkforce.com" "en.support.wordpress.com"
31.170.123.73 - - [02/Nov/2018:20:36:26 +0000] "POST /wp-cron.php?doing_wp_cron=1541190986.2244119644165039062500 HTTP/1.1" 200 40 "http://gameworkforce.com/wp-cron.php?doing_wp_cron=1541190986.2244119644165039062500" "WordPress/4.9.8; http://gameworkforce.com"
18.224.82.122 - - [02/Nov/2018:20:36:26 +0000] "GET /wp-login.php HTTP/1.1" 200 1457 "https://www.google.com/url?5dbc53961246a3ebd5a882d37979a0c2" "Mozilla/5.0 (Windows NT 6.2; rv:28.0) Gecko/20100101 Firefox/28.0"
18.224.82.122 - - [02/Nov/2018:20:36:27 +0000] "POST /wp-login.php HTTP/1.1" 200 1779 "https://www.google.com/url?5dbc53961246a3ebd5a882d37979a0c2" "Mozilla/5.0 (Windows NT 6.2; rv:28.0) Gecko/20100101 Firefox/28.0"
31.170.123.73 - - [02/Nov/2018:21:19:20 +0000] "POST /wp-cron.php?doing_wp_cron=1541193559.9146029949188232421875 HTTP/1.1" 200 40 "http://gameworkforce.com/wp-cron.php?doing_wp_cron=1541193559.9146029949188232421875" "WordPress/4.9.8; http://gameworkforce.com"
157.55.39.234 - - [02/Nov/2018:21:19:20 +0000] "GET / HTTP/1.1" 200 17130 "-" "Mozilla/5.0 (compatible; bingbot/2.0; +http://www.bing.com/bingbot.htm)"
31.170.123.73 - - [02/Nov/2018:23:33:52 +0000] "POST /wp-cron.php?doing_wp_cron=1541201631.8624761104583740234375 HTTP/1.1" 499 0 "http://gameworkforce.com/wp-cron.php?doing_wp_cron=1541201631.8624761104583740234375" "WordPress/4.9.8; http://gameworkforce.com"
157.55.39.234 - - [02/Nov/2018:23:33:52 +0000] "GET /?page_id=66 HTTP/1.1" 302 5 "-" "Mozilla/5.0 (compatible; bingbot/2.0; +http://www.bing.com/bingbot.htm)"
157.55.39.234 - - [02/Nov/2018:23:33:54 +0000] "GET /?post_type=product HTTP/1.1" 200 12354 "-" "Mozilla/5.0 (compatible; bingbot/2.0; +http://www.bing.com/bingbot.htm)"
157.55.39.65 - - [02/Nov/2018:23:33:58 +0000] "GET /robots.txt HTTP/1.1" 404 204 "-" "Mozilla/5.0 (compatible; bingbot/2.0; +http://www.bing.com/bingbot.htm)"
157.55.39.65 - - [02/Nov/2018:23:33:59 +0000] "GET /wp-content/plugins/woocommerce/assets/css/woocommerce-layout.css?ver=3.4.5 HTTP/1.1" 200 2647 "-" "Mozilla/5.0 (compatible; bingbot/2.0; +http://www.bing.com/bingbot.htm)"
157.55.39.65 - - [02/Nov/2018:23:33:59 +0000] "GET /wp-includes/js/jquery/jquery.js?ver=1.12.4 HTTP/1.1" 200 39450 "-" "Mozilla/5.0 (compatible; bingbot/2.0; +http://www.bing.com/bingbot.htm)"
157.55.39.65 - - [02/Nov/2018:23:34:00 +0000] "GET /wp-includes/js/jquery/jquery-migrate.min.js?ver=1.4.1 HTTP/1.1" 200 4330 "-" "Mozilla/5.0 (compatible; bingbot/2.0; +http://www.bing.com/bingbot.htm)"
157.55.39.65 - - [02/Nov/2018:23:34:00 +0000] "GET /wp-content/plugins/woocommerce/assets/js/frontend/cart-fragments.min.js?ver=3.4.5 HTTP/1.1" 200 995 "-" "Mozilla/5.0 (compatible; bingbot/2.0; +http://www.bing.com/bingbot.htm)"
157.55.39.234 - - [02/Nov/2018:23:34:01 +0000] "GET /wp-content/plugins/woocommerce/assets/css/woocommerce-smallscreen.css?ver=3.4.5 HTTP/1.1" 200 1229 "-" "Mozilla/5.0 (compatible; bingbot/2.0; +http://www.bing.com/bingbot.htm)"
157.55.39.234 - - [02/Nov/2018:23:34:02 +0000] "GET /wp-content/plugins/woocommerce/assets/js/js-cookie/js.cookie.min.js?ver=2.1.4 HTTP/1.1" 200 1028 "-" "Mozilla/5.0 (compatible; bingbot/2.0; +http://www.bing.com/bingbot.htm)"
157.55.39.234 - - [02/Nov/2018:23:34:03 +0000] "GET /wp-includes/js/jquery/ui/mouse.min.js?ver=1.11.4 HTTP/1.1" 200 1145 "-" "Mozilla/5.0 (compatible; bingbot/2.0; +http://www.bing.com/bingbot.htm)"
157.55.39.234 - - [02/Nov/2018:23:34:03 +0000] "GET /wp-includes/js/backbone.min.js?ver=1.2.3 HTTP/1.1" 200 8867 "-" "Mozilla/5.0 (compatible; bingbot/2.0; +http://www.bing.com/bingbot.htm)"
157.55.39.234 - - [02/Nov/2018:23:34:04 +0000] "GET /wp-content/plugins/wp-job-manager-locations/assets/js/main.js?ver=20140525 HTTP/1.1" 200 742 "-" "Mozilla/5.0 (compatible; bingbot/2.0; +http://www.bing.com/bingbot.htm)"
157.55.39.65 - - [02/Nov/2018:23:34:07 +0000] "GET /wp-includes/js/jquery/ui/core.min.js?ver=1.11.4 HTTP/1.1" 200 1952 "-" "Mozilla/5.0 (compatible; bingbot/2.0; +http://www.bing.com/bingbot.htm)"
157.55.39.65 - - [02/Nov/2018:23:34:07 +0000] "GET /wp-includes/js/jquery/ui/widget.min.js?ver=1.11.4 HTTP/1.1" 200 2862 "-" "Mozilla/5.0 (compatible; bingbot/2.0; +http://www.bing.com/bingbot.htm)"
157.55.39.65 - - [02/Nov/2018:23:34:08 +0000] "GET /wp-includes/js/wp-backbone.min.js?ver=4.9.8 HTTP/1.1" 200 1256 "-" "Mozilla/5.0 (compatible; bingbot/2.0; +http://www.bing.com/bingbot.htm)"
157.55.39.65 - - [02/Nov/2018:23:34:08 +0000] "GET /wp-content/plugins/wp-job-manager/assets/js/jquery-chosen/chosen.jquery.min.js?ver=1.1.0 HTTP/1.1" 200 7837 "-" "Mozilla/5.0 (compatible; bingbot/2.0; +http://www.bing.com/bingbot.htm)"
157.55.39.65 - - [02/Nov/2018:23:34:08 +0000] "GET /wp-content/plugins/woocommerce/assets/js/jquery-ui-touch-punch/jquery-ui-touch-punch.min.js?ver=3.4.5 HTTP/1.1" 200 630 "-" "Mozilla/5.0 (compatible; bingbot/2.0; +http://www.bing.com/bingbot.htm)"
157.55.39.65 - - [02/Nov/2018:23:34:08 +0000] "GET /wp-content/plugins/woocommerce/assets/js/accounting/accounting.min.js?ver=0.4.2 HTTP/1.1" 200 1502 "-" "Mozilla/5.0 (compatible; bingbot/2.0; +http://www.bing.com/bingbot.htm)"
157.55.39.234 - - [02/Nov/2018:23:34:12 +0000] "GET /wp-includes/js/wp-embed.min.js?ver=4.9.8 HTTP/1.1" 200 788 "-" "Mozilla/5.0 (compatible; bingbot/2.0; +http://www.bing.com/bingbot.htm)"
207.46.13.48 - - [02/Nov/2018:23:34:18 +0000] "GET /wp-content/plugins/if-menu/assets/if-menu-site.css?ver=4.9.8 HTTP/1.1" 200 520 "-" "Mozilla/5.0 (compatible; bingbot/2.0; +http://www.bing.com/bingbot.htm)"
207.46.13.48 - - [02/Nov/2018:23:34:18 +0000] "GET /wp-content/plugins/woocommerce/assets/js/frontend/add-to-cart.min.js?ver=3.4.5 HTTP/1.1" 200 1043 "-" "Mozilla/5.0 (compatible; bingbot/2.0; +http://www.bing.com/bingbot.htm)"
207.46.13.48 - - [02/Nov/2018:23:34:20 +0000] "GET /wp-content/plugins/woocommerce/assets/js/frontend/woocommerce.min.js?ver=3.4.5 HTTP/1.1" 200 639 "-" "Mozilla/5.0 (compatible; bingbot/2.0; +http://www.bing.com/bingbot.htm)"
207.46.13.48 - - [02/Nov/2018:23:34:20 +0000] "GET /wp-includes/js/wp-util.min.js?ver=4.9.8 HTTP/1.1" 200 609 "-" "Mozilla/5.0 (compatible; bingbot/2.0; +http://www.bing.com/bingbot.htm)"
207.46.13.48 - - [02/Nov/2018:23:34:20 +0000] "GET /wp-content/plugins/wp-job-manager/assets/js/jquery-deserialize/jquery.deserialize.js?ver=1.2.1 HTTP/1.1" 200 1565 "-" "Mozilla/5.0 (compatible; bingbot/2.0; +http://www.bing.com/bingbot.htm)"
207.46.13.48 - - [02/Nov/2018:23:34:20 +0000] "GET /wp-content/plugins/wp-job-manager/assets/js/ajax-filters.min.js?ver=1.31.3 HTTP/1.1" 200 2056 "-" "Mozilla/5.0 (compatible; bingbot/2.0; +http://www.bing.com/bingbot.htm)"
207.46.13.48 - - [03/Nov/2018:00:35:15 +0000] "GET /wp-includes/js/wp-emoji-release.min.js?ver=4.9.8 HTTP/1.1" 200 4921 "-" "Mozilla/5.0 (compatible; bingbot/2.0; +http://www.bing.com/bingbot.htm)"
31.170.123.73 - - [03/Nov/2018:02:26:13 +0000] "POST /wp-cron.php?doing_wp_cron=1541211973.0036981105804443359375 HTTP/1.1" 200 40 "http://gameworkforce.com/wp-cron.php?doing_wp_cron=1541211973.0036981105804443359375" "WordPress/4.9.8; http://gameworkforce.com"
3.16.45.187 - - [03/Nov/2018:02:26:13 +0000] "GET /wp-login.php HTTP/1.1" 200 1497 "https://www.google.com/url?5dbc53961246a3ebd5a882d37979a0c2" "Mozilla/5.0 (Windows NT 6.0; rv:33.0) Gecko/20100101 Firefox/33.0"
3.16.45.187 - - [03/Nov/2018:02:26:14 +0000] "POST /wp-login.php HTTP/1.1" 200 1809 "https://www.google.com/url?5dbc53961246a3ebd5a882d37979a0c2" "Mozilla/5.0 (Windows NT 6.0; rv:33.0) Gecko/20100101 Firefox/33.0"
