180.76.15.19 - - [05/Nov/2018:03:10:59 +0000] "GET / HTTP/1.0" 301 - "-" "Mozilla/5.0 (compatible; Baiduspider/2.0; +http://www.baidu.com/search/spider.html)"
180.76.15.23 - - [05/Nov/2018:03:11:00 +0000] "GET / HTTP/1.0" 200 48668 "-" "Mozilla/5.0 (compatible; Baiduspider/2.0; +http://www.baidu.com/search/spider.html)"
97.74.228.245 - - [05/Nov/2018:03:22:24 +0000] "POST /xmlrpc.php HTTP/1.0" 200 403 "-" "Mozilla/5.0 (Macintosh; U; Intel Mac OS X 10.6; fr; rv:1.9.2.8) Gecko/20100722 Firefox/3.6.8"
31.170.123.73 - - [05/Nov/2018:03:37:28 +0000] "POST /wp-cron.php?doing_wp_cron=1541389048.7573800086975097656250 HTTP/1.0" 200 - "-" "WordPress/4.3.17; http://www.ikbensterdam.com"
66.249.69.43 - - [05/Nov/2018:03:37:28 +0000] "GET /robots.txt HTTP/1.0" 200 35 "-" "Mozilla/5.0 (compatible; Googlebot/2.1; +http://www.google.com/bot.html)"
66.249.69.41 - - [05/Nov/2018:03:37:30 +0000] "GET /wp-content/plugins/designthemes-core-features/shortcodes/js/jquery.carouFredSel-6.2.1-packed.js?ver=4.3.17 HTTP/1.0" 200 54795 "http://www.ikbensterdam.com/wp-login.php" "Mozilla/5.0 AppleWebKit/537.36 (KHTML, like Gecko; compatible; Googlebot/2.1; +http://www.google.com/bot.html) Safari/537.36"
66.249.69.43 - - [05/Nov/2018:03:37:32 +0000] "GET /wp-content/plugins/designthemes-core-features/shortcodes/js/shortcodes.js?ver=4.3.17 HTTP/1.0" 200 13996 "http://www.ikbensterdam.com/wp-login.php" "Mozilla/5.0 AppleWebKit/537.36 (KHTML, like Gecko; compatible; Googlebot/2.1; +http://www.google.com/bot.html) Safari/537.36"
66.249.69.41 - - [05/Nov/2018:03:37:33 +0000] "GET /wp-content/plugins/designthemes-core-features/custom-post-types/js/jquery.print.js?ver=4.3.17 HTTP/1.0" 200 5496 "http://www.ikbensterdam.com/wp-login.php" "Mozilla/5.0 AppleWebKit/537.36 (KHTML, like Gecko; compatible; Googlebot/2.1; +http://www.google.com/bot.html) Safari/537.36"
66.249.69.43 - - [05/Nov/2018:03:37:34 +0000] "GET /wp-includes/css/buttons.min.css?ver=4.3.17 HTTP/1.0" 200 6048 "http://www.ikbensterdam.com/wp-login.php" "Mozilla/5.0 AppleWebKit/537.36 (KHTML, like Gecko; compatible; Googlebot/2.1; +http://www.google.com/bot.html) Safari/537.36"
66.249.69.41 - - [05/Nov/2018:03:37:35 +0000] "GET /wp-includes/css/dashicons.min.css?ver=4.3.17 HTTP/1.0" 200 46120 "http://www.ikbensterdam.com/wp-login.php" "Mozilla/5.0 AppleWebKit/537.36 (KHTML, like Gecko; compatible; Googlebot/2.1; +http://www.google.com/bot.html) Safari/537.36"
66.249.69.41 - - [05/Nov/2018:03:37:37 +0000] "GET /wp-content/plugins/designthemes-core-features/shortcodes/js/countTo.js?ver=4.3.17 HTTP/1.0" 200 2655 "http://www.ikbensterdam.com/wp-login.php" "Mozilla/5.0 AppleWebKit/537.36 (KHTML, like Gecko; compatible; Googlebot/2.1; +http://www.google.com/bot.html) Safari/537.36"
66.249.69.41 - - [05/Nov/2018:03:37:38 +0000] "GET /wp-content/plugins/designthemes-core-features/shortcodes/js/jquery.tabs.min.js?ver=4.3.17 HTTP/1.0" 200 4896 "http://www.ikbensterdam.com/wp-login.php" "Mozilla/5.0 AppleWebKit/537.36 (KHTML, like Gecko; compatible; Googlebot/2.1; +http://www.google.com/bot.html) Safari/537.36"
180.76.15.137 - - [05/Nov/2018:03:44:19 +0000] "GET /wp-content/plugins/js_composer/assets/js/components/vc_grid_style_all.js HTTP/1.0" 200 2637 "-" "Mozilla/5.0 (compatible; Baiduspider/2.0; +http://www.baidu.com/search/spider.html)"
31.170.123.73 - - [05/Nov/2018:04:25:26 +0000] "POST /wp-cron.php?doing_wp_cron=1541391926.6068470478057861328125 HTTP/1.0" 200 - "-" "WordPress/4.3.17; http://www.ikbensterdam.com"
89.163.131.166 - - [05/Nov/2018:04:25:26 +0000] "HEAD / HTTP/1.0" 200 - "-" "Mozilla/5.0 (compatible; Uptimebot/1.0; +http://www.uptime.com/uptimebot)"
123.57.254.142 - - [05/Nov/2018:04:34:34 +0000] "POST /xmlrpc.php HTTP/1.0" 200 403 "-" "Mozilla/5.0 (Macintosh; U; Intel Mac OS X 10.6; fr; rv:1.9.2.8) Gecko/20100722 Firefox/3.6.8"
123.57.254.142 - - [05/Nov/2018:04:34:34 +0000] "POST /xmlrpc.php HTTP/1.0" 200 403 "-" "Mozilla/5.0 (Macintosh; U; Intel Mac OS X 10.6; fr; rv:1.9.2.8) Gecko/20100722 Firefox/3.6.8"
31.170.123.73 - - [05/Nov/2018:05:39:10 +0000] "POST /wp-cron.php?doing_wp_cron=1541396350.6921870708465576171875 HTTP/1.0" 200 - "-" "WordPress/4.3.17; http://www.ikbensterdam.com"
97.74.228.245 - - [05/Nov/2018:05:39:10 +0000] "POST /xmlrpc.php HTTP/1.0" 200 403 "-" "Mozilla/5.0 (Macintosh; U; Intel Mac OS X 10.6; fr; rv:1.9.2.8) Gecko/20100722 Firefox/3.6.8"
31.170.123.73 - - [05/Nov/2018:06:13:21 +0000] "POST /wp-cron.php?doing_wp_cron=1541398401.0834710597991943359375 HTTP/1.0" 200 - "-" "WordPress/4.3.17; http://www.ikbensterdam.com"
46.118.156.102 - - [05/Nov/2018:06:13:20 +0000] "GET / HTTP/1.0" 301 - "-" "Mozilla/5.0 (Windows NT 6.1; WOW64; rv:38.0) Gecko/20100101 Firefox/38.0"
46.118.156.102 - - [05/Nov/2018:06:13:21 +0000] "GET / HTTP/1.0" 200 48668 "-" "Mozilla/5.0 (Windows NT 6.1; WOW64; rv:38.0) Gecko/20100101 Firefox/38.0"
46.118.156.102 - - [05/Nov/2018:06:13:22 +0000] "GET /feed/ HTTP/1.0" 200 25911 "-" "Mozilla/5.0 (Windows NT 6.1; WOW64; rv:38.0) Gecko/20100101 Firefox/38.0"
31.15.245.131 - - [05/Nov/2018:07:11:34 +0000] "POST /wp-login.php HTTP/1.0" 200 8073 "-" "Opera/9.80 (Windows NT 6.0) Presto/2.12.388 Version/12.14"
31.170.123.73 - - [05/Nov/2018:07:11:35 +0000] "POST /wp-cron.php?doing_wp_cron=1541401895.1708400249481201171875 HTTP/1.0" 200 - "-" "WordPress/4.3.17; http://www.ikbensterdam.com"
89.163.131.165 - - [05/Nov/2018:07:25:24 +0000] "HEAD / HTTP/1.0" 200 - "-" "Mozilla/5.0 (compatible; Uptimebot/1.0; +http://www.uptime.com/uptimebot)"
31.170.123.73 - - [05/Nov/2018:07:55:27 +0000] "POST /wp-cron.php?doing_wp_cron=1541404527.9486110210418701171875 HTTP/1.0" 200 - "-" "WordPress/4.3.17; http://www.ikbensterdam.com"
97.74.228.245 - - [05/Nov/2018:07:55:27 +0000] "POST /xmlrpc.php HTTP/1.0" 200 403 "-" "Mozilla/5.0 (Macintosh; U; Intel Mac OS X 10.6; fr; rv:1.9.2.8) Gecko/20100722 Firefox/3.6.8"
31.170.123.73 - - [05/Nov/2018:08:19:07 +0000] "POST /wp-cron.php?doing_wp_cron=1541405947.9422938823699951171875 HTTP/1.0" 200 - "-" "WordPress/4.3.17; http://www.ikbensterdam.com"
128.177.10.98 - - [05/Nov/2018:08:19:07 +0000] "GET / HTTP/1.0" 200 48668 "-" "Mozilla/4.0 (compatible; MSIE 5.0; Windows NT; DigExt)"
103.103.28.132 - - [05/Nov/2018:08:25:48 +0000] "POST /wp-login.php HTTP/1.0" 200 8073 "-" "Opera/9.80 (Windows NT 6.0) Presto/2.12.388 Version/12.14"
31.170.123.73 - - [05/Nov/2018:10:09:40 +0000] "POST /wp-cron.php?doing_wp_cron=1541412580.5190479755401611328125 HTTP/1.0" 200 - "-" "WordPress/4.3.17; http://www.ikbensterdam.com"
97.74.228.245 - - [05/Nov/2018:10:09:39 +0000] "POST /xmlrpc.php HTTP/1.0" 200 403 "-" "Mozilla/5.0 (Macintosh; U; Intel Mac OS X 10.6; fr; rv:1.9.2.8) Gecko/20100722 Firefox/3.6.8"
180.76.15.16 - - [05/Nov/2018:10:22:29 +0000] "GET /wp-content/plugins/js_composer/assets/js/components/vc_grid.js HTTP/1.0" 200 7759 "-" "Mozilla/5.0 (compatible; Baiduspider/2.0; +http://www.baidu.com/search/spider.html)"
52.53.201.78 - - [05/Nov/2018:10:42:27 +0000] "GET / HTTP/1.0" 200 48668 "-" "Mozilla/5.0 (Macintosh; Intel Mac OS X 10_12_6) AppleWebKit/537.36 (KHTML, like Gecko) Chrome/61.0.3163.100 Safari/537.36"
31.170.123.73 - - [05/Nov/2018:11:02:21 +0000] "POST /wp-cron.php?doing_wp_cron=1541415741.1606469154357910156250 HTTP/1.0" 200 - "-" "WordPress/4.3.17; http://www.ikbensterdam.com"
165.225.170.35 - - [05/Nov/2018:11:02:20 +0000] "GET /?author=1 HTTP/1.0" 301 - "-" "Mozilla/5.0 (Windows NT 10.0; Win64; x64) AppleWebKit/537.36 (KHTML, like Gecko) Chrome/61.0.3163.100 Safari/537.36"
165.225.170.35 - - [05/Nov/2018:11:02:22 +0000] "POST /xmlrpc.php HTTP/1.0" 200 43201 "-" "Mozilla/5.0 (Windows NT 10.0; Win64; x64) AppleWebKit/537.36 (KHTML, like Gecko) Chrome/61.0.3163.100 Safari/537.36"
165.225.170.35 - - [05/Nov/2018:11:02:23 +0000] "POST /xmlrpc.php HTTP/1.0" 200 401 "-" "Mozilla/5.0 (Windows NT 10.0; Win64; x64) AppleWebKit/537.36 (KHTML, like Gecko) Chrome/61.0.3163.100 Safari/537.36"
165.225.170.35 - - [05/Nov/2018:11:02:24 +0000] "POST /xmlrpc.php HTTP/1.0" 200 401 "-" "Mozilla/5.0 (Windows NT 10.0; Win64; x64) AppleWebKit/537.36 (KHTML, like Gecko) Chrome/61.0.3163.100 Safari/537.36"
165.225.170.35 - - [05/Nov/2018:11:02:24 +0000] "POST /xmlrpc.php HTTP/1.0" 200 401 "-" "Mozilla/5.0 (Windows NT 10.0; Win64; x64) AppleWebKit/537.36 (KHTML, like Gecko) Chrome/61.0.3163.100 Safari/537.36"
165.225.170.35 - - [05/Nov/2018:11:02:25 +0000] "POST /xmlrpc.php HTTP/1.0" 200 401 "-" "Mozilla/5.0 (Windows NT 10.0; Win64; x64) AppleWebKit/537.36 (KHTML, like Gecko) Chrome/61.0.3163.100 Safari/537.36"
165.225.170.35 - - [05/Nov/2018:11:02:26 +0000] "POST /xmlrpc.php HTTP/1.0" 200 401 "-" "Mozilla/5.0 (Windows NT 10.0; Win64; x64) AppleWebKit/537.36 (KHTML, like Gecko) Chrome/61.0.3163.100 Safari/537.36"
165.225.170.35 - - [05/Nov/2018:11:02:26 +0000] "POST /xmlrpc.php HTTP/1.0" 200 401 "-" "Mozilla/5.0 (Windows NT 10.0; Win64; x64) AppleWebKit/537.36 (KHTML, like Gecko) Chrome/61.0.3163.100 Safari/537.36"
165.225.170.35 - - [05/Nov/2018:11:02:27 +0000] "POST /xmlrpc.php HTTP/1.0" 200 401 "-" "Mozilla/5.0 (Windows NT 10.0; Win64; x64) AppleWebKit/537.36 (KHTML, like Gecko) Chrome/61.0.3163.100 Safari/537.36"
165.225.170.35 - - [05/Nov/2018:11:02:27 +0000] "POST /xmlrpc.php HTTP/1.0" 200 401 "-" "Mozilla/5.0 (Windows NT 10.0; Win64; x64) AppleWebKit/537.36 (KHTML, like Gecko) Chrome/61.0.3163.100 Safari/537.36"
165.225.170.35 - - [05/Nov/2018:11:02:28 +0000] "POST /xmlrpc.php HTTP/1.0" 200 401 "-" "Mozilla/5.0 (Windows NT 10.0; Win64; x64) AppleWebKit/537.36 (KHTML, like Gecko) Chrome/61.0.3163.100 Safari/537.36"
165.225.170.35 - - [05/Nov/2018:11:02:29 +0000] "POST /xmlrpc.php HTTP/1.0" 200 401 "-" "Mozilla/5.0 (Windows NT 10.0; Win64; x64) AppleWebKit/537.36 (KHTML, like Gecko) Chrome/61.0.3163.100 Safari/537.36"
165.225.170.35 - - [05/Nov/2018:11:02:29 +0000] "POST /xmlrpc.php HTTP/1.0" 200 401 "-" "Mozilla/5.0 (Windows NT 10.0; Win64; x64) AppleWebKit/537.36 (KHTML, like Gecko) Chrome/61.0.3163.100 Safari/537.36"
165.225.170.35 - - [05/Nov/2018:11:02:30 +0000] "POST /xmlrpc.php HTTP/1.0" 200 401 "-" "Mozilla/5.0 (Windows NT 10.0; Win64; x64) AppleWebKit/537.36 (KHTML, like Gecko) Chrome/61.0.3163.100 Safari/537.36"
165.225.170.35 - - [05/Nov/2018:11:02:31 +0000] "POST /xmlrpc.php HTTP/1.0" 200 401 "-" "Mozilla/5.0 (Windows NT 10.0; Win64; x64) AppleWebKit/537.36 (KHTML, like Gecko) Chrome/61.0.3163.100 Safari/537.36"
165.225.170.35 - - [05/Nov/2018:11:02:31 +0000] "POST /xmlrpc.php HTTP/1.0" 200 401 "-" "Mozilla/5.0 (Windows NT 10.0; Win64; x64) AppleWebKit/537.36 (KHTML, like Gecko) Chrome/61.0.3163.100 Safari/537.36"
165.225.170.35 - - [05/Nov/2018:11:02:32 +0000] "POST /xmlrpc.php HTTP/1.0" 200 401 "-" "Mozilla/5.0 (Windows NT 10.0; Win64; x64) AppleWebKit/537.36 (KHTML, like Gecko) Chrome/61.0.3163.100 Safari/537.36"
165.225.170.35 - - [05/Nov/2018:11:02:33 +0000] "POST /xmlrpc.php HTTP/1.0" 200 401 "-" "Mozilla/5.0 (Windows NT 10.0; Win64; x64) AppleWebKit/537.36 (KHTML, like Gecko) Chrome/61.0.3163.100 Safari/537.36"
165.225.170.35 - - [05/Nov/2018:11:02:33 +0000] "POST /xmlrpc.php HTTP/1.0" 200 401 "-" "Mozilla/5.0 (Windows NT 10.0; Win64; x64) AppleWebKit/537.36 (KHTML, like Gecko) Chrome/61.0.3163.100 Safari/537.36"
165.225.170.35 - - [05/Nov/2018:11:02:34 +0000] "POST /xmlrpc.php HTTP/1.0" 200 401 "-" "Mozilla/5.0 (Windows NT 10.0; Win64; x64) AppleWebKit/537.36 (KHTML, like Gecko) Chrome/61.0.3163.100 Safari/537.36"
165.225.170.35 - - [05/Nov/2018:11:02:35 +0000] "POST /xmlrpc.php HTTP/1.0" 200 401 "-" "Mozilla/5.0 (Windows NT 10.0; Win64; x64) AppleWebKit/537.36 (KHTML, like Gecko) Chrome/61.0.3163.100 Safari/537.36"
165.225.170.35 - - [05/Nov/2018:11:02:35 +0000] "POST /xmlrpc.php HTTP/1.0" 403 212 "-" "Mozilla/5.0 (Windows NT 10.0; Win64; x64) AppleWebKit/537.36 (KHTML, like Gecko) Chrome/61.0.3163.100 Safari/537.36"
89.248.169.130 - - [05/Nov/2018:11:52:45 +0000] "POST /xmlrpc.php HTTP/1.0" 200 403 "-" "Mozilla/5.0 (Macintosh; U; Intel Mac OS X 10.6; fr; rv:1.9.2.8) Gecko/20100722 Firefox/3.6.8"
31.170.123.73 - - [05/Nov/2018:11:52:46 +0000] "POST /wp-cron.php?doing_wp_cron=1541418766.0527729988098144531250 HTTP/1.0" 200 - "-" "WordPress/4.3.17; http://www.ikbensterdam.com"
31.170.123.73 - - [05/Nov/2018:11:52:46 +0000] "POST /wp-cron.php?doing_wp_cron=1541418766.0527169704437255859375 HTTP/1.0" 200 - "-" "WordPress/4.3.17; http://www.ikbensterdam.com"
89.248.169.130 - - [05/Nov/2018:11:52:45 +0000] "POST /xmlrpc.php HTTP/1.0" 200 403 "-" "Mozilla/5.0 (Macintosh; U; Intel Mac OS X 10.6; fr; rv:1.9.2.8) Gecko/20100722 Firefox/3.6.8"
89.248.169.130 - - [05/Nov/2018:11:52:45 +0000] "POST /xmlrpc.php HTTP/1.0" 200 403 "-" "Mozilla/5.0 (Macintosh; U; Intel Mac OS X 10.6; fr; rv:1.9.2.8) Gecko/20100722 Firefox/3.6.8"
192.138.189.105 - - [05/Nov/2018:11:58:42 +0000] "GET /wp-admin/default.php HTTP/1.0" 301 - "http://site.ru" "Mozilla/5.0 (Windows; U; Windows NT 5.1; en-US) AppleWebKit/533.4 (KHTML, like Gecko) Chrome/5.0.375.99 Safari/533.4"
192.138.189.105 - - [05/Nov/2018:11:58:43 +0000] "GET /wp-admin/default.php HTTP/1.0" 404 35209 "http://site.ru" "Mozilla/5.0 (Windows; U; Windows NT 5.1; en-US) AppleWebKit/533.4 (KHTML, like Gecko) Chrome/5.0.375.99 Safari/533.4"
192.138.189.105 - - [05/Nov/2018:11:58:45 +0000] "GET /wp-admin/default.php HTTP/1.0" 301 - "http://site.ru" "Mozilla/5.0 (Windows; U; Windows NT 5.1; en-US) AppleWebKit/533.4 (KHTML, like Gecko) Chrome/5.0.375.99 Safari/533.4"
192.138.189.105 - - [05/Nov/2018:11:58:47 +0000] "GET /wp-admin/default.php HTTP/1.0" 404 35209 "http://site.ru" "Mozilla/5.0 (Windows; U; Windows NT 5.1; en-US) AppleWebKit/533.4 (KHTML, like Gecko) Chrome/5.0.375.99 Safari/533.4"
79.142.65.241 - - [05/Nov/2018:12:38:18 +0000] "GET /kickstart.php HTTP/1.0" 301 - "-" "Mozilla/5.0 (Windows NT 6.1) AppleWebKit/537.36 (KHTML, like Gecko) Chrome/67.0.3396.87 Safari/537.36 OPR/54.0.2952.51"
79.142.65.241 - - [05/Nov/2018:12:38:19 +0000] "GET /kickstart.php HTTP/1.0" 404 35177 "-" "Mozilla/5.0 (Windows NT 6.1) AppleWebKit/537.36 (KHTML, like Gecko) Chrome/67.0.3396.87 Safari/537.36 OPR/54.0.2952.51"
97.74.228.245 - - [05/Nov/2018:12:41:44 +0000] "POST /xmlrpc.php HTTP/1.0" 200 403 "-" "Mozilla/5.0 (Macintosh; U; Intel Mac OS X 10.6; fr; rv:1.9.2.8) Gecko/20100722 Firefox/3.6.8"
31.170.123.73 - - [05/Nov/2018:14:00:11 +0000] "POST /wp-cron.php?doing_wp_cron=1541426411.7394459247589111328125 HTTP/1.0" 200 - "-" "WordPress/4.3.17; http://www.ikbensterdam.com"
196.12.15.12 - - [05/Nov/2018:14:00:11 +0000] "POST /wp-login.php HTTP/1.0" 200 8073 "-" "Opera/9.80 (Windows NT 6.0) Presto/2.12.388 Version/12.14"
200.76.191.70 - - [05/Nov/2018:14:04:10 +0000] "GET /wso.php HTTP/1.0" 301 - "http://site.ru" "Mozilla/5.0 (Windows; U; Windows NT 5.1; en-US) AppleWebKit/533.4 (KHTML, like Gecko) Chrome/5.0.375.99 Safari/533.4"
200.76.191.70 - - [05/Nov/2018:14:04:14 +0000] "GET /wso.php HTTP/1.0" 404 35153 "http://site.ru" "Mozilla/5.0 (Windows; U; Windows NT 5.1; en-US) AppleWebKit/533.4 (KHTML, like Gecko) Chrome/5.0.375.99 Safari/533.4"
2a02:c205:2018:8760::1 - - [05/Nov/2018:14:05:28 +0000] "GET /wp-admin/logo_img.php HTTP/1.0" 301 - "http://site.ru" "Mozilla/5.0 (Windows; U; Windows NT 5.1; en-US) AppleWebKit/533.4 (KHTML, like Gecko) Chrome/5.0.375.99 Safari/533.4"
2a02:c205:2018:8760::1 - - [05/Nov/2018:14:05:29 +0000] "GET /wp-admin/logo_img.php HTTP/1.0" 404 35213 "http://site.ru" "Mozilla/5.0 (Windows; U; Windows NT 5.1; en-US) AppleWebKit/533.4 (KHTML, like Gecko) Chrome/5.0.375.99 Safari/533.4"
31.170.123.73 - - [05/Nov/2018:14:58:56 +0000] "POST /wp-cron.php?doing_wp_cron=1541429936.4094951152801513671875 HTTP/1.0" 200 - "-" "WordPress/4.3.17; http://www.ikbensterdam.com"
97.74.228.245 - - [05/Nov/2018:14:58:55 +0000] "POST /xmlrpc.php HTTP/1.0" 200 403 "-" "Mozilla/5.0 (Macintosh; U; Intel Mac OS X 10.6; fr; rv:1.9.2.8) Gecko/20100722 Firefox/3.6.8"
31.170.123.73 - - [05/Nov/2018:16:00:56 +0000] "POST /wp-cron.php?doing_wp_cron=1541433656.9712009429931640625000 HTTP/1.0" 200 - "-" "WordPress/4.3.17; http://www.ikbensterdam.com"
2607:5300:203:2a:: - - [05/Nov/2018:16:00:56 +0000] "GET /wp-content/wordpress_cache.php HTTP/1.0" 301 - "http://site.ru" "Mozilla/5.0 (Windows; U; Windows NT 5.1; en-US) AppleWebKit/533.4 (KHTML, like Gecko) Chrome/5.0.375.99 Safari/533.4"
2607:5300:203:2a:: - - [05/Nov/2018:16:00:58 +0000] "GET /wp-content/wordpress_cache.php HTTP/1.0" 404 35249 "http://site.ru" "Mozilla/5.0 (Windows; U; Windows NT 5.1; en-US) AppleWebKit/533.4 (KHTML, like Gecko) Chrome/5.0.375.99 Safari/533.4"
89.163.131.167 - - [05/Nov/2018:16:42:43 +0000] "HEAD / HTTP/1.0" 200 - "-" "Mozilla/5.0 (compatible; Uptimebot/1.0; +http://www.uptime.com/uptimebot)"
31.170.123.73 - - [05/Nov/2018:17:06:29 +0000] "POST /wp-cron.php?doing_wp_cron=1541437589.7220220565795898437500 HTTP/1.0" 200 - "-" "WordPress/4.3.17; http://www.ikbensterdam.com"
2001:67c:2070:c8f0::1 - - [05/Nov/2018:17:06:29 +0000] "GET /wp-login.php HTTP/1.0" 200 7079 "http://www.ikbensterdam.com/wp-login.php" "Mozilla/5.0 (Windows NT 10.0; Win64; x64) AppleWebKit/537.36 (KHTML, like Gecko) Chrome/63.0.3239.84 Safari/537.36"
2001:67c:2070:c8f0::1 - - [05/Nov/2018:17:06:30 +0000] "POST /wp-login.php HTTP/1.0" 200 8073 "http://www.ikbensterdam.com/wp-login.php" "Mozilla/5.0 (Windows NT 10.0; Win64; x64) AppleWebKit/537.36 (KHTML, like Gecko) Chrome/63.0.3239.84 Safari/537.36"
97.74.228.245 - - [05/Nov/2018:17:17:18 +0000] "POST /xmlrpc.php HTTP/1.0" 200 403 "-" "Mozilla/5.0 (Macintosh; U; Intel Mac OS X 10.6; fr; rv:1.9.2.8) Gecko/20100722 Firefox/3.6.8"
31.186.8.166 - - [05/Nov/2018:17:27:17 +0000] "GET /wp-admin/network/green.php HTTP/1.0" 301 - "http://site.ru" "Mozilla/5.0 (Windows; U; Windows NT 5.1; en-US) AppleWebKit/533.4 (KHTML, like Gecko) Chrome/5.0.375.99 Safari/533.4"
31.186.8.166 - - [05/Nov/2018:17:27:20 +0000] "GET /wp-admin/network/green.php HTTP/1.0" 404 35237 "http://site.ru" "Mozilla/5.0 (Windows; U; Windows NT 5.1; en-US) AppleWebKit/533.4 (KHTML, like Gecko) Chrome/5.0.375.99 Safari/533.4"
31.186.8.166 - - [05/Nov/2018:17:27:29 +0000] "GET /wp-admin/network/green.php HTTP/1.0" 301 - "http://site.ru" "Mozilla/5.0 (Windows; U; Windows NT 5.1; en-US) AppleWebKit/533.4 (KHTML, like Gecko) Chrome/5.0.375.99 Safari/533.4"
31.186.8.166 - - [05/Nov/2018:17:27:32 +0000] "GET /wp-admin/network/green.php HTTP/1.0" 404 35237 "http://site.ru" "Mozilla/5.0 (Windows; U; Windows NT 5.1; en-US) AppleWebKit/533.4 (KHTML, like Gecko) Chrome/5.0.375.99 Safari/533.4"
180.76.15.143 - - [05/Nov/2018:17:38:52 +0000] "GET / HTTP/1.0" 301 - "-" "Mozilla/5.0 (compatible; Baiduspider/2.0; +http://www.baidu.com/search/spider.html)"
180.76.15.137 - - [05/Nov/2018:17:38:53 +0000] "GET /robots.txt HTTP/1.0" 200 35 "-" "Mozilla/5.0 (Windows NT 5.1; rv:6.0.2) Gecko/20100101 Firefox/6.0.2"
180.76.15.140 - - [05/Nov/2018:17:38:53 +0000] "GET / HTTP/1.0" 200 48668 "-" "Mozilla/5.0 (compatible; Baiduspider/2.0; +http://www.baidu.com/search/spider.html)"
180.76.15.25 - - [05/Nov/2018:17:38:54 +0000] "GET /robots.txt HTTP/1.0" 200 35 "-" "Mozilla/5.0 (Windows NT 5.1; rv:6.0.2) Gecko/20100101 Firefox/6.0.2"
80.90.55.172 - - [05/Nov/2018:17:41:54 +0000] "HEAD / HTTP/1.0" 200 - "-" "Mozilla/5.0 (compatible; Uptimebot/1.0; +http://www.uptime.com/uptimebot)"
180.76.15.140 - - [05/Nov/2018:18:12:12 +0000] "GET /wp-content/plugins/contact-form-7/includes/js/scripts.js HTTP/1.0" 200 11819 "-" "Mozilla/5.0 (compatible; Baiduspider/2.0; +http://www.baidu.com/search/spider.html)"
180.76.15.160 - - [05/Nov/2018:18:45:32 +0000] "GET /wp-content/plugins/yith-woocommerce-quick-view/assets/js/frontend.js HTTP/1.0" 200 4460 "-" "Mozilla/5.0 (compatible; Baiduspider/2.0; +http://www.baidu.com/search/spider.html)"
50.62.161.190 - - [05/Nov/2018:19:23:53 +0000] "GET /wp-login.php HTTP/1.0" 200 7079 "http://www.ikbensterdam.com/wp-login.php" "Mozilla/5.0 (Windows NT 10.0; Win64; x64) AppleWebKit/537.36 (KHTML, like Gecko) Chrome/63.0.3239.84 Safari/537.36"
50.62.161.190 - - [05/Nov/2018:19:23:56 +0000] "POST /wp-login.php HTTP/1.0" 200 8073 "http://www.ikbensterdam.com/wp-login.php" "Mozilla/5.0 (Windows NT 10.0; Win64; x64) AppleWebKit/537.36 (KHTML, like Gecko) Chrome/63.0.3239.84 Safari/537.36"
31.170.123.73 - - [05/Nov/2018:19:23:54 +0000] "POST /wp-cron.php?doing_wp_cron=1541445834.1459910869598388671875 HTTP/1.0" 200 - "-" "WordPress/4.3.17; http://www.ikbensterdam.com"
185.86.164.107 - - [05/Nov/2018:19:24:46 +0000] "GET /wp-login.php HTTP/1.0" 200 7079 "-" "Mozilla/5.0 (Windows NT 10.0; WOW64) AppleWebKit/537.36 (KHTML, like Gecko) Chrome/51.0.2704.103 Safari/537.36"
185.86.164.107 - - [05/Nov/2018:19:24:47 +0000] "POST /wp-login.php HTTP/1.0" 200 8022 "http://www.ikbensterdam.com/wp-login.php" "Mozilla/5.0 (Windows NT 10.0; WOW64) AppleWebKit/537.36 (KHTML, like Gecko) Chrome/51.0.2704.103 Safari/537.36"
97.74.228.245 - - [05/Nov/2018:19:31:22 +0000] "POST /xmlrpc.php HTTP/1.0" 200 403 "-" "Mozilla/5.0 (Macintosh; U; Intel Mac OS X 10.6; fr; rv:1.9.2.8) Gecko/20100722 Firefox/3.6.8"
123.57.254.142 - - [05/Nov/2018:19:49:43 +0000] "POST /xmlrpc.php HTTP/1.0" 200 403 "-" "Mozilla/5.0 (Macintosh; U; Intel Mac OS X 10.6; fr; rv:1.9.2.8) Gecko/20100722 Firefox/3.6.8"
31.170.123.73 - - [05/Nov/2018:19:49:43 +0000] "POST /wp-cron.php?doing_wp_cron=1541447383.6311609745025634765625 HTTP/1.0" 200 - "-" "WordPress/4.3.17; http://www.ikbensterdam.com"
123.57.254.142 - - [05/Nov/2018:19:49:43 +0000] "POST /xmlrpc.php HTTP/1.0" 200 403 "-" "Mozilla/5.0 (Macintosh; U; Intel Mac OS X 10.6; fr; rv:1.9.2.8) Gecko/20100722 Firefox/3.6.8"
31.170.123.73 - - [05/Nov/2018:19:59:51 +0000] "POST /wp-cron.php?doing_wp_cron=1541447991.0237150192260742187500 HTTP/1.0" 200 - "-" "WordPress/4.3.17; http://www.ikbensterdam.com"
69.12.66.233 - - [05/Nov/2018:19:59:50 +0000] "GET /wp-content/plugins/xnxx/xnxx.php HTTP/1.0" 404 35265 "http://www.ikbensterdam.com/wp-content/plugins/xnxx/xnxx.php" "Mozilla/5.0 (Windows NT 6.1; WOW64) AppleWebKit/537.36 (KHTML, like Gecko) Chrome/42.0.2311.152 Safari/537.36"
77.104.167.132 - - [05/Nov/2018:20:06:54 +0000] "GET /wp-content/plugins/ajax-user/zz.php.pjpeg HTTP/1.0" 301 - "http://site.ru" "Mozilla/5.0 (Windows; U; Windows NT 5.1; en-US) AppleWebKit/533.4 (KHTML, like Gecko) Chrome/5.0.375.99 Safari/533.4"
77.104.167.132 - - [05/Nov/2018:20:06:55 +0000] "GET /wp-content/plugins/ajax-user/zz.php.pjpeg HTTP/1.0" 404 35301 "http://site.ru" "Mozilla/5.0 (Windows; U; Windows NT 5.1; en-US) AppleWebKit/533.4 (KHTML, like Gecko) Chrome/5.0.375.99 Safari/533.4"
77.104.167.132 - - [05/Nov/2018:20:06:57 +0000] "GET /wp-content/plugins/ajax-user/zz.php.pjpeg HTTP/1.0" 301 - "http://site.ru" "Mozilla/5.0 (Windows; U; Windows NT 5.1; en-US) AppleWebKit/533.4 (KHTML, like Gecko) Chrome/5.0.375.99 Safari/533.4"
77.104.167.132 - - [05/Nov/2018:20:06:58 +0000] "GET /wp-content/plugins/ajax-user/zz.php.pjpeg HTTP/1.0" 404 35301 "http://site.ru" "Mozilla/5.0 (Windows; U; Windows NT 5.1; en-US) AppleWebKit/533.4 (KHTML, like Gecko) Chrome/5.0.375.99 Safari/533.4"
89.248.169.130 - - [05/Nov/2018:21:04:06 +0000] "POST /xmlrpc.php HTTP/1.0" 200 403 "-" "Mozilla/5.0 (Macintosh; U; Intel Mac OS X 10.6; fr; rv:1.9.2.8) Gecko/20100722 Firefox/3.6.8"
31.170.123.73 - - [05/Nov/2018:21:04:07 +0000] "POST /wp-cron.php?doing_wp_cron=1541451847.4104499816894531250000 HTTP/1.0" 200 - "-" "WordPress/4.3.17; http://www.ikbensterdam.com"
89.248.169.130 - - [05/Nov/2018:21:04:06 +0000] "POST /xmlrpc.php HTTP/1.0" 200 403 "-" "Mozilla/5.0 (Macintosh; U; Intel Mac OS X 10.6; fr; rv:1.9.2.8) Gecko/20100722 Firefox/3.6.8"
89.248.169.130 - - [05/Nov/2018:21:04:08 +0000] "POST /xmlrpc.php HTTP/1.0" 200 403 "-" "Mozilla/5.0 (Macintosh; U; Intel Mac OS X 10.6; fr; rv:1.9.2.8) Gecko/20100722 Firefox/3.6.8"
14.186.239.59 - - [05/Nov/2018:21:17:41 +0000] "POST /wp-login.php HTTP/1.0" 200 8073 "-" "Opera/9.80 (Windows NT 6.0) Presto/2.12.388 Version/12.14"
2a02:c207:2009:5448::1 - - [05/Nov/2018:21:20:40 +0000] "GET /modules/mod_ariimageslidersa/098.php HTTP/1.0" 301 - "http://site.ru" "Mozilla/5.0 (Windows; U; Windows NT 5.1; en-US) AppleWebKit/533.4 (KHTML, like Gecko) Chrome/5.0.375.99 Safari/533.4"
2a02:c207:2009:5448::1 - - [05/Nov/2018:21:20:42 +0000] "GET /modules/mod_ariimageslidersa/098.php HTTP/1.0" 404 35277 "http://site.ru" "Mozilla/5.0 (Windows; U; Windows NT 5.1; en-US) AppleWebKit/533.4 (KHTML, like Gecko) Chrome/5.0.375.99 Safari/533.4"
2a02:c207:2009:5448::1 - - [05/Nov/2018:21:20:45 +0000] "GET /modules/mod_ariimageslidersa/098.php HTTP/1.0" 301 - "http://site.ru" "Mozilla/5.0 (Windows; U; Windows NT 5.1; en-US) AppleWebKit/533.4 (KHTML, like Gecko) Chrome/5.0.375.99 Safari/533.4"
2a02:c207:2009:5448::1 - - [05/Nov/2018:21:20:47 +0000] "GET /modules/mod_ariimageslidersa/098.php HTTP/1.0" 404 35277 "http://site.ru" "Mozilla/5.0 (Windows; U; Windows NT 5.1; en-US) AppleWebKit/533.4 (KHTML, like Gecko) Chrome/5.0.375.99 Safari/533.4"
50.62.161.215 - - [05/Nov/2018:21:32:03 +0000] "GET /wp-login.php HTTP/1.0" 200 7079 "http://www.ikbensterdam.com/wp-login.php" "Mozilla/5.0 (Windows NT 10.0; Win64; x64) AppleWebKit/537.36 (KHTML, like Gecko) Chrome/63.0.3239.84 Safari/537.36"
50.62.161.215 - - [05/Nov/2018:21:32:06 +0000] "POST /wp-login.php HTTP/1.0" 200 8073 "http://www.ikbensterdam.com/wp-login.php" "Mozilla/5.0 (Windows NT 10.0; Win64; x64) AppleWebKit/537.36 (KHTML, like Gecko) Chrome/63.0.3239.84 Safari/537.36"
97.74.228.245 - - [05/Nov/2018:21:44:19 +0000] "POST /xmlrpc.php HTTP/1.0" 200 403 "-" "Mozilla/5.0 (Macintosh; U; Intel Mac OS X 10.6; fr; rv:1.9.2.8) Gecko/20100722 Firefox/3.6.8"
31.170.123.73 - - [05/Nov/2018:22:03:54 +0000] "POST /wp-cron.php?doing_wp_cron=1541455434.9401090145111083984375 HTTP/1.0" 200 - "-" "WordPress/4.3.17; http://www.ikbensterdam.com"
198.46.81.44 - - [05/Nov/2018:22:03:54 +0000] "GET /htaccess.php HTTP/1.0" 301 - "http://site.ru" "Mozilla/5.0 (Windows; U; Windows NT 5.1; en-US) AppleWebKit/533.4 (KHTML, like Gecko) Chrome/5.0.375.99 Safari/533.4"
198.46.81.44 - - [05/Nov/2018:22:03:56 +0000] "GET /htaccess.php HTTP/1.0" 404 35173 "http://site.ru" "Mozilla/5.0 (Windows; U; Windows NT 5.1; en-US) AppleWebKit/533.4 (KHTML, like Gecko) Chrome/5.0.375.99 Safari/533.4"
31.170.123.73 - - [05/Nov/2018:22:35:57 +0000] "POST /wp-cron.php?doing_wp_cron=1541457357.5007729530334472656250 HTTP/1.0" 200 - "-" "WordPress/4.3.17; http://www.ikbensterdam.com"
5.249.226.74 - - [05/Nov/2018:22:35:56 +0000] "GET /wp-content/uploads/logo_img.php HTTP/1.0" 301 - "http://site.ru" "Mozilla/5.0 (Windows; U; Windows NT 5.1; en-US) AppleWebKit/533.4 (KHTML, like Gecko) Chrome/5.0.375.99 Safari/533.4"
5.249.226.74 - - [05/Nov/2018:22:35:58 +0000] "GET /wp-content/uploads/logo_img.php HTTP/1.0" 404 35257 "http://site.ru" "Mozilla/5.0 (Windows; U; Windows NT 5.1; en-US) AppleWebKit/533.4 (KHTML, like Gecko) Chrome/5.0.375.99 Safari/533.4"
113.195.167.207 - - [05/Nov/2018:22:36:09 +0000] "POST /wp-login.php HTTP/1.0" 200 8073 "-" "Opera/9.80 (Windows NT 6.0) Presto/2.12.388 Version/12.14"
31.170.123.73 - - [05/Nov/2018:23:16:40 +0000] "POST /wp-cron.php?doing_wp_cron=1541459800.4661269187927246093750 HTTP/1.0" 200 - "-" "WordPress/4.3.17; http://www.ikbensterdam.com"
119.59.104.36 - - [05/Nov/2018:23:16:39 +0000] "GET /shell.php HTTP/1.0" 301 - "http://site.ru" "Mozilla/5.0 (Windows; U; Windows NT 5.1; en-US) AppleWebKit/533.4 (KHTML, like Gecko) Chrome/5.0.375.99 Safari/533.4"
95.169.186.126 - - [05/Nov/2018:23:47:01 +0000] "GET /wp-admin/install.php?step=1 HTTP/1.0" 200 1288 "-" "Opera/9.80 (Windows NT 6.0) Presto/2.12.388 Version/12.14"
31.170.123.73 - - [05/Nov/2018:23:47:02 +0000] "POST /wp-cron.php?doing_wp_cron=1541461621.5014998912811279296875 HTTP/1.0" 200 - "-" "WordPress/4.3.17; http://www.ikbensterdam.com"
95.169.186.126 - - [05/Nov/2018:23:47:02 +0000] "GET /blog/wp-admin/install.php?step=1 HTTP/1.0" 301 - "-" "Opera/9.80 (Windows NT 6.0) Presto/2.12.388 Version/12.14"
95.169.186.126 - - [05/Nov/2018:23:47:03 +0000] "GET /wp-admin/setup-config.php?step=1 HTTP/1.0" 500 3175 "-" "Opera/9.80 (Windows NT 6.0) Presto/2.12.388 Version/12.14"
95.169.186.126 - - [05/Nov/2018:23:47:04 +0000] "GET /blog/wp-admin/setup-config.php?step=1 HTTP/1.0" 301 - "-" "Opera/9.80 (Windows NT 6.0) Presto/2.12.388 Version/12.14"
80.241.223.226 - - [05/Nov/2018:23:50:16 +0000] "GET /wp-admin/includes/images.php HTTP/1.0" 301 - "http://site.ru" "Mozilla/5.0 (Windows; U; Windows NT 5.1; en-US) AppleWebKit/533.4 (KHTML, like Gecko) Chrome/5.0.375.99 Safari/533.4"
80.241.223.226 - - [05/Nov/2018:23:50:18 +0000] "GET /wp-admin/includes/images.php HTTP/1.0" 301 - "http://site.ru" "Mozilla/5.0 (Windows; U; Windows NT 5.1; en-US) AppleWebKit/533.4 (KHTML, like Gecko) Chrome/5.0.375.99 Safari/533.4"
80.241.223.226 - - [05/Nov/2018:23:50:18 +0000] "GET /wp-admin/includes/images.php HTTP/1.0" 404 35245 "http://site.ru" "Mozilla/5.0 (Windows; U; Windows NT 5.1; en-US) AppleWebKit/533.4 (KHTML, like Gecko) Chrome/5.0.375.99 Safari/533.4"
80.241.223.226 - - [05/Nov/2018:23:50:20 +0000] "GET /wp-admin/includes/images.php HTTP/1.0" 404 35245 "http://site.ru" "Mozilla/5.0 (Windows; U; Windows NT 5.1; en-US) AppleWebKit/533.4 (KHTML, like Gecko) Chrome/5.0.375.99 Safari/533.4"
31.170.123.73 - - [05/Nov/2018:23:53:04 +0000] "POST /wp-cron.php?doing_wp_cron=1541461984.3717119693756103515625 HTTP/1.0" 200 - "-" "WordPress/4.3.17; http://www.ikbensterdam.com"
97.74.228.245 - - [05/Nov/2018:23:53:03 +0000] "POST /xmlrpc.php HTTP/1.0" 200 403 "-" "Mozilla/5.0 (Macintosh; U; Intel Mac OS X 10.6; fr; rv:1.9.2.8) Gecko/20100722 Firefox/3.6.8"
31.170.123.73 - - [06/Nov/2018:00:27:20 +0000] "POST /wp-cron.php?doing_wp_cron=1541464040.4421460628509521484375 HTTP/1.0" 200 - "-" "WordPress/4.3.17; http://www.ikbensterdam.com"
93.39.196.67 - - [06/Nov/2018:00:27:19 +0000] "GET /wp-blog-posts.php HTTP/1.0" 301 - "http://site.ru" "Mozilla/5.0 (Windows; U; Windows NT 5.1; en-US) AppleWebKit/533.4 (KHTML, like Gecko) Chrome/5.0.375.99 Safari/533.4"
104.222.33.238 - - [06/Nov/2018:00:27:33 +0000] "GET /wp-blog-posts.php HTTP/1.0" 301 - "-" "Mozilla/5.0 (Windows NT 6.1; WOW64; rv:27.0) Gecko/20100101 Firefox/27.0"
23.239.180.56 - - [06/Nov/2018:00:27:33 +0000] "GET / HTTP/1.0" 301 - "-" "Mozilla/5.0 (Windows NT 6.1; WOW64; rv:27.0) Gecko/20100101 Firefox/27.0"
104.222.33.238 - - [06/Nov/2018:00:27:34 +0000] "GET /wp-blog-posts.php HTTP/1.0" 404 35193 "-" "Mozilla/5.0 (Windows NT 6.1; WOW64; rv:27.0) Gecko/20100101 Firefox/27.0"
23.239.180.56 - - [06/Nov/2018:00:27:34 +0000] "GET / HTTP/1.0" 200 48668 "-" "Mozilla/5.0 (Windows NT 6.1; WOW64; rv:27.0) Gecko/20100101 Firefox/27.0"
104.222.43.223 - - [06/Nov/2018:00:27:36 +0000] "GET /wp-content/uploads/2016/01/favicon.ico HTTP/1.0" 200 4286 "-" "Mozilla/5.0 (Windows NT 6.1; WOW64; rv:27.0) Gecko/20100101 Firefox/27.0"
31.170.123.73 - - [06/Nov/2018:02:01:25 +0000] "POST /wp-cron.php?doing_wp_cron=1541469685.7071149349212646484375 HTTP/1.0" 200 - "-" "WordPress/4.3.17; http://www.ikbensterdam.com"
97.74.228.245 - - [06/Nov/2018:02:01:24 +0000] "POST /xmlrpc.php HTTP/1.0" 200 403 "-" "Mozilla/5.0 (Macintosh; U; Intel Mac OS X 10.6; fr; rv:1.9.2.8) Gecko/20100722 Firefox/3.6.8"
193.201.224.210 - - [06/Nov/2018:02:05:09 +0000] "GET /?gf_page=upload HTTP/1.0" 301 - "http://ikbensterdam.com/?gf_page=upload" "Mozilla/5.0 (Windows NT 6.1; WOW64) AppleWebKit/537.36 (KHTML, like Gecko) Chrome/42.0.2311.152 Safari/537.36"
193.201.224.210 - - [06/Nov/2018:02:05:11 +0000] "GET /?gf_page=upload HTTP/1.0" 200 48728 "http://ikbensterdam.com/?gf_page=upload" "Mozilla/5.0 (Windows NT 6.1; WOW64) AppleWebKit/537.36 (KHTML, like Gecko) Chrome/42.0.2311.152 Safari/537.36"
193.201.224.210 - - [06/Nov/2018:02:08:32 +0000] "GET /wp-content/plugins/simple-forum/resources/jscript/ajaxupload/sf-uploader.php HTTP/1.0" 301 - "http://ikbensterdam.com/wp-content/plugins/simple-forum/resources/jscript/ajaxupload/sf-uploader.php" "Mozilla/5.0 (Windows NT 6.1; WOW64) AppleWebKit/537.36 (KHTML, like Gecko) Chrome/42.0.2311.152 Safari/537.36"
193.201.224.210 - - [06/Nov/2018:02:08:33 +0000] "GET /wp-content/plugins/simple-forum/resources/jscript/ajaxupload/sf-uploader.php HTTP/1.0" 404 35453 "http://ikbensterdam.com/wp-content/plugins/simple-forum/resources/jscript/ajaxupload/sf-uploader.php" "Mozilla/5.0 (Windows NT 6.1; WOW64) AppleWebKit/537.36 (KHTML, like Gecko) Chrome/42.0.2311.152 Safari/537.36"
180.76.15.153 - - [06/Nov/2018:02:35:16 +0000] "GET /wp-content/plugins/revslider/rs-plugin/js/jquery.themepunch.revolution.min.js HTTP/1.0" 200 110031 "-" "Mozilla/5.0 (compatible; Baiduspider/2.0; +http://www.baidu.com/search/spider.html)"
31.170.123.73 - - [06/Nov/2018:02:54:41 +0000] "POST /wp-cron.php?doing_wp_cron=1541472881.7018339633941650390625 HTTP/1.0" 200 - "-" "WordPress/4.3.17; http://www.ikbensterdam.com"
185.85.190.132 - - [06/Nov/2018:02:54:41 +0000] "GET /wp-login.php HTTP/1.0" 200 7079 "-" "Mozilla/5.0 (Windows NT 10.0; WOW64) AppleWebKit/537.36 (KHTML, like Gecko) Chrome/51.0.2704.103 Safari/537.36"
185.85.190.132 - - [06/Nov/2018:02:54:42 +0000] "POST /wp-login.php HTTP/1.0" 200 8022 "http://www.ikbensterdam.com/wp-login.php" "Mozilla/5.0 (Windows NT 10.0; WOW64) AppleWebKit/537.36 (KHTML, like Gecko) Chrome/51.0.2704.103 Safari/537.36"
