180.76.15.149 - - [02/Nov/2018:08:31:49 +0000] "GET / HTTP/1.1" 200 894 "-" "Mozilla/5.0 (compatible; Baiduspider/2.0; +http://www.baidu.com/search/spider.html)"
52.53.201.78 - - [02/Nov/2018:09:14:48 +0000] "GET / HTTP/1.1" 200 894 "-" "Mozilla/5.0 (Macintosh; Intel Mac OS X 10_12_6) AppleWebKit/537.36 (KHTML, like Gecko) Chrome/61.0.3163.100 Safari/537.36"
209.17.96.242 - - [02/Nov/2018:09:31:52 +0000] "GET / HTTP/1.1" 200 1779 "-" "Mozilla/5.0 (compatible; Nimbostratus-Bot/v1.3.2; http://cloudsystemnetworks.com)"
52.173.241.248 - - [02/Nov/2018:12:14:40 +0000] "GET / HTTP/1.1" 200 894 "-" "Mozilla/5.0 (Windows NT 6.1; WOW64; Trident/7.0; rv:11.0) like Gecko"
52.165.166.139 - - [02/Nov/2018:12:18:36 +0000] "GET / HTTP/1.1" 200 894 "-" "Mozilla/5.0 (X11; Ubuntu; Linux x86_64; rv:59.0) Gecko/20100101 Firefox/59.0"
52.165.166.139 - - [02/Nov/2018:13:54:26 +0000] "GET / HTTP/1.1" 200 894 "-" "Mozilla/5.0 (Macintosh; Intel Mac OS X 10_13_3) AppleWebKit/537.36 (KHTML, like Gecko) Chrome/65.0.3325.181 Safari/537.36"
52.165.166.139 - - [02/Nov/2018:14:00:46 +0000] "GET / HTTP/1.1" 200 894 "-" "Mozilla/5.0 (Windows NT 10.0; Win64; x64) AppleWebKit/537.36 (KHTML, like Gecko) Chrome/64.0.3282.186 Safari/537.36"
80.90.55.169 - - [03/Nov/2018:00:55:31 +0000] "HEAD / HTTP/1.1" 200 0 "-" "Mozilla/5.0 (compatible; Uptimebot/1.0; +http://www.uptime.com/uptimebot)"
