18.191.165.74 - - [01/Nov/2018:03:16:05 +0000] "GET / HTTP/1.1" 200 3826 "-" "Mozilla/5.0 (Macintosh; Intel Mac OS X x.y; rv:42.0) Gecko/20100101 Firefox/42.0"
54.36.150.67 - - [01/Nov/2018:03:18:42 +0000] "GET /robots.txt HTTP/1.1" 404 204 "-" "Mozilla/5.0 (compatible; AhrefsBot/5.2; +http://ahrefs.com/robot/)"
180.76.15.29 - - [01/Nov/2018:03:37:07 +0000] "GET /?content/25236.html HTTP/1.1" 200 3826 "-" "Mozilla/5.0 (compatible; Baiduspider/2.0; +http://www.baidu.com/search/spider.html)"
18.221.174.210 - - [01/Nov/2018:03:46:04 +0000] "GET / HTTP/1.1" 200 3826 "-" "Mozilla/5.0 (X11; Linux x86_64) Gecko/20100101 Chrome/67.0.3396.79 Safari/537.36"
180.76.15.30 - - [01/Nov/2018:04:10:27 +0000] "GET /?content/25669.html HTTP/1.1" 200 3826 "-" "Mozilla/5.0 (compatible; Baiduspider/2.0; +http://www.baidu.com/search/spider.html)"
18.222.207.230 - - [01/Nov/2018:04:16:21 +0000] "GET / HTTP/1.1" 200 3826 "-" "Mozilla/5.0 (X11; Linux x86_64) Trident/5.0 Safari/602.1"
180.76.15.160 - - [01/Nov/2018:04:43:47 +0000] "GET /?content/25133.html HTTP/1.1" 200 3826 "-" "Mozilla/5.0 (compatible; Baiduspider/2.0; +http://www.baidu.com/search/spider.html)"
18.222.207.230 - - [01/Nov/2018:04:46:54 +0000] "GET / HTTP/1.1" 200 3826 "-" "Mozilla/5.0 (Windows NT 6.1; Win64; x64; rv:47.0) Trident/5.0 Safari/602.1"
37.187.129.166 - - [01/Nov/2018:04:51:43 +0000] "GET / HTTP/1.1" 200 3826 "-" "Mozilla/5.0 (Macintosh; Intel Mac OS X 10_12_5) AppleWebKit/603.2.4 (KHTML, like Gecko) Version/10.1.1 Safari/603.2.4"
54.36.189.105 - - [01/Nov/2018:04:51:44 +0000] "GET /?email-subscribe=christine_eng86%40yahoo.com& HTTP/1.1" 200 3826 "http://looklala.com/" "Mozilla/5.0 (Macintosh; Intel Mac OS X 10_12_5) AppleWebKit/603.2.4 (KHTML, like Gecko) Version/10.1.1 Safari/603.2.4"
42.236.99.58 - - [01/Nov/2018:05:08:56 +0000] "GET / HTTP/1.1" 200 3826 "http://looklala.com/" "Mozilla/5.0 (Windows NT 6.1; WOW64) AppleWebKit/537.36 (KHTML, like Gecko) Chrome/50.0.2661.102 Safari/537.36; 360Spider"
42.236.55.41 - - [01/Nov/2018:05:09:13 +0000] "GET / HTTP/1.1" 200 3826 "http://www.looklala.com/" "Mozilla/5.0 (Windows NT 6.1; WOW64) AppleWebKit/537.36 (KHTML, like Gecko) Chrome/50.0.2661.102 Safari/537.36; 360Spider"
18.217.34.193 - - [01/Nov/2018:05:17:02 +0000] "GET / HTTP/1.1" 200 3826 "-" "Mozilla/5.0 (Windows NT 6.1; Win64; x64; rv:47.0) Gecko/20100101 Chrome/67.0.3396.79 Safari/537.36"
185.56.80.242 - - [01/Nov/2018:05:30:18 +0000] "GET / HTTP/1.1" 200 3826 "-" "Mozilla/5.0 (Windows NT 6.2; WOW64; rv:50.0) Gecko/20100101 Firefox/50.0"
185.56.80.242 - - [01/Nov/2018:05:30:19 +0000] "GET /?email-subscribe=qw%40qiwi.com& HTTP/1.1" 200 3826 "http://looklala.com/" "Mozilla/5.0 (Windows NT 6.2; WOW64; rv:50.0) Gecko/20100101 Firefox/50.0"
52.15.34.116 - - [01/Nov/2018:05:46:31 +0000] "GET / HTTP/1.1" 200 3826 "-" "Mozilla/5.0 (X11; Linux x86_64) Trident/5.0 Safari/602.1"
18.216.19.83 - - [01/Nov/2018:06:16:00 +0000] "GET / HTTP/1.1" 200 3826 "-" "Mozilla/5.0 (X11; Linux x86_64) AppleWebKit/537.36 (KHTML, like Gecko) Chrome/67.0.3396.79 Safari/537.36"
93.75.45.115 - - [01/Nov/2018:06:22:28 +0000] "GET /wp-login.php HTTP/1.1" 404 210 "-" "Mozilla/5.0 (Windows NT 6.1; WOW64; rv:40.0) Gecko/20100101 Firefox/40.1"
93.75.45.115 - - [01/Nov/2018:06:22:28 +0000] "GET / HTTP/1.1" 200 11888 "-" "Mozilla/5.0 (Windows NT 6.1; WOW64; rv:40.0) Gecko/20100101 Firefox/40.1"
18.224.96.63 - - [01/Nov/2018:06:45:09 +0000] "GET / HTTP/1.1" 200 3826 "-" "Mozilla/5.0 (Windows NT 6.1; Win64; x64; rv:47.0) Trident/5.0 Firefox/42.0"
94.230.208.148 - - [01/Nov/2018:07:03:43 +0000] "GET / HTTP/1.1" 200 3826 "-" "Mozilla/5.0 (Windows NT 10.0; Win64; x64) AppleWebKit/537.36 (KHTML, like Gecko) Chrome/58.0.3029.110 Safari/537.36"
94.230.208.148 - - [01/Nov/2018:07:03:43 +0000] "GET /?email-subscribe=freedom825%40aol.com& HTTP/1.1" 200 3826 "http://looklala.com/" "Mozilla/5.0 (Windows NT 10.0; Win64; x64) AppleWebKit/537.36 (KHTML, like Gecko) Chrome/58.0.3029.110 Safari/537.36"
51.254.209.128 - - [01/Nov/2018:07:07:58 +0000] "GET / HTTP/1.1" 200 3826 "-" "Mozilla/5.0 (Windows NT 6.3; WOW64; rv:41.0) Gecko/20100101 Firefox/41.0"
51.254.209.128 - - [01/Nov/2018:07:07:59 +0000] "GET /?email-subscribe=ewasteusa%40gmail.com& HTTP/1.1" 200 3826 "http://looklala.com/" "Mozilla/5.0 (Windows NT 6.3; WOW64; rv:41.0) Gecko/20100101 Firefox/41.0"
18.188.206.157 - - [01/Nov/2018:07:15:13 +0000] "GET / HTTP/1.1" 200 3826 "-" "Mozilla/5.0 (Windows NT 6.1; Win64; x64; rv:47.0) Trident/5.0 Chrome/67.0.3396.79 Safari/537.36"
185.220.101.0 - - [01/Nov/2018:07:37:50 +0000] "GET / HTTP/1.1" 200 3826 "-" "Mozilla/5.0 (Windows NT 6.2; Win64; x64) AppleWebKit/537.36 (KHTML, like Gecko) Chrome/60.0.3112.90 Safari/537.36"
197.231.221.211 - - [01/Nov/2018:07:37:52 +0000] "GET /?email-subscribe=capi5%40aol.com& HTTP/1.1" 200 3826 "http://looklala.com/" "Mozilla/5.0 (Windows NT 6.2; Win64; x64) AppleWebKit/537.36 (KHTML, like Gecko) Chrome/60.0.3112.90 Safari/537.36"
3.16.42.80 - - [01/Nov/2018:07:46:11 +0000] "GET / HTTP/1.1" 200 3826 "-" "Mozilla/5.0 (Macintosh; Intel Mac OS X x.y; rv:42.0) Gecko/20100101 Firefox/42.0"
87.118.115.176 - - [01/Nov/2018:08:12:59 +0000] "GET / HTTP/1.1" 200 3826 "-" "Mozilla/5.0 (Windows NT 10.0; Win64; x64) AppleWebKit/537.36 (KHTML, like Gecko) Chrome/58.0.3029.110 Safari/537.36 Edge/16.16299"
87.118.115.176 - - [01/Nov/2018:08:12:59 +0000] "GET /?email-subscribe=jeremyleetamayo%40yahoo.com& HTTP/1.1" 200 3826 "http://looklala.com/" "Mozilla/5.0 (Windows NT 10.0; Win64; x64) AppleWebKit/537.36 (KHTML, like Gecko) Chrome/58.0.3029.110 Safari/537.36 Edge/16.16299"
185.56.80.242 - - [01/Nov/2018:08:13:14 +0000] "GET / HTTP/1.1" 200 3826 "-" "Mozilla/5.0 (Windows NT 6.1; WOW64; rv:54.0) Gecko/20100101 Firefox/54.0"
185.56.80.242 - - [01/Nov/2018:08:13:14 +0000] "GET /?email-subscribe=christine_eng86%40yahoo.com& HTTP/1.1" 200 3826 "http://looklala.com/" "Mozilla/5.0 (Windows NT 6.1; WOW64; rv:54.0) Gecko/20100101 Firefox/54.0"
18.224.135.194 - - [01/Nov/2018:08:15:57 +0000] "GET / HTTP/1.1" 200 3826 "-" "Mozilla/5.0 (Windows NT 6.1; Win64; x64; rv:47.0) Trident/5.0 Firefox/42.0"
185.220.102.8 - - [01/Nov/2018:08:27:56 +0000] "GET / HTTP/1.1" 200 3826 "-" "Mozilla/5.0 (Windows NT 6.0; Win64; x64) AppleWebKit/537.36 (KHTML, like Gecko) Chrome/55.0.2883.87 Safari/537.36"
185.220.102.8 - - [01/Nov/2018:08:27:57 +0000] "GET /?email-subscribe=jeremyleetamayo%40yahoo.com& HTTP/1.1" 200 3826 "http://looklala.com/" "Mozilla/5.0 (Windows NT 6.0; Win64; x64) AppleWebKit/537.36 (KHTML, like Gecko) Chrome/55.0.2883.87 Safari/537.36"
13.58.214.240 - - [01/Nov/2018:08:46:16 +0000] "GET / HTTP/1.1" 200 3826 "-" "Mozilla/5.0 (X11; Linux x86_64) Trident/5.0 Chrome/51.0.2704.106 Safari/537.36 OPR/38.0.2220.41"
185.220.102.4 - - [01/Nov/2018:08:50:01 +0000] "GET / HTTP/1.1" 200 3826 "-" "Mozilla/5.0 (Macintosh; Intel Mac OS X 10_11_6) AppleWebKit/601.7.7 (KHTML, like Gecko) Version/9.1.2 Safari/601.7.7"
185.220.102.4 - - [01/Nov/2018:08:50:01 +0000] "GET /?email-subscribe=christine_eng86%40yahoo.com& HTTP/1.1" 200 3826 "http://looklala.com/" "Mozilla/5.0 (Macintosh; Intel Mac OS X 10_11_6) AppleWebKit/601.7.7 (KHTML, like Gecko) Version/9.1.2 Safari/601.7.7"
185.220.101.12 - - [01/Nov/2018:08:56:10 +0000] "GET / HTTP/1.1" 200 3826 "-" "Mozilla/5.0 (Windows NT 6.2; Win64; x64) AppleWebKit/537.36 (KHTML, like Gecko) Chrome/52.0.2743.116 Safari/537.36 Edge/15.15063"
185.220.101.12 - - [01/Nov/2018:08:56:10 +0000] "GET /?email-subscribe=jeremyleetamayo%40yahoo.com& HTTP/1.1" 200 3826 "http://looklala.com/" "Mozilla/5.0 (Windows NT 6.2; Win64; x64) AppleWebKit/537.36 (KHTML, like Gecko) Chrome/52.0.2743.116 Safari/537.36 Edge/15.15063"
176.10.99.200 - - [01/Nov/2018:09:02:13 +0000] "GET / HTTP/1.1" 200 3826 "-" "Mozilla/5.0 (Windows NT 6.3; WOW64; Trident/7.0; rv:11.0) like Gecko"
176.10.99.200 - - [01/Nov/2018:09:02:13 +0000] "GET /?email-subscribe=christine_eng86%40yahoo.com& HTTP/1.1" 200 3826 "http://looklala.com/" "Mozilla/5.0 (Windows NT 6.3; WOW64; Trident/7.0; rv:11.0) like Gecko"
18.222.254.149 - - [01/Nov/2018:09:16:32 +0000] "GET / HTTP/1.1" 200 3826 "-" "Mozilla/5.0 (X11; Linux x86_64) AppleWebKit/537.36 (KHTML, like Gecko) Safari/602.1"
18.223.132.225 - - [01/Nov/2018:09:45:49 +0000] "GET / HTTP/1.1" 200 3826 "-" "Mozilla/5.0 (X11; Linux x86_64) Trident/5.0 Safari/602.1"
65.19.167.131 - - [01/Nov/2018:09:46:36 +0000] "GET / HTTP/1.1" 200 3826 "-" "Mozilla/5.0 (Windows NT 10.0; Win64; x64) AppleWebKit/537.36 (KHTML, like Gecko) Chrome/64.0.3282.140 Safari/537.36 Edge/17.17134"
65.19.167.131 - - [01/Nov/2018:09:46:38 +0000] "GET /?email-subscribe=srw520%40yahoo.com& HTTP/1.1" 200 3826 "http://looklala.com/" "Mozilla/5.0 (Windows NT 10.0; Win64; x64) AppleWebKit/537.36 (KHTML, like Gecko) Chrome/64.0.3282.140 Safari/537.36 Edge/17.17134"
51.15.65.25 - - [01/Nov/2018:09:58:51 +0000] "GET / HTTP/1.1" 200 3826 "-" "Mozilla/5.0 (Windows NT 5.1; Win64; x64) AppleWebKit/537.36 (KHTML, like Gecko) Chrome/55.0.2883.87 Safari/537.36"
51.15.65.25 - - [01/Nov/2018:09:58:52 +0000] "GET /?email-subscribe=michaelsproject%40yahoo.com& HTTP/1.1" 200 3826 "http://looklala.com/" "Mozilla/5.0 (Windows NT 5.1; Win64; x64) AppleWebKit/537.36 (KHTML, like Gecko) Chrome/55.0.2883.87 Safari/537.36"
197.231.221.211 - - [01/Nov/2018:10:01:38 +0000] "GET / HTTP/1.1" 200 3826 "-" "Mozilla/5.0 (Windows NT 10.0; WOW64; rv:48.0) Gecko/20100101 Firefox/48.0"
197.231.221.211 - - [01/Nov/2018:10:01:38 +0000] "GET /?email-subscribe=pfmahoney%40gmail.com& HTTP/1.1" 200 3826 "http://looklala.com/" "Mozilla/5.0 (Windows NT 10.0; WOW64; rv:48.0) Gecko/20100101 Firefox/48.0"
176.31.208.193 - - [01/Nov/2018:10:03:21 +0000] "GET / HTTP/1.1" 200 3826 "-" "Mozilla/5.0 (Windows NT 6.2; Win64; x64) AppleWebKit/537.36 (KHTML, like Gecko) Chrome/46.0.2486.0 Safari/537.36 Edge/13.10586"
176.31.208.193 - - [01/Nov/2018:10:03:21 +0000] "GET /?email-subscribe=bknapp9%40yahoo.com& HTTP/1.1" 200 3826 "http://looklala.com/" "Mozilla/5.0 (Windows NT 6.2; Win64; x64) AppleWebKit/537.36 (KHTML, like Gecko) Chrome/46.0.2486.0 Safari/537.36 Edge/13.10586"
18.224.135.194 - - [01/Nov/2018:10:16:05 +0000] "GET / HTTP/1.1" 200 3826 "-" "Mozilla/5.0 (Windows NT 6.1; Win64; x64; rv:47.0) AppleWebKit/537.36 (KHTML, like Gecko) Chrome/51.0.2704.106 Safari/537.36 OPR/38.0.2220.41"
173.211.81.8 - - [01/Nov/2018:10:25:19 +0000] "GET / HTTP/1.1" 200 3826 "-" "Mozilla/5.0 (Macintosh; Intel Mac OS X 10_12_5) AppleWebKit/537.36 (KHTML, like Gecko) Chrome/58.0.3029.110 Safari/537.36"
83.134.79.125 - - [01/Nov/2018:10:25:50 +0000] "GET /wp-login.php HTTP/1.1" 404 210 "-" "Mozilla/5.0 (Windows NT 6.1; WOW64; rv:40.0) Gecko/20100101 Firefox/40.1"
83.134.79.125 - - [01/Nov/2018:10:25:50 +0000] "GET / HTTP/1.1" 200 11888 "-" "Mozilla/5.0 (Windows NT 6.1; WOW64; rv:40.0) Gecko/20100101 Firefox/40.1"
104.244.76.13 - - [01/Nov/2018:10:30:09 +0000] "GET / HTTP/1.1" 200 3826 "-" "Mozilla/5.0 (Windows NT 6.1; WOW64) AppleWebKit/537.21 (KHTML, like Gecko) Mwendo/1.1.5 Safari/537.21"
104.244.76.13 - - [01/Nov/2018:10:30:10 +0000] "GET /?email-subscribe=info%40veggimoebel.de& HTTP/1.1" 200 3826 "http://looklala.com/" "Mozilla/5.0 (Windows NT 6.1; WOW64) AppleWebKit/537.21 (KHTML, like Gecko) Mwendo/1.1.5 Safari/537.21"
213.180.203.23 - - [01/Nov/2018:10:45:12 +0000] "GET /robots.txt HTTP/1.1" 404 208 "-" "Mozilla/5.0 (compatible; YandexBot/3.0; +http://yandex.com/bots)"
141.8.132.4 - - [01/Nov/2018:10:45:16 +0000] "GET /img/favicons/apple-touch-icon-114x114.png HTTP/1.1" 200 3734 "-" "Mozilla/5.0 (compatible; YandexBot/3.0; +http://yandex.com/bots)"
18.222.207.230 - - [01/Nov/2018:10:47:10 +0000] "GET / HTTP/1.1" 200 3826 "-" "Mozilla/5.0 (X11; Linux x86_64) AppleWebKit/537.36 (KHTML, like Gecko) Safari/602.1"
185.220.101.5 - - [01/Nov/2018:10:48:41 +0000] "GET / HTTP/1.1" 200 3826 "-" "Mozilla/5.0 (Windows NT 6.1; Win64; x64) AppleWebKit/537.36 (KHTML, like Gecko) Chrome/52.0.2743.116 Safari/537.36 Edge/15.15063"
185.220.101.5 - - [01/Nov/2018:10:48:42 +0000] "GET /?email-subscribe=fyopp%40helmagro.com& HTTP/1.1" 200 3826 "http://looklala.com/" "Mozilla/5.0 (Windows NT 6.1; Win64; x64) AppleWebKit/537.36 (KHTML, like Gecko) Chrome/52.0.2743.116 Safari/537.36 Edge/15.15063"
180.76.15.11 - - [01/Nov/2018:10:49:36 +0000] "GET /?content/25237.html HTTP/1.1" 200 3826 "-" "Mozilla/5.0 (compatible; Baiduspider/2.0; +http://www.baidu.com/search/spider.html)"
185.220.101.3 - - [01/Nov/2018:10:51:20 +0000] "GET / HTTP/1.1" 200 3826 "-" "Mozilla/5.0 (Windows NT 6.2; WOW64; Trident/7.0; rv:11.0) like Gecko"
185.220.101.3 - - [01/Nov/2018:10:51:21 +0000] "GET /?email-subscribe=diannisprt%40yahoo.com& HTTP/1.1" 200 3826 "http://looklala.com/" "Mozilla/5.0 (Windows NT 6.2; WOW64; Trident/7.0; rv:11.0) like Gecko"
62.210.116.201 - - [01/Nov/2018:11:09:37 +0000] "GET / HTTP/1.1" 200 3826 "-" "Mozilla/5.0 (Windows NT 6.3; Win64; x64) AppleWebKit/537.36 (KHTML, like Gecko) Chrome/55.0.2883.87 Safari/537.36"
62.210.116.201 - - [01/Nov/2018:11:09:37 +0000] "GET /?email-subscribe=l1a1s1t1%40yahoo.com& HTTP/1.1" 200 3826 "http://looklala.com/" "Mozilla/5.0 (Windows NT 6.3; Win64; x64) AppleWebKit/537.36 (KHTML, like Gecko) Chrome/55.0.2883.87 Safari/537.36"
52.15.34.116 - - [01/Nov/2018:11:14:16 +0000] "GET / HTTP/1.1" 200 3826 "-" "Mozilla/5.0 (Macintosh; Intel Mac OS X x.y; rv:42.0) Trident/5.0 Chrome/67.0.3396.79 Safari/537.36"
180.76.15.153 - - [01/Nov/2018:11:22:56 +0000] "GET /?content/24500.html HTTP/1.1" 200 3826 "-" "Mozilla/5.0 (compatible; Baiduspider/2.0; +http://www.baidu.com/search/spider.html)"
18.191.84.64 - - [01/Nov/2018:11:43:17 +0000] "GET / HTTP/1.1" 200 3826 "-" "Mozilla/5.0 (Macintosh; Intel Mac OS X x.y; rv:42.0) Gecko/20100101 Safari/602.1"
91.236.116.101 - - [01/Nov/2018:11:52:36 +0000] "GET / HTTP/1.1" 200 3826 "-" "Mozilla/5.0 (Windows NT 10.0; Win64; x64) AppleWebKit/537.36 (KHTML, like Gecko) Chrome/46.0.2486.0 Safari/537.36 Edge/13.10586"
91.236.116.101 - - [01/Nov/2018:11:52:37 +0000] "GET /?email-subscribe=rymjohnsen%40aol.com& HTTP/1.1" 200 3826 "http://looklala.com/" "Mozilla/5.0 (Windows NT 10.0; Win64; x64) AppleWebKit/537.36 (KHTML, like Gecko) Chrome/46.0.2486.0 Safari/537.36 Edge/13.10586"
180.76.15.145 - - [01/Nov/2018:11:56:16 +0000] "GET /?content/1559.html HTTP/1.1" 200 3826 "-" "Mozilla/5.0 (compatible; Baiduspider/2.0; +http://www.baidu.com/search/spider.html)"
193.90.12.117 - - [01/Nov/2018:11:58:08 +0000] "GET / HTTP/1.1" 200 3826 "-" "Mozilla/5.0 (Windows NT 10.0; WOW64; rv:50.0) Gecko/20100101 Firefox/50.0"
193.90.12.117 - - [01/Nov/2018:11:58:09 +0000] "GET /?email-subscribe=karlaaustin76%40yahoo.com& HTTP/1.1" 200 3826 "http://looklala.com/" "Mozilla/5.0 (Windows NT 10.0; WOW64; rv:50.0) Gecko/20100101 Firefox/50.0"
18.188.69.31 - - [01/Nov/2018:12:16:58 +0000] "GET / HTTP/1.1" 200 3826 "-" "Mozilla/5.0 (Windows NT 6.1; Win64; x64; rv:47.0) Trident/5.0 Chrome/67.0.3396.79 Safari/537.36"
185.220.101.8 - - [01/Nov/2018:12:24:19 +0000] "GET / HTTP/1.1" 200 3826 "-" "Mozilla/5.0 (Windows NT 6.0; Win64; x64) AppleWebKit/537.36 (KHTML, like Gecko) Chrome/51.0.2704.79 Safari/537.36 Edge/14.14393"
185.220.101.8 - - [01/Nov/2018:12:24:20 +0000] "GET /?email-subscribe=rochellemcmanus%40gmail.com& HTTP/1.1" 200 3826 "http://looklala.com/" "Mozilla/5.0 (Windows NT 6.0; Win64; x64) AppleWebKit/537.36 (KHTML, like Gecko) Chrome/51.0.2704.79 Safari/537.36 Edge/14.14393"
78.109.23.2 - - [01/Nov/2018:12:37:58 +0000] "GET / HTTP/1.1" 200 3826 "-" "Mozilla/5.0 (compatible; MSIE 10.0; Windows NT 6.1; Trident/6.0)"
78.109.23.2 - - [01/Nov/2018:12:37:59 +0000] "GET /?email-subscribe=jennyan73%40gmail.com& HTTP/1.1" 200 3826 "http://looklala.com/" "Mozilla/5.0 (compatible; MSIE 10.0; Windows NT 6.1; Trident/6.0)"
18.188.177.91 - - [01/Nov/2018:12:45:45 +0000] "GET / HTTP/1.1" 200 3826 "-" "Mozilla/5.0 (X11; Linux x86_64) AppleWebKit/537.36 (KHTML, like Gecko) Firefox/42.0"
193.201.225.45 - - [01/Nov/2018:13:13:24 +0000] "GET / HTTP/1.1" 200 3826 "-" "Mozilla/5.0 (Windows NT 10.0; WOW64) AppleWebKit/537.36 (KHTML, like Gecko) Chrome/52.0.2743.116 Safari/537.36"
162.247.74.201 - - [01/Nov/2018:13:13:26 +0000] "GET /?email-subscribe=jessica.iorio%40gmail.com& HTTP/1.1" 200 3826 "http://looklala.com/" "Mozilla/5.0 (Windows NT 10.0; WOW64) AppleWebKit/537.36 (KHTML, like Gecko) Chrome/52.0.2743.116 Safari/537.36"
18.223.156.199 - - [01/Nov/2018:13:15:12 +0000] "GET / HTTP/1.1" 200 3826 "-" "Mozilla/5.0 (X11; Linux x86_64) Trident/5.0 Chrome/51.0.2704.106 Safari/537.36 OPR/38.0.2220.41"
81.17.27.132 - - [01/Nov/2018:13:26:36 +0000] "GET / HTTP/1.1" 200 3826 "-" "Mozilla/5.0 (Windows NT 10.0; Win64; x64; rv:57.0) Gecko/20100101 Firefox/57.0"
81.17.27.132 - - [01/Nov/2018:13:26:37 +0000] "GET /?email-subscribe=keri.grover%40yahoo.com& HTTP/1.1" 200 3826 "http://looklala.com/" "Mozilla/5.0 (Windows NT 10.0; Win64; x64; rv:57.0) Gecko/20100101 Firefox/57.0"
199.249.223.47 - - [01/Nov/2018:13:35:34 +0000] "GET / HTTP/1.1" 200 3826 "-" "Mozilla/5.0 (Windows NT 10.0; Win64; x64) AppleWebKit/537.36 (KHTML, like Gecko) Chrome/63.0.3239.132 Safari/537.36"
199.249.223.47 - - [01/Nov/2018:13:35:36 +0000] "GET /?email-subscribe=jess%40maibor.com& HTTP/1.1" 200 3826 "http://looklala.com/" "Mozilla/5.0 (Windows NT 10.0; Win64; x64) AppleWebKit/537.36 (KHTML, like Gecko) Chrome/63.0.3239.132 Safari/537.36"
18.216.244.161 - - [01/Nov/2018:13:46:18 +0000] "GET / HTTP/1.1" 200 3826 "-" "Mozilla/5.0 (X11; Linux x86_64) Trident/5.0 Firefox/42.0"
137.74.169.241 - - [01/Nov/2018:14:08:26 +0000] "GET / HTTP/1.1" 200 3826 "-" "Mozilla/4.0 (compatible; MSIE 8.0; Windows NT 6.1; Trident/4.0)"
137.74.169.241 - - [01/Nov/2018:14:08:27 +0000] "GET /?email-subscribe=blisssax%40gmail.com& HTTP/1.1" 200 3826 "http://looklala.com/" "Mozilla/4.0 (compatible; MSIE 8.0; Windows NT 6.1; Trident/4.0)"
213.49.34.173 - - [01/Nov/2018:14:12:41 +0000] "GET /wp-login.php HTTP/1.1" 404 210 "-" "Mozilla/5.0 (Windows NT 6.1; WOW64; rv:40.0) Gecko/20100101 Firefox/40.1"
213.49.34.173 - - [01/Nov/2018:14:12:41 +0000] "GET / HTTP/1.1" 200 11888 "-" "Mozilla/5.0 (Windows NT 6.1; WOW64; rv:40.0) Gecko/20100101 Firefox/40.1"
37.187.94.86 - - [01/Nov/2018:14:16:22 +0000] "GET / HTTP/1.1" 200 3826 "-" "Mozilla/5.0 (Windows NT 6.1; WOW64; rv:54.0) Gecko/20100101 Firefox/54.0"
37.187.94.86 - - [01/Nov/2018:14:16:23 +0000] "GET /?email-subscribe=shartut%40yahoo.com& HTTP/1.1" 200 3826 "http://looklala.com/" "Mozilla/5.0 (Windows NT 6.1; WOW64; rv:54.0) Gecko/20100101 Firefox/54.0"
18.224.135.194 - - [01/Nov/2018:14:17:07 +0000] "GET / HTTP/1.1" 200 3826 "-" "Mozilla/5.0 (Windows NT 6.1; Win64; x64; rv:47.0) AppleWebKit/537.36 (KHTML, like Gecko) Chrome/51.0.2704.106 Safari/537.36 OPR/38.0.2220.41"
85.114.142.205 - - [01/Nov/2018:14:29:55 +0000] "GET / HTTP/1.1" 200 3826 "-" "Mozilla/5.0 (Windows NT 10.0; Win64; x64) AppleWebKit/537.36 (KHTML, like Gecko) Chrome/51.0.2704.79 Safari/537.36 Edge/14.14393"
85.114.142.205 - - [01/Nov/2018:14:29:56 +0000] "GET /?email-subscribe=jjcaputo%40pacbell.net& HTTP/1.1" 200 3826 "http://looklala.com/" "Mozilla/5.0 (Windows NT 10.0; Win64; x64) AppleWebKit/537.36 (KHTML, like Gecko) Chrome/51.0.2704.79 Safari/537.36 Edge/14.14393"
109.70.100.18 - - [01/Nov/2018:14:33:52 +0000] "GET / HTTP/1.1" 200 3826 "-" "Mozilla/5.0 (Windows NT 6.1; WOW64; rv:44.0) Gecko/20100101 Firefox/44.0"
109.70.100.18 - - [01/Nov/2018:14:33:52 +0000] "GET /?email-subscribe=smileitsniki%40yahoo.com& HTTP/1.1" 200 3826 "http://looklala.com/" "Mozilla/5.0 (Windows NT 6.1; WOW64; rv:44.0) Gecko/20100101 Firefox/44.0"
18.221.68.148 - - [01/Nov/2018:14:45:44 +0000] "GET / HTTP/1.1" 200 3826 "-" "Mozilla/5.0 (Windows NT 6.1; Win64; x64; rv:47.0) AppleWebKit/537.36 (KHTML, like Gecko) Safari/602.1"
51.15.88.249 - - [01/Nov/2018:14:46:54 +0000] "GET / HTTP/1.1" 200 3826 "-" "Mozilla/5.0 (Windows NT 6.1) AppleWebKit/537.36 (KHTML, like Gecko) Chrome/41.0.2272.104 Safari/537.36"
89.234.157.254 - - [01/Nov/2018:14:46:55 +0000] "GET /?email-subscribe=shartut%40yahoo.com& HTTP/1.1" 200 3826 "http://looklala.com/" "Mozilla/5.0 (Windows NT 6.1) AppleWebKit/537.36 (KHTML, like Gecko) Chrome/41.0.2272.104 Safari/537.36"
51.15.80.14 - - [01/Nov/2018:14:48:38 +0000] "GET / HTTP/1.1" 200 3826 "-" "Mozilla/5.0 (Windows NT 6.1; WOW64) AppleWebKit/537.36 (KHTML, like Gecko) Chrome/51.0.2704.106 Safari/537.36"
51.15.80.14 - - [01/Nov/2018:14:48:39 +0000] "GET /?email-subscribe=christine_eng86%40yahoo.com& HTTP/1.1" 200 3826 "http://looklala.com/" "Mozilla/5.0 (Windows NT 6.1; WOW64) AppleWebKit/537.36 (KHTML, like Gecko) Chrome/51.0.2704.106 Safari/537.36"
5.196.87.173 - - [01/Nov/2018:14:49:19 +0000] "GET /robots.txt HTTP/1.1" 404 204 "-" "Mozilla/5.0 (compatible; AhrefsBot/5.2; +http://ahrefs.com/robot/)"
51.15.124.1 - - [01/Nov/2018:14:49:24 +0000] "GET / HTTP/1.1" 200 3826 "-" "Mozilla/5.0 (Windows NT 10.0; Win64; x64) AppleWebKit/537.36 (KHTML, like Gecko) Chrome/51.0.2704.79 Safari/537.36 Edge/14.14393"
51.15.124.1 - - [01/Nov/2018:14:49:25 +0000] "GET /?email-subscribe=dick.russell%40gmail.com& HTTP/1.1" 200 3826 "http://looklala.com/" "Mozilla/5.0 (Windows NT 10.0; Win64; x64) AppleWebKit/537.36 (KHTML, like Gecko) Chrome/51.0.2704.79 Safari/537.36 Edge/14.14393"
18.223.247.156 - - [01/Nov/2018:15:13:15 +0000] "GET / HTTP/1.1" 200 3826 "-" "Mozilla/5.0 (Macintosh; Intel Mac OS X x.y; rv:42.0) Trident/5.0 Safari/602.1"
35.0.127.52 - - [01/Nov/2018:15:15:02 +0000] "GET / HTTP/1.1" 200 3826 "-" "Mozilla/5.0 (Windows NT 10.0; Win64; x64) AppleWebKit/537.36 (KHTML, like Gecko) Chrome/58.0.3029.110 Safari/537.36"
35.0.127.52 - - [01/Nov/2018:15:15:03 +0000] "GET /?email-subscribe=how657%40yahoo.com& HTTP/1.1" 200 3826 "http://looklala.com/" "Mozilla/5.0 (Windows NT 10.0; Win64; x64) AppleWebKit/537.36 (KHTML, like Gecko) Chrome/58.0.3029.110 Safari/537.36"
46.166.139.35 - - [01/Nov/2018:15:29:13 +0000] "GET / HTTP/1.1" 200 3826 "-" "Mozilla/5.0 (Windows NT 6.1; Win64; x64) AppleWebKit/537.36 (KHTML, like Gecko) Chrome/60.0.3112.90 Safari/537.36"
46.166.139.35 - - [01/Nov/2018:15:29:14 +0000] "GET /?email-subscribe=bernardblack615%40yahoo.com& HTTP/1.1" 200 3826 "http://looklala.com/" "Mozilla/5.0 (Windows NT 6.1; Win64; x64) AppleWebKit/537.36 (KHTML, like Gecko) Chrome/60.0.3112.90 Safari/537.36"
193.107.85.56 - - [01/Nov/2018:15:41:09 +0000] "GET / HTTP/1.1" 200 3826 "-" "Mozilla/5.0 (Windows NT 6.3; Win64; x64) AppleWebKit/537.36 (KHTML, like Gecko) Chrome/51.0.2704.79 Safari/537.36 Edge/14.14393"
193.107.85.56 - - [01/Nov/2018:15:41:10 +0000] "GET /?email-subscribe=davut_mercan%40t-online.de& HTTP/1.1" 200 3826 "http://looklala.com/" "Mozilla/5.0 (Windows NT 6.3; Win64; x64) AppleWebKit/537.36 (KHTML, like Gecko) Chrome/51.0.2704.79 Safari/537.36 Edge/14.14393"
18.223.180.147 - - [01/Nov/2018:15:42:12 +0000] "GET / HTTP/1.1" 200 3826 "-" "Mozilla/5.0 (Windows NT 6.1; Win64; x64; rv:47.0) Gecko/20100101 Chrome/67.0.3396.79 Safari/537.36"
198.98.58.135 - - [01/Nov/2018:15:43:13 +0000] "GET / HTTP/1.1" 200 3826 "-" "Mozilla/5.0 (Windows NT 10.0; Win64; x64) AppleWebKit/537.36 (KHTML, like Gecko) Chrome/46.0.2486.0 Safari/537.36 Edge/13.10586"
198.98.58.135 - - [01/Nov/2018:15:43:13 +0000] "GET /?email-subscribe=tomlinsonn8084%40my.uwstout.edu& HTTP/1.1" 200 3826 "http://looklala.com/" "Mozilla/5.0 (Windows NT 10.0; Win64; x64) AppleWebKit/537.36 (KHTML, like Gecko) Chrome/46.0.2486.0 Safari/537.36 Edge/13.10586"
62.210.110.181 - - [01/Nov/2018:15:46:53 +0000] "GET / HTTP/1.1" 200 3826 "-" "Mozilla/5.0 (Windows NT 6.1; WOW64; rv:44.0) Gecko/20100101 Firefox/44.0"
185.220.102.6 - - [01/Nov/2018:16:03:37 +0000] "GET / HTTP/1.1" 200 3826 "-" "Mozilla/5.0 (Windows NT 6.1; WOW64; rv:41.0) Gecko/20100101 Firefox/41.0"
185.220.102.6 - - [01/Nov/2018:16:03:38 +0000] "GET /?email-subscribe=thomas.bandy17%40gmail.com& HTTP/1.1" 200 3826 "http://looklala.com/" "Mozilla/5.0 (Windows NT 6.1; WOW64; rv:41.0) Gecko/20100101 Firefox/41.0"
18.217.34.193 - - [01/Nov/2018:16:15:41 +0000] "GET / HTTP/1.1" 200 3826 "-" "Mozilla/5.0 (Windows NT 6.1; Win64; x64; rv:47.0) Trident/5.0 Chrome/67.0.3396.79 Safari/537.36"
51.15.205.214 - - [01/Nov/2018:16:29:28 +0000] "GET / HTTP/1.1" 200 3826 "-" "Mozilla/5.0 (Windows NT 5.1; WOW64; rv:52.0) Gecko/20100101 Firefox/52.0"
51.15.205.214 - - [01/Nov/2018:16:29:29 +0000] "GET /?email-subscribe=michellesharp70403%40gmail.com& HTTP/1.1" 200 3826 "http://looklala.com/" "Mozilla/5.0 (Windows NT 5.1; WOW64; rv:52.0) Gecko/20100101 Firefox/52.0"
95.108.213.49 - - [01/Nov/2018:16:46:48 +0000] "GET /robots.txt HTTP/1.1" 404 208 "-" "Mozilla/5.0 (compatible; YandexBot/3.0; +http://yandex.com/bots)"
95.108.181.113 - - [01/Nov/2018:16:46:52 +0000] "GET /favicon.ico HTTP/1.1" 404 206 "-" "Mozilla/5.0 (compatible; YandexBot/3.0; +http://yandex.com/bots)"
18.191.154.160 - - [01/Nov/2018:16:46:58 +0000] "GET / HTTP/1.1" 200 3826 "-" "Mozilla/5.0 (Windows NT 6.1; Win64; x64; rv:47.0) Gecko/20100101 Safari/602.1"
18.222.69.217 - - [01/Nov/2018:17:18:07 +0000] "GET / HTTP/1.1" 200 3826 "-" "Mozilla/5.0 (Macintosh; Intel Mac OS X x.y; rv:42.0) Trident/5.0 Firefox/42.0"
195.254.134.194 - - [01/Nov/2018:17:30:19 +0000] "GET / HTTP/1.1" 200 3826 "-" "Mozilla/5.0 (Windows NT 6.2; WOW64; rv:52.0) Gecko/20100101 Firefox/52.0"
195.254.134.194 - - [01/Nov/2018:17:30:19 +0000] "GET /?email-subscribe=unocbia%40aol.com& HTTP/1.1" 200 3826 "http://looklala.com/" "Mozilla/5.0 (Windows NT 6.2; WOW64; rv:52.0) Gecko/20100101 Firefox/52.0"
18.216.19.83 - - [01/Nov/2018:17:48:56 +0000] "GET / HTTP/1.1" 200 3826 "-" "Mozilla/5.0 (X11; Linux x86_64) AppleWebKit/537.36 (KHTML, like Gecko) Safari/602.1"
89.234.157.254 - - [01/Nov/2018:17:50:09 +0000] "GET / HTTP/1.1" 200 3826 "-" "Mozilla/5.0 (Windows NT 6.0; WOW64; rv:52.0) Gecko/20100101 Firefox/52.0"
89.234.157.254 - - [01/Nov/2018:17:50:10 +0000] "GET /?email-subscribe=randylrudd%40gmail.com& HTTP/1.1" 200 3826 "http://looklala.com/" "Mozilla/5.0 (Windows NT 6.0; WOW64; rv:52.0) Gecko/20100101 Firefox/52.0"
185.220.100.252 - - [01/Nov/2018:18:16:54 +0000] "GET / HTTP/1.1" 200 3826 "-" "Mozilla/5.0 (Windows NT 10.0; Win64; x64) AppleWebKit/537.36 (KHTML, like Gecko) Chrome/66.0.3359.181 Safari/537.36"
185.220.100.252 - - [01/Nov/2018:18:16:54 +0000] "GET /?email-subscribe=shakemyhandy%40gmail.com& HTTP/1.1" 200 3826 "http://looklala.com/" "Mozilla/5.0 (Windows NT 10.0; Win64; x64) AppleWebKit/537.36 (KHTML, like Gecko) Chrome/66.0.3359.181 Safari/537.36"
51.15.88.249 - - [01/Nov/2018:18:17:10 +0000] "GET / HTTP/1.1" 200 3826 "-" "Mozilla/5.0 (Windows NT 6.1; Win64; x64) AppleWebKit/537.36 (KHTML, like Gecko) Chrome/62.0.3202.89 Safari/537.36"
51.15.88.249 - - [01/Nov/2018:18:17:11 +0000] "GET /?email-subscribe=psboutin%40att.net& HTTP/1.1" 200 3826 "http://looklala.com/" "Mozilla/5.0 (Windows NT 6.1; Win64; x64) AppleWebKit/537.36 (KHTML, like Gecko) Chrome/62.0.3202.89 Safari/537.36"
18.188.113.117 - - [01/Nov/2018:18:18:01 +0000] "GET / HTTP/1.1" 200 3826 "-" "Mozilla/5.0 (Macintosh; Intel Mac OS X x.y; rv:42.0) Gecko/20100101 Chrome/67.0.3396.79 Safari/537.36"
185.220.101.46 - - [01/Nov/2018:18:36:21 +0000] "GET / HTTP/1.1" 200 3826 "-" "Mozilla/5.0 (Windows NT 5.1; Win64; x64) AppleWebKit/537.36 (KHTML, like Gecko) Chrome/46.0.2486.0 Safari/537.36 Edge/13.10586"
185.220.101.46 - - [01/Nov/2018:18:36:21 +0000] "GET /?email-subscribe=sabaek1%40yahoo.com& HTTP/1.1" 200 3826 "http://looklala.com/" "Mozilla/5.0 (Windows NT 5.1; Win64; x64) AppleWebKit/537.36 (KHTML, like Gecko) Chrome/46.0.2486.0 Safari/537.36 Edge/13.10586"
18.188.177.91 - - [01/Nov/2018:18:48:36 +0000] "GET / HTTP/1.1" 200 3826 "-" "Mozilla/5.0 (Windows NT 6.1; Win64; x64; rv:47.0) Gecko/20100101 Firefox/42.0"
65.19.167.130 - - [01/Nov/2018:19:12:03 +0000] "GET / HTTP/1.1" 200 3826 "-" "Mozilla/5.0 (Windows NT 6.0; WOW64; rv:52.0) Gecko/20100101 Firefox/52.0"
65.19.167.130 - - [01/Nov/2018:19:12:04 +0000] "GET /?email-subscribe=harryd%40blueskyfarms.com& HTTP/1.1" 200 3826 "http://looklala.com/" "Mozilla/5.0 (Windows NT 6.0; WOW64; rv:52.0) Gecko/20100101 Firefox/52.0"
46.183.221.155 - - [01/Nov/2018:19:16:56 +0000] "GET / HTTP/1.1" 200 3826 "-" "Mozilla/5.0 (Windows NT 5.1; Win64; x64) AppleWebKit/537.36 (KHTML, like Gecko) Chrome/60.0.3112.90 Safari/537.36"
46.183.221.155 - - [01/Nov/2018:19:16:57 +0000] "GET /?email-subscribe=sabaek1%40yahoo.com& HTTP/1.1" 200 3826 "http://looklala.com/" "Mozilla/5.0 (Windows NT 5.1; Win64; x64) AppleWebKit/537.36 (KHTML, like Gecko) Chrome/60.0.3112.90 Safari/537.36"
13.58.214.240 - - [01/Nov/2018:19:17:59 +0000] "GET / HTTP/1.1" 200 3826 "-" "Mozilla/5.0 (Macintosh; Intel Mac OS X x.y; rv:42.0) AppleWebKit/537.36 (KHTML, like Gecko) Safari/602.1"
185.129.62.62 - - [01/Nov/2018:19:23:19 +0000] "GET / HTTP/1.1" 200 3826 "-" "Mozilla/5.0 (Macintosh; Intel Mac OS X 10_12_3) AppleWebKit/602.4.8 (KHTML, like Gecko) Version/10.0.3 Safari/602.4.8"
185.129.62.62 - - [01/Nov/2018:19:23:19 +0000] "GET /?email-subscribe=thomas.stork%40yahoo.com& HTTP/1.1" 200 3826 "http://looklala.com/" "Mozilla/5.0 (Macintosh; Intel Mac OS X 10_12_3) AppleWebKit/602.4.8 (KHTML, like Gecko) Version/10.0.3 Safari/602.4.8"
141.255.162.34 - - [01/Nov/2018:19:33:18 +0000] "GET / HTTP/1.1" 200 3826 "-" "Mozilla/5.0 (Windows NT 6.3; Win64; x64) AppleWebKit/537.36 (KHTML, like Gecko) Chrome/55.0.2883.87 Safari/537.36"
141.255.162.34 - - [01/Nov/2018:19:33:19 +0000] "GET /?email-subscribe=vanessagovin%40yahoo.com& HTTP/1.1" 200 3826 "http://looklala.com/" "Mozilla/5.0 (Windows NT 6.3; Win64; x64) AppleWebKit/537.36 (KHTML, like Gecko) Chrome/55.0.2883.87 Safari/537.36"
18.191.230.117 - - [01/Nov/2018:19:49:23 +0000] "GET / HTTP/1.1" 200 3826 "-" "Mozilla/5.0 (X11; Linux x86_64) Gecko/20100101 Safari/602.1"
192.42.116.14 - - [01/Nov/2018:20:12:58 +0000] "GET / HTTP/1.1" 200 3826 "-" "Mozilla/5.0 (Windows NT 6.3; Win64; x64) AppleWebKit/537.36 (KHTML, like Gecko) Chrome/42.0.2311.135 Safari/537.36 Edge/12.10240"
192.42.116.14 - - [01/Nov/2018:20:12:59 +0000] "GET /?email-subscribe=cstaubi11%40gmail.com& HTTP/1.1" 200 3826 "http://looklala.com/" "Mozilla/5.0 (Windows NT 6.3; Win64; x64) AppleWebKit/537.36 (KHTML, like Gecko) Chrome/42.0.2311.135 Safari/537.36 Edge/12.10240"
192.160.102.164 - - [01/Nov/2018:20:14:49 +0000] "GET / HTTP/1.1" 200 3826 "-" "Mozilla/5.0 (compatible; MSIE 10.0; Windows NT 6.1; WOW64; Trident/6.0)"
192.160.102.164 - - [01/Nov/2018:20:14:51 +0000] "GET /?email-subscribe=grxcafe%40aol.com& HTTP/1.1" 200 3826 "http://looklala.com/" "Mozilla/5.0 (compatible; MSIE 10.0; Windows NT 6.1; WOW64; Trident/6.0)"
85.248.227.163 - - [01/Nov/2018:20:15:41 +0000] "GET / HTTP/1.1" 200 3826 "-" "Mozilla/5.0 (X11; Linux x86_64; rv:45.0) Gecko/20100101 Thunderbird/45.3.0"
85.248.227.163 - - [01/Nov/2018:20:15:41 +0000] "GET /?email-subscribe=melbeachendo%40gmail.com& HTTP/1.1" 200 3826 "http://looklala.com/" "Mozilla/5.0 (X11; Linux x86_64; rv:45.0) Gecko/20100101 Thunderbird/45.3.0"
18.222.199.103 - - [01/Nov/2018:20:17:40 +0000] "GET / HTTP/1.1" 200 3826 "-" "Mozilla/5.0 (X11; Linux x86_64) AppleWebKit/537.36 (KHTML, like Gecko) Safari/602.1"
18.216.244.161 - - [01/Nov/2018:20:49:36 +0000] "GET / HTTP/1.1" 200 3826 "-" "Mozilla/5.0 (Windows NT 6.1; Win64; x64; rv:47.0) AppleWebKit/537.36 (KHTML, like Gecko) Chrome/51.0.2704.106 Safari/537.36 OPR/38.0.2220.41"
185.24.218.172 - - [01/Nov/2018:21:07:43 +0000] "GET / HTTP/1.1" 200 3826 "-" "Mozilla/5.0 (Windows NT 10.0; WOW64; rv:54.0) Gecko/20100101 Firefox/54.0"
185.24.218.172 - - [01/Nov/2018:21:07:43 +0000] "GET /?email-subscribe=cstaubi11%40gmail.com& HTTP/1.1" 200 3826 "http://looklala.com/" "Mozilla/5.0 (Windows NT 10.0; WOW64; rv:54.0) Gecko/20100101 Firefox/54.0"
18.222.199.103 - - [01/Nov/2018:21:18:07 +0000] "GET / HTTP/1.1" 200 3826 "-" "Mozilla/5.0 (X11; Linux x86_64) Trident/5.0 Safari/602.1"
185.220.101.45 - - [01/Nov/2018:21:22:52 +0000] "GET / HTTP/1.1" 200 3826 "-" "Mozilla/5.0 (compatible; MSIE 9.0; Windows NT 6.0; Trident/5.0)"
185.220.101.45 - - [01/Nov/2018:21:22:53 +0000] "GET /?email-subscribe=lvchapman%40yahoo.com& HTTP/1.1" 200 3826 "http://looklala.com/" "Mozilla/5.0 (compatible; MSIE 9.0; Windows NT 6.0; Trident/5.0)"
18.188.208.82 - - [01/Nov/2018:21:48:03 +0000] "GET / HTTP/1.1" 200 3826 "-" "Mozilla/5.0 (Windows NT 6.1; Win64; x64; rv:47.0) AppleWebKit/537.36 (KHTML, like Gecko) Safari/602.1"
185.56.80.242 - - [01/Nov/2018:21:53:56 +0000] "GET / HTTP/1.1" 200 3826 "-" "Mozilla/5.0 (Windows NT 6.1; WOW64) AppleWebKit/537.36 (KHTML, like Gecko) Chrome/56.0.2924.87 Safari/537.36 OPR/43.0.2442.991"
185.56.80.242 - - [01/Nov/2018:21:54:07 +0000] "GET /?email-subscribe=anthony.guevara.89%40gmail.com& HTTP/1.1" 200 3826 "http://looklala.com/" "Mozilla/5.0 (Windows NT 6.1; WOW64) AppleWebKit/537.36 (KHTML, like Gecko) Chrome/56.0.2924.87 Safari/537.36 OPR/43.0.2442.991"
171.25.193.77 - - [01/Nov/2018:22:14:23 +0000] "GET / HTTP/1.1" 200 3826 "-" "Mozilla/5.0 (Windows NT 6.3; WOW64; rv:54.0) Gecko/20100101 Firefox/54.0"
171.25.193.77 - - [01/Nov/2018:22:14:24 +0000] "GET /?email-subscribe=rdavis110%40yahoo.com& HTTP/1.1" 200 3826 "http://looklala.com/" "Mozilla/5.0 (Windows NT 6.3; WOW64; rv:54.0) Gecko/20100101 Firefox/54.0"
18.223.115.234 - - [01/Nov/2018:22:16:26 +0000] "GET / HTTP/1.1" 200 3826 "-" "Mozilla/5.0 (Macintosh; Intel Mac OS X x.y; rv:42.0) Gecko/20100101 Safari/602.1"
197.231.221.211 - - [01/Nov/2018:22:31:44 +0000] "GET / HTTP/1.1" 200 3826 "-" "Mozilla/5.0 (Windows NT 6.3; Win64; x64) AppleWebKit/537.36 (KHTML, like Gecko) Chrome/46.0.2486.0 Safari/537.36 Edge/13.10586"
197.231.221.211 - - [01/Nov/2018:22:31:45 +0000] "GET /?email-subscribe=lete.luis%40gmail.com& HTTP/1.1" 200 3826 "http://looklala.com/" "Mozilla/5.0 (Windows NT 6.3; Win64; x64) AppleWebKit/537.36 (KHTML, like Gecko) Chrome/46.0.2486.0 Safari/537.36 Edge/13.10586"
37.187.129.166 - - [01/Nov/2018:22:34:29 +0000] "GET / HTTP/1.1" 200 3826 "-" "Mozilla/5.0 (Windows NT 6.3; WOW64; rv:50.0) Gecko/20100101 Firefox/50.0"
37.187.129.166 - - [01/Nov/2018:22:34:33 +0000] "GET /?email-subscribe=segurajr75%40yahoo.com& HTTP/1.1" 200 3826 "http://looklala.com/" "Mozilla/5.0 (Windows NT 6.3; WOW64; rv:50.0) Gecko/20100101 Firefox/50.0"
185.220.101.13 - - [01/Nov/2018:22:39:36 +0000] "GET / HTTP/1.1" 200 3826 "-" "Mozilla/5.0 (X11; Linux x86_64) AppleWebKit/537.36 (KHTML, like Gecko) Chrome/44.0.2403.157 Safari/537.36"
185.220.101.13 - - [01/Nov/2018:22:39:37 +0000] "GET /?email-subscribe=rmans41%40comcast.net& HTTP/1.1" 200 3826 "http://looklala.com/" "Mozilla/5.0 (X11; Linux x86_64) AppleWebKit/537.36 (KHTML, like Gecko) Chrome/44.0.2403.157 Safari/537.36"
18.223.180.147 - - [01/Nov/2018:22:49:53 +0000] "GET / HTTP/1.1" 200 3826 "-" "Mozilla/5.0 (X11; Linux x86_64) Trident/5.0 Firefox/42.0"
54.36.150.67 - - [01/Nov/2018:22:49:58 +0000] "GET /robots.txt HTTP/1.1" 404 204 "-" "Mozilla/5.0 (compatible; AhrefsBot/5.2; +http://ahrefs.com/robot/)"
185.165.168.168 - - [01/Nov/2018:22:50:21 +0000] "GET / HTTP/1.1" 200 3826 "-" "Mozilla/5.0 (Windows NT 6.0; Win64; x64) AppleWebKit/537.36 (KHTML, like Gecko) Chrome/57.0.2987.133 Safari/537.36"
185.165.168.168 - - [01/Nov/2018:22:50:22 +0000] "GET /?email-subscribe=ihyeokh%40gmail.com& HTTP/1.1" 200 3826 "http://looklala.com/" "Mozilla/5.0 (Windows NT 6.0; Win64; x64) AppleWebKit/537.36 (KHTML, like Gecko) Chrome/57.0.2987.133 Safari/537.36"
176.10.104.240 - - [01/Nov/2018:22:58:08 +0000] "GET / HTTP/1.1" 200 3826 "-" "Mozilla/5.0 (Windows NT 10.0; Win64; x64) AppleWebKit/537.36 (KHTML, like Gecko) Chrome/42.0.2311.135 Safari/537.36 Edge/12.10240"
51.15.65.25 - - [01/Nov/2018:22:58:09 +0000] "GET /?email-subscribe=lete.luis%40gmail.com& HTTP/1.1" 200 3826 "http://looklala.com/" "Mozilla/5.0 (Windows NT 10.0; Win64; x64) AppleWebKit/537.36 (KHTML, like Gecko) Chrome/42.0.2311.135 Safari/537.36 Edge/12.10240"
185.220.100.252 - - [01/Nov/2018:23:17:02 +0000] "GET / HTTP/1.1" 200 3826 "-" "Mozilla/5.0 (Windows NT 6.1; WOW64) AppleWebKit/537.36 (KHTML, like Gecko) Chrome/55.0.2883.87 Safari/537.36 OPR/42.0.2393.94"
185.220.100.252 - - [01/Nov/2018:23:17:03 +0000] "GET /?email-subscribe=cstaubi11%40gmail.com& HTTP/1.1" 200 3826 "http://looklala.com/" "Mozilla/5.0 (Windows NT 6.1; WOW64) AppleWebKit/537.36 (KHTML, like Gecko) Chrome/55.0.2883.87 Safari/537.36 OPR/42.0.2393.94"
18.222.199.103 - - [01/Nov/2018:23:17:52 +0000] "GET / HTTP/1.1" 200 3826 "-" "Mozilla/5.0 (X11; Linux x86_64) AppleWebKit/537.36 (KHTML, like Gecko) Firefox/42.0"
185.56.80.242 - - [01/Nov/2018:23:30:18 +0000] "GET / HTTP/1.1" 200 3826 "-" "Mozilla/5.0 (Windows NT 6.1; Win64; x64; Trident/7.0; rv:11.0) like Gecko"
185.56.80.242 - - [01/Nov/2018:23:30:19 +0000] "GET /?email-subscribe=rwaloff%40aol.com& HTTP/1.1" 200 3826 "http://looklala.com/" "Mozilla/5.0 (Windows NT 6.1; Win64; x64; Trident/7.0; rv:11.0) like Gecko"
195.176.3.20 - - [01/Nov/2018:23:37:02 +0000] "GET / HTTP/1.1" 200 3826 "-" "Mozilla/5.0 (Windows NT 6.1; WOW64; rv:56.0) Gecko/20100101 Firefox/56.0"
195.176.3.20 - - [01/Nov/2018:23:37:03 +0000] "GET /?email-subscribe=ihyeokh%40gmail.com& HTTP/1.1" 200 3826 "http://looklala.com/" "Mozilla/5.0 (Windows NT 6.1; WOW64; rv:56.0) Gecko/20100101 Firefox/56.0"
3.16.42.80 - - [01/Nov/2018:23:47:04 +0000] "GET / HTTP/1.1" 200 3826 "-" "Mozilla/5.0 (X11; Linux x86_64) Gecko/20100101 Chrome/51.0.2704.106 Safari/537.36 OPR/38.0.2220.41"
167.99.212.214 - - [01/Nov/2018:23:54:43 +0000] "GET / HTTP/1.1" 200 3826 "-" "Mozilla/4.0 (compatible; MSIE 7.0; Windows NT 6.1; WOW64; Trident/6.0;)"
185.100.87.206 - - [01/Nov/2018:23:54:50 +0000] "GET / HTTP/1.1" 200 3826 "-" "Mozilla/5.0 (Windows NT 10.0; Win64; x64) AppleWebKit/537.36 (KHTML, like Gecko) Chrome/64.0.3282.140 Safari/537.36 Edge/17.17134"
185.100.87.206 - - [01/Nov/2018:23:54:51 +0000] "GET /?email-subscribe=wardyjt%40gmail.com& HTTP/1.1" 200 3826 "http://looklala.com/" "Mozilla/5.0 (Windows NT 10.0; Win64; x64) AppleWebKit/537.36 (KHTML, like Gecko) Chrome/64.0.3282.140 Safari/537.36 Edge/17.17134"
185.220.101.6 - - [02/Nov/2018:00:02:36 +0000] "GET / HTTP/1.1" 200 3826 "-" "Mozilla/5.0 (Windows NT 5.1; Win64; x64) AppleWebKit/537.36 (KHTML, like Gecko) Chrome/51.0.2704.79 Safari/537.36 Edge/14.14393"
185.220.101.6 - - [02/Nov/2018:00:02:39 +0000] "GET /?email-subscribe=crystal.liles%40gmail.com& HTTP/1.1" 200 3826 "http://looklala.com/" "Mozilla/5.0 (Windows NT 5.1; Win64; x64) AppleWebKit/537.36 (KHTML, like Gecko) Chrome/51.0.2704.79 Safari/537.36 Edge/14.14393"
85.248.227.163 - - [02/Nov/2018:00:08:31 +0000] "GET / HTTP/1.1" 200 3826 "-" "Mozilla/5.0 (Macintosh; Intel Mac OS X 10_10_5) AppleWebKit/603.3.8 (KHTML, like Gecko) Version/10.1.2 Safari/603.3.8"
85.248.227.163 - - [02/Nov/2018:00:08:32 +0000] "GET /?email-subscribe=paultmln%40aol.com& HTTP/1.1" 200 3826 "http://looklala.com/" "Mozilla/5.0 (Macintosh; Intel Mac OS X 10_10_5) AppleWebKit/603.3.8 (KHTML, like Gecko) Version/10.1.2 Safari/603.3.8"
179.43.134.156 - - [02/Nov/2018:00:11:28 +0000] "GET / HTTP/1.1" 200 3826 "-" "Mozilla/5.0 (Macintosh; Intel Mac OS X 10_10_5) AppleWebKit/603.3.8 (KHTML, like Gecko) Version/10.1.2 Safari/603.3.8"
179.43.134.156 - - [02/Nov/2018:00:11:29 +0000] "GET /?email-subscribe=paultmln%40aol.com& HTTP/1.1" 200 3826 "http://looklala.com/" "Mozilla/5.0 (Macintosh; Intel Mac OS X 10_10_5) AppleWebKit/603.3.8 (KHTML, like Gecko) Version/10.1.2 Safari/603.3.8"
18.223.195.193 - - [02/Nov/2018:00:19:24 +0000] "GET / HTTP/1.1" 200 3826 "-" "Mozilla/5.0 (Macintosh; Intel Mac OS X x.y; rv:42.0) Gecko/20100101 Firefox/42.0"
18.188.206.157 - - [02/Nov/2018:00:48:03 +0000] "GET / HTTP/1.1" 200 3826 "-" "Mozilla/5.0 (Macintosh; Intel Mac OS X x.y; rv:42.0) AppleWebKit/537.36 (KHTML, like Gecko) Chrome/51.0.2704.106 Safari/537.36 OPR/38.0.2220.41"
185.56.80.242 - - [02/Nov/2018:01:14:44 +0000] "GET / HTTP/1.1" 200 3826 "-" "Mozilla/5.0 (Windows NT 6.2; Win64; x64) AppleWebKit/537.36 (KHTML, like Gecko) Chrome/57.0.2987.133 Safari/537.36"
185.56.80.242 - - [02/Nov/2018:01:14:45 +0000] "GET /?email-subscribe=dn_kite%40yahoo.com& HTTP/1.1" 200 3826 "http://looklala.com/" "Mozilla/5.0 (Windows NT 6.2; Win64; x64) AppleWebKit/537.36 (KHTML, like Gecko) Chrome/57.0.2987.133 Safari/537.36"
18.220.209.234 - - [02/Nov/2018:01:17:14 +0000] "GET / HTTP/1.1" 200 3826 "-" "Mozilla/5.0 (Macintosh; Intel Mac OS X x.y; rv:42.0) Trident/5.0 Chrome/67.0.3396.79 Safari/537.36"
185.220.101.13 - - [02/Nov/2018:01:41:19 +0000] "GET / HTTP/1.1" 200 3826 "-" "Mozilla/5.0 (Windows NT 6.3; Win64; x64) AppleWebKit/537.36 (KHTML, like Gecko) Chrome/42.0.2311.135 Safari/537.36 Edge/12.10240"
185.220.101.13 - - [02/Nov/2018:01:41:20 +0000] "GET /?email-subscribe=scout17ft%40yahoo.com& HTTP/1.1" 200 3826 "http://looklala.com/" "Mozilla/5.0 (Windows NT 6.3; Win64; x64) AppleWebKit/537.36 (KHTML, like Gecko) Chrome/42.0.2311.135 Safari/537.36 Edge/12.10240"
13.58.214.240 - - [02/Nov/2018:01:47:08 +0000] "GET / HTTP/1.1" 200 3826 "-" "Mozilla/5.0 (Windows NT 6.1; Win64; x64; rv:47.0) Trident/5.0 Safari/602.1"
3.16.42.80 - - [02/Nov/2018:02:16:27 +0000] "GET / HTTP/1.1" 200 3826 "-" "Mozilla/5.0 (X11; Linux x86_64) AppleWebKit/537.36 (KHTML, like Gecko) Chrome/67.0.3396.79 Safari/537.36"
14.215.176.19 - - [02/Nov/2018:02:20:43 +0000] "GET / HTTP/1.1" 200 3826 "http://www.baidu.com/s?wd=minerals68x" "Mozilla/5.0 (Windows NT 6.1; WOW64; rv:43.0) Gecko/20100101 Firefox/43.0"
14.215.176.19 - - [02/Nov/2018:02:20:43 +0000] "GET /css/jpreloader.css HTTP/1.1" 200 838 "http://www.looklala.com/" "Mozilla/5.0 (Windows NT 6.1; WOW64; rv:43.0) Gecko/20100101 Firefox/43.0"
14.215.176.16 - - [02/Nov/2018:02:20:43 +0000] "GET /css/base.css HTTP/1.1" 200 5047 "http://www.looklala.com/" "Mozilla/5.0 (Windows NT 6.1; WOW64; rv:43.0) Gecko/20100101 Firefox/43.0"
14.215.176.13 - - [02/Nov/2018:02:20:43 +0000] "GET /fonts/font-awesome/css/font-awesome.min.css HTTP/1.1" 200 4965 "http://www.looklala.com/" "Mozilla/5.0 (Windows NT 6.1; WOW64; rv:43.0) Gecko/20100101 Firefox/43.0"
14.215.176.19 - - [02/Nov/2018:02:20:43 +0000] "GET /css/jquery.vegas.css HTTP/1.1" 200 432 "http://www.looklala.com/" "Mozilla/5.0 (Windows NT 6.1; WOW64; rv:43.0) Gecko/20100101 Firefox/43.0"
14.215.176.15 - - [02/Nov/2018:02:20:43 +0000] "GET /css/theme/bw.css HTTP/1.1" 200 476 "http://www.looklala.com/" "Mozilla/5.0 (Windows NT 6.1; WOW64; rv:43.0) Gecko/20100101 Firefox/43.0"
14.215.176.17 - - [02/Nov/2018:02:20:43 +0000] "GET /js/jquery.min.js HTTP/1.1" 200 38129 "http://www.looklala.com/" "Mozilla/5.0 (Windows NT 6.1; WOW64; rv:43.0) Gecko/20100101 Firefox/43.0"
14.215.176.14 - - [02/Nov/2018:02:20:43 +0000] "GET /js/jpreloader.min.js HTTP/1.1" 200 1460 "http://www.looklala.com/" "Mozilla/5.0 (Windows NT 6.1; WOW64; rv:43.0) Gecko/20100101 Firefox/43.0"
14.215.176.16 - - [02/Nov/2018:02:20:44 +0000] "GET /js/vegas.js HTTP/1.1" 200 3945 "http://www.looklala.com/" "Mozilla/5.0 (Windows NT 6.1; WOW64; rv:43.0) Gecko/20100101 Firefox/43.0"
14.215.176.13 - - [02/Nov/2018:02:20:44 +0000] "GET /js/jquery.easing.1.3.js HTTP/1.1" 200 2217 "http://www.looklala.com/" "Mozilla/5.0 (Windows NT 6.1; WOW64; rv:43.0) Gecko/20100101 Firefox/43.0"
14.215.176.19 - - [02/Nov/2018:02:20:44 +0000] "GET /js/pagescroller.js HTTP/1.1" 200 1881 "http://www.looklala.com/" "Mozilla/5.0 (Windows NT 6.1; WOW64; rv:43.0) Gecko/20100101 Firefox/43.0"
14.215.176.15 - - [02/Nov/2018:02:20:44 +0000] "GET /js/waypoints.min.js HTTP/1.1" 200 2930 "http://www.looklala.com/" "Mozilla/5.0 (Windows NT 6.1; WOW64; rv:43.0) Gecko/20100101 Firefox/43.0"
14.215.176.14 - - [02/Nov/2018:02:20:44 +0000] "GET /js/validate.min.js HTTP/1.1" 200 7344 "http://www.looklala.com/" "Mozilla/5.0 (Windows NT 6.1; WOW64; rv:43.0) Gecko/20100101 Firefox/43.0"
14.215.176.16 - - [02/Nov/2018:02:20:44 +0000] "GET /js/script.js HTTP/1.1" 200 3200 "http://www.looklala.com/" "Mozilla/5.0 (Windows NT 6.1; WOW64; rv:43.0) Gecko/20100101 Firefox/43.0"
14.215.176.19 - - [02/Nov/2018:02:20:44 +0000] "GET /fonts/font-awesome/font/fontawesome-webfontf77b.html?v=3.2.1 HTTP/1.1" 200 3124 "http://www.looklala.com/" "Mozilla/5.0 (Windows NT 6.1; WOW64; rv:43.0) Gecko/20100101 Firefox/43.0"
14.215.176.19 - - [02/Nov/2018:02:20:45 +0000] "GET /fonts/font-awesome/font/fontawesome-webfontf77b.ttf?v=3.2.1 HTTP/1.1" 200 79076 "http://www.looklala.com/" "Mozilla/5.0 (Windows NT 6.1; WOW64; rv:43.0) Gecko/20100101 Firefox/43.0"
192.160.102.165 - - [02/Nov/2018:02:26:17 +0000] "GET / HTTP/1.1" 200 3826 "-" "Mozilla/5.0 (Windows NT 6.1; Win64; x64) AppleWebKit/537.36 (KHTML, like Gecko) Chrome/51.0.2704.79 Safari/537.36 Edge/14.14393"
185.56.80.242 - - [02/Nov/2018:02:26:18 +0000] "GET / HTTP/1.1" 200 3826 "-" "Mozilla/5.0 (Windows NT 6.1; Win64; x64) AppleWebKit/537.36 (KHTML, like Gecko) Chrome/51.0.2704.79 Safari/537.36 Edge/14.14393"
149.202.238.204 - - [02/Nov/2018:02:33:11 +0000] "GET / HTTP/1.1" 200 3826 "-" "Mozilla/5.0 (Windows NT 6.2; Win64; x64) AppleWebKit/537.36 (KHTML, like Gecko) Chrome/60.0.3112.90 Safari/537.36"
149.202.238.204 - - [02/Nov/2018:02:33:12 +0000] "GET /?email-subscribe=segurajr75%40yahoo.com& HTTP/1.1" 200 3826 "http://looklala.com/" "Mozilla/5.0 (Windows NT 6.2; Win64; x64) AppleWebKit/537.36 (KHTML, like Gecko) Chrome/60.0.3112.90 Safari/537.36"
18.218.79.145 - - [02/Nov/2018:02:47:47 +0000] "GET / HTTP/1.1" 200 3826 "-" "Mozilla/5.0 (X11; Linux x86_64) AppleWebKit/537.36 (KHTML, like Gecko) Safari/602.1"
217.147.169.49 - - [02/Nov/2018:02:54:00 +0000] "GET / HTTP/1.1" 200 3826 "-" "Mozilla/5.0 (Windows NT 6.1; WOW64) AppleWebKit/537.36 (KHTML, like Gecko) Chrome/56.0.2924.87 Safari/537.36"
217.147.169.49 - - [02/Nov/2018:02:54:01 +0000] "GET /?email-subscribe=cheri21029%40aol.com& HTTP/1.1" 200 3826 "http://looklala.com/" "Mozilla/5.0 (Windows NT 6.1; WOW64) AppleWebKit/537.36 (KHTML, like Gecko) Chrome/56.0.2924.87 Safari/537.36"
185.220.102.8 - - [02/Nov/2018:02:54:47 +0000] "GET / HTTP/1.1" 200 3826 "-" "Mozilla/5.0 (Macintosh; Intel Mac OS X 10_12_6) AppleWebKit/603.3.8 (KHTML, like Gecko)"
185.220.102.8 - - [02/Nov/2018:02:54:48 +0000] "GET /?email-subscribe=roksolanah%40yahoo.com& HTTP/1.1" 200 3826 "http://looklala.com/" "Mozilla/5.0 (Macintosh; Intel Mac OS X 10_12_6) AppleWebKit/603.3.8 (KHTML, like Gecko)"
