52.165.166.139 - - [06/Nov/2018:13:18:30 +0000] "GET / HTTP/1.0" 301 - "-" "Mozilla/5.0 (Macintosh; Intel Mac OS X 10_13_3) AppleWebKit/537.36 (KHTML, like Gecko) Chrome/64.0.3282.186 Safari/537.36"
52.53.201.78 - - [06/Nov/2018:14:31:13 +0000] "GET / HTTP/1.0" 301 - "-" "Mozilla/5.0 (Macintosh; Intel Mac OS X 10_12_6) AppleWebKit/537.36 (KHTML, like Gecko) Chrome/61.0.3163.100 Safari/537.36"
188.213.175.168 - - [06/Nov/2018:15:38:04 +0000] "GET /wp-includes/css/css.php HTTP/1.0" 404 50025 "magicbyafrica.com" "Mozilla/5.0 (Windows NT 6.1; WOW64) AppleWebKit/537.36 (KHTML, like Gecko) Chrome/50.0.2661.75 Safari/537.36"
31.170.123.73 - - [06/Nov/2018:15:38:04 +0000] "POST /wp-cron.php?doing_wp_cron=1541518684.4775290489196777343750 HTTP/1.0" 200 - "http://magicbyafrica.com/wp-cron.php?doing_wp_cron=1541518684.4775290489196777343750" "WordPress/4.8.7; http://magicbyafrica.com"
52.165.166.139 - - [07/Nov/2018:02:38:51 +0000] "GET / HTTP/1.0" 301 - "-" "Mozilla/5.0 (Windows NT 6.1; WOW64; Trident/7.0; rv:11.0) like Gecko"
