80.90.55.169 - - [31/Oct/2018:03:13:54 +0000] "GET /robots.txt HTTP/1.1" 404 204 "-" "Mozilla/5.0 (compatible; Uptimebot/1.0; +http://www.uptime.com/uptimebot)"
31.170.123.73 - - [31/Oct/2018:03:22:00 +0000] "POST /wp-cron.php?doing_wp_cron=1540956119.9096040725708007812500 HTTP/1.1" 200 40 "http://xintanalegends.com/wp-cron.php?doing_wp_cron=1540956119.9096040725708007812500" "WordPress/4.9.8; http://xintanalegends.com"
34.210.223.121 - - [31/Oct/2018:03:22:00 +0000] "GET /wp-login.php HTTP/1.1" 200 1466 "https://www.google.com/url?bfc0f2567f4815a61fdeeee7235946bf" "Mozilla/5.0 (Windows NT 6.2; rv:28.0) Gecko/20100101 Firefox/28.0"
34.210.223.121 - - [31/Oct/2018:03:22:01 +0000] "POST /wp-login.php HTTP/1.1" 200 1882 "https://www.google.com/url?bfc0f2567f4815a61fdeeee7235946bf" "Mozilla/5.0 (Windows NT 6.2; rv:28.0) Gecko/20100101 Firefox/28.0"
31.170.123.73 - - [31/Oct/2018:04:40:12 +0000] "POST /wp-cron.php?doing_wp_cron=1540960811.5210049152374267578125 HTTP/1.1" 499 0 "http://xintanalegends.com/wp-cron.php?doing_wp_cron=1540960811.5210049152374267578125" "WordPress/4.9.8; http://xintanalegends.com"
52.40.232.12 - - [31/Oct/2018:04:40:12 +0000] "GET /wp-login.php HTTP/1.1" 200 1615 "https://www.google.com/url?643b51bb24d9057381ea7bbb069c88c5" "Mozilla/5.0 (Windows NT 6.0; rv:31.0) Gecko/20100101 Firefox/31.0"
52.40.232.12 - - [31/Oct/2018:04:40:13 +0000] "POST /wp-login.php HTTP/1.1" 200 1947 "https://www.google.com/url?643b51bb24d9057381ea7bbb069c88c5" "Mozilla/5.0 (Windows NT 6.0; rv:31.0) Gecko/20100101 Firefox/31.0"
83.151.250.67 - - [31/Oct/2018:05:47:09 +0000] "GET /wp-config.php.old HTTP/1.1" 404 210 "http://xintanalegends.com/wp-config.php.old" "Mozilla/4.0 (compatible; MSIE 6.0; Windows NT 5.1; SV1)"
193.201.224.210 - - [31/Oct/2018:05:48:05 +0000] "GET /wp-content/themes/Ghost/includes/uploadify/upload_settings_image.php HTTP/1.1" 404 245 "http://xintanalegends.com/wp-content/themes/Ghost/includes/uploadify/upload_settings_image.php" "Mozilla/5.0 (Windows NT 6.1; WOW64) AppleWebKit/537.36 (KHTML, like Gecko) Chrome/42.0.2311.152 Safari/537.36"
216.145.11.94 - - [31/Oct/2018:05:53:03 +0000] "GET /robots.txt HTTP/1.0" 404 208 "-" "Mozilla/5.0 (Macintosh; Intel Mac OS X 10.10; rv:59.0) Gecko/20100101 Firefox/59.0"
31.170.123.73 - - [31/Oct/2018:05:53:04 +0000] "POST /wp-cron.php?doing_wp_cron=1540965184.3384120464324951171875 HTTP/1.1" 200 40 "http://xintanalegends.com/wp-cron.php?doing_wp_cron=1540965184.3384120464324951171875" "WordPress/4.9.8; http://xintanalegends.com"
216.145.11.94 - - [31/Oct/2018:05:53:04 +0000] "GET / HTTP/1.1" 200 14868 "-" "Mozilla/5.0 (Macintosh; Intel Mac OS X 10.10; rv:59.0) Gecko/20100101 Firefox/59.0"
89.248.169.130 - - [31/Oct/2018:06:46:11 +0000] "POST /xmlrpc.php HTTP/1.1" 200 410 "-" "Mozilla/5.0 (Macintosh; U; Intel Mac OS X 10.6; fr; rv:1.9.2.8) Gecko/20100722 Firefox/3.6.8"
89.248.169.130 - - [31/Oct/2018:06:46:11 +0000] "POST /xmlrpc.php HTTP/1.1" 200 410 "-" "Mozilla/5.0 (Macintosh; U; Intel Mac OS X 10.6; fr; rv:1.9.2.8) Gecko/20100722 Firefox/3.6.8"
31.170.123.73 - - [31/Oct/2018:06:46:11 +0000] "POST /wp-cron.php?doing_wp_cron=1540968371.2671079635620117187500 HTTP/1.1" 200 40 "http://xintanalegends.com/wp-cron.php?doing_wp_cron=1540968371.2671079635620117187500" "WordPress/4.9.8; http://xintanalegends.com"
89.248.169.130 - - [31/Oct/2018:06:46:11 +0000] "POST /xmlrpc.php HTTP/1.1" 200 410 "-" "Mozilla/5.0 (Macintosh; U; Intel Mac OS X 10.6; fr; rv:1.9.2.8) Gecko/20100722 Firefox/3.6.8"
89.248.169.130 - - [31/Oct/2018:06:46:12 +0000] "POST /xmlrpc.php HTTP/1.1" 200 410 "-" "Mozilla/5.0 (Macintosh; U; Intel Mac OS X 10.6; fr; rv:1.9.2.8) Gecko/20100722 Firefox/3.6.8"
123.57.254.142 - - [31/Oct/2018:06:48:06 +0000] "POST /xmlrpc.php HTTP/1.1" 200 415 "-" "Mozilla/5.0 (Macintosh; U; Intel Mac OS X 10.6; fr; rv:1.9.2.8) Gecko/20100722 Firefox/3.6.8"
123.57.254.142 - - [31/Oct/2018:06:48:06 +0000] "POST /xmlrpc.php HTTP/1.1" 200 415 "-" "Mozilla/5.0 (Macintosh; U; Intel Mac OS X 10.6; fr; rv:1.9.2.8) Gecko/20100722 Firefox/3.6.8"
31.170.123.73 - - [31/Oct/2018:07:30:12 +0000] "POST /wp-cron.php?doing_wp_cron=1540971012.4259819984436035156250 HTTP/1.1" 200 40 "http://xintanalegends.com/wp-cron.php?doing_wp_cron=1540971012.4259819984436035156250" "WordPress/4.9.8; http://xintanalegends.com"
110.244.229.233 - - [31/Oct/2018:07:30:13 +0000] "GET / HTTP/1.0" 200 59951 "-" "Mozilla/5.0 (Windows NT 6.1; Win64; x64) AppleWebKit/537.36 (KHTML, like Gecko) Chrome/62.0.3202.94 Safari/537.36"
91.247.38.46 - - [31/Oct/2018:07:34:33 +0000] "GET /installer-data.sql HTTP/1.1" 404 209 "-" "Mozilla/5.0 (compatible; MSIE 9.0; Windows NT 6.1; Trident/5.0)"
91.247.38.46 - - [31/Oct/2018:07:34:33 +0000] "GET /installer-data.sql HTTP/1.1" 404 209 "-" "Mozilla/5.0 (compatible; MSIE 9.0; Windows NT 6.1; Trident/5.0)"
31.170.123.73 - - [31/Oct/2018:08:37:14 +0000] "POST /wp-cron.php?doing_wp_cron=1540975033.8955609798431396484375 HTTP/1.1" 200 40 "http://xintanalegends.com/wp-cron.php?doing_wp_cron=1540975033.8955609798431396484375" "WordPress/4.9.8; http://xintanalegends.com"
220.181.108.95 - - [31/Oct/2018:08:37:14 +0000] "GET / HTTP/1.1" 200 15007 "-" "Mozilla/5.0 (compatible; Baiduspider/2.0; +http://www.baidu.com/search/spider.html)"
111.206.198.72 - - [31/Oct/2018:08:37:15 +0000] "GET /wp-content/plugins/merobuilder/so-widgets-bundle/widgets/so-services-widget/css/style.css?ver=1.0.4 HTTP/1.1" 200 3823 "http://xintanalegends.com/" "Mozilla/5.0 (compatible; Baiduspider-render/2.0; +http://www.baidu.com/search/spider.html)"
111.206.198.24 - - [31/Oct/2018:08:37:15 +0000] "GET /wp-content/plugins/revslider/rs-plugin/css/settings.css?rev=4.6.0&ver=4.9.8 HTTP/1.1" 200 56333 "http://xintanalegends.com/" "Mozilla/5.0 (compatible; Baiduspider-render/2.0; +http://www.baidu.com/search/spider.html)"
111.206.198.75 - - [31/Oct/2018:08:37:15 +0000] "GET /wp-content/themes/dikka-installable/assets/css/YTPlayer.css?ver=4.9.8 HTTP/1.1" 200 9328 "http://xintanalegends.com/" "Mozilla/5.0 (compatible; Baiduspider-render/2.0; +http://www.baidu.com/search/spider.html)"
111.206.198.97 - - [31/Oct/2018:08:37:15 +0000] "GET /?action=origin_widgets_css&class=SiteOrigin_Panels_Widget_Spacer&style=simple&preset=blank&ver=1.5.3 HTTP/1.1" 200 112 "http://xintanalegends.com/" "Mozilla/5.0 (compatible; Baiduspider-render/2.0; +http://www.baidu.com/search/spider.html)"
111.206.198.77 - - [31/Oct/2018:08:37:15 +0000] "GET /?action=origin_widgets_css&class=SiteOrigin_Panels_Widget_Title&style=simple&preset=simple&ver=1.5.3 HTTP/1.1" 200 706 "http://xintanalegends.com/" "Mozilla/5.0 (compatible; Baiduspider-render/2.0; +http://www.baidu.com/search/spider.html)"
111.206.198.73 - - [31/Oct/2018:08:37:16 +0000] "GET /wp-content/themes/dikka-installable/assets/css/resize.css?ver=4.9.8 HTTP/1.1" 200 54565 "http://xintanalegends.com/" "Mozilla/5.0 (compatible; Baiduspider-render/2.0; +http://www.baidu.com/search/spider.html)"
111.206.221.6 - - [31/Oct/2018:08:37:16 +0000] "GET /wp-content/plugins/merobuilder/css/front.css?ver=1.5.3 HTTP/1.1" 200 1045 "http://xintanalegends.com/" "Mozilla/5.0 (compatible; Baiduspider-render/2.0; +http://www.baidu.com/search/spider.html)"
111.206.221.46 - - [31/Oct/2018:08:37:16 +0000] "GET /wp-content/themes/dikka-installable/assets/css/retina.css?ver=4.9.8 HTTP/1.1" 200 12764 "http://xintanalegends.com/" "Mozilla/5.0 (compatible; Baiduspider-render/2.0; +http://www.baidu.com/search/spider.html)"
111.206.221.27 - - [31/Oct/2018:08:37:16 +0000] "GET /wp-content/themes/dikka-installable/assets/css/nivo-lightbox.css?ver=4.9.8 HTTP/1.1" 200 5703 "http://xintanalegends.com/" "Mozilla/5.0 (compatible; Baiduspider-render/2.0; +http://www.baidu.com/search/spider.html)"
111.206.221.38 - - [31/Oct/2018:08:37:16 +0000] "GET /wp-content/themes/dikka-installable/style.css?ver=4.9.8 HTTP/1.1" 200 137937 "http://xintanalegends.com/" "Mozilla/5.0 (compatible; Baiduspider-render/2.0; +http://www.baidu.com/search/spider.html)"
111.206.198.38 - - [31/Oct/2018:08:37:17 +0000] "GET /wp-content/themes/dikka-installable/assets/css/nivo_themes/default/default.css?ver=4.9.8 HTTP/1.1" 200 2380 "http://xintanalegends.com/" "Mozilla/5.0 (compatible; Baiduspider-render/2.0; +http://www.baidu.com/search/spider.html)"
111.206.198.16 - - [31/Oct/2018:08:37:17 +0000] "GET /wp-content/themes/dikka-installable/assets/css/owl.carousel.css?ver=4.9.8 HTTP/1.1" 200 6366 "http://xintanalegends.com/" "Mozilla/5.0 (compatible; Baiduspider-render/2.0; +http://www.baidu.com/search/spider.html)"
111.206.221.18 - - [31/Oct/2018:08:37:17 +0000] "GET /wp-content/plugins/cubeportfolio/public/css/main.min.css?ver=1.4.1 HTTP/1.1" 200 61452 "http://xintanalegends.com/" "Mozilla/5.0 (compatible; Baiduspider-render/2.0; +http://www.baidu.com/search/spider.html)"
111.206.221.28 - - [31/Oct/2018:08:37:17 +0000] "GET /wp-content/plugins/mailchimp-for-wp/assets/css/form-basic.min.css?ver=4.2.1 HTTP/1.1" 200 2659 "http://xintanalegends.com/" "Mozilla/5.0 (compatible; Baiduspider-render/2.0; +http://www.baidu.com/search/spider.html)"
111.206.198.5 - - [31/Oct/2018:08:37:17 +0000] "GET /wp-includes/js/jquery/jquery-migrate.min.js?ver=1.4.1 HTTP/1.1" 200 10056 "http://xintanalegends.com/" "Mozilla/5.0 (compatible; Baiduspider-render/2.0; +http://www.baidu.com/search/spider.html)"
111.206.198.79 - - [31/Oct/2018:08:37:18 +0000] "GET /wp-content/plugins/revslider/rs-plugin/js/jquery.themepunch.revolution.min.js?rev=4.6.0&ver=4.9.8 HTTP/1.1" 200 111127 "http://xintanalegends.com/" "Mozilla/5.0 (compatible; Baiduspider-render/2.0; +http://www.baidu.com/search/spider.html)"
111.206.198.96 - - [31/Oct/2018:08:37:18 +0000] "GET /wp-includes/js/wp-emoji-release.min.js?ver=4.9.8 HTTP/1.1" 200 12026 "http://xintanalegends.com/" "Mozilla/5.0 (compatible; Baiduspider-render/2.0; +http://www.baidu.com/search/spider.html)"
111.206.198.90 - - [31/Oct/2018:08:37:18 +0000] "GET /wp-includes/js/jquery/jquery.js?ver=1.12.4 HTTP/1.1" 200 97184 "http://xintanalegends.com/" "Mozilla/5.0 (compatible; Baiduspider-render/2.0; +http://www.baidu.com/search/spider.html)"
111.206.221.69 - - [31/Oct/2018:08:37:21 +0000] "GET /wp-content/themes/dikka-installable/assets/css/woocommerce-ux.css?ver=4.9.8 HTTP/1.1" 200 92107 "http://xintanalegends.com/" "Mozilla/5.0 (compatible; Baiduspider-render/2.0; +http://www.baidu.com/search/spider.html)"
111.206.198.87 - - [31/Oct/2018:08:37:24 +0000] "GET /wp-content/plugins/contact-form-7/includes/js/scripts.js?ver=5.0.1 HTTP/1.1" 200 14551 "http://xintanalegends.com/" "Mozilla/5.0 (compatible; Baiduspider-render/2.0; +http://www.baidu.com/search/spider.html)"
111.206.198.16 - - [31/Oct/2018:08:37:25 +0000] "GET /wp-content/themes/dikka-installable/assets/js/isotope-min.js?ver=4.9.8 HTTP/1.1" 200 15768 "http://xintanalegends.com/" "Mozilla/5.0 (compatible; Baiduspider-render/2.0; +http://www.baidu.com/search/spider.html)"
111.206.198.71 - - [31/Oct/2018:08:37:27 +0000] "GET /wp-content/themes/dikka-installable/assets/js/retina.min.js?ver=4.9.8 HTTP/1.1" 200 2575 "http://xintanalegends.com/" "Mozilla/5.0 (compatible; Baiduspider-render/2.0; +http://www.baidu.com/search/spider.html)"
111.206.198.16 - - [31/Oct/2018:08:37:28 +0000] "GET /wp-content/themes/dikka-installable/assets/js/queryloader.min.js?ver=4.9.8 HTTP/1.1" 200 11561 "http://xintanalegends.com/" "Mozilla/5.0 (compatible; Baiduspider-render/2.0; +http://www.baidu.com/search/spider.html)"
111.206.198.43 - - [31/Oct/2018:08:37:28 +0000] "GET /wp-content/themes/dikka-installable/assets/js/utils.js?ver=4.9.8 HTTP/1.1" 200 51090 "http://xintanalegends.com/" "Mozilla/5.0 (compatible; Baiduspider-render/2.0; +http://www.baidu.com/search/spider.html)"
111.206.198.48 - - [31/Oct/2018:08:37:28 +0000] "GET /wp-content/themes/dikka-installable/assets/js/smartmenus.min.js?ver=4.9.8 HTTP/1.1" 200 23651 "http://xintanalegends.com/" "Mozilla/5.0 (compatible; Baiduspider-render/2.0; +http://www.baidu.com/search/spider.html)"
111.206.221.78 - - [31/Oct/2018:08:37:28 +0000] "GET /wp-content/themes/dikka-installable/assets/js/bootstrap.min.js?ver=4.9.8 HTTP/1.1" 200 29110 "http://xintanalegends.com/" "Mozilla/5.0 (compatible; Baiduspider-render/2.0; +http://www.baidu.com/search/spider.html)"
111.206.221.86 - - [31/Oct/2018:08:37:28 +0000] "GET /wp-content/themes/dikka-installable/assets/js/wow.js?ver=1 HTTP/1.1" 200 7057 "http://xintanalegends.com/" "Mozilla/5.0 (compatible; Baiduspider-render/2.0; +http://www.baidu.com/search/spider.html)"
111.206.221.41 - - [31/Oct/2018:08:37:28 +0000] "GET /wp-content/themes/dikka-installable/assets/js/ytplayer.js?ver=4.9.8 HTTP/1.1" 200 54838 "http://xintanalegends.com/" "Mozilla/5.0 (compatible; Baiduspider-render/2.0; +http://www.baidu.com/search/spider.html)"
111.206.198.27 - - [31/Oct/2018:08:37:29 +0000] "GET /wp-content/themes/dikka-installable/assets/libs/font-awesome/font/fontawesome-webfont.woff?v=4.2.0 HTTP/1.1" 200 65452 "http://xintanalegends.com/wp-content/themes/dikka-installable/assets/libs/font-awesome/css/font-awesome.min.css?ver=4.9.8" "Mozilla/5.0 (compatible; Baiduspider-render/2.0; +http://www.baidu.com/search/spider.html)"
111.206.198.84 - - [31/Oct/2018:08:37:30 +0000] "GET /wp-content/plugins/merobuilder/so-widgets-bundle/icons/elegantline/font/elegantline.woff?map0iz HTTP/1.1" 200 39952 "http://xintanalegends.com/wp-content/plugins/merobuilder/so-widgets-bundle/icons/elegantline/style.css?ver=4.9.8" "Mozilla/5.0 (compatible; Baiduspider-render/2.0; +http://www.baidu.com/search/spider.html)"
111.206.221.42 - - [31/Oct/2018:08:37:30 +0000] "GET /wp-content/uploads/2018/02/google-play-badge-e1518088613620.png HTTP/1.1" 200 16381 "http://xintanalegends.com/" "Mozilla/5.0 (compatible; Baiduspider-render/2.0; +http://www.baidu.com/search/spider.html)"
111.206.221.27 - - [31/Oct/2018:08:37:30 +0000] "GET /wp-content/uploads/2018/02/Laurel-Wreath2-e1518091889740.png HTTP/1.1" 200 19618 "http://xintanalegends.com/" "Mozilla/5.0 (compatible; Baiduspider-render/2.0; +http://www.baidu.com/search/spider.html)"
111.206.221.45 - - [31/Oct/2018:08:37:31 +0000] "GET /wp-content/uploads/2018/02/Untitled-6.jpg HTTP/1.1" 200 123047 "http://xintanalegends.com/" "Mozilla/5.0 (compatible; Baiduspider-render/2.0; +http://www.baidu.com/search/spider.html)"
111.206.198.94 - - [31/Oct/2018:08:37:33 +0000] "GET /wp-content/uploads/2018/02/Laurel-Wreath-e1518091904317.png HTTP/1.1" 200 21765 "http://xintanalegends.com/" "Mozilla/5.0 (compatible; Baiduspider-render/2.0; +http://www.baidu.com/search/spider.html)"
111.206.198.7 - - [31/Oct/2018:08:37:33 +0000] "GET /wp-content/uploads/2014/10/xintana-bg.jpg HTTP/1.1" 200 161220 "http://xintanalegends.com/" "Mozilla/5.0 (compatible; Baiduspider-render/2.0; +http://www.baidu.com/search/spider.html)"
111.206.221.17 - - [31/Oct/2018:08:37:35 +0000] "GET /wp-content/themes/dikka-installable/assets/js/nivo-lightbox.min.js?ver=4.9.8 HTTP/1.1" 200 7621 "http://xintanalegends.com/" "Mozilla/5.0 (compatible; Baiduspider-render/2.0; +http://www.baidu.com/search/spider.html)"
111.206.198.6 - - [31/Oct/2018:08:37:35 +0000] "GET /wp-content/uploads/2018/02/Screenshot_Fight_01.jpg HTTP/1.1" 200 166976 "http://xintanalegends.com/" "Mozilla/5.0 (compatible; Baiduspider-render/2.0; +http://www.baidu.com/search/spider.html)"
111.206.221.19 - - [31/Oct/2018:08:37:35 +0000] "GET /wp-content/uploads/2018/02/unity_edit.jpg HTTP/1.1" 200 407630 "http://xintanalegends.com/" "Mozilla/5.0 (compatible; Baiduspider-render/2.0; +http://www.baidu.com/search/spider.html)"
111.206.198.120 - - [31/Oct/2018:08:37:36 +0000] "GET /wp-content/uploads/2018/02/Screenshot_Fight_02.jpg HTTP/1.1" 200 153589 "http://xintanalegends.com/" "Mozilla/5.0 (compatible; Baiduspider-render/2.0; +http://www.baidu.com/search/spider.html)"
111.206.221.27 - - [31/Oct/2018:08:37:36 +0000] "GET /wp-content/plugins/merobuilder/so-widgets-bundle/icons/elegantline/font/elegantline.ttf?map0iz HTTP/1.1" 200 62600 "http://xintanalegends.com/wp-content/plugins/merobuilder/so-widgets-bundle/icons/elegantline/style.css?ver=4.9.8" "Mozilla/5.0 (compatible; Baiduspider-render/2.0; +http://www.baidu.com/search/spider.html)"
111.206.221.68 - - [31/Oct/2018:08:37:36 +0000] "GET /wp-content/uploads/2018/02/Screenshot_Fight_01.jpg HTTP/1.1" 200 166976 "http://xintanalegends.com/" "Mozilla/5.0 (compatible; Baiduspider-render/2.0; +http://www.baidu.com/search/spider.html)"
111.206.221.82 - - [31/Oct/2018:08:37:36 +0000] "GET /wp-content/uploads/2018/02/Screenshot_Fight_00.jpg HTTP/1.1" 200 151198 "http://xintanalegends.com/" "Mozilla/5.0 (compatible; Baiduspider-render/2.0; +http://www.baidu.com/search/spider.html)"
111.206.221.27 - - [31/Oct/2018:08:37:36 +0000] "GET /wp-content/uploads/2018/02/Screenshot_Fight_00.jpg HTTP/1.1" 200 151198 "http://xintanalegends.com/" "Mozilla/5.0 (compatible; Baiduspider-render/2.0; +http://www.baidu.com/search/spider.html)"
111.206.198.86 - - [31/Oct/2018:08:37:38 +0000] "GET /wp-content/uploads/2018/02/unity_edit2.jpg HTTP/1.1" 200 344875 "http://xintanalegends.com/" "Mozilla/5.0 (compatible; Baiduspider-render/2.0; +http://www.baidu.com/search/spider.html)"
111.206.198.47 - - [31/Oct/2018:08:37:51 +0000] "GET /wp-content/uploads/2018/02/unity_edit2.jpg HTTP/1.1" 200 134078 "http://xintanalegends.com/" "Mozilla/5.0 (compatible; Baiduspider-render/2.0; +http://www.baidu.com/search/spider.html)"
111.206.198.93 - - [31/Oct/2018:08:37:53 +0000] "GET /wp-content/uploads/2018/02/logo_trans_XintanaLegendsGO_v2.png HTTP/1.1" 200 192479 "http://xintanalegends.com/" "Mozilla/5.0 (compatible; Baiduspider-render/2.0; +http://www.baidu.com/search/spider.html)"
31.170.123.73 - - [31/Oct/2018:09:09:53 +0000] "POST /wp-cron.php?doing_wp_cron=1540976992.7915179729461669921875 HTTP/1.1" 200 40 "http://xintanalegends.com/wp-cron.php?doing_wp_cron=1540976992.7915179729461669921875" "WordPress/4.9.8; http://xintanalegends.com"
221.0.94.80 - - [31/Oct/2018:09:09:53 +0000] "GET /wp-login.php HTTP/1.0" 200 2291 "http://xintana.com/wp-login.php" "Mozilla/5.0 (Windows NT 6.1; WOW64; rv:19.0) Gecko/20100101 Firefox/19.0"
203.210.244.175 - - [31/Oct/2018:09:16:37 +0000] "GET /wp-admin/setup-config.php?step=1 HTTP/1.1" 500 2954 "-" "Mozilla/5.0 (Macintosh; Intel Mac OS X 10_8_2) AppleWebKit/537.36 (KHTML, like Gecko) Chrome/56.0.2972.2 Safari/537.36"
203.210.244.175 - - [31/Oct/2018:09:16:38 +0000] "GET /wp-admin/setup-config.php?step=1 HTTP/1.1" 500 2954 "-" "Mozilla/5.0 (Windows NT 6.2; rv:45.0) Gecko/20100101 Firefox/45.0"
2001:41d0:2:8ac5:: - - [31/Oct/2018:09:30:53 +0000] "GET /assets/images/seo_script.php HTTP/1.1" 404 226 "xintanalegends.com" "Mozilla/5.1 (Windows NT 6.0; WOW64) AppleWebKit/537.37 (KHTML, like Gecko) Chrome/58.0.1145.75 Safari/537.37"
2001:41d0:2:8ac5:: - - [31/Oct/2018:09:31:12 +0000] "GET /wp-content/themes/twentyeleven/seo_script.php HTTP/1.1" 404 243 "xintanalegends.com" "Mozilla/5.1 (Windows NT 6.0; WOW64) AppleWebKit/537.37 (KHTML, like Gecko) Chrome/58.0.1145.75 Safari/537.37"
2001:41d0:2:8ac5:: - - [31/Oct/2018:09:32:00 +0000] "GET /seos.php HTTP/1.1" 404 206 "xintanalegends.com" "Mozilla/5.1 (Windows NT 6.0; WOW64) AppleWebKit/537.37 (KHTML, like Gecko) Chrome/58.0.1145.75 Safari/537.37"
2001:41d0:2:8ac5:: - - [31/Oct/2018:09:34:09 +0000] "GET /wp-content/plugins/background-image-cropper/image/ico/seo_script.php HTTP/1.1" 404 266 "xintanalegends.com" "Mozilla/5.1 (Windows NT 6.0; WOW64) AppleWebKit/537.37 (KHTML, like Gecko) Chrome/58.0.1145.75 Safari/537.37"
52.15.132.242 - - [31/Oct/2018:09:35:00 +0000] "GET /wp-login.php HTTP/1.1" 200 1531 "https://www.google.com/url?bfc0f2567f4815a61fdeeee7235946bf" "Mozilla/5.0 (Windows NT 5.1; rv:33.0) Gecko/20100101 Firefox/33.0"
52.15.132.242 - - [31/Oct/2018:09:35:07 +0000] "POST /wp-login.php HTTP/1.1" 200 1855 "https://www.google.com/url?bfc0f2567f4815a61fdeeee7235946bf" "Mozilla/5.0 (Windows NT 5.1; rv:33.0) Gecko/20100101 Firefox/33.0"
2001:41d0:2:8ac5:: - - [31/Oct/2018:09:35:28 +0000] "GET /wp-content/uploads/2018/08/seo_script.php HTTP/1.1" 404 239 "xintanalegends.com" "Mozilla/5.1 (Windows NT 6.0; WOW64) AppleWebKit/537.37 (KHTML, like Gecko) Chrome/58.0.1145.75 Safari/537.37"
2001:41d0:2:8ac5:: - - [31/Oct/2018:09:37:07 +0000] "GET /wp-content/uploads/2018/08/st.php HTTP/1.1" 404 231 "xintanalegends.com" "Mozilla/5.1 (Windows NT 6.0; WOW64) AppleWebKit/537.37 (KHTML, like Gecko) Chrome/58.0.1145.75 Safari/537.37"
2001:41d0:2:8ac5:: - - [31/Oct/2018:09:38:43 +0000] "GET /wp-content/uploads/2018/08/seos.php HTTP/1.1" 404 233 "xintanalegends.com" "Mozilla/5.1 (Windows NT 6.0; WOW64) AppleWebKit/537.37 (KHTML, like Gecko) Chrome/58.0.1145.75 Safari/537.37"
2001:41d0:2:8ac5:: - - [31/Oct/2018:09:38:48 +0000] "GET /wp-content/themes/clean-commerce/test2.php HTTP/1.1" 404 240 "xintanalegends.com" "Mozilla/5.1 (Windows NT 6.0; WOW64) AppleWebKit/537.37 (KHTML, like Gecko) Chrome/58.0.1145.75 Safari/537.37"
64.246.161.30 - - [31/Oct/2018:09:41:28 +0000] "GET /robots.txt HTTP/1.0" 404 208 "-" "Mozilla/5.0 (Macintosh; Intel Mac OS X 10.10; rv:59.0) Gecko/20100101 Firefox/59.0"
64.246.161.30 - - [31/Oct/2018:09:41:28 +0000] "GET / HTTP/1.1" 301 5 "-" "Mozilla/5.0 (Macintosh; Intel Mac OS X 10.10; rv:59.0) Gecko/20100101 Firefox/59.0"
64.246.161.30 - - [31/Oct/2018:09:41:29 +0000] "GET / HTTP/1.1" 200 14910 "-" "Mozilla/5.0 (Macintosh; Intel Mac OS X 10.10; rv:59.0) Gecko/20100101 Firefox/59.0"
31.170.123.73 - - [31/Oct/2018:10:01:47 +0000] "POST /wp-cron.php?doing_wp_cron=1540980107.3386061191558837890625 HTTP/1.1" 200 40 "http://xintanalegends.com/wp-cron.php?doing_wp_cron=1540980107.3386061191558837890625" "WordPress/4.9.8; http://xintanalegends.com"
185.86.164.98 - - [31/Oct/2018:10:01:47 +0000] "GET /wp-login.php HTTP/1.1" 200 2400 "-" "Mozilla/5.0 (Windows NT 10.0; WOW64) AppleWebKit/537.36 (KHTML, like Gecko) Chrome/51.0.2704.103 Safari/537.36"
185.86.164.98 - - [31/Oct/2018:10:01:48 +0000] "POST /wp-login.php HTTP/1.1" 200 3359 "http://xintanalegends.com/wp-login.php" "Mozilla/5.0 (Windows NT 10.0; WOW64) AppleWebKit/537.36 (KHTML, like Gecko) Chrome/51.0.2704.103 Safari/537.36"
185.86.164.108 - - [31/Oct/2018:10:10:53 +0000] "GET /wp-login.php HTTP/1.1" 200 2383 "-" "Mozilla/5.0 (Windows NT 10.0; WOW64) AppleWebKit/537.36 (KHTML, like Gecko) Chrome/51.0.2704.103 Safari/537.36"
185.86.164.108 - - [31/Oct/2018:10:10:53 +0000] "POST /wp-login.php HTTP/1.1" 200 3348 "http://xintanalegends.com/wp-login.php" "Mozilla/5.0 (Windows NT 10.0; WOW64) AppleWebKit/537.36 (KHTML, like Gecko) Chrome/51.0.2704.103 Safari/537.36"
31.170.123.73 - - [31/Oct/2018:11:01:31 +0000] "POST /wp-cron.php?doing_wp_cron=1540983690.8767080307006835937500 HTTP/1.1" 200 40 "http://xintanalegends.com/wp-cron.php?doing_wp_cron=1540983690.8767080307006835937500" "WordPress/4.9.8; http://xintanalegends.com"
54.82.250.210 - - [31/Oct/2018:11:01:31 +0000] "GET /wp-login.php HTTP/1.1" 200 1557 "https://www.google.com/url?643b51bb24d9057381ea7bbb069c88c5" "Mozilla/5.0 (Windows NT 5.1; rv:33.0) Gecko/20100101 Firefox/33.0"
54.82.250.210 - - [31/Oct/2018:11:01:54 +0000] "POST /wp-login.php HTTP/1.1" 200 1867 "https://www.google.com/url?643b51bb24d9057381ea7bbb069c88c5" "Mozilla/5.0 (Windows NT 5.1; rv:33.0) Gecko/20100101 Firefox/33.0"
54.36.149.103 - - [31/Oct/2018:11:22:57 +0000] "GET /wp-content/uploads/2015/08/Untitled-1.jpg HTTP/1.1" 200 348726 "-" "Mozilla/5.0 (compatible; AhrefsBot/5.2; +http://ahrefs.com/robot/)"
37.9.113.187 - - [31/Oct/2018:11:33:10 +0000] "GET /robots.txt HTTP/1.1" 404 208 "-" "Mozilla/5.0 (compatible; YandexBot/3.0; +http://yandex.com/bots)"
37.9.113.118 - - [31/Oct/2018:11:33:14 +0000] "GET /xmlrpc.php?rsd HTTP/1.1" 200 432 "-" "Mozilla/5.0 (compatible; YandexBot/3.0; +http://yandex.com/bots)"
220.181.108.81 - - [31/Oct/2018:11:38:03 +0000] "GET /wp-content/uploads/2018/02/Screenshot_Fight_02.jpg HTTP/1.1" 200 153589 "http://image.baidu.com/i?ct=503316480&z=0&tn=baiduimagedetail" "Baiduspider-image+(+http://www.baidu.com/search/spider.htm)"
157.55.39.38 - - [31/Oct/2018:12:17:52 +0000] "GET /robots.txt HTTP/1.1" 404 204 "-" "Mozilla/5.0 (compatible; bingbot/2.0; +http://www.bing.com/bingbot.htm)"
157.55.39.57 - - [31/Oct/2018:12:17:57 +0000] "GET /wp-content/uploads/2014/10/Laurel-Wreath-e1454518644848.png HTTP/1.1" 200 34096 "-" "Mozilla/5.0 (compatible; bingbot/2.0; +http://www.bing.com/bingbot.htm)"
31.170.123.73 - - [31/Oct/2018:12:28:49 +0000] "POST /wp-cron.php?doing_wp_cron=1540988929.1918880939483642578125 HTTP/1.1" 200 40 "http://xintanalegends.com/wp-cron.php?doing_wp_cron=1540988929.1918880939483642578125" "WordPress/4.9.8; http://xintanalegends.com"
178.154.200.71 - - [31/Oct/2018:12:28:49 +0000] "GET / HTTP/1.1" 200 14889 "-" "Mozilla/5.0 (compatible; YandexBot/3.0; +http://yandex.com/bots)"
193.201.224.210 - - [31/Oct/2018:14:00:37 +0000] "GET /wp-content/themes/Ghost/includes/uploadify/upload_settings_image.php HTTP/1.1" 404 245 "http://xintana.com/wp-content/themes/Ghost/includes/uploadify/upload_settings_image.php" "Mozilla/5.0 (Windows NT 6.1; WOW64) AppleWebKit/537.36 (KHTML, like Gecko) Chrome/42.0.2311.152 Safari/537.36"
31.170.123.73 - - [31/Oct/2018:14:53:21 +0000] "POST /wp-cron.php?doing_wp_cron=1540997601.1346890926361083984375 HTTP/1.1" 200 40 "http://xintanalegends.com/wp-cron.php?doing_wp_cron=1540997601.1346890926361083984375" "WordPress/4.9.8; http://xintanalegends.com"
180.76.15.143 - - [31/Oct/2018:14:53:21 +0000] "GET /?feed=rss2&p=1493 HTTP/1.1" 200 774 "-" "Mozilla/5.0 (compatible; Baiduspider/2.0; +http://www.baidu.com/search/spider.html)"
69.12.66.220 - - [31/Oct/2018:14:53:35 +0000] "GET /wp-content/plugins/wp-option-tree/up.php HTTP/1.1" 404 222 "http://www.xintana.com/wp-content/plugins/wp-option-tree/up.php" "Mozilla/5.0 (Windows NT 6.1; WOW64) AppleWebKit/537.36 (KHTML, like Gecko) Chrome/42.0.2311.152 Safari/537.36"
89.248.169.130 - - [31/Oct/2018:15:08:04 +0000] "POST /xmlrpc.php HTTP/1.1" 200 410 "-" "Mozilla/5.0 (Macintosh; U; Intel Mac OS X 10.6; fr; rv:1.9.2.8) Gecko/20100722 Firefox/3.6.8"
89.248.169.130 - - [31/Oct/2018:15:08:04 +0000] "POST /xmlrpc.php HTTP/1.1" 200 410 "-" "Mozilla/5.0 (Macintosh; U; Intel Mac OS X 10.6; fr; rv:1.9.2.8) Gecko/20100722 Firefox/3.6.8"
31.170.123.73 - - [31/Oct/2018:15:08:04 +0000] "POST /wp-cron.php?doing_wp_cron=1540998483.9318048954010009765625 HTTP/1.1" 200 40 "http://xintanalegends.com/wp-cron.php?doing_wp_cron=1540998483.9318048954010009765625" "WordPress/4.9.8; http://xintanalegends.com"
89.248.169.130 - - [31/Oct/2018:15:08:04 +0000] "POST /xmlrpc.php HTTP/1.1" 200 410 "-" "Mozilla/5.0 (Macintosh; U; Intel Mac OS X 10.6; fr; rv:1.9.2.8) Gecko/20100722 Firefox/3.6.8"
89.248.169.130 - - [31/Oct/2018:15:08:04 +0000] "POST /xmlrpc.php HTTP/1.1" 200 410 "-" "Mozilla/5.0 (Macintosh; U; Intel Mac OS X 10.6; fr; rv:1.9.2.8) Gecko/20100722 Firefox/3.6.8"
54.36.148.195 - - [31/Oct/2018:15:09:24 +0000] "GET /?p=1556 HTTP/1.1" 200 13656 "-" "Mozilla/5.0 (compatible; AhrefsBot/5.2; +http://ahrefs.com/robot/)"
185.86.164.110 - - [31/Oct/2018:15:09:31 +0000] "GET /wp-login.php HTTP/1.1" 200 2423 "-" "Mozilla/5.0 (Windows NT 10.0; WOW64) AppleWebKit/537.36 (KHTML, like Gecko) Chrome/51.0.2704.103 Safari/537.36"
185.86.164.110 - - [31/Oct/2018:15:09:31 +0000] "POST /wp-login.php HTTP/1.1" 200 3349 "http://xintanalegends.com/wp-login.php" "Mozilla/5.0 (Windows NT 10.0; WOW64) AppleWebKit/537.36 (KHTML, like Gecko) Chrome/51.0.2704.103 Safari/537.36"
54.36.149.85 - - [31/Oct/2018:15:22:32 +0000] "GET /?p=362 HTTP/1.1" 200 14017 "-" "Mozilla/5.0 (compatible; AhrefsBot/5.2; +http://ahrefs.com/robot/)"
186.200.58.66 - - [31/Oct/2018:15:41:11 +0000] "GET /wp-content/themes/gom-pum/db.php HTTP/1.1" 404 230 "-" "Mozilla/5.0 (Windows NT 6.1) AppleWebKit/537.36 (KHTML, like Gecko) Chrome/67.0.3396.87 Safari/537.36 OPR/54.0.2952.51"
186.200.58.66 - - [31/Oct/2018:15:41:12 +0000] "GET /wp-content/themes/gom-pum/db.php HTTP/1.1" 404 230 "-" "Mozilla/5.0 (Windows NT 6.1) AppleWebKit/537.36 (KHTML, like Gecko) Chrome/67.0.3396.87 Safari/537.36 OPR/54.0.2952.51"
31.170.123.73 - - [31/Oct/2018:15:46:53 +0000] "POST /wp-cron.php?doing_wp_cron=1541000812.6805689334869384765625 HTTP/1.1" 499 0 "http://xintanalegends.com/wp-cron.php?doing_wp_cron=1541000812.6805689334869384765625" "WordPress/4.9.8; http://xintanalegends.com"
123.125.71.24 - - [31/Oct/2018:15:46:53 +0000] "GET /index.php?rest_route=%2Foembed%2F1.0%2Fembed&url=http%3A%2F%2Fxintanalegends.com%2F HTTP/1.1" 200 1162 "-" "Mozilla/5.0 (compatible; Baiduspider/2.0; +http://www.baidu.com/search/spider.html)"
69.12.66.241 - - [31/Oct/2018:15:48:10 +0000] "GET /wp-content/plugins/wp-option-tree/up.php HTTP/1.1" 404 222 "http://xintanalegends.com/wp-content/plugins/wp-option-tree/up.php" "Mozilla/5.0 (Windows NT 6.1; WOW64) AppleWebKit/537.36 (KHTML, like Gecko) Chrome/42.0.2311.152 Safari/537.36"
31.170.123.73 - - [31/Oct/2018:16:49:01 +0000] "POST /wp-cron.php?doing_wp_cron=1541004540.7928349971771240234375 HTTP/1.1" 200 40 "http://xintanalegends.com/wp-cron.php?doing_wp_cron=1541004540.7928349971771240234375" "WordPress/4.9.8; http://xintanalegends.com"
180.76.15.140 - - [31/Oct/2018:16:49:01 +0000] "GET / HTTP/1.1" 200 14741 "-" "Mozilla/5.0 (compatible; Baiduspider/2.0; +http://www.baidu.com/search/spider.html)"
31.170.123.73 - - [31/Oct/2018:17:14:21 +0000] "POST /wp-cron.php?doing_wp_cron=1541006061.3199009895324707031250 HTTP/1.1" 200 40 "http://xintanalegends.com/wp-cron.php?doing_wp_cron=1541006061.3199009895324707031250" "WordPress/4.9.8; http://xintanalegends.com"
54.226.64.153 - - [31/Oct/2018:17:14:21 +0000] "GET /wp-login.php HTTP/1.1" 200 1534 "https://www.google.com/url?bfc0f2567f4815a61fdeeee7235946bf" "Mozilla/5.0 (Windows NT 6.2; rv:29.0) Gecko/20120101 Firefox/29.0"
54.226.64.153 - - [31/Oct/2018:17:14:33 +0000] "POST /wp-login.php HTTP/1.1" 200 2027 "https://www.google.com/url?bfc0f2567f4815a61fdeeee7235946bf" "Mozilla/5.0 (Windows NT 6.2; rv:29.0) Gecko/20120101 Firefox/29.0"
123.125.67.220 - - [31/Oct/2018:17:22:29 +0000] "GET /robots.txt HTTP/1.1" 404 204 "-" "Mozilla/5.0 (Windows NT 10.0; WOW64) AppleWebKit/537.36 (KHTML, like Gecko) Chrome/45.0.2454.93 Safari/537.36"
195.253.4.138 - - [31/Oct/2018:17:27:46 +0000] "GET /wp-content/uploads/2018/08/st.php HTTP/1.1" 404 231 "xintana.com" "Mozilla/5.1 (Windows NT 6.0; WOW64) AppleWebKit/537.37 (KHTML, like Gecko) Chrome/58.0.1145.75 Safari/537.37"
195.253.4.138 - - [31/Oct/2018:17:29:04 +0000] "GET /assets/images/seo_script.php HTTP/1.1" 404 226 "xintana.com" "Mozilla/5.1 (Windows NT 6.0; WOW64) AppleWebKit/537.37 (KHTML, like Gecko) Chrome/58.0.1145.75 Safari/537.37"
87.116.177.254 - - [31/Oct/2018:17:30:04 +0000] "GET /wp-login.php HTTP/1.1" 200 2423 "-" "Mozilla/5.0 (Windows NT 6.1; WOW64; rv:40.0) Gecko/20100101 Firefox/40.1"
87.116.177.254 - - [31/Oct/2018:17:30:05 +0000] "GET / HTTP/1.1" 301 5 "-" "Mozilla/5.0 (Windows NT 6.1; WOW64; rv:40.0) Gecko/20100101 Firefox/40.1"
87.116.177.254 - - [31/Oct/2018:17:30:05 +0000] "GET / HTTP/1.1" 200 60620 "-" "Mozilla/5.0 (Windows NT 6.1; WOW64; rv:40.0) Gecko/20100101 Firefox/40.1"
195.253.4.138 - - [31/Oct/2018:17:30:58 +0000] "GET /wp-content/uploads/2018/08/seo_script.php HTTP/1.1" 404 239 "xintana.com" "Mozilla/5.1 (Windows NT 6.0; WOW64) AppleWebKit/537.37 (KHTML, like Gecko) Chrome/58.0.1145.75 Safari/537.37"
195.253.4.138 - - [31/Oct/2018:17:31:00 +0000] "GET /wp-content/themes/clean-commerce/test2.php HTTP/1.1" 404 240 "xintana.com" "Mozilla/5.1 (Windows NT 6.0; WOW64) AppleWebKit/537.37 (KHTML, like Gecko) Chrome/58.0.1145.75 Safari/537.37"
195.253.4.138 - - [31/Oct/2018:17:31:55 +0000] "GET /wp-content/plugins/background-image-cropper/image/ico/seo_script.php HTTP/1.1" 404 266 "xintana.com" "Mozilla/5.1 (Windows NT 6.0; WOW64) AppleWebKit/537.37 (KHTML, like Gecko) Chrome/58.0.1145.75 Safari/537.37"
195.253.4.138 - - [31/Oct/2018:17:33:14 +0000] "GET /wp-content/uploads/2018/08/seos.php HTTP/1.1" 404 233 "xintana.com" "Mozilla/5.1 (Windows NT 6.0; WOW64) AppleWebKit/537.37 (KHTML, like Gecko) Chrome/58.0.1145.75 Safari/537.37"
195.253.4.138 - - [31/Oct/2018:17:33:40 +0000] "GET /seos.php HTTP/1.1" 404 206 "xintana.com" "Mozilla/5.1 (Windows NT 6.0; WOW64) AppleWebKit/537.37 (KHTML, like Gecko) Chrome/58.0.1145.75 Safari/537.37"
195.253.4.138 - - [31/Oct/2018:17:34:47 +0000] "GET /wp-content/themes/twentyeleven/seo_script.php HTTP/1.1" 404 243 "xintana.com" "Mozilla/5.1 (Windows NT 6.0; WOW64) AppleWebKit/537.37 (KHTML, like Gecko) Chrome/58.0.1145.75 Safari/537.37"
180.76.15.34 - - [31/Oct/2018:17:46:41 +0000] "GET /?p=223 HTTP/1.1" 200 13997 "-" "Mozilla/5.0 (compatible; Baiduspider/2.0; +http://www.baidu.com/search/spider.html)"
87.116.177.254 - - [31/Oct/2018:17:51:59 +0000] "GET /wp-login.php HTTP/1.1" 200 2399 "-" "Mozilla/5.0 (Windows NT 6.1; WOW64; rv:40.0) Gecko/20100101 Firefox/40.1"
87.116.177.254 - - [31/Oct/2018:17:51:59 +0000] "GET / HTTP/1.1" 200 60572 "-" "Mozilla/5.0 (Windows NT 6.1; WOW64; rv:40.0) Gecko/20100101 Firefox/40.1"
31.170.123.73 - - [31/Oct/2018:18:20:01 +0000] "POST /wp-cron.php?doing_wp_cron=1541010001.2693350315093994140625 HTTP/1.1" 200 40 "http://xintanalegends.com/wp-cron.php?doing_wp_cron=1541010001.2693350315093994140625" "WordPress/4.9.8; http://xintanalegends.com"
180.76.15.157 - - [31/Oct/2018:18:20:01 +0000] "GET / HTTP/1.1" 200 14795 "-" "Mozilla/5.0 (compatible; Baiduspider/2.0; +http://www.baidu.com/search/spider.html)"
31.170.123.73 - - [31/Oct/2018:19:01:40 +0000] "POST /wp-cron.php?doing_wp_cron=1541012499.9103989601135253906250 HTTP/1.1" 200 40 "http://xintanalegends.com/wp-cron.php?doing_wp_cron=1541012499.9103989601135253906250" "WordPress/4.9.8; http://xintanalegends.com"
2a02:587:1902:2800:a4a4:77d2:24b9:83f - - [31/Oct/2018:19:01:40 +0000] "GET /wp-login.php HTTP/1.1" 200 2451 "-" "Mozilla/5.0 (Windows NT 6.1; WOW64; rv:40.0) Gecko/20100101 Firefox/40.1"
2a02:587:1902:2800:a4a4:77d2:24b9:83f - - [31/Oct/2018:19:01:42 +0000] "GET / HTTP/1.1" 301 5 "-" "Mozilla/5.0 (Windows NT 6.1; WOW64; rv:40.0) Gecko/20100101 Firefox/40.1"
2a02:587:1902:2800:a4a4:77d2:24b9:83f - - [31/Oct/2018:19:01:45 +0000] "GET / HTTP/1.1" 200 60609 "-" "Mozilla/5.0 (Windows NT 6.1; WOW64; rv:40.0) Gecko/20100101 Firefox/40.1"
2a02:587:1902:2800:a4a4:77d2:24b9:83f - - [31/Oct/2018:19:02:41 +0000] "GET /wp-login.php HTTP/1.1" 200 2413 "-" "Mozilla/5.0 (Windows NT 6.1; WOW64; rv:40.0) Gecko/20100101 Firefox/40.1"
2a02:587:1902:2800:a4a4:77d2:24b9:83f - - [31/Oct/2018:19:02:44 +0000] "GET / HTTP/1.1" 200 60615 "-" "Mozilla/5.0 (Windows NT 6.1; WOW64; rv:40.0) Gecko/20100101 Firefox/40.1"
120.35.38.212 - - [31/Oct/2018:19:18:25 +0000] "HEAD /wp-content/themes/twentyseventeen/sidebar.php HTTP/1.1" 200 0 "-" "-"
85.119.156.225 - - [31/Oct/2018:19:44:04 +0000] "GET /index.php?sort=cHJpbnQgbWQ1KDIxMzEyMyk7 HTTP/1.1" 301 5 "xintanalegends.com" "Mozilla/5.0 (Windows NT 6.1; WOW64) AppleWebKit/537.36 (KHTML, like Gecko) Chrome/50.0.2661.75 Safari/537.36"
85.119.156.225 - - [31/Oct/2018:19:44:04 +0000] "GET /?sort=cHJpbnQgbWQ1KDIxMzEyMyk7 HTTP/1.1" 200 60505 "xintanalegends.com" "Mozilla/5.0 (Windows NT 6.1; WOW64) AppleWebKit/537.36 (KHTML, like Gecko) Chrome/50.0.2661.75 Safari/537.36"
180.76.15.22 - - [31/Oct/2018:20:21:48 +0000] "GET /wp-content/plugins/revslider/rs-plugin/js/'+N+ HTTP/1.1" 404 229 "-" "Mozilla/5.0 (compatible; Baiduspider/2.0; +http://www.baidu.com/search/spider.html)"
31.170.123.73 - - [31/Oct/2018:20:31:41 +0000] "POST /wp-cron.php?doing_wp_cron=1541017900.8997750282287597656250 HTTP/1.1" 200 40 "http://xintanalegends.com/wp-cron.php?doing_wp_cron=1541017900.8997750282287597656250" "WordPress/4.9.8; http://xintanalegends.com"
54.82.250.210 - - [31/Oct/2018:20:31:41 +0000] "GET /wp-login.php HTTP/1.1" 200 1507 "https://www.google.com/url?643b51bb24d9057381ea7bbb069c88c5" "Mozilla/5.0 (Windows NT 6.0; rv:29.0) Gecko/20120101 Firefox/29.0"
54.82.250.210 - - [31/Oct/2018:20:31:43 +0000] "POST /wp-login.php HTTP/1.1" 200 1823 "https://www.google.com/url?643b51bb24d9057381ea7bbb069c88c5" "Mozilla/5.0 (Windows NT 6.0; rv:29.0) Gecko/20120101 Firefox/29.0"
37.9.113.56 - - [31/Oct/2018:20:32:20 +0000] "GET /robots.txt HTTP/1.1" 404 208 "-" "Mozilla/5.0 (compatible; YandexBot/3.0; +http://yandex.com/bots)"
178.154.244.60 - - [31/Oct/2018:20:32:24 +0000] "GET /wp-includes/wlwmanifest.xml HTTP/1.1" 200 503 "-" "Mozilla/5.0 (compatible; YandexBot/3.0; +http://yandex.com/bots)"
123.57.254.142 - - [31/Oct/2018:21:35:09 +0000] "POST /xmlrpc.php HTTP/1.1" 200 415 "-" "Mozilla/5.0 (Macintosh; U; Intel Mac OS X 10.6; fr; rv:1.9.2.8) Gecko/20100722 Firefox/3.6.8"
31.170.123.73 - - [31/Oct/2018:21:35:09 +0000] "POST /wp-cron.php?doing_wp_cron=1541021709.6171970367431640625000 HTTP/1.1" 200 40 "http://xintanalegends.com/wp-cron.php?doing_wp_cron=1541021709.6171970367431640625000" "WordPress/4.9.8; http://xintanalegends.com"
123.57.254.142 - - [31/Oct/2018:21:35:10 +0000] "POST /xmlrpc.php HTTP/1.1" 200 415 "-" "Mozilla/5.0 (Macintosh; U; Intel Mac OS X 10.6; fr; rv:1.9.2.8) Gecko/20100722 Firefox/3.6.8"
67.231.16.206 - - [31/Oct/2018:21:56:24 +0000] "HEAD / HTTP/1.1" 200 0 "-" "Mozilla/5.0 (compatible; Uptimebot/1.0; +http://www.uptime.com/uptimebot)"
54.36.150.98 - - [31/Oct/2018:22:17:28 +0000] "GET /robots.txt HTTP/1.1" 404 204 "-" "Mozilla/5.0 (compatible; AhrefsBot/5.2; +http://ahrefs.com/robot/)"
31.170.123.73 - - [31/Oct/2018:22:17:29 +0000] "POST /wp-cron.php?doing_wp_cron=1541024248.8495779037475585937500 HTTP/1.1" 200 40 "http://xintanalegends.com/wp-cron.php?doing_wp_cron=1541024248.8495779037475585937500" "WordPress/4.9.8; http://xintanalegends.com"
54.36.148.89 - - [31/Oct/2018:22:17:29 +0000] "GET /?feed=rss2&p=349 HTTP/1.1" 200 785 "-" "Mozilla/5.0 (compatible; AhrefsBot/5.2; +http://ahrefs.com/robot/)"
54.36.149.14 - - [31/Oct/2018:22:51:22 +0000] "GET /?tag=text HTTP/1.1" 200 13072 "-" "Mozilla/5.0 (compatible; AhrefsBot/5.2; +http://ahrefs.com/robot/)"
34.240.227.125 - - [31/Oct/2018:23:21:52 +0000] "GET / HTTP/1.1" 200 14945 "-" "Mozilla/5.0 (X11; Ubuntu; Linux x86_64) AppleWebKit/537.36 (KHTML, like Gecko) Chrome/60.0.3112.101 Safari/537.36"
31.170.123.73 - - [31/Oct/2018:23:21:52 +0000] "POST /wp-cron.php?doing_wp_cron=1541028112.0567710399627685546875 HTTP/1.1" 200 40 "http://xintanalegends.com/wp-cron.php?doing_wp_cron=1541028112.0567710399627685546875" "WordPress/4.9.8; http://xintanalegends.com"
34.240.227.125 - - [31/Oct/2018:23:21:52 +0000] "GET / HTTP/1.1" 200 14698 "-" "Mozilla/5.0 (X11; Ubuntu; Linux x86_64) AppleWebKit/537.36 (KHTML, like Gecko) Chrome/60.0.3112.101 Safari/537.36"
89.248.169.130 - - [31/Oct/2018:23:34:02 +0000] "POST /xmlrpc.php HTTP/1.1" 200 410 "-" "Mozilla/5.0 (Macintosh; U; Intel Mac OS X 10.6; fr; rv:1.9.2.8) Gecko/20100722 Firefox/3.6.8"
89.248.169.130 - - [31/Oct/2018:23:34:02 +0000] "POST /xmlrpc.php HTTP/1.1" 200 410 "-" "Mozilla/5.0 (Macintosh; U; Intel Mac OS X 10.6; fr; rv:1.9.2.8) Gecko/20100722 Firefox/3.6.8"
89.248.169.130 - - [31/Oct/2018:23:34:02 +0000] "POST /xmlrpc.php HTTP/1.1" 200 410 "-" "Mozilla/5.0 (Macintosh; U; Intel Mac OS X 10.6; fr; rv:1.9.2.8) Gecko/20100722 Firefox/3.6.8"
89.248.169.130 - - [31/Oct/2018:23:34:03 +0000] "POST /xmlrpc.php HTTP/1.1" 200 410 "-" "Mozilla/5.0 (Macintosh; U; Intel Mac OS X 10.6; fr; rv:1.9.2.8) Gecko/20100722 Firefox/3.6.8"
120.35.38.212 - - [31/Oct/2018:23:48:47 +0000] "HEAD /wp-content/themes/twentyseventeen/sidebar.php HTTP/1.1" 200 0 "-" "-"
31.170.123.73 - - [01/Nov/2018:00:27:23 +0000] "POST /wp-cron.php?doing_wp_cron=1541032043.2858560085296630859375 HTTP/1.1" 200 40 "http://xintanalegends.com/wp-cron.php?doing_wp_cron=1541032043.2858560085296630859375" "WordPress/4.9.8; http://xintanalegends.com"
187.211.81.158 - - [01/Nov/2018:00:27:23 +0000] "GET /wp-login.php HTTP/1.1" 200 2435 "-" "Mozilla/5.0 (Windows NT 6.1; WOW64; rv:40.0) Gecko/20100101 Firefox/40.1"
187.211.81.158 - - [01/Nov/2018:00:27:24 +0000] "GET / HTTP/1.1" 301 5 "-" "Mozilla/5.0 (Windows NT 6.1; WOW64; rv:40.0) Gecko/20100101 Firefox/40.1"
187.211.81.158 - - [01/Nov/2018:00:27:26 +0000] "GET / HTTP/1.1" 200 60564 "-" "Mozilla/5.0 (Windows NT 6.1; WOW64; rv:40.0) Gecko/20100101 Firefox/40.1"
185.220.102.4 - - [01/Nov/2018:00:29:24 +0000] "GET / HTTP/1.1" 200 14694 "-" "Mozilla/5.0 (Windows NT 6.1; Win64; x64) AppleWebKit/537.36 (KHTML, like Gecko) Chrome/60.0.3112.113 Safari/537.36"
185.220.102.4 - - [01/Nov/2018:00:29:25 +0000] "GET / HTTP/1.1" 200 14578 "-" "Mozilla/5.0 (Windows NT 6.1; Win64; x64) AppleWebKit/537.36 (KHTML, like Gecko) Chrome/60.0.3112.113 Safari/537.36"
185.220.102.4 - - [01/Nov/2018:00:29:26 +0000] "GET / HTTP/1.1" 200 14761 "-" "Mozilla/5.0 (Windows NT 6.1; Win64; x64) AppleWebKit/537.36 (KHTML, like Gecko) Chrome/60.0.3112.113 Safari/537.36"
185.220.101.32 - - [01/Nov/2018:00:29:27 +0000] "GET /wp-login.php?action=register HTTP/1.1" 302 5 "-" "Mozilla/5.0 (Windows NT 6.1; Win64; x64) AppleWebKit/537.36 (KHTML, like Gecko) Chrome/60.0.3112.113 Safari/537.36"
185.220.101.32 - - [01/Nov/2018:00:29:28 +0000] "GET /wp-login.php?registration=disabled HTTP/1.1" 200 1488 "-" "Mozilla/5.0 (Windows NT 6.1; Win64; x64) AppleWebKit/537.36 (KHTML, like Gecko) Chrome/60.0.3112.113 Safari/537.36"
185.220.101.32 - - [01/Nov/2018:00:29:29 +0000] "GET / HTTP/1.1" 200 14818 "-" "Mozilla/5.0 (Windows NT 6.1; Win64; x64) AppleWebKit/537.36 (KHTML, like Gecko) Chrome/60.0.3112.113 Safari/537.36"
185.220.101.32 - - [01/Nov/2018:00:29:30 +0000] "GET /index.php?option=com_user&task=register HTTP/1.1" 301 5 "-" "Mozilla/5.0 (Windows NT 6.1; Win64; x64) AppleWebKit/537.36 (KHTML, like Gecko) Chrome/60.0.3112.113 Safari/537.36"
185.220.101.32 - - [01/Nov/2018:00:29:31 +0000] "GET /?option=com_user&task=register HTTP/1.1" 200 14702 "-" "Mozilla/5.0 (Windows NT 6.1; Win64; x64) AppleWebKit/537.36 (KHTML, like Gecko) Chrome/60.0.3112.113 Safari/537.36"
185.220.101.32 - - [01/Nov/2018:00:29:32 +0000] "GET /user/register HTTP/1.1" 404 205 "-" "Mozilla/5.0 (Windows NT 6.1; Win64; x64) AppleWebKit/537.36 (KHTML, like Gecko) Chrome/60.0.3112.113 Safari/537.36"
67.231.16.206 - - [01/Nov/2018:00:33:40 +0000] "HEAD / HTTP/1.1" 200 0 "-" "Mozilla/5.0 (compatible; Uptimebot/1.0; +http://www.uptime.com/uptimebot)"
187.211.81.158 - - [01/Nov/2018:00:36:06 +0000] "GET /wp-login.php HTTP/1.1" 200 2378 "-" "Mozilla/5.0 (Windows NT 6.1; WOW64; rv:40.0) Gecko/20100101 Firefox/40.1"
187.211.81.158 - - [01/Nov/2018:00:36:08 +0000] "GET / HTTP/1.1" 200 60644 "-" "Mozilla/5.0 (Windows NT 6.1; WOW64; rv:40.0) Gecko/20100101 Firefox/40.1"
31.170.123.73 - - [01/Nov/2018:01:03:56 +0000] "POST /wp-cron.php?doing_wp_cron=1541034235.9465088844299316406250 HTTP/1.1" 200 40 "http://xintanalegends.com/wp-cron.php?doing_wp_cron=1541034235.9465088844299316406250" "WordPress/4.9.8; http://xintanalegends.com"
185.86.164.106 - - [01/Nov/2018:01:03:56 +0000] "GET /wp-login.php HTTP/1.1" 200 2417 "-" "Mozilla/5.0 (Windows NT 10.0; WOW64) AppleWebKit/537.36 (KHTML, like Gecko) Chrome/51.0.2704.103 Safari/537.36"
185.86.164.106 - - [01/Nov/2018:01:03:56 +0000] "POST /wp-login.php HTTP/1.1" 200 3342 "http://xintanalegends.com/wp-login.php" "Mozilla/5.0 (Windows NT 10.0; WOW64) AppleWebKit/537.36 (KHTML, like Gecko) Chrome/51.0.2704.103 Safari/537.36"
31.170.123.73 - - [01/Nov/2018:02:05:55 +0000] "POST /wp-cron.php?doing_wp_cron=1541037955.5586171150207519531250 HTTP/1.1" 200 40 "http://xintanalegends.com/wp-cron.php?doing_wp_cron=1541037955.5586171150207519531250" "WordPress/4.9.8; http://xintanalegends.com"
54.185.216.238 - - [01/Nov/2018:02:05:55 +0000] "GET /wp-login.php HTTP/1.1" 200 1475 "https://www.google.com/url?bfc0f2567f4815a61fdeeee7235946bf" "Mozilla/5.0 (Windows NT 6.2; rv:29.0) Gecko/20120101 Firefox/29.0"
54.185.216.238 - - [01/Nov/2018:02:06:22 +0000] "POST /wp-login.php HTTP/1.1" 200 1872 "https://www.google.com/url?bfc0f2567f4815a61fdeeee7235946bf" "Mozilla/5.0 (Windows NT 6.2; rv:29.0) Gecko/20120101 Firefox/29.0"
85.26.68.152 - - [01/Nov/2018:02:20:32 +0000] "GET /wp-login.php HTTP/1.1" 200 2410 "-" "Mozilla/5.0 (Windows NT 6.1; WOW64; rv:40.0) Gecko/20100101 Firefox/40.1"
85.26.68.152 - - [01/Nov/2018:02:20:33 +0000] "GET / HTTP/1.1" 301 5 "-" "Mozilla/5.0 (Windows NT 6.1; WOW64; rv:40.0) Gecko/20100101 Firefox/40.1"
85.26.68.152 - - [01/Nov/2018:02:20:33 +0000] "GET / HTTP/1.1" 200 60618 "-" "Mozilla/5.0 (Windows NT 6.1; WOW64; rv:40.0) Gecko/20100101 Firefox/40.1"
85.26.68.152 - - [01/Nov/2018:02:23:18 +0000] "GET /wp-login.php HTTP/1.1" 200 2406 "-" "Mozilla/5.0 (Windows NT 6.1; WOW64; rv:40.0) Gecko/20100101 Firefox/40.1"
85.26.68.152 - - [01/Nov/2018:02:23:18 +0000] "GET / HTTP/1.1" 200 60625 "-" "Mozilla/5.0 (Windows NT 6.1; WOW64; rv:40.0) Gecko/20100101 Firefox/40.1"
54.188.237.192 - - [01/Nov/2018:02:42:21 +0000] "GET /wp-login.php HTTP/1.1" 200 1455 "https://www.google.com/url?643b51bb24d9057381ea7bbb069c88c5" "Mozilla/5.0 (Windows NT 6.2; rv:36.0) Gecko/20100101 Firefox/36.0"
54.188.237.192 - - [01/Nov/2018:02:42:21 +0000] "POST /wp-login.php HTTP/1.1" 200 1872 "https://www.google.com/url?643b51bb24d9057381ea7bbb069c88c5" "Mozilla/5.0 (Windows NT 6.2; rv:36.0) Gecko/20100101 Firefox/36.0"
