213.251.182.110 - - [06/Nov/2018:04:42:15 +0000] "GET /user.php HTTP/1.0" 404 206 "http://site.ru" "Mozilla/5.0 (Windows; U; Windows NT 5.1; en-US) AppleWebKit/533.4 (KHTML, like Gecko) Chrome/5.0.375.99 Safari/533.4"
31.170.123.73 - - [06/Nov/2018:05:02:52 +0000] "POST /wp-cron.php?doing_wp_cron=1541480572.1341938972473144531250 HTTP/1.0" 200 - "http://gameworkforce.com/wp-cron.php?doing_wp_cron=1541480572.1341938972473144531250" "WordPress/4.9.8; http://gameworkforce.com"
66.249.66.146 - - [06/Nov/2018:05:02:51 +0000] "GET / HTTP/1.0" 200 65588 "-" "Mozilla/5.0 (compatible; Googlebot/2.1; +http://www.google.com/bot.html)"
66.249.66.142 - - [06/Nov/2018:05:02:57 +0000] "GET /wp-includes/js/jquery/jquery-migrate.min.js?ver=1.4.1 HTTP/1.0" 200 10056 "http://gameworkforce.com/" "Mozilla/5.0 AppleWebKit/537.36 (KHTML, like Gecko; compatible; Googlebot/2.1; +http://www.google.com/bot.html) Safari/537.36"
66.249.66.144 - - [06/Nov/2018:05:02:57 +0000] "GET /wp-content/plugins/woocommerce/assets/js/js-cookie/js.cookie.min.js?ver=2.1.4 HTTP/1.0" 200 1846 "http://gameworkforce.com/" "Mozilla/5.0 AppleWebKit/537.36 (KHTML, like Gecko; compatible; Googlebot/2.1; +http://www.google.com/bot.html) Safari/537.36"
66.249.66.144 - - [06/Nov/2018:05:02:57 +0000] "GET /wp-content/plugins/woocommerce/assets/js/jquery-blockui/jquery.blockUI.min.js?ver=2.70 HTTP/1.0" 200 9566 "http://gameworkforce.com/" "Mozilla/5.0 AppleWebKit/537.36 (KHTML, like Gecko; compatible; Googlebot/2.1; +http://www.google.com/bot.html) Safari/537.36"
66.249.66.142 - - [06/Nov/2018:05:02:58 +0000] "GET /wp-includes/js/backbone.min.js?ver=1.2.3 HTTP/1.0" 200 23318 "http://gameworkforce.com/" "Mozilla/5.0 AppleWebKit/537.36 (KHTML, like Gecko; compatible; Googlebot/2.1; +http://www.google.com/bot.html) Safari/537.36"
66.249.66.142 - - [06/Nov/2018:05:02:59 +0000] "GET /wp-includes/js/jquery/ui/widget.min.js?ver=1.11.4 HTTP/1.0" 200 6908 "http://gameworkforce.com/" "Mozilla/5.0 AppleWebKit/537.36 (KHTML, like Gecko; compatible; Googlebot/2.1; +http://www.google.com/bot.html) Safari/537.36"
66.249.66.144 - - [06/Nov/2018:05:02:59 +0000] "GET /wp-content/themes/jobify/inc/integrations/wp-job-manager/js/map/app.min.js?ver=20150509 HTTP/1.0" 200 58456 "http://gameworkforce.com/" "Mozilla/5.0 AppleWebKit/537.36 (KHTML, like Gecko; compatible; Googlebot/2.1; +http://www.google.com/bot.html) Safari/537.36"
66.249.66.144 - - [06/Nov/2018:05:03:00 +0000] "GET /wp-includes/js/wp-backbone.min.js?ver=4.9.8 HTTP/1.0" 200 3020 "http://gameworkforce.com/" "Mozilla/5.0 AppleWebKit/537.36 (KHTML, like Gecko; compatible; Googlebot/2.1; +http://www.google.com/bot.html) Safari/537.36"
66.249.66.144 - - [06/Nov/2018:05:03:00 +0000] "GET /wp-content/themes/jobify/style.css?ver=20170821 HTTP/1.0" 200 215666 "http://gameworkforce.com/" "Mozilla/5.0 AppleWebKit/537.36 (KHTML, like Gecko; compatible; Googlebot/2.1; +http://www.google.com/bot.html) Safari/537.36"
66.249.66.142 - - [06/Nov/2018:05:03:01 +0000] "GET /wp-includes/js/wp-embed.min.js?ver=4.9.8 HTTP/1.0" 200 1398 "http://gameworkforce.com/" "Mozilla/5.0 AppleWebKit/537.36 (KHTML, like Gecko; compatible; Googlebot/2.1; +http://www.google.com/bot.html) Safari/537.36"
66.249.66.142 - - [06/Nov/2018:05:03:01 +0000] "GET /wp-includes/js/wp-emoji-release.min.js?ver=4.9.8 HTTP/1.0" 200 12026 "http://gameworkforce.com/" "Mozilla/5.0 AppleWebKit/537.36 (KHTML, like Gecko; compatible; Googlebot/2.1; +http://www.google.com/bot.html) Safari/537.36"
66.249.66.142 - - [06/Nov/2018:05:03:02 +0000] "GET /wp-content/plugins/wp-job-manager-locations/assets/js/main.js?ver=20140525 HTTP/1.0" 200 1889 "http://gameworkforce.com/" "Mozilla/5.0 AppleWebKit/537.36 (KHTML, like Gecko; compatible; Googlebot/2.1; +http://www.google.com/bot.html) Safari/537.36"
66.249.66.142 - - [06/Nov/2018:05:03:02 +0000] "GET /wp-content/themes/jobify/js/vendor/salvattore/salvattore.min.js?ver=4.9.8 HTTP/1.0" 200 7493 "http://gameworkforce.com/" "Mozilla/5.0 AppleWebKit/537.36 (KHTML, like Gecko; compatible; Googlebot/2.1; +http://www.google.com/bot.html) Safari/537.36"
66.249.66.142 - - [06/Nov/2018:05:03:03 +0000] "GET /wp-includes/js/wp-util.min.js?ver=4.9.8 HTTP/1.0" 200 1046 "http://gameworkforce.com/" "Mozilla/5.0 AppleWebKit/537.36 (KHTML, like Gecko; compatible; Googlebot/2.1; +http://www.google.com/bot.html) Safari/537.36"
66.249.66.142 - - [06/Nov/2018:05:03:03 +0000] "GET /wp-content/plugins/if-menu/assets/if-menu-site.css?ver=4.9.8 HTTP/1.0" 200 929 "http://gameworkforce.com/" "Mozilla/5.0 AppleWebKit/537.36 (KHTML, like Gecko; compatible; Googlebot/2.1; +http://www.google.com/bot.html) Safari/537.36"
66.249.66.142 - - [06/Nov/2018:05:03:04 +0000] "POST /?wc-ajax=get_refreshed_fragments HTTP/1.0" 200 210 "http://gameworkforce.com/" "Mozilla/5.0 AppleWebKit/537.36 (KHTML, like Gecko; compatible; Googlebot/2.1; +http://www.google.com/bot.html) Safari/537.36"
31.170.123.73 - - [06/Nov/2018:05:34:16 +0000] "POST /wp-cron.php?doing_wp_cron=1541482456.0076489448547363281250 HTTP/1.0" 200 - "http://gameworkforce.com/wp-cron.php?doing_wp_cron=1541482456.0076489448547363281250" "WordPress/4.9.8; http://gameworkforce.com"
66.249.66.142 - - [06/Nov/2018:05:34:15 +0000] "GET / HTTP/1.0" 200 65588 "-" "Mozilla/5.0 (Linux; Android 6.0.1; Nexus 5X Build/MMB29P) AppleWebKit/537.36 (KHTML, like Gecko) Chrome/41.0.2272.96 Mobile Safari/537.36 (compatible; Googlebot/2.1; +http://www.google.com/bot.html)"
37.60.254.186 - - [06/Nov/2018:06:56:31 +0000] "GET /logo_img.php HTTP/1.0" 404 210 "http://site.ru" "Mozilla/5.0 (Windows; U; Windows NT 5.1; en-US) AppleWebKit/533.4 (KHTML, like Gecko) Chrome/5.0.375.99 Safari/533.4"
119.29.84.196 - - [06/Nov/2018:07:35:57 +0000] "GET /wp-content/plugins/nav-menus.php HTTP/1.0" 404 230 "http://site.ru" "Mozilla/5.0 (Windows; U; Windows NT 5.1; en-US) AppleWebKit/533.4 (KHTML, like Gecko) Chrome/5.0.375.99 Safari/533.4"
119.29.84.196 - - [06/Nov/2018:07:35:57 +0000] "GET /wp-content/plugins/nav-menus.php HTTP/1.0" 404 230 "http://site.ru" "Mozilla/5.0 (Windows; U; Windows NT 5.1; en-US) AppleWebKit/533.4 (KHTML, like Gecko) Chrome/5.0.375.99 Safari/533.4"
119.29.84.196 - - [06/Nov/2018:07:35:58 +0000] "GET /wp-content/plugins/nav-menus.php HTTP/1.0" 404 230 "http://site.ru" "Mozilla/5.0 (Windows; U; Windows NT 5.1; en-US) AppleWebKit/533.4 (KHTML, like Gecko) Chrome/5.0.375.99 Safari/533.4"
50.62.161.185 - - [06/Nov/2018:09:17:23 +0000] "GET /wp-organizer.php HTTP/1.0" 404 214 "http://site.ru" "Mozilla/5.0 (Windows; U; Windows NT 5.1; en-US) AppleWebKit/533.4 (KHTML, like Gecko) Chrome/5.0.375.99 Safari/533.4"
50.62.161.185 - - [06/Nov/2018:09:17:27 +0000] "GET /wp-organizer.php HTTP/1.0" 404 214 "http://site.ru" "Mozilla/5.0 (Windows; U; Windows NT 5.1; en-US) AppleWebKit/533.4 (KHTML, like Gecko) Chrome/5.0.375.99 Safari/533.4"
31.170.123.73 - - [06/Nov/2018:09:58:26 +0000] "POST /wp-cron.php?doing_wp_cron=1541498306.0636889934539794921875 HTTP/1.0" 200 - "http://gameworkforce.com/wp-cron.php?doing_wp_cron=1541498306.0636889934539794921875" "WordPress/4.9.8; http://gameworkforce.com"
52.165.166.139 - - [06/Nov/2018:09:58:25 +0000] "GET / HTTP/1.0" 200 34616 "-" "Mozilla/5.0 (Windows NT 6.1; Win64; x64) AppleWebKit/537.36 (KHTML, like Gecko) Chrome/65.0.3325.181 Safari/537.36"
69.73.182.184 - - [06/Nov/2018:11:17:14 +0000] "GET /wp-content/plugins/studio-tinymce-widget/mark.php HTTP/1.0" 404 247 "http://site.ru" "Mozilla/5.0 (Windows; U; Windows NT 5.1; en-US) AppleWebKit/533.4 (KHTML, like Gecko) Chrome/5.0.375.99 Safari/533.4"
69.73.182.184 - - [06/Nov/2018:11:17:18 +0000] "GET /wp-content/plugins/studio-tinymce-widget/mark.php HTTP/1.0" 404 247 "http://site.ru" "Mozilla/5.0 (Windows; U; Windows NT 5.1; en-US) AppleWebKit/533.4 (KHTML, like Gecko) Chrome/5.0.375.99 Safari/533.4"
2a02:c207:2018:1292::1 - - [06/Nov/2018:11:17:24 +0000] "GET /logo_img.php.suspected HTTP/1.0" 404 220 "http://site.ru" "Mozilla/5.0 (Windows; U; Windows NT 5.1; en-US) AppleWebKit/533.4 (KHTML, like Gecko) Chrome/5.0.375.99 Safari/533.4"
61.14.235.17 - - [06/Nov/2018:12:36:11 +0000] "GET /wp-caches.php HTTP/1.0" 404 211 "http://site.ru" "Mozilla/5.0 (Windows; U; Windows NT 5.1; en-US) AppleWebKit/533.4 (KHTML, like Gecko) Chrome/5.0.375.99 Safari/533.4"
61.14.235.17 - - [06/Nov/2018:12:36:11 +0000] "GET /wp-caches.php HTTP/1.0" 404 211 "http://site.ru" "Mozilla/5.0 (Windows; U; Windows NT 5.1; en-US) AppleWebKit/533.4 (KHTML, like Gecko) Chrome/5.0.375.99 Safari/533.4"
95.174.15.228 - - [06/Nov/2018:13:50:23 +0000] "GET /wp-caches.php HTTP/1.0" 404 211 "http://site.ru" "Mozilla/5.0 (Windows; U; Windows NT 5.1; en-US) AppleWebKit/533.4 (KHTML, like Gecko) Chrome/5.0.375.99 Safari/533.4"
108.167.146.14 - - [06/Nov/2018:15:02:43 +0000] "GET /wp-includes/admin_login.php HTTP/1.0" 404 225 "http://site.ru" "Mozilla/5.0 (Windows; U; Windows NT 5.1; en-US) AppleWebKit/533.4 (KHTML, like Gecko) Chrome/5.0.375.99 Safari/533.4"
108.167.146.14 - - [06/Nov/2018:15:02:43 +0000] "GET /wp-includes/admin_login.php HTTP/1.0" 404 225 "http://site.ru" "Mozilla/5.0 (Windows; U; Windows NT 5.1; en-US) AppleWebKit/533.4 (KHTML, like Gecko) Chrome/5.0.375.99 Safari/533.4"
157.55.39.210 - - [06/Nov/2018:15:29:06 +0000] "GET /?page_id=19 HTTP/1.0" 200 33110 "-" "Mozilla/5.0 (compatible; bingbot/2.0; +http://www.bing.com/bingbot.htm)"
31.170.123.73 - - [06/Nov/2018:15:29:10 +0000] "POST /wp-admin/admin-ajax.php?action=wp_1_wc_privacy_cleanup&nonce=6825cb6e09 HTTP/1.0" 200 - "http://gameworkforce.com/wp-admin/admin-ajax.php?action=wp_1_wc_privacy_cleanup&nonce=6825cb6e09" "WordPress/4.9.8; http://gameworkforce.com"
31.170.123.73 - - [06/Nov/2018:15:29:06 +0000] "POST /wp-cron.php?doing_wp_cron=1541518146.8206129074096679687500 HTTP/1.0" 200 - "http://gameworkforce.com/wp-cron.php?doing_wp_cron=1541518146.8206129074096679687500" "WordPress/4.9.8; http://gameworkforce.com"
31.170.123.73 - - [06/Nov/2018:15:39:04 +0000] "POST /wp-cron.php?doing_wp_cron=1541518744.7321670055389404296875 HTTP/1.0" 200 - "http://gameworkforce.com/wp-cron.php?doing_wp_cron=1541518744.7321670055389404296875" "WordPress/4.9.8; http://gameworkforce.com"
39.98.62.173 - - [06/Nov/2018:15:39:04 +0000] "GET / HTTP/1.0" 301 - "-" "-"
39.98.62.173 - - [06/Nov/2018:15:39:06 +0000] "GET / HTTP/1.0" 200 65588 "-" "-"
2a02:25a9:0:581b::1 - - [06/Nov/2018:18:26:03 +0000] "GET /wp-backup.php HTTP/1.0" 404 211 "http://site.ru" "Mozilla/5.0 (Windows; U; Windows NT 5.1; en-US) AppleWebKit/533.4 (KHTML, like Gecko) Chrome/5.0.375.99 Safari/533.4"
64.71.32.83 - - [06/Nov/2018:19:29:22 +0000] "GET /wp-admin/network/green.php HTTP/1.0" 404 224 "http://site.ru" "Mozilla/5.0 (Windows; U; Windows NT 5.1; en-US) AppleWebKit/533.4 (KHTML, like Gecko) Chrome/5.0.375.99 Safari/533.4"
69.64.43.86 - - [06/Nov/2018:20:37:23 +0000] "GET /wp-content/wordpress_cache.php HTTP/1.0" 404 228 "http://site.ru" "Mozilla/5.0 (Windows; U; Windows NT 5.1; en-US) AppleWebKit/533.4 (KHTML, like Gecko) Chrome/5.0.375.99 Safari/533.4"
69.64.43.86 - - [06/Nov/2018:20:37:28 +0000] "GET /wp-content/wordpress_cache.php HTTP/1.0" 404 228 "http://site.ru" "Mozilla/5.0 (Windows; U; Windows NT 5.1; en-US) AppleWebKit/533.4 (KHTML, like Gecko) Chrome/5.0.375.99 Safari/533.4"
81.19.189.145 - - [06/Nov/2018:22:48:40 +0000] "GET /wso.php HTTP/1.0" 404 205 "http://site.ru" "Mozilla/5.0 (Windows; U; Windows NT 5.1; en-US) AppleWebKit/533.4 (KHTML, like Gecko) Chrome/5.0.375.99 Safari/533.4"
81.19.189.145 - - [06/Nov/2018:22:48:42 +0000] "GET /wso.php HTTP/1.0" 404 205 "http://site.ru" "Mozilla/5.0 (Windows; U; Windows NT 5.1; en-US) AppleWebKit/533.4 (KHTML, like Gecko) Chrome/5.0.375.99 Safari/533.4"
