31.170.123.73 - - [01/Nov/2018:03:58:50 +0000] "POST /wp-cron.php?doing_wp_cron=1541044729.9240660667419433593750 HTTP/1.1" 499 0 "http://xintanalegends.com/wp-cron.php?doing_wp_cron=1541044729.9240660667419433593750" "WordPress/4.9.8; http://xintanalegends.com"
54.36.149.9 - - [01/Nov/2018:03:58:51 +0000] "GET /?p=656 HTTP/1.1" 200 14061 "-" "Mozilla/5.0 (compatible; AhrefsBot/5.2; +http://ahrefs.com/robot/)"
31.170.123.73 - - [01/Nov/2018:04:03:10 +0000] "POST /wp-cron.php?doing_wp_cron=1541044990.0833899974822998046875 HTTP/1.1" 200 40 "http://xintanalegends.com/wp-cron.php?doing_wp_cron=1541044990.0833899974822998046875" "WordPress/4.9.8; http://xintanalegends.com"
50.63.160.72 - - [01/Nov/2018:04:03:10 +0000] "GET /index.php?sort=cHJpbnQgbWQ1KDIxMzEyMyk7 HTTP/1.1" 301 5 "xintana.com" "Mozilla/5.0 (Windows NT 6.1; WOW64) AppleWebKit/537.36 (KHTML, like Gecko) Chrome/50.0.2661.75 Safari/537.36"
50.63.160.72 - - [01/Nov/2018:04:03:11 +0000] "GET /?sort=cHJpbnQgbWQ1KDIxMzEyMyk7 HTTP/1.1" 200 60638 "xintana.com" "Mozilla/5.0 (Windows NT 6.1; WOW64) AppleWebKit/537.36 (KHTML, like Gecko) Chrome/50.0.2661.75 Safari/537.36"
13.59.2.180 - - [01/Nov/2018:04:07:59 +0000] "GET /wp-login.php HTTP/1.1" 200 1510 "https://www.google.com/url?bfc0f2567f4815a61fdeeee7235946bf" "Mozilla/5.0 (Windows NT 5.1; rv:28.0) Gecko/20100101 Firefox/28.0"
13.59.2.180 - - [01/Nov/2018:04:08:00 +0000] "POST /wp-login.php HTTP/1.1" 200 1865 "https://www.google.com/url?bfc0f2567f4815a61fdeeee7235946bf" "Mozilla/5.0 (Windows NT 5.1; rv:28.0) Gecko/20100101 Firefox/28.0"
180.76.15.17 - - [01/Nov/2018:04:49:28 +0000] "GET /?cat=8 HTTP/1.1" 200 13085 "-" "Mozilla/5.0 (compatible; Baiduspider/2.0; +http://www.baidu.com/search/spider.html)"
54.36.150.103 - - [01/Nov/2018:05:06:21 +0000] "GET /robots.txt HTTP/1.1" 404 204 "-" "Mozilla/5.0 (compatible; AhrefsBot/5.2; +http://ahrefs.com/robot/)"
54.36.150.103 - - [01/Nov/2018:05:06:21 +0000] "GET /robots.txt HTTP/1.1" 404 204 "-" "Mozilla/5.0 (compatible; AhrefsBot/5.2; +http://ahrefs.com/robot/)"
31.170.123.73 - - [01/Nov/2018:05:06:22 +0000] "POST /wp-cron.php?doing_wp_cron=1541048781.7500689029693603515625 HTTP/1.1" 200 40 "http://xintanalegends.com/wp-cron.php?doing_wp_cron=1541048781.7500689029693603515625" "WordPress/4.9.8; http://xintanalegends.com"
54.36.150.151 - - [01/Nov/2018:05:06:22 +0000] "GET / HTTP/1.1" 200 14846 "-" "Mozilla/5.0 (compatible; AhrefsBot/5.2; +http://ahrefs.com/robot/)"
5.196.87.15 - - [01/Nov/2018:05:06:22 +0000] "GET / HTTP/1.1" 200 14675 "-" "Mozilla/5.0 (compatible; AhrefsBot/5.2; +http://ahrefs.com/robot/)"
157.55.39.110 - - [01/Nov/2018:05:26:35 +0000] "GET /wp-content/uploads/2018/02/Untitled-6.jpg HTTP/1.1" 200 123047 "-" "Mozilla/5.0 (compatible; bingbot/2.0; +http://www.bing.com/bingbot.htm)"
54.36.150.98 - - [01/Nov/2018:05:46:23 +0000] "GET /robots.txt HTTP/1.1" 404 204 "-" "Mozilla/5.0 (compatible; AhrefsBot/5.2; +http://ahrefs.com/robot/)"
54.36.148.65 - - [01/Nov/2018:05:46:25 +0000] "GET /?cat=15 HTTP/1.1" 200 14601 "-" "Mozilla/5.0 (compatible; AhrefsBot/5.2; +http://ahrefs.com/robot/)"
52.91.245.113 - - [01/Nov/2018:05:54:33 +0000] "GET /wp-login.php HTTP/1.1" 200 1431 "https://www.google.com/url?643b51bb24d9057381ea7bbb069c88c5" "Mozilla/5.0 (Windows NT 5.1; rv:33.0) Gecko/20100101 Firefox/33.0"
52.91.245.113 - - [01/Nov/2018:05:54:34 +0000] "POST /wp-login.php HTTP/1.1" 200 1869 "https://www.google.com/url?643b51bb24d9057381ea7bbb069c88c5" "Mozilla/5.0 (Windows NT 5.1; rv:33.0) Gecko/20100101 Firefox/33.0"
31.170.123.73 - - [01/Nov/2018:06:21:52 +0000] "POST /wp-cron.php?doing_wp_cron=1541053312.0642249584197998046875 HTTP/1.1" 200 40 "http://xintanalegends.com/wp-cron.php?doing_wp_cron=1541053312.0642249584197998046875" "WordPress/4.9.8; http://xintanalegends.com"
180.76.15.33 - - [01/Nov/2018:06:21:52 +0000] "GET / HTTP/1.1" 200 14625 "-" "Mozilla/5.0 (compatible; Baiduspider/2.0; +http://www.baidu.com/search/spider.html)"
93.75.45.115 - - [01/Nov/2018:06:22:46 +0000] "GET /wp-login.php HTTP/1.1" 200 2378 "-" "Mozilla/5.0 (Windows NT 6.1; WOW64; rv:40.0) Gecko/20100101 Firefox/40.1"
93.75.45.115 - - [01/Nov/2018:06:22:46 +0000] "GET / HTTP/1.1" 301 5 "-" "Mozilla/5.0 (Windows NT 6.1; WOW64; rv:40.0) Gecko/20100101 Firefox/40.1"
93.75.45.115 - - [01/Nov/2018:06:22:48 +0000] "GET / HTTP/1.1" 200 60602 "-" "Mozilla/5.0 (Windows NT 6.1; WOW64; rv:40.0) Gecko/20100101 Firefox/40.1"
93.75.45.115 - - [01/Nov/2018:06:23:38 +0000] "GET /wp-login.php HTTP/1.1" 200 2384 "-" "Mozilla/5.0 (Windows NT 6.1; WOW64; rv:40.0) Gecko/20100101 Firefox/40.1"
93.75.45.115 - - [01/Nov/2018:06:23:39 +0000] "GET / HTTP/1.1" 200 60608 "-" "Mozilla/5.0 (Windows NT 6.1; WOW64; rv:40.0) Gecko/20100101 Firefox/40.1"
54.36.150.103 - - [01/Nov/2018:06:36:08 +0000] "GET /robots.txt HTTP/1.1" 404 204 "-" "Mozilla/5.0 (compatible; AhrefsBot/5.2; +http://ahrefs.com/robot/)"
54.36.150.103 - - [01/Nov/2018:06:36:08 +0000] "GET /robots.txt HTTP/1.1" 404 204 "-" "Mozilla/5.0 (compatible; AhrefsBot/5.2; +http://ahrefs.com/robot/)"
151.80.39.165 - - [01/Nov/2018:06:36:09 +0000] "GET / HTTP/1.1" 301 5 "-" "Mozilla/5.0 (compatible; AhrefsBot/5.2; +http://ahrefs.com/robot/)"
5.196.87.70 - - [01/Nov/2018:06:51:10 +0000] "GET / HTTP/1.1" 200 14726 "-" "Mozilla/5.0 (compatible; AhrefsBot/5.2; +http://ahrefs.com/robot/)"
193.201.224.210 - - [01/Nov/2018:07:18:39 +0000] "GET /wp-content/plugins/wp-mailinglist/vendors/uploadify/upload.php HTTP/1.1" 404 240 "http://xintanalegends.com/wp-content/plugins/wp-mailinglist/vendors/uploadify/upload.php" "Mozilla/5.0 (Windows NT 6.1; WOW64) AppleWebKit/537.36 (KHTML, like Gecko) Chrome/42.0.2311.152 Safari/537.36"
123.125.67.225 - - [01/Nov/2018:07:35:46 +0000] "GET /robots.txt HTTP/1.1" 404 204 "-" "Mozilla/5.0 (Windows NT 10.0; WOW64) AppleWebKit/537.36 (KHTML, like Gecko) Chrome/45.0.2454.93 Safari/537.36"
185.220.101.0 - - [01/Nov/2018:07:59:26 +0000] "GET /fonts/wp-caches.php HTTP/1.1" 404 217 "-" "Mozilla/5.0 (Windows NT 6.1; WOW64; rv:19.0) Gecko/20100101 Firefox/19.0"
185.220.101.0 - - [01/Nov/2018:07:59:27 +0000] "GET /farious/popup-pomo.php HTTP/1.1" 404 220 "-" "Mozilla/5.0 (Windows NT 6.1; WOW64; rv:19.0) Gecko/20100101 Firefox/19.0"
185.220.101.0 - - [01/Nov/2018:07:59:29 +0000] "GET /wp-content/plugins/corner-ad/post.php?set=1q1 HTTP/1.1" 404 235 "-" "Mozilla/5.0 (Windows NT 6.1; WOW64; rv:19.0) Gecko/20100101 Firefox/19.0"
62.210.129.246 - - [01/Nov/2018:07:59:30 +0000] "GET /mybeafter.php HTTP/1.1" 404 211 "-" "Mozilla/5.0 (Windows NT 6.1; WOW64; rv:19.0) Gecko/20100101 Firefox/19.0"
62.210.129.246 - - [01/Nov/2018:07:59:30 +0000] "GET /wp-content/plugins/fast-plugins/asct.php HTTP/1.1" 404 238 "-" "Mozilla/5.0 (Windows NT 6.1; WOW64; rv:19.0) Gecko/20100101 Firefox/19.0"
62.210.129.246 - - [01/Nov/2018:07:59:30 +0000] "GET /bb.php HTTP/1.1" 404 204 "-" "Mozilla/5.0 (Windows NT 6.1; WOW64; rv:19.0) Gecko/20100101 Firefox/19.0"
62.210.129.246 - - [01/Nov/2018:07:59:31 +0000] "GET /wp-content/wp-content.php HTTP/1.1" 404 223 "-" "Mozilla/5.0 (Windows NT 6.1; WOW64; rv:19.0) Gecko/20100101 Firefox/19.0"
62.210.129.246 - - [01/Nov/2018:07:59:31 +0000] "GET /s_s.php HTTP/1.1" 404 205 "-" "Mozilla/5.0 (Windows NT 6.1; WOW64; rv:19.0) Gecko/20100101 Firefox/19.0"
62.210.129.246 - - [01/Nov/2018:07:59:31 +0000] "GET /new_license.php HTTP/1.1" 404 213 "-" "Mozilla/5.0 (Windows NT 6.1; WOW64; rv:19.0) Gecko/20100101 Firefox/19.0"
62.210.129.246 - - [01/Nov/2018:07:59:32 +0000] "GET /xNOVAx.php HTTP/1.1" 404 208 "-" "Mozilla/5.0 (Windows NT 6.1; WOW64; rv:19.0) Gecko/20100101 Firefox/19.0"
62.210.129.246 - - [01/Nov/2018:07:59:32 +0000] "GET /css_.php HTTP/1.1" 404 206 "-" "Mozilla/5.0 (Windows NT 6.1; WOW64; rv:19.0) Gecko/20100101 Firefox/19.0"
62.210.129.246 - - [01/Nov/2018:07:59:33 +0000] "GET /oldvip.php HTTP/1.1" 404 208 "-" "Mozilla/5.0 (Windows NT 6.1; WOW64; rv:19.0) Gecko/20100101 Firefox/19.0"
62.210.129.246 - - [01/Nov/2018:07:59:34 +0000] "GET /theme.php HTTP/1.1" 404 207 "-" "Mozilla/5.0 (Windows NT 6.1; WOW64; rv:19.0) Gecko/20100101 Firefox/19.0"
62.210.129.246 - - [01/Nov/2018:07:59:34 +0000] "GET /x3x.php HTTP/1.1" 404 205 "-" "Mozilla/5.0 (Windows NT 6.1; WOW64; rv:19.0) Gecko/20100101 Firefox/19.0"
62.210.129.246 - - [01/Nov/2018:07:59:34 +0000] "GET /wdb.php HTTP/1.1" 404 205 "-" "Mozilla/5.0 (Windows NT 6.1; WOW64; rv:19.0) Gecko/20100101 Firefox/19.0"
62.210.129.246 - - [01/Nov/2018:07:59:34 +0000] "GET /XAttacker.php?X=Attacker HTTP/1.1" 404 211 "-" "Mozilla/5.0 (Windows NT 6.1; WOW64; rv:19.0) Gecko/20100101 Firefox/19.0"
62.210.129.246 - - [01/Nov/2018:07:59:35 +0000] "GET /wp-content/plugins/seo-site-admin/config.php HTTP/1.1" 404 242 "-" "Mozilla/5.0 (Windows NT 6.1; WOW64; rv:19.0) Gecko/20100101 Firefox/19.0"
62.210.129.246 - - [01/Nov/2018:07:59:35 +0000] "GET /z_auth.php HTTP/1.1" 404 208 "-" "Mozilla/5.0 (Windows NT 6.1; WOW64; rv:19.0) Gecko/20100101 Firefox/19.0"
89.248.169.130 - - [01/Nov/2018:08:04:40 +0000] "POST /xmlrpc.php HTTP/1.1" 200 410 "-" "Mozilla/5.0 (Macintosh; U; Intel Mac OS X 10.6; fr; rv:1.9.2.8) Gecko/20100722 Firefox/3.6.8"
89.248.169.130 - - [01/Nov/2018:08:04:40 +0000] "POST /xmlrpc.php HTTP/1.1" 200 410 "-" "Mozilla/5.0 (Macintosh; U; Intel Mac OS X 10.6; fr; rv:1.9.2.8) Gecko/20100722 Firefox/3.6.8"
89.248.169.130 - - [01/Nov/2018:08:04:40 +0000] "POST /xmlrpc.php HTTP/1.1" 200 410 "-" "Mozilla/5.0 (Macintosh; U; Intel Mac OS X 10.6; fr; rv:1.9.2.8) Gecko/20100722 Firefox/3.6.8"
31.170.123.73 - - [01/Nov/2018:08:04:40 +0000] "POST /wp-cron.php?doing_wp_cron=1541059480.2204899787902832031250 HTTP/1.1" 200 40 "http://xintanalegends.com/wp-cron.php?doing_wp_cron=1541059480.2204899787902832031250" "WordPress/4.9.8; http://xintanalegends.com"
89.248.169.130 - - [01/Nov/2018:08:04:40 +0000] "POST /xmlrpc.php HTTP/1.1" 200 410 "-" "Mozilla/5.0 (Macintosh; U; Intel Mac OS X 10.6; fr; rv:1.9.2.8) Gecko/20100722 Firefox/3.6.8"
193.201.224.210 - - [01/Nov/2018:08:13:36 +0000] "GET /wp-content/themes/RightNow/includes/uploadify/upload_settings_image.php HTTP/1.1" 404 248 "http://xintanalegends.com/wp-content/themes/RightNow/includes/uploadify/upload_settings_image.php" "Mozilla/5.0 (Windows NT 6.1; WOW64) AppleWebKit/537.36 (KHTML, like Gecko) Chrome/42.0.2311.152 Safari/537.36"
37.187.26.42 - - [01/Nov/2018:08:30:04 +0000] "GET / HTTP/1.1" 200 60598 "-" "Mozilla/5.0 (compatible; Googlebot/2.1; +http://www.google.com/bot.html)"
158.46.136.10 - - [01/Nov/2018:08:31:20 +0000] "GET / HTTP/1.1" 200 14710 "-" "Mozilla/5.0 (Macintosh; Intel Mac OS X 10_12_5) AppleWebKit/537.36 (KHTML, like Gecko) Chrome/58.0.3029.110 Safari/537.36"
143.191.114.202 - - [01/Nov/2018:08:46:12 +0000] "GET / HTTP/1.1" 200 14756 "-" "Mozilla/5.0 (Macintosh; Intel Mac OS X 10_12_5) AppleWebKit/537.36 (KHTML, like Gecko) Chrome/58.0.3029.110 Safari/537.36"
178.255.215.82 - - [01/Nov/2018:09:34:44 +0000] "GET /robots.txt HTTP/1.1" 404 204 "-" "Mozilla/5.0 (compatible; Exabot/3.0; +http://www.exabot.com/go/robot)"
31.170.123.73 - - [01/Nov/2018:09:34:45 +0000] "POST /wp-cron.php?doing_wp_cron=1541064884.6361749172210693359375 HTTP/1.1" 200 40 "http://xintanalegends.com/wp-cron.php?doing_wp_cron=1541064884.6361749172210693359375" "WordPress/4.9.8; http://xintanalegends.com"
178.255.215.82 - - [01/Nov/2018:09:34:45 +0000] "GET /xmlrpc.php HTTP/1.1" 405 48 "-" "Mozilla/5.0 (compatible; Exabot/3.0; +http://www.exabot.com/go/robot)"
18.223.3.147 - - [01/Nov/2018:09:42:23 +0000] "GET /wp-login.php HTTP/1.1" 200 1431 "https://www.google.com/url?bfc0f2567f4815a61fdeeee7235946bf" "Mozilla/5.0 (Windows NT 5.1; rv:33.0) Gecko/20100101 Firefox/33.0"
18.223.3.147 - - [01/Nov/2018:09:42:25 +0000] "POST /wp-login.php HTTP/1.1" 200 1904 "https://www.google.com/url?bfc0f2567f4815a61fdeeee7235946bf" "Mozilla/5.0 (Windows NT 5.1; rv:33.0) Gecko/20100101 Firefox/33.0"
50.63.160.72 - - [01/Nov/2018:10:12:24 +0000] "GET /wp-content/themes/pridmag/db.php HTTP/1.1" 404 230 "xintanalegends.com" "Mozilla/5.0 (Windows NT 6.1; WOW64) AppleWebKit/537.36 (KHTML, like Gecko) Chrome/50.0.2661.75 Safari/537.36"
31.170.123.73 - - [01/Nov/2018:10:31:51 +0000] "POST /wp-cron.php?doing_wp_cron=1541068310.9472210407257080078125 HTTP/1.1" 200 40 "http://xintanalegends.com/wp-cron.php?doing_wp_cron=1541068310.9472210407257080078125" "WordPress/4.9.8; http://xintanalegends.com"
83.134.79.125 - - [01/Nov/2018:10:31:51 +0000] "GET /wp-login.php HTTP/1.1" 200 2424 "-" "Mozilla/5.0 (Windows NT 6.1; WOW64; rv:40.0) Gecko/20100101 Firefox/40.1"
83.134.79.125 - - [01/Nov/2018:10:31:51 +0000] "GET / HTTP/1.1" 301 0 "-" "Mozilla/5.0 (Windows NT 6.1; WOW64; rv:40.0) Gecko/20100101 Firefox/40.1"
83.134.79.125 - - [01/Nov/2018:10:31:52 +0000] "GET / HTTP/1.1" 200 60604 "-" "Mozilla/5.0 (Windows NT 6.1; WOW64; rv:40.0) Gecko/20100101 Firefox/40.1"
52.40.232.12 - - [01/Nov/2018:10:35:41 +0000] "GET /wp-login.php HTTP/1.1" 200 1435 "https://www.google.com/url?643b51bb24d9057381ea7bbb069c88c5" "Mozilla/5.0 (Windows NT 6.1; WOW64; rv:28.0) Gecko/20100101 Firefox/28.0"
52.40.232.12 - - [01/Nov/2018:10:35:48 +0000] "POST /wp-login.php HTTP/1.1" 200 1943 "https://www.google.com/url?643b51bb24d9057381ea7bbb069c88c5" "Mozilla/5.0 (Windows NT 6.1; WOW64; rv:28.0) Gecko/20100101 Firefox/28.0"
106.215.75.139 - - [01/Nov/2018:10:37:18 +0000] "GET / HTTP/1.1" 200 33180 "http://xintanalegends.com" "Mozilla/4.0 (compatible; MSIE 6.0; Windows NT 5.1; SV1; .NET CLR 2.0.50727; .NET CLR 1.1.4322)"
106.215.75.139 - - [01/Nov/2018:10:37:19 +0000] "GET / HTTP/1.1" 200 60542 "http://xintanalegends.com" "Mozilla/4.0 (compatible; MSIE 6.0; Windows NT 5.1; SV1; .NET CLR 2.0.50727; .NET CLR 1.1.4322)"
83.134.79.125 - - [01/Nov/2018:10:39:40 +0000] "GET /wp-login.php HTTP/1.1" 200 2417 "-" "Mozilla/5.0 (Windows NT 6.1; WOW64; rv:40.0) Gecko/20100101 Firefox/40.1"
83.134.79.125 - - [01/Nov/2018:10:39:41 +0000] "GET / HTTP/1.1" 200 60648 "-" "Mozilla/5.0 (Windows NT 6.1; WOW64; rv:40.0) Gecko/20100101 Firefox/40.1"
123.57.254.142 - - [01/Nov/2018:11:03:25 +0000] "POST /xmlrpc.php HTTP/1.1" 200 415 "-" "Mozilla/5.0 (Macintosh; U; Intel Mac OS X 10.6; fr; rv:1.9.2.8) Gecko/20100722 Firefox/3.6.8"
31.170.123.73 - - [01/Nov/2018:11:03:25 +0000] "POST /wp-cron.php?doing_wp_cron=1541070205.1971759796142578125000 HTTP/1.1" 200 40 "http://xintanalegends.com/wp-cron.php?doing_wp_cron=1541070205.1971759796142578125000" "WordPress/4.9.8; http://xintanalegends.com"
123.57.254.142 - - [01/Nov/2018:11:03:25 +0000] "POST /xmlrpc.php HTTP/1.1" 200 415 "-" "Mozilla/5.0 (Macintosh; U; Intel Mac OS X 10.6; fr; rv:1.9.2.8) Gecko/20100722 Firefox/3.6.8"
54.36.149.82 - - [01/Nov/2018:11:10:44 +0000] "GET /?p=465 HTTP/1.1" 200 14538 "-" "Mozilla/5.0 (compatible; AhrefsBot/5.2; +http://ahrefs.com/robot/)"
50.63.160.72 - - [01/Nov/2018:11:43:50 +0000] "GET /wp-content/themes/pridmag/db.php HTTP/1.1" 404 230 "xintana.com" "Mozilla/5.0 (Windows NT 6.1; WOW64) AppleWebKit/537.36 (KHTML, like Gecko) Chrome/50.0.2661.75 Safari/537.36"
31.170.123.73 - - [01/Nov/2018:12:09:13 +0000] "POST /wp-cron.php?doing_wp_cron=1541074152.4463880062103271484375 HTTP/1.1" 200 40 "http://xintanalegends.com/wp-cron.php?doing_wp_cron=1541074152.4463880062103271484375" "WordPress/4.9.8; http://xintanalegends.com"
52.53.201.78 - - [01/Nov/2018:12:09:13 +0000] "GET / HTTP/1.1" 301 5 "-" "Mozilla/5.0 (Macintosh; Intel Mac OS X 10_12_6) AppleWebKit/537.36 (KHTML, like Gecko) Chrome/61.0.3163.100 Safari/537.36"
52.53.201.78 - - [01/Nov/2018:12:09:14 +0000] "GET / HTTP/1.1" 200 14950 "http://www.xintanalegends.com/" "Mozilla/5.0 (Macintosh; Intel Mac OS X 10_12_6) AppleWebKit/537.36 (KHTML, like Gecko) Chrome/61.0.3163.100 Safari/537.36"
185.85.239.195 - - [01/Nov/2018:12:10:23 +0000] "GET /wp-login.php HTTP/1.1" 200 2400 "-" "Mozilla/5.0 (Windows NT 10.0; WOW64) AppleWebKit/537.36 (KHTML, like Gecko) Chrome/51.0.2704.103 Safari/537.36"
185.85.239.195 - - [01/Nov/2018:12:10:24 +0000] "POST /wp-login.php HTTP/1.1" 200 3342 "http://xintanalegends.com/wp-login.php" "Mozilla/5.0 (Windows NT 10.0; WOW64) AppleWebKit/537.36 (KHTML, like Gecko) Chrome/51.0.2704.103 Safari/537.36"
46.229.168.154 - - [01/Nov/2018:13:02:44 +0000] "GET /robots.txt HTTP/1.1" 404 204 "-" "Mozilla/5.0 (compatible; SemrushBot/2~bl; +http://www.semrush.com/bot.html)"
46.229.168.150 - - [01/Nov/2018:13:02:45 +0000] "GET /sitemap.xml HTTP/1.1" 404 206 "-" "Mozilla/5.0 (compatible; SemrushBot/2~bl; +http://www.semrush.com/bot.html)"
31.170.123.73 - - [01/Nov/2018:13:02:45 +0000] "POST /wp-cron.php?doing_wp_cron=1541077365.0430960655212402343750 HTTP/1.1" 200 40 "http://xintanalegends.com/wp-cron.php?doing_wp_cron=1541077365.0430960655212402343750" "WordPress/4.9.8; http://xintanalegends.com"
46.229.168.132 - - [01/Nov/2018:13:02:45 +0000] "GET / HTTP/1.1" 200 14860 "-" "Mozilla/5.0 (compatible; SemrushBot/2~bl; +http://www.semrush.com/bot.html)"
46.229.168.143 - - [01/Nov/2018:13:03:42 +0000] "GET / HTTP/1.1" 200 14644 "-" "Mozilla/5.0 (compatible; SemrushBot/2~bl; +http://www.semrush.com/bot.html)"
141.8.142.11 - - [01/Nov/2018:13:29:52 +0000] "GET /robots.txt HTTP/1.1" 404 208 "-" "Mozilla/5.0 (compatible; YandexBot/3.0; +http://yandex.com/bots)"
178.154.244.15 - - [01/Nov/2018:13:29:56 +0000] "GET / HTTP/1.1" 200 14539 "-" "Mozilla/5.0 (compatible; YandexBot/3.0; +http://yandex.com/bots)"
31.170.123.73 - - [01/Nov/2018:13:51:31 +0000] "POST /wp-cron.php?doing_wp_cron=1541080290.8099870681762695312500 HTTP/1.1" 200 40 "http://xintanalegends.com/wp-cron.php?doing_wp_cron=1541080290.8099870681762695312500" "WordPress/4.9.8; http://xintanalegends.com"
54.36.148.133 - - [01/Nov/2018:13:51:31 +0000] "GET /?feed=rss2&p=221 HTTP/1.1" 200 770 "-" "Mozilla/5.0 (compatible; AhrefsBot/5.2; +http://ahrefs.com/robot/)"
31.170.123.73 - - [01/Nov/2018:14:13:06 +0000] "POST /wp-cron.php?doing_wp_cron=1541081585.8849670886993408203125 HTTP/1.1" 200 40 "http://xintanalegends.com/wp-cron.php?doing_wp_cron=1541081585.8849670886993408203125" "WordPress/4.9.8; http://xintanalegends.com"
213.49.34.173 - - [01/Nov/2018:14:13:06 +0000] "GET /wp-login.php HTTP/1.1" 200 2424 "-" "Mozilla/5.0 (Windows NT 6.1; WOW64; rv:40.0) Gecko/20100101 Firefox/40.1"
213.49.34.173 - - [01/Nov/2018:14:13:06 +0000] "GET / HTTP/1.1" 301 5 "-" "Mozilla/5.0 (Windows NT 6.1; WOW64; rv:40.0) Gecko/20100101 Firefox/40.1"
213.49.34.173 - - [01/Nov/2018:14:13:07 +0000] "GET / HTTP/1.1" 200 60560 "-" "Mozilla/5.0 (Windows NT 6.1; WOW64; rv:40.0) Gecko/20100101 Firefox/40.1"
213.49.34.173 - - [01/Nov/2018:14:13:17 +0000] "GET /wp-login.php HTTP/1.1" 200 2399 "-" "Mozilla/5.0 (Windows NT 6.1; WOW64; rv:40.0) Gecko/20100101 Firefox/40.1"
213.49.34.173 - - [01/Nov/2018:14:13:18 +0000] "GET / HTTP/1.1" 200 60642 "-" "Mozilla/5.0 (Windows NT 6.1; WOW64; rv:40.0) Gecko/20100101 Firefox/40.1"
34.201.64.132 - - [01/Nov/2018:14:15:09 +0000] "GET /wp-login.php HTTP/1.1" 200 1426 "https://www.google.com/url?bfc0f2567f4815a61fdeeee7235946bf" "Mozilla/5.0 (Windows NT 5.1; rv:28.0) Gecko/20100101 Firefox/28.0"
34.201.64.132 - - [01/Nov/2018:14:15:09 +0000] "POST /wp-login.php HTTP/1.1" 200 1844 "https://www.google.com/url?bfc0f2567f4815a61fdeeee7235946bf" "Mozilla/5.0 (Windows NT 5.1; rv:28.0) Gecko/20100101 Firefox/28.0"
89.163.131.166 - - [01/Nov/2018:14:40:01 +0000] "HEAD / HTTP/1.1" 200 0 "-" "Mozilla/5.0 (compatible; Uptimebot/1.0; +http://www.uptime.com/uptimebot)"
34.210.223.121 - - [01/Nov/2018:14:50:00 +0000] "GET /wp-login.php HTTP/1.1" 200 1520 "https://www.google.com/url?643b51bb24d9057381ea7bbb069c88c5" "Mozilla/5.0 (Windows NT 6.0; rv:29.0) Gecko/20120101 Firefox/29.0"
34.210.223.121 - - [01/Nov/2018:14:50:01 +0000] "POST /wp-login.php HTTP/1.1" 200 1782 "https://www.google.com/url?643b51bb24d9057381ea7bbb069c88c5" "Mozilla/5.0 (Windows NT 6.0; rv:29.0) Gecko/20120101 Firefox/29.0"
203.129.113.142 - - [01/Nov/2018:15:28:59 +0000] "GET /wp-main.php HTTP/1.1" 404 209 "xintanalegends.com" "Mozilla/5.0 (Windows NT 6.1; WOW64) AppleWebKit/537.36 (KHTML, like Gecko) Chrome/50.0.2661.75 Safari/537.36"
31.170.123.73 - - [01/Nov/2018:16:24:04 +0000] "POST /wp-cron.php?doing_wp_cron=1541089443.3959751129150390625000 HTTP/1.1" 499 0 "http://xintanalegends.com/wp-cron.php?doing_wp_cron=1541089443.3959751129150390625000" "WordPress/4.9.8; http://xintanalegends.com"
185.56.80.242 - - [01/Nov/2018:16:24:04 +0000] "GET / HTTP/1.1" 200 60555 "http://xintana.com" "Mozilla/5.0 (Windows NT 6.3; WOW64; Trident/7.0; Touch; rv:11.0) like Gecko"
185.56.80.242 - - [01/Nov/2018:16:24:05 +0000] "GET / HTTP/1.1" 200 60656 "http://xintanalegends.com" "Mozilla/5.0 (Windows NT 6.3; WOW64; Trident/7.0; Touch; rv:11.0) like Gecko"
89.248.169.130 - - [01/Nov/2018:16:29:30 +0000] "POST /xmlrpc.php HTTP/1.1" 200 410 "-" "Mozilla/5.0 (Macintosh; U; Intel Mac OS X 10.6; fr; rv:1.9.2.8) Gecko/20100722 Firefox/3.6.8"
89.248.169.130 - - [01/Nov/2018:16:29:30 +0000] "POST /xmlrpc.php HTTP/1.1" 200 410 "-" "Mozilla/5.0 (Macintosh; U; Intel Mac OS X 10.6; fr; rv:1.9.2.8) Gecko/20100722 Firefox/3.6.8"
89.248.169.130 - - [01/Nov/2018:16:29:30 +0000] "POST /xmlrpc.php HTTP/1.1" 200 410 "-" "Mozilla/5.0 (Macintosh; U; Intel Mac OS X 10.6; fr; rv:1.9.2.8) Gecko/20100722 Firefox/3.6.8"
89.248.169.130 - - [01/Nov/2018:16:29:30 +0000] "POST /xmlrpc.php HTTP/1.1" 200 410 "-" "Mozilla/5.0 (Macintosh; U; Intel Mac OS X 10.6; fr; rv:1.9.2.8) Gecko/20100722 Firefox/3.6.8"
31.170.123.73 - - [01/Nov/2018:17:01:41 +0000] "POST /wp-cron.php?doing_wp_cron=1541091701.1940670013427734375000 HTTP/1.1" 200 40 "http://xintanalegends.com/wp-cron.php?doing_wp_cron=1541091701.1940670013427734375000" "WordPress/4.9.8; http://xintanalegends.com"
178.62.82.141 - - [01/Nov/2018:17:01:41 +0000] "GET / HTTP/1.1" 200 14689 "-" "Mozilla/5.0 (Windows NT 6.0) AppleWebKit/537.36 (KHTML, like Gecko) Chrome/34.0.1847.116 Safari/537.36"
193.201.224.210 - - [01/Nov/2018:17:06:56 +0000] "GET /wp-content/plugins/wp-mailinglist/vendors/uploadify/upload.php HTTP/1.1" 404 240 "http://xintana.com/wp-content/plugins/wp-mailinglist/vendors/uploadify/upload.php" "Mozilla/5.0 (Windows NT 6.1; WOW64) AppleWebKit/537.36 (KHTML, like Gecko) Chrome/42.0.2311.152 Safari/537.36"
123.125.67.221 - - [01/Nov/2018:17:23:21 +0000] "GET /robots.txt HTTP/1.1" 404 204 "-" "Mozilla/5.0 (Windows NT 10.0; WOW64) AppleWebKit/537.36 (KHTML, like Gecko) Chrome/45.0.2454.93 Safari/537.36"
80.211.27.105 - - [01/Nov/2018:17:42:51 +0000] "GET /user/register/ HTTP/1.1" 404 212 "-" "Mozilla/5.0 (Windows; U; Windows NT 5.1; de; rv:1.9) Gecko/2008052906 Firefox/3.0"
80.211.27.105 - - [01/Nov/2018:17:42:51 +0000] "GET /user/register/ HTTP/1.1" 404 212 "-" "Mozilla/5.0 (Windows; U; Windows NT 5.1; de; rv:1.9) Gecko/2008052906 Firefox/3.0"
193.201.224.210 - - [01/Nov/2018:17:53:21 +0000] "GET /wp-content/themes/RightNow/includes/uploadify/upload_settings_image.php HTTP/1.1" 404 248 "http://xintana.com/wp-content/themes/RightNow/includes/uploadify/upload_settings_image.php" "Mozilla/5.0 (Windows NT 6.1; WOW64) AppleWebKit/537.36 (KHTML, like Gecko) Chrome/42.0.2311.152 Safari/537.36"
54.36.148.65 - - [01/Nov/2018:17:58:39 +0000] "GET /wp-content/uploads/2018/02/Screenshot_Fight_01.jpg HTTP/1.1" 200 83742 "-" "Mozilla/5.0 (compatible; AhrefsBot/5.2; +http://ahrefs.com/robot/)"
31.170.123.73 - - [01/Nov/2018:18:25:21 +0000] "POST /wp-cron.php?doing_wp_cron=1541096720.6274518966674804687500 HTTP/1.1" 200 40 "http://xintanalegends.com/wp-cron.php?doing_wp_cron=1541096720.6274518966674804687500" "WordPress/4.9.8; http://xintanalegends.com"
52.91.23.174 - - [01/Nov/2018:18:25:21 +0000] "GET /wp-login.php HTTP/1.1" 200 1507 "https://www.google.com/url?bfc0f2567f4815a61fdeeee7235946bf" "Mozilla/5.0 (Windows NT 5.1; rv:28.0) Gecko/20100101 Firefox/28.0"
52.91.23.174 - - [01/Nov/2018:18:25:21 +0000] "POST /wp-login.php HTTP/1.1" 200 1898 "https://www.google.com/url?bfc0f2567f4815a61fdeeee7235946bf" "Mozilla/5.0 (Windows NT 5.1; rv:28.0) Gecko/20100101 Firefox/28.0"
178.170.82.27 - - [01/Nov/2018:18:29:32 +0000] "GET /wp-clear.php HTTP/1.1" 404 210 "xintanalegends.com" "Mozilla/5.0 (Windows NT 6.1; WOW64) AppleWebKit/537.36 (KHTML, like Gecko) Chrome/50.0.2661.75 Safari/537.36"
185.85.191.196 - - [01/Nov/2018:18:55:16 +0000] "GET /wp-login.php HTTP/1.1" 200 2393 "-" "Mozilla/5.0 (Windows NT 10.0; WOW64) AppleWebKit/537.36 (KHTML, like Gecko) Chrome/51.0.2704.103 Safari/537.36"
185.85.191.196 - - [01/Nov/2018:18:55:17 +0000] "POST /wp-login.php HTTP/1.1" 200 3325 "http://xintanalegends.com/wp-login.php" "Mozilla/5.0 (Windows NT 10.0; WOW64) AppleWebKit/537.36 (KHTML, like Gecko) Chrome/51.0.2704.103 Safari/537.36"
120.35.38.212 - - [01/Nov/2018:19:06:28 +0000] "HEAD /wp-content/themes/twentyseventeen/search.php HTTP/1.1" 200 0 "-" "-"
31.170.123.73 - - [01/Nov/2018:19:15:45 +0000] "POST /wp-cron.php?doing_wp_cron=1541099745.5334711074829101562500 HTTP/1.1" 200 40 "http://xintanalegends.com/wp-cron.php?doing_wp_cron=1541099745.5334711074829101562500" "WordPress/4.9.8; http://xintanalegends.com"
18.206.231.127 - - [01/Nov/2018:19:15:45 +0000] "GET /wp-login.php HTTP/1.1" 200 1473 "https://www.google.com/url?643b51bb24d9057381ea7bbb069c88c5" "Mozilla/5.0 (Windows NT 6.2; WOW64; rv:31.0) Gecko/20100101 Firefox/31.0"
18.206.231.127 - - [01/Nov/2018:19:15:47 +0000] "POST /wp-login.php HTTP/1.1" 200 1993 "https://www.google.com/url?643b51bb24d9057381ea7bbb069c88c5" "Mozilla/5.0 (Windows NT 6.2; WOW64; rv:31.0) Gecko/20100101 Firefox/31.0"
185.85.239.195 - - [01/Nov/2018:19:39:16 +0000] "GET /wp-login.php HTTP/1.1" 200 2399 "-" "Mozilla/5.0 (Windows NT 10.0; WOW64) AppleWebKit/537.36 (KHTML, like Gecko) Chrome/51.0.2704.103 Safari/537.36"
185.85.239.195 - - [01/Nov/2018:19:39:16 +0000] "POST /wp-login.php HTTP/1.1" 200 3356 "http://xintanalegends.com/wp-login.php" "Mozilla/5.0 (Windows NT 10.0; WOW64) AppleWebKit/537.36 (KHTML, like Gecko) Chrome/51.0.2704.103 Safari/537.36"
79.140.41.203 - - [01/Nov/2018:19:57:14 +0000] "GET /wp-main.php HTTP/1.1" 404 209 "xintana.com" "Mozilla/5.0 (Windows NT 6.1; WOW64) AppleWebKit/537.36 (KHTML, like Gecko) Chrome/50.0.2661.75 Safari/537.36"
31.170.123.73 - - [01/Nov/2018:20:24:34 +0000] "POST /wp-cron.php?doing_wp_cron=1541103873.6904199123382568359375 HTTP/1.1" 200 40 "http://xintanalegends.com/wp-cron.php?doing_wp_cron=1541103873.6904199123382568359375" "WordPress/4.9.8; http://xintanalegends.com"
54.36.148.106 - - [01/Nov/2018:20:24:34 +0000] "GET /?feed=rss2&p=1395 HTTP/1.1" 200 779 "-" "Mozilla/5.0 (compatible; AhrefsBot/5.2; +http://ahrefs.com/robot/)"
2a01:4f8:13a:1393::2 - - [01/Nov/2018:20:39:30 +0000] "GET / HTTP/1.1" 301 5 "-" "Mozilla/5.0 (X11; Ubuntu; Linux i686; rv:62.0.2) Gecko/20100101 Firefox/62.0.2"
2a01:4f8:13a:1393::2 - - [01/Nov/2018:20:39:31 +0000] "GET / HTTP/1.1" 200 14614 "http://www.xintanalegends.com/" "Mozilla/5.0 (X11; Ubuntu; Linux i686; rv:62.0.2) Gecko/20100101 Firefox/62.0.2"
31.170.123.73 - - [01/Nov/2018:21:09:26 +0000] "POST /wp-cron.php?doing_wp_cron=1541106566.1817209720611572265625 HTTP/1.1" 200 40 "http://xintanalegends.com/wp-cron.php?doing_wp_cron=1541106566.1817209720611572265625" "WordPress/4.9.8; http://xintanalegends.com"
209.17.97.66 - - [01/Nov/2018:21:09:26 +0000] "GET / HTTP/1.1" 200 60637 "-" "Mozilla/5.0 (compatible; Nimbostratus-Bot/v1.3.2; http://cloudsystemnetworks.com)"
31.170.123.73 - - [01/Nov/2018:22:03:14 +0000] "POST /wp-cron.php?doing_wp_cron=1541109793.6189150810241699218750 HTTP/1.1" 200 40 "http://xintanalegends.com/wp-cron.php?doing_wp_cron=1541109793.6189150810241699218750" "WordPress/4.9.8; http://xintanalegends.com"
45.125.32.179 - - [01/Nov/2018:22:03:14 +0000] "POST /wp-login.php HTTP/1.1" 200 1887 "http://xintanalegends.com/wp-login.php" "Mozilla/5.0 (Windows NT 10.0; WOW64) AppleWebKit/535.11.68 (KHTML, like Gecko) Chrome/53.6.1909.5637 Safari/534.50"
157.55.39.140 - - [01/Nov/2018:22:34:12 +0000] "GET /?page_id=1548 HTTP/1.1" 200 24262 "-" "Mozilla/5.0 (compatible; bingbot/2.0; +http://www.bing.com/bingbot.htm)"
54.36.150.98 - - [01/Nov/2018:22:49:58 +0000] "GET /robots.txt HTTP/1.1" 404 204 "-" "Mozilla/5.0 (compatible; AhrefsBot/5.2; +http://ahrefs.com/robot/)"
31.170.123.73 - - [01/Nov/2018:23:05:39 +0000] "POST /wp-cron.php?doing_wp_cron=1541113539.5793740749359130859375 HTTP/1.1" 200 40 "http://xintanalegends.com/wp-cron.php?doing_wp_cron=1541113539.5793740749359130859375" "WordPress/4.9.8; http://xintanalegends.com"
35.166.192.195 - - [01/Nov/2018:23:05:39 +0000] "GET /wp-login.php HTTP/1.1" 200 1489 "https://www.google.com/url?bfc0f2567f4815a61fdeeee7235946bf" "Mozilla/5.0 (Windows NT 5.1; rv:33.0) Gecko/20100101 Firefox/33.0"
35.166.192.195 - - [01/Nov/2018:23:05:40 +0000] "POST /wp-login.php HTTP/1.1" 200 1896 "https://www.google.com/url?bfc0f2567f4815a61fdeeee7235946bf" "Mozilla/5.0 (Windows NT 5.1; rv:33.0) Gecko/20100101 Firefox/33.0"
120.35.38.212 - - [01/Nov/2018:23:15:47 +0000] "HEAD /wp-content/themes/twentyseventeen/search.php HTTP/1.1" 200 0 "-" "-"
192.169.197.81 - - [01/Nov/2018:23:34:11 +0000] "GET /wp-clear.php HTTP/1.1" 404 210 "xintana.com" "Mozilla/5.0 (Windows NT 6.1; WOW64) AppleWebKit/537.36 (KHTML, like Gecko) Chrome/50.0.2661.75 Safari/537.36"
35.163.182.82 - - [02/Nov/2018:00:00:15 +0000] "GET /wp-login.php HTTP/1.1" 200 1532 "https://www.google.com/url?643b51bb24d9057381ea7bbb069c88c5" "Mozilla/5.0 (Windows NT 6.1; WOW64; rv:31.0) Gecko/20100101 Firefox/31.0"
35.163.182.82 - - [02/Nov/2018:00:00:30 +0000] "POST /wp-login.php HTTP/1.1" 200 1843 "https://www.google.com/url?643b51bb24d9057381ea7bbb069c88c5" "Mozilla/5.0 (Windows NT 6.1; WOW64; rv:31.0) Gecko/20100101 Firefox/31.0"
31.170.123.73 - - [02/Nov/2018:00:18:56 +0000] "POST /wp-cron.php?doing_wp_cron=1541117936.2740139961242675781250 HTTP/1.1" 200 40 "http://xintanalegends.com/wp-cron.php?doing_wp_cron=1541117936.2740139961242675781250" "WordPress/4.9.8; http://xintanalegends.com"
206.180.165.147 - - [02/Nov/2018:00:18:56 +0000] "GET / HTTP/1.1" 200 14660 "-" "Mozilla/5.0 (Windows NT 10.0; Win64; x64) AppleWebKit/537.36 (KHTML, like Gecko) Chrome/65.0.3325.181 Safari/537.36"
89.248.169.130 - - [02/Nov/2018:00:52:22 +0000] "POST /xmlrpc.php HTTP/1.1" 200 410 "-" "Mozilla/5.0 (Macintosh; U; Intel Mac OS X 10.6; fr; rv:1.9.2.8) Gecko/20100722 Firefox/3.6.8"
89.248.169.130 - - [02/Nov/2018:00:52:22 +0000] "POST /xmlrpc.php HTTP/1.1" 200 410 "-" "Mozilla/5.0 (Macintosh; U; Intel Mac OS X 10.6; fr; rv:1.9.2.8) Gecko/20100722 Firefox/3.6.8"
89.248.169.130 - - [02/Nov/2018:00:52:22 +0000] "POST /xmlrpc.php HTTP/1.1" 200 410 "-" "Mozilla/5.0 (Macintosh; U; Intel Mac OS X 10.6; fr; rv:1.9.2.8) Gecko/20100722 Firefox/3.6.8"
89.248.169.130 - - [02/Nov/2018:00:52:22 +0000] "POST /xmlrpc.php HTTP/1.1" 200 410 "-" "Mozilla/5.0 (Macintosh; U; Intel Mac OS X 10.6; fr; rv:1.9.2.8) Gecko/20100722 Firefox/3.6.8"
123.57.254.142 - - [02/Nov/2018:00:57:08 +0000] "POST /xmlrpc.php HTTP/1.1" 200 415 "-" "Mozilla/5.0 (Macintosh; U; Intel Mac OS X 10.6; fr; rv:1.9.2.8) Gecko/20100722 Firefox/3.6.8"
123.57.254.142 - - [02/Nov/2018:00:57:08 +0000] "POST /xmlrpc.php HTTP/1.1" 200 415 "-" "Mozilla/5.0 (Macintosh; U; Intel Mac OS X 10.6; fr; rv:1.9.2.8) Gecko/20100722 Firefox/3.6.8"
31.170.123.73 - - [02/Nov/2018:01:37:41 +0000] "POST /wp-cron.php?doing_wp_cron=1541122660.6669509410858154296875 HTTP/1.1" 200 40 "http://xintanalegends.com/wp-cron.php?doing_wp_cron=1541122660.6669509410858154296875" "WordPress/4.9.8; http://xintanalegends.com"
89.163.131.167 - - [02/Nov/2018:01:37:41 +0000] "HEAD / HTTP/1.1" 200 0 "-" "Mozilla/5.0 (compatible; Uptimebot/1.0; +http://www.uptime.com/uptimebot)"
13.78.24.40 - - [02/Nov/2018:02:24:29 +0000] "GET /robots.txt HTTP/1.1" 404 208 "-" "Mozilla/5.0 (Windows NT 10.0; Win64; x64; rv:50.0) Gecko/20100101 Firefox/50.0"
31.170.123.73 - - [02/Nov/2018:02:24:30 +0000] "POST /wp-cron.php?doing_wp_cron=1541125470.3338429927825927734375 HTTP/1.1" 200 40 "http://xintanalegends.com/wp-cron.php?doing_wp_cron=1541125470.3338429927825927734375" "WordPress/4.9.8; http://xintanalegends.com"
13.78.24.40 - - [02/Nov/2018:02:24:30 +0000] "GET /xmlrpc.php?rsd HTTP/1.1" 200 909 "-" "Mozilla/5.0 (Windows NT 10.0; Win64; x64; rv:50.0) Gecko/20100101 Firefox/50.0"
13.78.24.40 - - [02/Nov/2018:02:24:32 +0000] "GET /?author=1 HTTP/1.1" 200 87090 "-" "Mozilla/5.0 (Windows NT 10.0; Win64; x64; rv:50.0) Gecko/20100101 Firefox/50.0"
13.78.24.40 - - [02/Nov/2018:02:24:32 +0000] "GET /wp-json/wp/v2/users/ HTTP/1.1" 404 218 "-" "Mozilla/5.0 (Windows NT 10.0; Win64; x64; rv:50.0) Gecko/20100101 Firefox/50.0"
13.78.24.40 - - [02/Nov/2018:02:24:34 +0000] "POST /xmlrpc.php HTTP/1.1" 200 86046 "-" "Mozilla/5.0 (Windows NT 10.0; Win64; x64; rv:50.0) Gecko/20100101 Firefox/50.0"
13.78.24.40 - - [02/Nov/2018:02:24:36 +0000] "POST /xmlrpc.php HTTP/1.1" 200 86070 "-" "Mozilla/5.0 (Windows NT 10.0; Win64; x64; rv:50.0) Gecko/20100101 Firefox/50.0"
13.78.24.40 - - [02/Nov/2018:02:24:37 +0000] "POST /xmlrpc.php HTTP/1.1" 200 86030 "-" "Mozilla/5.0 (Windows NT 10.0; Win64; x64; rv:50.0) Gecko/20100101 Firefox/50.0"
13.78.24.40 - - [02/Nov/2018:02:24:38 +0000] "POST /xmlrpc.php HTTP/1.1" 200 86046 "-" "Mozilla/5.0 (Windows NT 10.0; Win64; x64; rv:50.0) Gecko/20100101 Firefox/50.0"
13.78.24.40 - - [02/Nov/2018:02:24:39 +0000] "POST /xmlrpc.php HTTP/1.1" 200 86038 "-" "Mozilla/5.0 (Windows NT 10.0; Win64; x64; rv:50.0) Gecko/20100101 Firefox/50.0"
13.78.24.40 - - [02/Nov/2018:02:24:40 +0000] "POST /xmlrpc.php HTTP/1.1" 200 86062 "-" "Mozilla/5.0 (Windows NT 10.0; Win64; x64; rv:50.0) Gecko/20100101 Firefox/50.0"
13.78.24.40 - - [02/Nov/2018:02:24:41 +0000] "POST /xmlrpc.php HTTP/1.1" 200 86070 "-" "Mozilla/5.0 (Windows NT 10.0; Win64; x64; rv:50.0) Gecko/20100101 Firefox/50.0"
