[Fri Nov 02 18:30:08.591084 2018] [:error] [pid 60494] [client 2001:41d0:2:8ac5:::37160] [client 2001:41d0:2:8ac5::] ModSecurity: IPmatch: bad IPv6 specification "2001:41d0:2:8ac5". [hostname "gameworkforce.com"] [uri "/wp-content/wp-object-cache.php"] [unique_id "W9yXsHIVabEx5FqbCyyTpAAAABc"], referer: gameworkforce.com
[Fri Nov 02 18:30:08.591127 2018] [:error] [pid 60494] [client 2001:41d0:2:8ac5:::37160] [client 2001:41d0:2:8ac5::] ModSecurity: Rule processing failed (id=21001, msg=). [hostname "gameworkforce.com"] [uri "/wp-content/wp-object-cache.php"] [unique_id "W9yXsHIVabEx5FqbCyyTpAAAABc"], referer: gameworkforce.com
[Fri Nov 02 18:30:08.591141 2018] [:error] [pid 60494] [client 2001:41d0:2:8ac5:::37160] [client 2001:41d0:2:8ac5::] ModSecurity: IPmatch: bad IPv6 specification "2001:41d0:2:8ac5". [hostname "gameworkforce.com"] [uri "/wp-content/wp-object-cache.php"] [unique_id "W9yXsHIVabEx5FqbCyyTpAAAABc"], referer: gameworkforce.com
[Fri Nov 02 18:30:08.591154 2018] [:error] [pid 60494] [client 2001:41d0:2:8ac5:::37160] [client 2001:41d0:2:8ac5::] ModSecurity: Rule processing failed (id=22001, msg=). [hostname "gameworkforce.com"] [uri "/wp-content/wp-object-cache.php"] [unique_id "W9yXsHIVabEx5FqbCyyTpAAAABc"], referer: gameworkforce.com
[Fri Nov 02 18:30:08.591166 2018] [:error] [pid 60494] [client 2001:41d0:2:8ac5:::37160] [client 2001:41d0:2:8ac5::] ModSecurity: IPmatch: bad IPv6 specification "2001:41d0:2:8ac5". [hostname "gameworkforce.com"] [uri "/wp-content/wp-object-cache.php"] [unique_id "W9yXsHIVabEx5FqbCyyTpAAAABc"], referer: gameworkforce.com
[Fri Nov 02 18:30:08.591177 2018] [:error] [pid 60494] [client 2001:41d0:2:8ac5:::37160] [client 2001:41d0:2:8ac5::] ModSecurity: Rule processing failed (id=22002, msg=). [hostname "gameworkforce.com"] [uri "/wp-content/wp-object-cache.php"] [unique_id "W9yXsHIVabEx5FqbCyyTpAAAABc"], referer: gameworkforce.com
[Fri Nov 02 18:30:08.591188 2018] [:error] [pid 60494] [client 2001:41d0:2:8ac5:::37160] [client 2001:41d0:2:8ac5::] ModSecurity: IPmatch: bad IPv6 specification "2001:41d0:2:8ac5". [hostname "gameworkforce.com"] [uri "/wp-content/wp-object-cache.php"] [unique_id "W9yXsHIVabEx5FqbCyyTpAAAABc"], referer: gameworkforce.com
[Fri Nov 02 18:30:08.591198 2018] [:error] [pid 60494] [client 2001:41d0:2:8ac5:::37160] [client 2001:41d0:2:8ac5::] ModSecurity: Rule processing failed (id=22003, msg=). [hostname "gameworkforce.com"] [uri "/wp-content/wp-object-cache.php"] [unique_id "W9yXsHIVabEx5FqbCyyTpAAAABc"], referer: gameworkforce.com
[Fri Nov 02 18:30:08.591218 2018] [:error] [pid 60494] [client 2001:41d0:2:8ac5:::37160] [client 2001:41d0:2:8ac5::] ModSecurity: IPmatch: bad IPv6 specification "2001:41d0:2:8ac5". [hostname "gameworkforce.com"] [uri "/wp-content/wp-object-cache.php"] [unique_id "W9yXsHIVabEx5FqbCyyTpAAAABc"], referer: gameworkforce.com
[Fri Nov 02 18:30:08.591228 2018] [:error] [pid 60494] [client 2001:41d0:2:8ac5:::37160] [client 2001:41d0:2:8ac5::] ModSecurity: Rule processing failed (id=22004, msg=). [hostname "gameworkforce.com"] [uri "/wp-content/wp-object-cache.php"] [unique_id "W9yXsHIVabEx5FqbCyyTpAAAABc"], referer: gameworkforce.com
[Fri Nov 02 18:30:08.591239 2018] [:error] [pid 60494] [client 2001:41d0:2:8ac5:::37160] [client 2001:41d0:2:8ac5::] ModSecurity: IPmatch: bad IPv6 specification "2001:41d0:2:8ac5". [hostname "gameworkforce.com"] [uri "/wp-content/wp-object-cache.php"] [unique_id "W9yXsHIVabEx5FqbCyyTpAAAABc"], referer: gameworkforce.com
[Fri Nov 02 18:30:08.591252 2018] [:error] [pid 60494] [client 2001:41d0:2:8ac5:::37160] [client 2001:41d0:2:8ac5::] ModSecurity: Rule processing failed (id=22005, msg=). [hostname "gameworkforce.com"] [uri "/wp-content/wp-object-cache.php"] [unique_id "W9yXsHIVabEx5FqbCyyTpAAAABc"], referer: gameworkforce.com
[Fri Nov 02 18:30:08.591264 2018] [:error] [pid 60494] [client 2001:41d0:2:8ac5:::37160] [client 2001:41d0:2:8ac5::] ModSecurity: IPmatch: bad IPv6 specification "2001:41d0:2:8ac5". [hostname "gameworkforce.com"] [uri "/wp-content/wp-object-cache.php"] [unique_id "W9yXsHIVabEx5FqbCyyTpAAAABc"], referer: gameworkforce.com
[Fri Nov 02 18:30:08.591286 2018] [:error] [pid 60494] [client 2001:41d0:2:8ac5:::37160] [client 2001:41d0:2:8ac5::] ModSecurity: Rule processing failed (id=22006, msg=). [hostname "gameworkforce.com"] [uri "/wp-content/wp-object-cache.php"] [unique_id "W9yXsHIVabEx5FqbCyyTpAAAABc"], referer: gameworkforce.com
