[Sat Nov 03 10:44:07.137516 2018] [access_compat:error] [pid 157444] [client 31.170.123.73:32882] AH01797: client denied by server configuration: /home/radicalg/webapps/handycraft_wp/.user.ini, referer: http://handycraft.co/.user.ini
[Sat Nov 03 19:41:48.324215 2018] [:error] [pid 48545] [client 193.201.224.17:56860] [client 193.201.224.17] ModSecurity: Access denied with code 403 (phase 2). Operator GE matched 20 at IP:bf_counter. [file "/etc/httpd/conf.modules.d/10-mod_security.conf"] [line "80"] [id "10033"] [msg "193.201.224.17 dropped in iptables/ip6tables for 10 minutes because of suspected brute-force attack."] [hostname "handycraft.co"] [uri "/wp-login.php"] [unique_id "W935-Ggie5Jjzsuw81tW8gAAAAY"]
[Sat Nov 03 19:41:48.465229 2018] [:error] [pid 37173] [client 193.201.224.17:56874] [client 193.201.224.17] ModSecurity: Access denied with code 403 (phase 2). Operator GE matched 20 at IP:bf_counter. [file "/etc/httpd/conf.modules.d/10-mod_security.conf"] [line "80"] [id "10033"] [msg "193.201.224.17 dropped in iptables/ip6tables for 10 minutes because of suspected brute-force attack."] [hostname "handycraft.co"] [uri "/wp-login.php"] [unique_id "W935-Eoh5GcoPu8ihe401AAAAAI"]
