2018/11/03 13:20:42 [warn] 86986#0: *85023435 a client request body is buffered to a temporary file /var/cache/nginx/client_temp/0000135177, client: 13.78.24.40, server: www.xintana.com, request: "POST /xmlrpc.php HTTP/1.1", host: "xintanalegends.com"
2018/11/03 13:20:44 [warn] 86986#0: *85023435 a client request body is buffered to a temporary file /var/cache/nginx/client_temp/0000135178, client: 13.78.24.40, server: www.xintana.com, request: "POST /xmlrpc.php HTTP/1.1", host: "xintanalegends.com"
2018/11/03 13:20:45 [warn] 86986#0: *85023435 a client request body is buffered to a temporary file /var/cache/nginx/client_temp/0000135179, client: 13.78.24.40, server: www.xintana.com, request: "POST /xmlrpc.php HTTP/1.1", host: "xintanalegends.com"
2018/11/03 13:20:46 [warn] 86986#0: *85023435 a client request body is buffered to a temporary file /var/cache/nginx/client_temp/0000135180, client: 13.78.24.40, server: www.xintana.com, request: "POST /xmlrpc.php HTTP/1.1", host: "xintanalegends.com"
2018/11/03 13:20:47 [warn] 86986#0: *85023435 a client request body is buffered to a temporary file /var/cache/nginx/client_temp/0000135181, client: 13.78.24.40, server: www.xintana.com, request: "POST /xmlrpc.php HTTP/1.1", host: "xintanalegends.com"
2018/11/03 13:20:48 [warn] 86986#0: *85023435 a client request body is buffered to a temporary file /var/cache/nginx/client_temp/0000135182, client: 13.78.24.40, server: www.xintana.com, request: "POST /xmlrpc.php HTTP/1.1", host: "xintanalegends.com"
2018/11/03 13:20:49 [warn] 86986#0: *85023435 a client request body is buffered to a temporary file /var/cache/nginx/client_temp/0000135183, client: 13.78.24.40, server: www.xintana.com, request: "POST /xmlrpc.php HTTP/1.1", host: "xintanalegends.com"
2018/11/03 16:05:03 [warn] 86986#0: *85390567 a client request body is buffered to a temporary file /var/cache/nginx/client_temp/0000135820, client: 149.56.251.139, server: www.xintana.com, request: "POST /xmlrpc.php HTTP/1.1", host: "xintana.com"
2018/11/03 18:12:42 [warn] 86985#0: *85682874 a client request body is buffered to a temporary file /var/cache/nginx/client_temp/0000136223, client: 51.68.112.111, server: www.xintana.com, request: "POST /wp-admin/admin-ajax.php HTTP/1.1", host: "xintanalegends.com"
2018/11/03 18:12:44 [warn] 86986#0: *85682975 a client request body is buffered to a temporary file /var/cache/nginx/client_temp/0000136224, client: 51.68.112.111, server: www.xintana.com, request: "POST /wp-content/plugins/wp-symposium/server/php/index.php HTTP/1.1", host: "xintanalegends.com"
