[Wed Oct 31 09:30:53.657804 2018] [:error] [pid 82602] [client 2001:41d0:2:8ac5:::40460] [client 2001:41d0:2:8ac5::] ModSecurity: IPmatch: bad IPv6 specification "2001:41d0:2:8ac5". [hostname "xintanalegends.com"] [uri "/assets/images/seo_script.php"] [unique_id "W9l2TbfGt9fjgrPP0cF9bQAAABk"], referer: xintanalegends.com
[Wed Oct 31 09:30:53.657843 2018] [:error] [pid 82602] [client 2001:41d0:2:8ac5:::40460] [client 2001:41d0:2:8ac5::] ModSecurity: Rule processing failed (id=21001, msg=). [hostname "xintanalegends.com"] [uri "/assets/images/seo_script.php"] [unique_id "W9l2TbfGt9fjgrPP0cF9bQAAABk"], referer: xintanalegends.com
[Wed Oct 31 09:30:53.657869 2018] [:error] [pid 82602] [client 2001:41d0:2:8ac5:::40460] [client 2001:41d0:2:8ac5::] ModSecurity: IPmatch: bad IPv6 specification "2001:41d0:2:8ac5". [hostname "xintanalegends.com"] [uri "/assets/images/seo_script.php"] [unique_id "W9l2TbfGt9fjgrPP0cF9bQAAABk"], referer: xintanalegends.com
[Wed Oct 31 09:30:53.657880 2018] [:error] [pid 82602] [client 2001:41d0:2:8ac5:::40460] [client 2001:41d0:2:8ac5::] ModSecurity: Rule processing failed (id=22001, msg=). [hostname "xintanalegends.com"] [uri "/assets/images/seo_script.php"] [unique_id "W9l2TbfGt9fjgrPP0cF9bQAAABk"], referer: xintanalegends.com
[Wed Oct 31 09:30:53.657891 2018] [:error] [pid 82602] [client 2001:41d0:2:8ac5:::40460] [client 2001:41d0:2:8ac5::] ModSecurity: IPmatch: bad IPv6 specification "2001:41d0:2:8ac5". [hostname "xintanalegends.com"] [uri "/assets/images/seo_script.php"] [unique_id "W9l2TbfGt9fjgrPP0cF9bQAAABk"], referer: xintanalegends.com
[Wed Oct 31 09:30:53.657904 2018] [:error] [pid 82602] [client 2001:41d0:2:8ac5:::40460] [client 2001:41d0:2:8ac5::] ModSecurity: Rule processing failed (id=22002, msg=). [hostname "xintanalegends.com"] [uri "/assets/images/seo_script.php"] [unique_id "W9l2TbfGt9fjgrPP0cF9bQAAABk"], referer: xintanalegends.com
[Wed Oct 31 09:30:53.657915 2018] [:error] [pid 82602] [client 2001:41d0:2:8ac5:::40460] [client 2001:41d0:2:8ac5::] ModSecurity: IPmatch: bad IPv6 specification "2001:41d0:2:8ac5". [hostname "xintanalegends.com"] [uri "/assets/images/seo_script.php"] [unique_id "W9l2TbfGt9fjgrPP0cF9bQAAABk"], referer: xintanalegends.com
[Wed Oct 31 09:30:53.657925 2018] [:error] [pid 82602] [client 2001:41d0:2:8ac5:::40460] [client 2001:41d0:2:8ac5::] ModSecurity: Rule processing failed (id=22003, msg=). [hostname "xintanalegends.com"] [uri "/assets/images/seo_script.php"] [unique_id "W9l2TbfGt9fjgrPP0cF9bQAAABk"], referer: xintanalegends.com
[Wed Oct 31 09:30:53.657937 2018] [:error] [pid 82602] [client 2001:41d0:2:8ac5:::40460] [client 2001:41d0:2:8ac5::] ModSecurity: IPmatch: bad IPv6 specification "2001:41d0:2:8ac5". [hostname "xintanalegends.com"] [uri "/assets/images/seo_script.php"] [unique_id "W9l2TbfGt9fjgrPP0cF9bQAAABk"], referer: xintanalegends.com
[Wed Oct 31 09:30:53.657949 2018] [:error] [pid 82602] [client 2001:41d0:2:8ac5:::40460] [client 2001:41d0:2:8ac5::] ModSecurity: Rule processing failed (id=22004, msg=). [hostname "xintanalegends.com"] [uri "/assets/images/seo_script.php"] [unique_id "W9l2TbfGt9fjgrPP0cF9bQAAABk"], referer: xintanalegends.com
[Wed Oct 31 09:30:53.657960 2018] [:error] [pid 82602] [client 2001:41d0:2:8ac5:::40460] [client 2001:41d0:2:8ac5::] ModSecurity: IPmatch: bad IPv6 specification "2001:41d0:2:8ac5". [hostname "xintanalegends.com"] [uri "/assets/images/seo_script.php"] [unique_id "W9l2TbfGt9fjgrPP0cF9bQAAABk"], referer: xintanalegends.com
[Wed Oct 31 09:30:53.657970 2018] [:error] [pid 82602] [client 2001:41d0:2:8ac5:::40460] [client 2001:41d0:2:8ac5::] ModSecurity: Rule processing failed (id=22005, msg=). [hostname "xintanalegends.com"] [uri "/assets/images/seo_script.php"] [unique_id "W9l2TbfGt9fjgrPP0cF9bQAAABk"], referer: xintanalegends.com
[Wed Oct 31 09:30:53.657981 2018] [:error] [pid 82602] [client 2001:41d0:2:8ac5:::40460] [client 2001:41d0:2:8ac5::] ModSecurity: IPmatch: bad IPv6 specification "2001:41d0:2:8ac5". [hostname "xintanalegends.com"] [uri "/assets/images/seo_script.php"] [unique_id "W9l2TbfGt9fjgrPP0cF9bQAAABk"], referer: xintanalegends.com
[Wed Oct 31 09:30:53.657997 2018] [:error] [pid 82602] [client 2001:41d0:2:8ac5:::40460] [client 2001:41d0:2:8ac5::] ModSecurity: Rule processing failed (id=22006, msg=). [hostname "xintanalegends.com"] [uri "/assets/images/seo_script.php"] [unique_id "W9l2TbfGt9fjgrPP0cF9bQAAABk"], referer: xintanalegends.com
[Wed Oct 31 09:31:12.342928 2018] [:error] [pid 86411] [client 2001:41d0:2:8ac5:::41746] [client 2001:41d0:2:8ac5::] ModSecurity: IPmatch: bad IPv6 specification "2001:41d0:2:8ac5". [hostname "xintanalegends.com"] [uri "/wp-content/themes/twentyeleven/seo_script.php"] [unique_id "W9l2YMD@kG7TOikdOtfsYQAAAAg"], referer: xintanalegends.com
[Wed Oct 31 09:31:12.342946 2018] [:error] [pid 86411] [client 2001:41d0:2:8ac5:::41746] [client 2001:41d0:2:8ac5::] ModSecurity: Rule processing failed (id=21001, msg=). [hostname "xintanalegends.com"] [uri "/wp-content/themes/twentyeleven/seo_script.php"] [unique_id "W9l2YMD@kG7TOikdOtfsYQAAAAg"], referer: xintanalegends.com
[Wed Oct 31 09:31:12.342956 2018] [:error] [pid 86411] [client 2001:41d0:2:8ac5:::41746] [client 2001:41d0:2:8ac5::] ModSecurity: IPmatch: bad IPv6 specification "2001:41d0:2:8ac5". [hostname "xintanalegends.com"] [uri "/wp-content/themes/twentyeleven/seo_script.php"] [unique_id "W9l2YMD@kG7TOikdOtfsYQAAAAg"], referer: xintanalegends.com
[Wed Oct 31 09:31:12.342969 2018] [:error] [pid 86411] [client 2001:41d0:2:8ac5:::41746] [client 2001:41d0:2:8ac5::] ModSecurity: Rule processing failed (id=22001, msg=). [hostname "xintanalegends.com"] [uri "/wp-content/themes/twentyeleven/seo_script.php"] [unique_id "W9l2YMD@kG7TOikdOtfsYQAAAAg"], referer: xintanalegends.com
[Wed Oct 31 09:31:12.342978 2018] [:error] [pid 86411] [client 2001:41d0:2:8ac5:::41746] [client 2001:41d0:2:8ac5::] ModSecurity: IPmatch: bad IPv6 specification "2001:41d0:2:8ac5". [hostname "xintanalegends.com"] [uri "/wp-content/themes/twentyeleven/seo_script.php"] [unique_id "W9l2YMD@kG7TOikdOtfsYQAAAAg"], referer: xintanalegends.com
[Wed Oct 31 09:31:12.342988 2018] [:error] [pid 86411] [client 2001:41d0:2:8ac5:::41746] [client 2001:41d0:2:8ac5::] ModSecurity: Rule processing failed (id=22002, msg=). [hostname "xintanalegends.com"] [uri "/wp-content/themes/twentyeleven/seo_script.php"] [unique_id "W9l2YMD@kG7TOikdOtfsYQAAAAg"], referer: xintanalegends.com
[Wed Oct 31 09:31:12.342996 2018] [:error] [pid 86411] [client 2001:41d0:2:8ac5:::41746] [client 2001:41d0:2:8ac5::] ModSecurity: IPmatch: bad IPv6 specification "2001:41d0:2:8ac5". [hostname "xintanalegends.com"] [uri "/wp-content/themes/twentyeleven/seo_script.php"] [unique_id "W9l2YMD@kG7TOikdOtfsYQAAAAg"], referer: xintanalegends.com
[Wed Oct 31 09:31:12.343004 2018] [:error] [pid 86411] [client 2001:41d0:2:8ac5:::41746] [client 2001:41d0:2:8ac5::] ModSecurity: Rule processing failed (id=22003, msg=). [hostname "xintanalegends.com"] [uri "/wp-content/themes/twentyeleven/seo_script.php"] [unique_id "W9l2YMD@kG7TOikdOtfsYQAAAAg"], referer: xintanalegends.com
[Wed Oct 31 09:31:12.343012 2018] [:error] [pid 86411] [client 2001:41d0:2:8ac5:::41746] [client 2001:41d0:2:8ac5::] ModSecurity: IPmatch: bad IPv6 specification "2001:41d0:2:8ac5". [hostname "xintanalegends.com"] [uri "/wp-content/themes/twentyeleven/seo_script.php"] [unique_id "W9l2YMD@kG7TOikdOtfsYQAAAAg"], referer: xintanalegends.com
[Wed Oct 31 09:31:12.343019 2018] [:error] [pid 86411] [client 2001:41d0:2:8ac5:::41746] [client 2001:41d0:2:8ac5::] ModSecurity: Rule processing failed (id=22004, msg=). [hostname "xintanalegends.com"] [uri "/wp-content/themes/twentyeleven/seo_script.php"] [unique_id "W9l2YMD@kG7TOikdOtfsYQAAAAg"], referer: xintanalegends.com
[Wed Oct 31 09:31:12.343027 2018] [:error] [pid 86411] [client 2001:41d0:2:8ac5:::41746] [client 2001:41d0:2:8ac5::] ModSecurity: IPmatch: bad IPv6 specification "2001:41d0:2:8ac5". [hostname "xintanalegends.com"] [uri "/wp-content/themes/twentyeleven/seo_script.php"] [unique_id "W9l2YMD@kG7TOikdOtfsYQAAAAg"], referer: xintanalegends.com
[Wed Oct 31 09:31:12.343034 2018] [:error] [pid 86411] [client 2001:41d0:2:8ac5:::41746] [client 2001:41d0:2:8ac5::] ModSecurity: Rule processing failed (id=22005, msg=). [hostname "xintanalegends.com"] [uri "/wp-content/themes/twentyeleven/seo_script.php"] [unique_id "W9l2YMD@kG7TOikdOtfsYQAAAAg"], referer: xintanalegends.com
[Wed Oct 31 09:31:12.343048 2018] [:error] [pid 86411] [client 2001:41d0:2:8ac5:::41746] [client 2001:41d0:2:8ac5::] ModSecurity: IPmatch: bad IPv6 specification "2001:41d0:2:8ac5". [hostname "xintanalegends.com"] [uri "/wp-content/themes/twentyeleven/seo_script.php"] [unique_id "W9l2YMD@kG7TOikdOtfsYQAAAAg"], referer: xintanalegends.com
[Wed Oct 31 09:31:12.343055 2018] [:error] [pid 86411] [client 2001:41d0:2:8ac5:::41746] [client 2001:41d0:2:8ac5::] ModSecurity: Rule processing failed (id=22006, msg=). [hostname "xintanalegends.com"] [uri "/wp-content/themes/twentyeleven/seo_script.php"] [unique_id "W9l2YMD@kG7TOikdOtfsYQAAAAg"], referer: xintanalegends.com
[Wed Oct 31 09:32:00.631773 2018] [:error] [pid 87999] [client 2001:41d0:2:8ac5:::45252] [client 2001:41d0:2:8ac5::] ModSecurity: IPmatch: bad IPv6 specification "2001:41d0:2:8ac5". [hostname "xintanalegends.com"] [uri "/seos.php"] [unique_id "W9l2kHs0l4XSDBcaybpmOgAAABM"], referer: xintanalegends.com
[Wed Oct 31 09:32:00.631802 2018] [:error] [pid 87999] [client 2001:41d0:2:8ac5:::45252] [client 2001:41d0:2:8ac5::] ModSecurity: Rule processing failed (id=21001, msg=). [hostname "xintanalegends.com"] [uri "/seos.php"] [unique_id "W9l2kHs0l4XSDBcaybpmOgAAABM"], referer: xintanalegends.com
[Wed Oct 31 09:32:00.631818 2018] [:error] [pid 87999] [client 2001:41d0:2:8ac5:::45252] [client 2001:41d0:2:8ac5::] ModSecurity: IPmatch: bad IPv6 specification "2001:41d0:2:8ac5". [hostname "xintanalegends.com"] [uri "/seos.php"] [unique_id "W9l2kHs0l4XSDBcaybpmOgAAABM"], referer: xintanalegends.com
[Wed Oct 31 09:32:00.631831 2018] [:error] [pid 87999] [client 2001:41d0:2:8ac5:::45252] [client 2001:41d0:2:8ac5::] ModSecurity: Rule processing failed (id=22001, msg=). [hostname "xintanalegends.com"] [uri "/seos.php"] [unique_id "W9l2kHs0l4XSDBcaybpmOgAAABM"], referer: xintanalegends.com
[Wed Oct 31 09:32:00.631845 2018] [:error] [pid 87999] [client 2001:41d0:2:8ac5:::45252] [client 2001:41d0:2:8ac5::] ModSecurity: IPmatch: bad IPv6 specification "2001:41d0:2:8ac5". [hostname "xintanalegends.com"] [uri "/seos.php"] [unique_id "W9l2kHs0l4XSDBcaybpmOgAAABM"], referer: xintanalegends.com
[Wed Oct 31 09:32:00.631861 2018] [:error] [pid 87999] [client 2001:41d0:2:8ac5:::45252] [client 2001:41d0:2:8ac5::] ModSecurity: Rule processing failed (id=22002, msg=). [hostname "xintanalegends.com"] [uri "/seos.php"] [unique_id "W9l2kHs0l4XSDBcaybpmOgAAABM"], referer: xintanalegends.com
[Wed Oct 31 09:32:00.631876 2018] [:error] [pid 87999] [client 2001:41d0:2:8ac5:::45252] [client 2001:41d0:2:8ac5::] ModSecurity: IPmatch: bad IPv6 specification "2001:41d0:2:8ac5". [hostname "xintanalegends.com"] [uri "/seos.php"] [unique_id "W9l2kHs0l4XSDBcaybpmOgAAABM"], referer: xintanalegends.com
[Wed Oct 31 09:32:00.631888 2018] [:error] [pid 87999] [client 2001:41d0:2:8ac5:::45252] [client 2001:41d0:2:8ac5::] ModSecurity: Rule processing failed (id=22003, msg=). [hostname "xintanalegends.com"] [uri "/seos.php"] [unique_id "W9l2kHs0l4XSDBcaybpmOgAAABM"], referer: xintanalegends.com
[Wed Oct 31 09:32:00.631901 2018] [:error] [pid 87999] [client 2001:41d0:2:8ac5:::45252] [client 2001:41d0:2:8ac5::] ModSecurity: IPmatch: bad IPv6 specification "2001:41d0:2:8ac5". [hostname "xintanalegends.com"] [uri "/seos.php"] [unique_id "W9l2kHs0l4XSDBcaybpmOgAAABM"], referer: xintanalegends.com
[Wed Oct 31 09:32:00.631913 2018] [:error] [pid 87999] [client 2001:41d0:2:8ac5:::45252] [client 2001:41d0:2:8ac5::] ModSecurity: Rule processing failed (id=22004, msg=). [hostname "xintanalegends.com"] [uri "/seos.php"] [unique_id "W9l2kHs0l4XSDBcaybpmOgAAABM"], referer: xintanalegends.com
[Wed Oct 31 09:32:00.631927 2018] [:error] [pid 87999] [client 2001:41d0:2:8ac5:::45252] [client 2001:41d0:2:8ac5::] ModSecurity: IPmatch: bad IPv6 specification "2001:41d0:2:8ac5". [hostname "xintanalegends.com"] [uri "/seos.php"] [unique_id "W9l2kHs0l4XSDBcaybpmOgAAABM"], referer: xintanalegends.com
[Wed Oct 31 09:32:00.631953 2018] [:error] [pid 87999] [client 2001:41d0:2:8ac5:::45252] [client 2001:41d0:2:8ac5::] ModSecurity: Rule processing failed (id=22005, msg=). [hostname "xintanalegends.com"] [uri "/seos.php"] [unique_id "W9l2kHs0l4XSDBcaybpmOgAAABM"], referer: xintanalegends.com
[Wed Oct 31 09:32:00.631972 2018] [:error] [pid 87999] [client 2001:41d0:2:8ac5:::45252] [client 2001:41d0:2:8ac5::] ModSecurity: IPmatch: bad IPv6 specification "2001:41d0:2:8ac5". [hostname "xintanalegends.com"] [uri "/seos.php"] [unique_id "W9l2kHs0l4XSDBcaybpmOgAAABM"], referer: xintanalegends.com
[Wed Oct 31 09:32:00.631984 2018] [:error] [pid 87999] [client 2001:41d0:2:8ac5:::45252] [client 2001:41d0:2:8ac5::] ModSecurity: Rule processing failed (id=22006, msg=). [hostname "xintanalegends.com"] [uri "/seos.php"] [unique_id "W9l2kHs0l4XSDBcaybpmOgAAABM"], referer: xintanalegends.com
[Wed Oct 31 09:34:09.207497 2018] [:error] [pid 103359] [client 2001:41d0:2:8ac5:::55294] [client 2001:41d0:2:8ac5::] ModSecurity: IPmatch: bad IPv6 specification "2001:41d0:2:8ac5". [hostname "xintanalegends.com"] [uri "/wp-content/plugins/background-image-cropper/image/ico/seo_script.php"] [unique_id "W9l3ESmd2mUlKZ91JNFgOgAAAAY"], referer: xintanalegends.com
[Wed Oct 31 09:34:09.207528 2018] [:error] [pid 103359] [client 2001:41d0:2:8ac5:::55294] [client 2001:41d0:2:8ac5::] ModSecurity: Rule processing failed (id=21001, msg=). [hostname "xintanalegends.com"] [uri "/wp-content/plugins/background-image-cropper/image/ico/seo_script.php"] [unique_id "W9l3ESmd2mUlKZ91JNFgOgAAAAY"], referer: xintanalegends.com
[Wed Oct 31 09:34:09.207545 2018] [:error] [pid 103359] [client 2001:41d0:2:8ac5:::55294] [client 2001:41d0:2:8ac5::] ModSecurity: IPmatch: bad IPv6 specification "2001:41d0:2:8ac5". [hostname "xintanalegends.com"] [uri "/wp-content/plugins/background-image-cropper/image/ico/seo_script.php"] [unique_id "W9l3ESmd2mUlKZ91JNFgOgAAAAY"], referer: xintanalegends.com
[Wed Oct 31 09:34:09.207558 2018] [:error] [pid 103359] [client 2001:41d0:2:8ac5:::55294] [client 2001:41d0:2:8ac5::] ModSecurity: Rule processing failed (id=22001, msg=). [hostname "xintanalegends.com"] [uri "/wp-content/plugins/background-image-cropper/image/ico/seo_script.php"] [unique_id "W9l3ESmd2mUlKZ91JNFgOgAAAAY"], referer: xintanalegends.com
[Wed Oct 31 09:34:09.207572 2018] [:error] [pid 103359] [client 2001:41d0:2:8ac5:::55294] [client 2001:41d0:2:8ac5::] ModSecurity: IPmatch: bad IPv6 specification "2001:41d0:2:8ac5". [hostname "xintanalegends.com"] [uri "/wp-content/plugins/background-image-cropper/image/ico/seo_script.php"] [unique_id "W9l3ESmd2mUlKZ91JNFgOgAAAAY"], referer: xintanalegends.com
[Wed Oct 31 09:34:09.207586 2018] [:error] [pid 103359] [client 2001:41d0:2:8ac5:::55294] [client 2001:41d0:2:8ac5::] ModSecurity: Rule processing failed (id=22002, msg=). [hostname "xintanalegends.com"] [uri "/wp-content/plugins/background-image-cropper/image/ico/seo_script.php"] [unique_id "W9l3ESmd2mUlKZ91JNFgOgAAAAY"], referer: xintanalegends.com
[Wed Oct 31 09:34:09.207601 2018] [:error] [pid 103359] [client 2001:41d0:2:8ac5:::55294] [client 2001:41d0:2:8ac5::] ModSecurity: IPmatch: bad IPv6 specification "2001:41d0:2:8ac5". [hostname "xintanalegends.com"] [uri "/wp-content/plugins/background-image-cropper/image/ico/seo_script.php"] [unique_id "W9l3ESmd2mUlKZ91JNFgOgAAAAY"], referer: xintanalegends.com
[Wed Oct 31 09:34:09.207614 2018] [:error] [pid 103359] [client 2001:41d0:2:8ac5:::55294] [client 2001:41d0:2:8ac5::] ModSecurity: Rule processing failed (id=22003, msg=). [hostname "xintanalegends.com"] [uri "/wp-content/plugins/background-image-cropper/image/ico/seo_script.php"] [unique_id "W9l3ESmd2mUlKZ91JNFgOgAAAAY"], referer: xintanalegends.com
[Wed Oct 31 09:34:09.207628 2018] [:error] [pid 103359] [client 2001:41d0:2:8ac5:::55294] [client 2001:41d0:2:8ac5::] ModSecurity: IPmatch: bad IPv6 specification "2001:41d0:2:8ac5". [hostname "xintanalegends.com"] [uri "/wp-content/plugins/background-image-cropper/image/ico/seo_script.php"] [unique_id "W9l3ESmd2mUlKZ91JNFgOgAAAAY"], referer: xintanalegends.com
[Wed Oct 31 09:34:09.207655 2018] [:error] [pid 103359] [client 2001:41d0:2:8ac5:::55294] [client 2001:41d0:2:8ac5::] ModSecurity: Rule processing failed (id=22004, msg=). [hostname "xintanalegends.com"] [uri "/wp-content/plugins/background-image-cropper/image/ico/seo_script.php"] [unique_id "W9l3ESmd2mUlKZ91JNFgOgAAAAY"], referer: xintanalegends.com
[Wed Oct 31 09:34:09.207673 2018] [:error] [pid 103359] [client 2001:41d0:2:8ac5:::55294] [client 2001:41d0:2:8ac5::] ModSecurity: IPmatch: bad IPv6 specification "2001:41d0:2:8ac5". [hostname "xintanalegends.com"] [uri "/wp-content/plugins/background-image-cropper/image/ico/seo_script.php"] [unique_id "W9l3ESmd2mUlKZ91JNFgOgAAAAY"], referer: xintanalegends.com
[Wed Oct 31 09:34:09.207686 2018] [:error] [pid 103359] [client 2001:41d0:2:8ac5:::55294] [client 2001:41d0:2:8ac5::] ModSecurity: Rule processing failed (id=22005, msg=). [hostname "xintanalegends.com"] [uri "/wp-content/plugins/background-image-cropper/image/ico/seo_script.php"] [unique_id "W9l3ESmd2mUlKZ91JNFgOgAAAAY"], referer: xintanalegends.com
[Wed Oct 31 09:34:09.207706 2018] [:error] [pid 103359] [client 2001:41d0:2:8ac5:::55294] [client 2001:41d0:2:8ac5::] ModSecurity: IPmatch: bad IPv6 specification "2001:41d0:2:8ac5". [hostname "xintanalegends.com"] [uri "/wp-content/plugins/background-image-cropper/image/ico/seo_script.php"] [unique_id "W9l3ESmd2mUlKZ91JNFgOgAAAAY"], referer: xintanalegends.com
[Wed Oct 31 09:34:09.207719 2018] [:error] [pid 103359] [client 2001:41d0:2:8ac5:::55294] [client 2001:41d0:2:8ac5::] ModSecurity: Rule processing failed (id=22006, msg=). [hostname "xintanalegends.com"] [uri "/wp-content/plugins/background-image-cropper/image/ico/seo_script.php"] [unique_id "W9l3ESmd2mUlKZ91JNFgOgAAAAY"], referer: xintanalegends.com
[Wed Oct 31 09:35:28.883369 2018] [:error] [pid 106476] [client 2001:41d0:2:8ac5:::34030] [client 2001:41d0:2:8ac5::] ModSecurity: IPmatch: bad IPv6 specification "2001:41d0:2:8ac5". [hostname "xintanalegends.com"] [uri "/wp-content/uploads/2018/08/seo_script.php"] [unique_id "W9l3YEynSqZjlWRSpXWFuwAAAAU"], referer: xintanalegends.com
[Wed Oct 31 09:35:28.883388 2018] [:error] [pid 106476] [client 2001:41d0:2:8ac5:::34030] [client 2001:41d0:2:8ac5::] ModSecurity: Rule processing failed (id=21001, msg=). [hostname "xintanalegends.com"] [uri "/wp-content/uploads/2018/08/seo_script.php"] [unique_id "W9l3YEynSqZjlWRSpXWFuwAAAAU"], referer: xintanalegends.com
[Wed Oct 31 09:35:28.883397 2018] [:error] [pid 106476] [client 2001:41d0:2:8ac5:::34030] [client 2001:41d0:2:8ac5::] ModSecurity: IPmatch: bad IPv6 specification "2001:41d0:2:8ac5". [hostname "xintanalegends.com"] [uri "/wp-content/uploads/2018/08/seo_script.php"] [unique_id "W9l3YEynSqZjlWRSpXWFuwAAAAU"], referer: xintanalegends.com
[Wed Oct 31 09:35:28.883404 2018] [:error] [pid 106476] [client 2001:41d0:2:8ac5:::34030] [client 2001:41d0:2:8ac5::] ModSecurity: Rule processing failed (id=22001, msg=). [hostname "xintanalegends.com"] [uri "/wp-content/uploads/2018/08/seo_script.php"] [unique_id "W9l3YEynSqZjlWRSpXWFuwAAAAU"], referer: xintanalegends.com
[Wed Oct 31 09:35:28.883412 2018] [:error] [pid 106476] [client 2001:41d0:2:8ac5:::34030] [client 2001:41d0:2:8ac5::] ModSecurity: IPmatch: bad IPv6 specification "2001:41d0:2:8ac5". [hostname "xintanalegends.com"] [uri "/wp-content/uploads/2018/08/seo_script.php"] [unique_id "W9l3YEynSqZjlWRSpXWFuwAAAAU"], referer: xintanalegends.com
[Wed Oct 31 09:35:28.883419 2018] [:error] [pid 106476] [client 2001:41d0:2:8ac5:::34030] [client 2001:41d0:2:8ac5::] ModSecurity: Rule processing failed (id=22002, msg=). [hostname "xintanalegends.com"] [uri "/wp-content/uploads/2018/08/seo_script.php"] [unique_id "W9l3YEynSqZjlWRSpXWFuwAAAAU"], referer: xintanalegends.com
[Wed Oct 31 09:35:28.883427 2018] [:error] [pid 106476] [client 2001:41d0:2:8ac5:::34030] [client 2001:41d0:2:8ac5::] ModSecurity: IPmatch: bad IPv6 specification "2001:41d0:2:8ac5". [hostname "xintanalegends.com"] [uri "/wp-content/uploads/2018/08/seo_script.php"] [unique_id "W9l3YEynSqZjlWRSpXWFuwAAAAU"], referer: xintanalegends.com
[Wed Oct 31 09:35:28.883443 2018] [:error] [pid 106476] [client 2001:41d0:2:8ac5:::34030] [client 2001:41d0:2:8ac5::] ModSecurity: Rule processing failed (id=22003, msg=). [hostname "xintanalegends.com"] [uri "/wp-content/uploads/2018/08/seo_script.php"] [unique_id "W9l3YEynSqZjlWRSpXWFuwAAAAU"], referer: xintanalegends.com
[Wed Oct 31 09:35:28.883450 2018] [:error] [pid 106476] [client 2001:41d0:2:8ac5:::34030] [client 2001:41d0:2:8ac5::] ModSecurity: IPmatch: bad IPv6 specification "2001:41d0:2:8ac5". [hostname "xintanalegends.com"] [uri "/wp-content/uploads/2018/08/seo_script.php"] [unique_id "W9l3YEynSqZjlWRSpXWFuwAAAAU"], referer: xintanalegends.com
[Wed Oct 31 09:35:28.883457 2018] [:error] [pid 106476] [client 2001:41d0:2:8ac5:::34030] [client 2001:41d0:2:8ac5::] ModSecurity: Rule processing failed (id=22004, msg=). [hostname "xintanalegends.com"] [uri "/wp-content/uploads/2018/08/seo_script.php"] [unique_id "W9l3YEynSqZjlWRSpXWFuwAAAAU"], referer: xintanalegends.com
[Wed Oct 31 09:35:28.883464 2018] [:error] [pid 106476] [client 2001:41d0:2:8ac5:::34030] [client 2001:41d0:2:8ac5::] ModSecurity: IPmatch: bad IPv6 specification "2001:41d0:2:8ac5". [hostname "xintanalegends.com"] [uri "/wp-content/uploads/2018/08/seo_script.php"] [unique_id "W9l3YEynSqZjlWRSpXWFuwAAAAU"], referer: xintanalegends.com
[Wed Oct 31 09:35:28.883470 2018] [:error] [pid 106476] [client 2001:41d0:2:8ac5:::34030] [client 2001:41d0:2:8ac5::] ModSecurity: Rule processing failed (id=22005, msg=). [hostname "xintanalegends.com"] [uri "/wp-content/uploads/2018/08/seo_script.php"] [unique_id "W9l3YEynSqZjlWRSpXWFuwAAAAU"], referer: xintanalegends.com
[Wed Oct 31 09:35:28.883480 2018] [:error] [pid 106476] [client 2001:41d0:2:8ac5:::34030] [client 2001:41d0:2:8ac5::] ModSecurity: IPmatch: bad IPv6 specification "2001:41d0:2:8ac5". [hostname "xintanalegends.com"] [uri "/wp-content/uploads/2018/08/seo_script.php"] [unique_id "W9l3YEynSqZjlWRSpXWFuwAAAAU"], referer: xintanalegends.com
[Wed Oct 31 09:35:28.883486 2018] [:error] [pid 106476] [client 2001:41d0:2:8ac5:::34030] [client 2001:41d0:2:8ac5::] ModSecurity: Rule processing failed (id=22006, msg=). [hostname "xintanalegends.com"] [uri "/wp-content/uploads/2018/08/seo_script.php"] [unique_id "W9l3YEynSqZjlWRSpXWFuwAAAAU"], referer: xintanalegends.com
[Wed Oct 31 09:37:07.510261 2018] [:error] [pid 105241] [client 2001:41d0:2:8ac5:::41438] [client 2001:41d0:2:8ac5::] ModSecurity: IPmatch: bad IPv6 specification "2001:41d0:2:8ac5". [hostname "xintanalegends.com"] [uri "/wp-content/uploads/2018/08/st.php"] [unique_id "W9l3w@bAzIBRiG12olTHpAAAABg"], referer: xintanalegends.com
[Wed Oct 31 09:37:07.510285 2018] [:error] [pid 105241] [client 2001:41d0:2:8ac5:::41438] [client 2001:41d0:2:8ac5::] ModSecurity: Rule processing failed (id=21001, msg=). [hostname "xintanalegends.com"] [uri "/wp-content/uploads/2018/08/st.php"] [unique_id "W9l3w@bAzIBRiG12olTHpAAAABg"], referer: xintanalegends.com
[Wed Oct 31 09:37:07.510298 2018] [:error] [pid 105241] [client 2001:41d0:2:8ac5:::41438] [client 2001:41d0:2:8ac5::] ModSecurity: IPmatch: bad IPv6 specification "2001:41d0:2:8ac5". [hostname "xintanalegends.com"] [uri "/wp-content/uploads/2018/08/st.php"] [unique_id "W9l3w@bAzIBRiG12olTHpAAAABg"], referer: xintanalegends.com
[Wed Oct 31 09:37:07.510308 2018] [:error] [pid 105241] [client 2001:41d0:2:8ac5:::41438] [client 2001:41d0:2:8ac5::] ModSecurity: Rule processing failed (id=22001, msg=). [hostname "xintanalegends.com"] [uri "/wp-content/uploads/2018/08/st.php"] [unique_id "W9l3w@bAzIBRiG12olTHpAAAABg"], referer: xintanalegends.com
[Wed Oct 31 09:37:07.510318 2018] [:error] [pid 105241] [client 2001:41d0:2:8ac5:::41438] [client 2001:41d0:2:8ac5::] ModSecurity: IPmatch: bad IPv6 specification "2001:41d0:2:8ac5". [hostname "xintanalegends.com"] [uri "/wp-content/uploads/2018/08/st.php"] [unique_id "W9l3w@bAzIBRiG12olTHpAAAABg"], referer: xintanalegends.com
[Wed Oct 31 09:37:07.510330 2018] [:error] [pid 105241] [client 2001:41d0:2:8ac5:::41438] [client 2001:41d0:2:8ac5::] ModSecurity: Rule processing failed (id=22002, msg=). [hostname "xintanalegends.com"] [uri "/wp-content/uploads/2018/08/st.php"] [unique_id "W9l3w@bAzIBRiG12olTHpAAAABg"], referer: xintanalegends.com
[Wed Oct 31 09:37:07.510362 2018] [:error] [pid 105241] [client 2001:41d0:2:8ac5:::41438] [client 2001:41d0:2:8ac5::] ModSecurity: IPmatch: bad IPv6 specification "2001:41d0:2:8ac5". [hostname "xintanalegends.com"] [uri "/wp-content/uploads/2018/08/st.php"] [unique_id "W9l3w@bAzIBRiG12olTHpAAAABg"], referer: xintanalegends.com
[Wed Oct 31 09:37:07.510374 2018] [:error] [pid 105241] [client 2001:41d0:2:8ac5:::41438] [client 2001:41d0:2:8ac5::] ModSecurity: Rule processing failed (id=22003, msg=). [hostname "xintanalegends.com"] [uri "/wp-content/uploads/2018/08/st.php"] [unique_id "W9l3w@bAzIBRiG12olTHpAAAABg"], referer: xintanalegends.com
[Wed Oct 31 09:37:07.510385 2018] [:error] [pid 105241] [client 2001:41d0:2:8ac5:::41438] [client 2001:41d0:2:8ac5::] ModSecurity: IPmatch: bad IPv6 specification "2001:41d0:2:8ac5". [hostname "xintanalegends.com"] [uri "/wp-content/uploads/2018/08/st.php"] [unique_id "W9l3w@bAzIBRiG12olTHpAAAABg"], referer: xintanalegends.com
[Wed Oct 31 09:37:07.510394 2018] [:error] [pid 105241] [client 2001:41d0:2:8ac5:::41438] [client 2001:41d0:2:8ac5::] ModSecurity: Rule processing failed (id=22004, msg=). [hostname "xintanalegends.com"] [uri "/wp-content/uploads/2018/08/st.php"] [unique_id "W9l3w@bAzIBRiG12olTHpAAAABg"], referer: xintanalegends.com
[Wed Oct 31 09:37:07.510404 2018] [:error] [pid 105241] [client 2001:41d0:2:8ac5:::41438] [client 2001:41d0:2:8ac5::] ModSecurity: IPmatch: bad IPv6 specification "2001:41d0:2:8ac5". [hostname "xintanalegends.com"] [uri "/wp-content/uploads/2018/08/st.php"] [unique_id "W9l3w@bAzIBRiG12olTHpAAAABg"], referer: xintanalegends.com
[Wed Oct 31 09:37:07.510414 2018] [:error] [pid 105241] [client 2001:41d0:2:8ac5:::41438] [client 2001:41d0:2:8ac5::] ModSecurity: Rule processing failed (id=22005, msg=). [hostname "xintanalegends.com"] [uri "/wp-content/uploads/2018/08/st.php"] [unique_id "W9l3w@bAzIBRiG12olTHpAAAABg"], referer: xintanalegends.com
[Wed Oct 31 09:37:07.510424 2018] [:error] [pid 105241] [client 2001:41d0:2:8ac5:::41438] [client 2001:41d0:2:8ac5::] ModSecurity: IPmatch: bad IPv6 specification "2001:41d0:2:8ac5". [hostname "xintanalegends.com"] [uri "/wp-content/uploads/2018/08/st.php"] [unique_id "W9l3w@bAzIBRiG12olTHpAAAABg"], referer: xintanalegends.com
[Wed Oct 31 09:37:07.510434 2018] [:error] [pid 105241] [client 2001:41d0:2:8ac5:::41438] [client 2001:41d0:2:8ac5::] ModSecurity: Rule processing failed (id=22006, msg=). [hostname "xintanalegends.com"] [uri "/wp-content/uploads/2018/08/st.php"] [unique_id "W9l3w@bAzIBRiG12olTHpAAAABg"], referer: xintanalegends.com
[Wed Oct 31 09:38:43.898230 2018] [:error] [pid 111592] [client 2001:41d0:2:8ac5:::48714] [client 2001:41d0:2:8ac5::] ModSecurity: IPmatch: bad IPv6 specification "2001:41d0:2:8ac5". [hostname "xintanalegends.com"] [uri "/wp-content/uploads/2018/08/seos.php"] [unique_id "W9l4I5M7qtgClcPpAyPmDQAAABY"], referer: xintanalegends.com
[Wed Oct 31 09:38:43.898258 2018] [:error] [pid 111592] [client 2001:41d0:2:8ac5:::48714] [client 2001:41d0:2:8ac5::] ModSecurity: Rule processing failed (id=21001, msg=). [hostname "xintanalegends.com"] [uri "/wp-content/uploads/2018/08/seos.php"] [unique_id "W9l4I5M7qtgClcPpAyPmDQAAABY"], referer: xintanalegends.com
[Wed Oct 31 09:38:43.898274 2018] [:error] [pid 111592] [client 2001:41d0:2:8ac5:::48714] [client 2001:41d0:2:8ac5::] ModSecurity: IPmatch: bad IPv6 specification "2001:41d0:2:8ac5". [hostname "xintanalegends.com"] [uri "/wp-content/uploads/2018/08/seos.php"] [unique_id "W9l4I5M7qtgClcPpAyPmDQAAABY"], referer: xintanalegends.com
[Wed Oct 31 09:38:43.898286 2018] [:error] [pid 111592] [client 2001:41d0:2:8ac5:::48714] [client 2001:41d0:2:8ac5::] ModSecurity: Rule processing failed (id=22001, msg=). [hostname "xintanalegends.com"] [uri "/wp-content/uploads/2018/08/seos.php"] [unique_id "W9l4I5M7qtgClcPpAyPmDQAAABY"], referer: xintanalegends.com
[Wed Oct 31 09:38:43.898313 2018] [:error] [pid 111592] [client 2001:41d0:2:8ac5:::48714] [client 2001:41d0:2:8ac5::] ModSecurity: IPmatch: bad IPv6 specification "2001:41d0:2:8ac5". [hostname "xintanalegends.com"] [uri "/wp-content/uploads/2018/08/seos.php"] [unique_id "W9l4I5M7qtgClcPpAyPmDQAAABY"], referer: xintanalegends.com
[Wed Oct 31 09:38:43.898326 2018] [:error] [pid 111592] [client 2001:41d0:2:8ac5:::48714] [client 2001:41d0:2:8ac5::] ModSecurity: Rule processing failed (id=22002, msg=). [hostname "xintanalegends.com"] [uri "/wp-content/uploads/2018/08/seos.php"] [unique_id "W9l4I5M7qtgClcPpAyPmDQAAABY"], referer: xintanalegends.com
[Wed Oct 31 09:38:43.898352 2018] [:error] [pid 111592] [client 2001:41d0:2:8ac5:::48714] [client 2001:41d0:2:8ac5::] ModSecurity: IPmatch: bad IPv6 specification "2001:41d0:2:8ac5". [hostname "xintanalegends.com"] [uri "/wp-content/uploads/2018/08/seos.php"] [unique_id "W9l4I5M7qtgClcPpAyPmDQAAABY"], referer: xintanalegends.com
[Wed Oct 31 09:38:43.898371 2018] [:error] [pid 111592] [client 2001:41d0:2:8ac5:::48714] [client 2001:41d0:2:8ac5::] ModSecurity: Rule processing failed (id=22003, msg=). [hostname "xintanalegends.com"] [uri "/wp-content/uploads/2018/08/seos.php"] [unique_id "W9l4I5M7qtgClcPpAyPmDQAAABY"], referer: xintanalegends.com
[Wed Oct 31 09:38:43.898385 2018] [:error] [pid 111592] [client 2001:41d0:2:8ac5:::48714] [client 2001:41d0:2:8ac5::] ModSecurity: IPmatch: bad IPv6 specification "2001:41d0:2:8ac5". [hostname "xintanalegends.com"] [uri "/wp-content/uploads/2018/08/seos.php"] [unique_id "W9l4I5M7qtgClcPpAyPmDQAAABY"], referer: xintanalegends.com
[Wed Oct 31 09:38:43.898397 2018] [:error] [pid 111592] [client 2001:41d0:2:8ac5:::48714] [client 2001:41d0:2:8ac5::] ModSecurity: Rule processing failed (id=22004, msg=). [hostname "xintanalegends.com"] [uri "/wp-content/uploads/2018/08/seos.php"] [unique_id "W9l4I5M7qtgClcPpAyPmDQAAABY"], referer: xintanalegends.com
[Wed Oct 31 09:38:43.898410 2018] [:error] [pid 111592] [client 2001:41d0:2:8ac5:::48714] [client 2001:41d0:2:8ac5::] ModSecurity: IPmatch: bad IPv6 specification "2001:41d0:2:8ac5". [hostname "xintanalegends.com"] [uri "/wp-content/uploads/2018/08/seos.php"] [unique_id "W9l4I5M7qtgClcPpAyPmDQAAABY"], referer: xintanalegends.com
[Wed Oct 31 09:38:43.898423 2018] [:error] [pid 111592] [client 2001:41d0:2:8ac5:::48714] [client 2001:41d0:2:8ac5::] ModSecurity: Rule processing failed (id=22005, msg=). [hostname "xintanalegends.com"] [uri "/wp-content/uploads/2018/08/seos.php"] [unique_id "W9l4I5M7qtgClcPpAyPmDQAAABY"], referer: xintanalegends.com
[Wed Oct 31 09:38:43.898437 2018] [:error] [pid 111592] [client 2001:41d0:2:8ac5:::48714] [client 2001:41d0:2:8ac5::] ModSecurity: IPmatch: bad IPv6 specification "2001:41d0:2:8ac5". [hostname "xintanalegends.com"] [uri "/wp-content/uploads/2018/08/seos.php"] [unique_id "W9l4I5M7qtgClcPpAyPmDQAAABY"], referer: xintanalegends.com
[Wed Oct 31 09:38:43.898449 2018] [:error] [pid 111592] [client 2001:41d0:2:8ac5:::48714] [client 2001:41d0:2:8ac5::] ModSecurity: Rule processing failed (id=22006, msg=). [hostname "xintanalegends.com"] [uri "/wp-content/uploads/2018/08/seos.php"] [unique_id "W9l4I5M7qtgClcPpAyPmDQAAABY"], referer: xintanalegends.com
[Wed Oct 31 09:38:48.285023 2018] [:error] [pid 107345] [client 2001:41d0:2:8ac5:::49184] [client 2001:41d0:2:8ac5::] ModSecurity: IPmatch: bad IPv6 specification "2001:41d0:2:8ac5". [hostname "xintanalegends.com"] [uri "/wp-content/themes/clean-commerce/test2.php"] [unique_id "W9l4KAqx1iXNM@N8dXIi-wAAABQ"], referer: xintanalegends.com
[Wed Oct 31 09:38:48.285051 2018] [:error] [pid 107345] [client 2001:41d0:2:8ac5:::49184] [client 2001:41d0:2:8ac5::] ModSecurity: Rule processing failed (id=21001, msg=). [hostname "xintanalegends.com"] [uri "/wp-content/themes/clean-commerce/test2.php"] [unique_id "W9l4KAqx1iXNM@N8dXIi-wAAABQ"], referer: xintanalegends.com
[Wed Oct 31 09:38:48.285067 2018] [:error] [pid 107345] [client 2001:41d0:2:8ac5:::49184] [client 2001:41d0:2:8ac5::] ModSecurity: IPmatch: bad IPv6 specification "2001:41d0:2:8ac5". [hostname "xintanalegends.com"] [uri "/wp-content/themes/clean-commerce/test2.php"] [unique_id "W9l4KAqx1iXNM@N8dXIi-wAAABQ"], referer: xintanalegends.com
[Wed Oct 31 09:38:48.285089 2018] [:error] [pid 107345] [client 2001:41d0:2:8ac5:::49184] [client 2001:41d0:2:8ac5::] ModSecurity: Rule processing failed (id=22001, msg=). [hostname "xintanalegends.com"] [uri "/wp-content/themes/clean-commerce/test2.php"] [unique_id "W9l4KAqx1iXNM@N8dXIi-wAAABQ"], referer: xintanalegends.com
[Wed Oct 31 09:38:48.285107 2018] [:error] [pid 107345] [client 2001:41d0:2:8ac5:::49184] [client 2001:41d0:2:8ac5::] ModSecurity: IPmatch: bad IPv6 specification "2001:41d0:2:8ac5". [hostname "xintanalegends.com"] [uri "/wp-content/themes/clean-commerce/test2.php"] [unique_id "W9l4KAqx1iXNM@N8dXIi-wAAABQ"], referer: xintanalegends.com
[Wed Oct 31 09:38:48.285121 2018] [:error] [pid 107345] [client 2001:41d0:2:8ac5:::49184] [client 2001:41d0:2:8ac5::] ModSecurity: Rule processing failed (id=22002, msg=). [hostname "xintanalegends.com"] [uri "/wp-content/themes/clean-commerce/test2.php"] [unique_id "W9l4KAqx1iXNM@N8dXIi-wAAABQ"], referer: xintanalegends.com
[Wed Oct 31 09:38:48.285135 2018] [:error] [pid 107345] [client 2001:41d0:2:8ac5:::49184] [client 2001:41d0:2:8ac5::] ModSecurity: IPmatch: bad IPv6 specification "2001:41d0:2:8ac5". [hostname "xintanalegends.com"] [uri "/wp-content/themes/clean-commerce/test2.php"] [unique_id "W9l4KAqx1iXNM@N8dXIi-wAAABQ"], referer: xintanalegends.com
[Wed Oct 31 09:38:48.285148 2018] [:error] [pid 107345] [client 2001:41d0:2:8ac5:::49184] [client 2001:41d0:2:8ac5::] ModSecurity: Rule processing failed (id=22003, msg=). [hostname "xintanalegends.com"] [uri "/wp-content/themes/clean-commerce/test2.php"] [unique_id "W9l4KAqx1iXNM@N8dXIi-wAAABQ"], referer: xintanalegends.com
[Wed Oct 31 09:38:48.285162 2018] [:error] [pid 107345] [client 2001:41d0:2:8ac5:::49184] [client 2001:41d0:2:8ac5::] ModSecurity: IPmatch: bad IPv6 specification "2001:41d0:2:8ac5". [hostname "xintanalegends.com"] [uri "/wp-content/themes/clean-commerce/test2.php"] [unique_id "W9l4KAqx1iXNM@N8dXIi-wAAABQ"], referer: xintanalegends.com
[Wed Oct 31 09:38:48.285174 2018] [:error] [pid 107345] [client 2001:41d0:2:8ac5:::49184] [client 2001:41d0:2:8ac5::] ModSecurity: Rule processing failed (id=22004, msg=). [hostname "xintanalegends.com"] [uri "/wp-content/themes/clean-commerce/test2.php"] [unique_id "W9l4KAqx1iXNM@N8dXIi-wAAABQ"], referer: xintanalegends.com
[Wed Oct 31 09:38:48.285187 2018] [:error] [pid 107345] [client 2001:41d0:2:8ac5:::49184] [client 2001:41d0:2:8ac5::] ModSecurity: IPmatch: bad IPv6 specification "2001:41d0:2:8ac5". [hostname "xintanalegends.com"] [uri "/wp-content/themes/clean-commerce/test2.php"] [unique_id "W9l4KAqx1iXNM@N8dXIi-wAAABQ"], referer: xintanalegends.com
[Wed Oct 31 09:38:48.285199 2018] [:error] [pid 107345] [client 2001:41d0:2:8ac5:::49184] [client 2001:41d0:2:8ac5::] ModSecurity: Rule processing failed (id=22005, msg=). [hostname "xintanalegends.com"] [uri "/wp-content/themes/clean-commerce/test2.php"] [unique_id "W9l4KAqx1iXNM@N8dXIi-wAAABQ"], referer: xintanalegends.com
[Wed Oct 31 09:38:48.285212 2018] [:error] [pid 107345] [client 2001:41d0:2:8ac5:::49184] [client 2001:41d0:2:8ac5::] ModSecurity: IPmatch: bad IPv6 specification "2001:41d0:2:8ac5". [hostname "xintanalegends.com"] [uri "/wp-content/themes/clean-commerce/test2.php"] [unique_id "W9l4KAqx1iXNM@N8dXIi-wAAABQ"], referer: xintanalegends.com
[Wed Oct 31 09:38:48.285224 2018] [:error] [pid 107345] [client 2001:41d0:2:8ac5:::49184] [client 2001:41d0:2:8ac5::] ModSecurity: Rule processing failed (id=22006, msg=). [hostname "xintanalegends.com"] [uri "/wp-content/themes/clean-commerce/test2.php"] [unique_id "W9l4KAqx1iXNM@N8dXIi-wAAABQ"], referer: xintanalegends.com
