[Sat Nov 03 01:00:53.376902 2018] [:error] [pid 30078] [client 193.169.252.91:47590] [client 193.169.252.91] ModSecurity: Multipart parsing error (init): Multipart: Invalid boundary in C-T (characters). [hostname "ikbensterdam.com"] [uri "/"] [unique_id "W9zzRZTUSrauyFWWi-xEYAAAAAI"]
[Sat Nov 03 01:00:54.861123 2018] [:error] [pid 36604] [client 193.169.252.91:47738] [client 193.169.252.91] ModSecurity: Multipart parsing error (init): Multipart: Invalid boundary in C-T (characters). [hostname "ikbensterdam.com"] [uri "/wp-admin/admin-ajax.php"] [unique_id "W9zzRm8bWomAvmdQjsIg4gAAACE"]
[Sat Nov 03 01:00:57.782672 2018] [:error] [pid 36614] [client 193.169.252.91:48018] [client 193.169.252.91] ModSecurity: Multipart parsing error (init): Multipart: Invalid boundary in C-T (characters). [hostname "ikbensterdam.com"] [uri "/license.php"] [unique_id "W9zzSZl0z9heUr@k@9tHFwAAACI"]
[Sat Nov 03 01:00:58.544624 2018] [:error] [pid 41391] [client 193.169.252.91:48070] [client 193.169.252.91] ModSecurity: Multipart parsing error (init): Multipart: Invalid boundary in C-T (characters). [hostname "ikbensterdam.com"] [uri "/uploadify/uploadify.php"] [unique_id "W9zzSiNjr5iLgLDW2MkvDgAAAAQ"]
[Sat Nov 03 01:00:59.378655 2018] [:error] [pid 30078] [client 193.169.252.91:48124] [client 193.169.252.91] ModSecurity: Multipart parsing error (init): Multipart: Invalid boundary in C-T (characters). [hostname "ikbensterdam.com"] [uri "/tiny_mce/plugins/tinybrowser/upload_file.php"] [unique_id "W9zzS5TUSrauyFWWi-xEbgAAAAI"]
[Sat Nov 03 01:01:00.748415 2018] [:error] [pid 41391] [client 193.169.252.91:48266] [client 193.169.252.91] ModSecurity: Multipart parsing error (init): Multipart: Invalid boundary in C-T (characters). [hostname "ikbensterdam.com"] [uri "/sites/all/libraries/elfinder/php/connector.minimal.php"] [unique_id "W9zzTCNjr5iLgLDW2MkvFQAAAAQ"]
[Sat Nov 03 01:01:01.391928 2018] [:error] [pid 35457] [client 193.169.252.91:48318] [client 193.169.252.91] ModSecurity: Multipart parsing error (init): Multipart: Invalid boundary in C-T (characters). [hostname "ikbensterdam.com"] [uri "/wp-content/plugins/jquery-html5-file-upload/jquery-html5-file-upload.php"] [unique_id "W9zzTUyKpUpOmZbf@if27AAAABo"]
[Sat Nov 03 01:01:02.120891 2018] [:error] [pid 36604] [client 193.169.252.91:48414] [client 193.169.252.91] ModSecurity: Multipart parsing error (init): Multipart: Invalid boundary in C-T (characters). [hostname "ikbensterdam.com"] [uri "/wp-content/plugins/woocommerce-product-options/includes/image-upload.php"] [unique_id "W9zzTm8bWomAvmdQjsIg7QAAACE"]
[Sat Nov 03 01:01:02.861505 2018] [:error] [pid 34061] [client 193.169.252.91:48522] [client 193.169.252.91] ModSecurity: Multipart parsing error (init): Multipart: Invalid boundary in C-T (characters). [hostname "ikbensterdam.com"] [uri "/modules/mod_simplefileuploadv1.3/elements/udd.php"] [unique_id "W9zzTn5-De4zttseYBu@hQAAABA"]
[Sat Nov 03 01:01:27.206418 2018] [:error] [pid 30078] [client 193.169.252.91:50018] [client 193.169.252.91] ModSecurity: Access denied with code 403 (phase 2). Operator GE matched 20 at IP:bf_counter. [file "/etc/httpd/conf.modules.d/10-mod_security.conf"] [line "80"] [id "10033"] [msg "193.169.252.91 dropped in iptables/ip6tables for 10 minutes because of suspected brute-force attack."] [hostname "ikbensterdam.com"] [uri "/wp-login.php"] [unique_id "W9zzZ5TUSrauyFWWi-xEigAAAAI"]
