[Mon Nov 05 11:02:35.704700 2018] [:error] [pid 111498] [client 165.225.170.35:47270] [client 165.225.170.35] ModSecurity: Access denied with code 403 (phase 2). Operator GE matched 20 at IP:bf_counter. [file "/etc/httpd/conf.modules.d/10-mod_security.conf"] [line "80"] [id "10033"] [msg "165.225.170.35 dropped in iptables/ip6tables for 10 minutes because of suspected brute-force attack."] [hostname "ikbensterdam.com"] [uri "/xmlrpc.php"] [unique_id "W@AjS2zfbhtrLhYnKU-7cQAAACg"]
[Mon Nov 05 16:00:56.419253 2018] [:error] [pid 80476] [client 2607:5300:203:2a:::58322] [client 2607:5300:203:2a::] ModSecurity: IPmatch: bad IPv6 specification "2607:5300:203:2a". [hostname "ikbensterdam.com"] [uri "/wp-content/wordpress_cache.php"] [unique_id "W@BpOJdwOxsEKN9@S4NdMAAAAAg"], referer: http://site.ru
[Mon Nov 05 16:00:56.419283 2018] [:error] [pid 80476] [client 2607:5300:203:2a:::58322] [client 2607:5300:203:2a::] ModSecurity: Rule processing failed (id=21001, msg=). [hostname "ikbensterdam.com"] [uri "/wp-content/wordpress_cache.php"] [unique_id "W@BpOJdwOxsEKN9@S4NdMAAAAAg"], referer: http://site.ru
[Mon Nov 05 16:00:56.419300 2018] [:error] [pid 80476] [client 2607:5300:203:2a:::58322] [client 2607:5300:203:2a::] ModSecurity: IPmatch: bad IPv6 specification "2607:5300:203:2a". [hostname "ikbensterdam.com"] [uri "/wp-content/wordpress_cache.php"] [unique_id "W@BpOJdwOxsEKN9@S4NdMAAAAAg"], referer: http://site.ru
[Mon Nov 05 16:00:56.419314 2018] [:error] [pid 80476] [client 2607:5300:203:2a:::58322] [client 2607:5300:203:2a::] ModSecurity: Rule processing failed (id=22001, msg=). [hostname "ikbensterdam.com"] [uri "/wp-content/wordpress_cache.php"] [unique_id "W@BpOJdwOxsEKN9@S4NdMAAAAAg"], referer: http://site.ru
[Mon Nov 05 16:00:56.419328 2018] [:error] [pid 80476] [client 2607:5300:203:2a:::58322] [client 2607:5300:203:2a::] ModSecurity: IPmatch: bad IPv6 specification "2607:5300:203:2a". [hostname "ikbensterdam.com"] [uri "/wp-content/wordpress_cache.php"] [unique_id "W@BpOJdwOxsEKN9@S4NdMAAAAAg"], referer: http://site.ru
[Mon Nov 05 16:00:56.419356 2018] [:error] [pid 80476] [client 2607:5300:203:2a:::58322] [client 2607:5300:203:2a::] ModSecurity: Rule processing failed (id=22002, msg=). [hostname "ikbensterdam.com"] [uri "/wp-content/wordpress_cache.php"] [unique_id "W@BpOJdwOxsEKN9@S4NdMAAAAAg"], referer: http://site.ru
[Mon Nov 05 16:00:56.419374 2018] [:error] [pid 80476] [client 2607:5300:203:2a:::58322] [client 2607:5300:203:2a::] ModSecurity: IPmatch: bad IPv6 specification "2607:5300:203:2a". [hostname "ikbensterdam.com"] [uri "/wp-content/wordpress_cache.php"] [unique_id "W@BpOJdwOxsEKN9@S4NdMAAAAAg"], referer: http://site.ru
[Mon Nov 05 16:00:56.419386 2018] [:error] [pid 80476] [client 2607:5300:203:2a:::58322] [client 2607:5300:203:2a::] ModSecurity: Rule processing failed (id=22003, msg=). [hostname "ikbensterdam.com"] [uri "/wp-content/wordpress_cache.php"] [unique_id "W@BpOJdwOxsEKN9@S4NdMAAAAAg"], referer: http://site.ru
[Mon Nov 05 16:00:56.419401 2018] [:error] [pid 80476] [client 2607:5300:203:2a:::58322] [client 2607:5300:203:2a::] ModSecurity: IPmatch: bad IPv6 specification "2607:5300:203:2a". [hostname "ikbensterdam.com"] [uri "/wp-content/wordpress_cache.php"] [unique_id "W@BpOJdwOxsEKN9@S4NdMAAAAAg"], referer: http://site.ru
[Mon Nov 05 16:00:56.419417 2018] [:error] [pid 80476] [client 2607:5300:203:2a:::58322] [client 2607:5300:203:2a::] ModSecurity: Rule processing failed (id=22004, msg=). [hostname "ikbensterdam.com"] [uri "/wp-content/wordpress_cache.php"] [unique_id "W@BpOJdwOxsEKN9@S4NdMAAAAAg"], referer: http://site.ru
[Mon Nov 05 16:00:56.419431 2018] [:error] [pid 80476] [client 2607:5300:203:2a:::58322] [client 2607:5300:203:2a::] ModSecurity: IPmatch: bad IPv6 specification "2607:5300:203:2a". [hostname "ikbensterdam.com"] [uri "/wp-content/wordpress_cache.php"] [unique_id "W@BpOJdwOxsEKN9@S4NdMAAAAAg"], referer: http://site.ru
[Mon Nov 05 16:00:56.419444 2018] [:error] [pid 80476] [client 2607:5300:203:2a:::58322] [client 2607:5300:203:2a::] ModSecurity: Rule processing failed (id=22005, msg=). [hostname "ikbensterdam.com"] [uri "/wp-content/wordpress_cache.php"] [unique_id "W@BpOJdwOxsEKN9@S4NdMAAAAAg"], referer: http://site.ru
[Mon Nov 05 16:00:56.419473 2018] [:error] [pid 80476] [client 2607:5300:203:2a:::58322] [client 2607:5300:203:2a::] ModSecurity: IPmatch: bad IPv6 specification "2607:5300:203:2a". [hostname "ikbensterdam.com"] [uri "/wp-content/wordpress_cache.php"] [unique_id "W@BpOJdwOxsEKN9@S4NdMAAAAAg"], referer: http://site.ru
[Mon Nov 05 16:00:56.419486 2018] [:error] [pid 80476] [client 2607:5300:203:2a:::58322] [client 2607:5300:203:2a::] ModSecurity: Rule processing failed (id=22006, msg=). [hostname "ikbensterdam.com"] [uri "/wp-content/wordpress_cache.php"] [unique_id "W@BpOJdwOxsEKN9@S4NdMAAAAAg"], referer: http://site.ru
[Mon Nov 05 16:00:58.551830 2018] [:error] [pid 85466] [client 2607:5300:203:2a:::58488] [client 2607:5300:203:2a::] ModSecurity: IPmatch: bad IPv6 specification "2607:5300:203:2a". [hostname "www.ikbensterdam.com"] [uri "/wp-content/wordpress_cache.php"] [unique_id "W@BpOpfgN5PhhXs1VCxDcgAAAB8"], referer: http://site.ru
[Mon Nov 05 16:00:58.551860 2018] [:error] [pid 85466] [client 2607:5300:203:2a:::58488] [client 2607:5300:203:2a::] ModSecurity: Rule processing failed (id=21001, msg=). [hostname "www.ikbensterdam.com"] [uri "/wp-content/wordpress_cache.php"] [unique_id "W@BpOpfgN5PhhXs1VCxDcgAAAB8"], referer: http://site.ru
[Mon Nov 05 16:00:58.551877 2018] [:error] [pid 85466] [client 2607:5300:203:2a:::58488] [client 2607:5300:203:2a::] ModSecurity: IPmatch: bad IPv6 specification "2607:5300:203:2a". [hostname "www.ikbensterdam.com"] [uri "/wp-content/wordpress_cache.php"] [unique_id "W@BpOpfgN5PhhXs1VCxDcgAAAB8"], referer: http://site.ru
[Mon Nov 05 16:00:58.551891 2018] [:error] [pid 85466] [client 2607:5300:203:2a:::58488] [client 2607:5300:203:2a::] ModSecurity: Rule processing failed (id=22001, msg=). [hostname "www.ikbensterdam.com"] [uri "/wp-content/wordpress_cache.php"] [unique_id "W@BpOpfgN5PhhXs1VCxDcgAAAB8"], referer: http://site.ru
[Mon Nov 05 16:00:58.551906 2018] [:error] [pid 85466] [client 2607:5300:203:2a:::58488] [client 2607:5300:203:2a::] ModSecurity: IPmatch: bad IPv6 specification "2607:5300:203:2a". [hostname "www.ikbensterdam.com"] [uri "/wp-content/wordpress_cache.php"] [unique_id "W@BpOpfgN5PhhXs1VCxDcgAAAB8"], referer: http://site.ru
[Mon Nov 05 16:00:58.551919 2018] [:error] [pid 85466] [client 2607:5300:203:2a:::58488] [client 2607:5300:203:2a::] ModSecurity: Rule processing failed (id=22002, msg=). [hostname "www.ikbensterdam.com"] [uri "/wp-content/wordpress_cache.php"] [unique_id "W@BpOpfgN5PhhXs1VCxDcgAAAB8"], referer: http://site.ru
[Mon Nov 05 16:00:58.551934 2018] [:error] [pid 85466] [client 2607:5300:203:2a:::58488] [client 2607:5300:203:2a::] ModSecurity: IPmatch: bad IPv6 specification "2607:5300:203:2a". [hostname "www.ikbensterdam.com"] [uri "/wp-content/wordpress_cache.php"] [unique_id "W@BpOpfgN5PhhXs1VCxDcgAAAB8"], referer: http://site.ru
[Mon Nov 05 16:00:58.551965 2018] [:error] [pid 85466] [client 2607:5300:203:2a:::58488] [client 2607:5300:203:2a::] ModSecurity: Rule processing failed (id=22003, msg=). [hostname "www.ikbensterdam.com"] [uri "/wp-content/wordpress_cache.php"] [unique_id "W@BpOpfgN5PhhXs1VCxDcgAAAB8"], referer: http://site.ru
[Mon Nov 05 16:00:58.551982 2018] [:error] [pid 85466] [client 2607:5300:203:2a:::58488] [client 2607:5300:203:2a::] ModSecurity: IPmatch: bad IPv6 specification "2607:5300:203:2a". [hostname "www.ikbensterdam.com"] [uri "/wp-content/wordpress_cache.php"] [unique_id "W@BpOpfgN5PhhXs1VCxDcgAAAB8"], referer: http://site.ru
[Mon Nov 05 16:00:58.551995 2018] [:error] [pid 85466] [client 2607:5300:203:2a:::58488] [client 2607:5300:203:2a::] ModSecurity: Rule processing failed (id=22004, msg=). [hostname "www.ikbensterdam.com"] [uri "/wp-content/wordpress_cache.php"] [unique_id "W@BpOpfgN5PhhXs1VCxDcgAAAB8"], referer: http://site.ru
[Mon Nov 05 16:00:58.552010 2018] [:error] [pid 85466] [client 2607:5300:203:2a:::58488] [client 2607:5300:203:2a::] ModSecurity: IPmatch: bad IPv6 specification "2607:5300:203:2a". [hostname "www.ikbensterdam.com"] [uri "/wp-content/wordpress_cache.php"] [unique_id "W@BpOpfgN5PhhXs1VCxDcgAAAB8"], referer: http://site.ru
[Mon Nov 05 16:00:58.552032 2018] [:error] [pid 85466] [client 2607:5300:203:2a:::58488] [client 2607:5300:203:2a::] ModSecurity: Rule processing failed (id=22005, msg=). [hostname "www.ikbensterdam.com"] [uri "/wp-content/wordpress_cache.php"] [unique_id "W@BpOpfgN5PhhXs1VCxDcgAAAB8"], referer: http://site.ru
[Mon Nov 05 16:00:58.552046 2018] [:error] [pid 85466] [client 2607:5300:203:2a:::58488] [client 2607:5300:203:2a::] ModSecurity: IPmatch: bad IPv6 specification "2607:5300:203:2a". [hostname "www.ikbensterdam.com"] [uri "/wp-content/wordpress_cache.php"] [unique_id "W@BpOpfgN5PhhXs1VCxDcgAAAB8"], referer: http://site.ru
[Mon Nov 05 16:00:58.552059 2018] [:error] [pid 85466] [client 2607:5300:203:2a:::58488] [client 2607:5300:203:2a::] ModSecurity: Rule processing failed (id=22006, msg=). [hostname "www.ikbensterdam.com"] [uri "/wp-content/wordpress_cache.php"] [unique_id "W@BpOpfgN5PhhXs1VCxDcgAAAB8"], referer: http://site.ru
