2018/11/06 21:37:28 [warn] 177234#0: *95577372 a client request body is buffered to a temporary file /var/cache/nginx/client_temp/0000150572, client: 35.237.37.110, server: supermonkeystar.com, request: "POST /xmlrpc.php HTTP/1.1", host: "supermonkeystar.com"
2018/11/06 21:37:29 [warn] 177234#0: *95577372 a client request body is buffered to a temporary file /var/cache/nginx/client_temp/0000150573, client: 35.237.37.110, server: supermonkeystar.com, request: "POST /xmlrpc.php HTTP/1.1", host: "supermonkeystar.com"
2018/11/06 21:37:30 [warn] 177234#0: *95577372 a client request body is buffered to a temporary file /var/cache/nginx/client_temp/0000150574, client: 35.237.37.110, server: supermonkeystar.com, request: "POST /xmlrpc.php HTTP/1.1", host: "supermonkeystar.com"
2018/11/06 21:37:31 [warn] 177234#0: *95577372 a client request body is buffered to a temporary file /var/cache/nginx/client_temp/0000150575, client: 35.237.37.110, server: supermonkeystar.com, request: "POST /xmlrpc.php HTTP/1.1", host: "supermonkeystar.com"
2018/11/06 21:37:32 [warn] 177234#0: *95577372 a client request body is buffered to a temporary file /var/cache/nginx/client_temp/0000150576, client: 35.237.37.110, server: supermonkeystar.com, request: "POST /xmlrpc.php HTTP/1.1", host: "supermonkeystar.com"
