2018/11/01 18:18:04 [warn] 90571#0: *79774264 a client request body is buffered to a temporary file /var/cache/nginx/client_temp/0000127446, client: 13.78.24.40, server: ikbensterdam.com, request: "POST /xmlrpc.php HTTP/1.1", host: "ikbensterdam.com"
2018/11/01 18:18:07 [warn] 90571#0: *79774264 a client request body is buffered to a temporary file /var/cache/nginx/client_temp/0000127447, client: 13.78.24.40, server: ikbensterdam.com, request: "POST /xmlrpc.php HTTP/1.1", host: "ikbensterdam.com"
2018/11/01 18:18:10 [warn] 90571#0: *79774264 a client request body is buffered to a temporary file /var/cache/nginx/client_temp/0000127448, client: 13.78.24.40, server: ikbensterdam.com, request: "POST /xmlrpc.php HTTP/1.1", host: "ikbensterdam.com"
2018/11/01 18:18:13 [warn] 90571#0: *79774264 a client request body is buffered to a temporary file /var/cache/nginx/client_temp/0000127449, client: 13.78.24.40, server: ikbensterdam.com, request: "POST /xmlrpc.php HTTP/1.1", host: "ikbensterdam.com"
2018/11/01 18:18:16 [warn] 90571#0: *79774264 a client request body is buffered to a temporary file /var/cache/nginx/client_temp/0000127450, client: 13.78.24.40, server: ikbensterdam.com, request: "POST /xmlrpc.php HTTP/1.1", host: "ikbensterdam.com"
2018/11/01 18:18:19 [warn] 90571#0: *79774264 a client request body is buffered to a temporary file /var/cache/nginx/client_temp/0000127451, client: 13.78.24.40, server: ikbensterdam.com, request: "POST /xmlrpc.php HTTP/1.1", host: "ikbensterdam.com"
2018/11/01 18:18:21 [warn] 90571#0: *79774264 a client request body is buffered to a temporary file /var/cache/nginx/client_temp/0000127452, client: 13.78.24.40, server: ikbensterdam.com, request: "POST /xmlrpc.php HTTP/1.1", host: "ikbensterdam.com"
