2018/11/03 03:50:29 [warn] 86985#0: *83938769 a client request body is buffered to a temporary file /var/cache/nginx/client_temp/0000133938, client: 27.123.255.235, server: www.radicalgraphics.nl, request: "POST /xmlrpc.php HTTP/1.1", host: "radicalgraphics.net"
2018/11/03 03:50:44 [warn] 86985#0: *83939151 a client request body is buffered to a temporary file /var/cache/nginx/client_temp/0000133939, client: 27.123.255.235, server: www.radicalgraphics.nl, request: "POST /xmlrpc.php HTTP/1.1", host: "radicalgraphics.net"
2018/11/03 11:10:20 [warn] 86985#0: *84759894 a client request body is buffered to a temporary file /var/cache/nginx/client_temp/0000134961, client: 212.92.112.121, server: www.radicalgraphics.nl, request: "POST /xmlrpc.php HTTP/1.1", host: "www.radicalgraphics.nl"
2018/11/03 21:38:38 [warn] 86985#0: *86179710 a client request body is buffered to a temporary file /var/cache/nginx/client_temp/0000136669, client: 149.56.251.139, server: www.radicalgraphics.nl, request: "POST /xmlrpc.php HTTP/1.1", host: "www.radicalgraphics.nl"
