2018/11/02 02:24:33 [warn] 90572#0: *80733365 a client request body is buffered to a temporary file /var/cache/nginx/client_temp/0000128467, client: 13.78.24.40, server: www.xintana.com, request: "POST /xmlrpc.php HTTP/1.1", host: "xintanalegends.com"
2018/11/02 02:24:35 [warn] 90572#0: *80733365 a client request body is buffered to a temporary file /var/cache/nginx/client_temp/0000128468, client: 13.78.24.40, server: www.xintana.com, request: "POST /xmlrpc.php HTTP/1.1", host: "xintanalegends.com"
2018/11/02 02:24:36 [warn] 90572#0: *80733365 a client request body is buffered to a temporary file /var/cache/nginx/client_temp/0000128469, client: 13.78.24.40, server: www.xintana.com, request: "POST /xmlrpc.php HTTP/1.1", host: "xintanalegends.com"
2018/11/02 02:24:37 [warn] 90572#0: *80733365 a client request body is buffered to a temporary file /var/cache/nginx/client_temp/0000128470, client: 13.78.24.40, server: www.xintana.com, request: "POST /xmlrpc.php HTTP/1.1", host: "xintanalegends.com"
2018/11/02 02:24:38 [warn] 90572#0: *80733365 a client request body is buffered to a temporary file /var/cache/nginx/client_temp/0000128471, client: 13.78.24.40, server: www.xintana.com, request: "POST /xmlrpc.php HTTP/1.1", host: "xintanalegends.com"
2018/11/02 02:24:39 [warn] 90572#0: *80733365 a client request body is buffered to a temporary file /var/cache/nginx/client_temp/0000128472, client: 13.78.24.40, server: www.xintana.com, request: "POST /xmlrpc.php HTTP/1.1", host: "xintanalegends.com"
2018/11/02 02:24:40 [warn] 90572#0: *80733365 a client request body is buffered to a temporary file /var/cache/nginx/client_temp/0000128473, client: 13.78.24.40, server: www.xintana.com, request: "POST /xmlrpc.php HTTP/1.1", host: "xintanalegends.com"
