2018/11/05 04:10:07 [warn] 110490#0: *89782273 a client request body is buffered to a temporary file /var/cache/nginx/client_temp/0000141170, client: 165.225.170.35, server: royalgeekness.com, request: "POST /xmlrpc.php HTTP/1.1", host: "royalgeekness.com"
2018/11/05 07:01:12 [warn] 151711#0: *90050654 a client request body is buffered to a temporary file /var/cache/nginx/client_temp/0000141597, client: 198.23.202.38, server: royalgeekness.com, request: "POST /xmlrpc.php HTTP/1.1", host: "royalgeekness.com"
2018/11/05 07:01:13 [warn] 151711#0: *90050654 a client request body is buffered to a temporary file /var/cache/nginx/client_temp/0000141598, client: 198.23.202.38, server: royalgeekness.com, request: "POST /xmlrpc.php HTTP/1.1", host: "royalgeekness.com"
