[Mon Nov 05 14:57:07.362287 2018] [:error] [pid 91851] [client 2001:41d0:a:7268:::34448] [client 2001:41d0:a:7268::] ModSecurity: IPmatch: bad IPv6 specification "2001:41d0:a:7268". [hostname "xintana.com"] [uri "/wp-mains.php"] [unique_id "W@BaQ@ikfqS5hMAxw4u5@wAAABA"], referer: http://site.ru
[Mon Nov 05 14:57:07.362328 2018] [:error] [pid 91851] [client 2001:41d0:a:7268:::34448] [client 2001:41d0:a:7268::] ModSecurity: Rule processing failed (id=21001, msg=). [hostname "xintana.com"] [uri "/wp-mains.php"] [unique_id "W@BaQ@ikfqS5hMAxw4u5@wAAABA"], referer: http://site.ru
[Mon Nov 05 14:57:07.362378 2018] [:error] [pid 91851] [client 2001:41d0:a:7268:::34448] [client 2001:41d0:a:7268::] ModSecurity: IPmatch: bad IPv6 specification "2001:41d0:a:7268". [hostname "xintana.com"] [uri "/wp-mains.php"] [unique_id "W@BaQ@ikfqS5hMAxw4u5@wAAABA"], referer: http://site.ru
[Mon Nov 05 14:57:07.362396 2018] [:error] [pid 91851] [client 2001:41d0:a:7268:::34448] [client 2001:41d0:a:7268::] ModSecurity: Rule processing failed (id=22001, msg=). [hostname "xintana.com"] [uri "/wp-mains.php"] [unique_id "W@BaQ@ikfqS5hMAxw4u5@wAAABA"], referer: http://site.ru
[Mon Nov 05 14:57:07.362411 2018] [:error] [pid 91851] [client 2001:41d0:a:7268:::34448] [client 2001:41d0:a:7268::] ModSecurity: IPmatch: bad IPv6 specification "2001:41d0:a:7268". [hostname "xintana.com"] [uri "/wp-mains.php"] [unique_id "W@BaQ@ikfqS5hMAxw4u5@wAAABA"], referer: http://site.ru
[Mon Nov 05 14:57:07.362424 2018] [:error] [pid 91851] [client 2001:41d0:a:7268:::34448] [client 2001:41d0:a:7268::] ModSecurity: Rule processing failed (id=22002, msg=). [hostname "xintana.com"] [uri "/wp-mains.php"] [unique_id "W@BaQ@ikfqS5hMAxw4u5@wAAABA"], referer: http://site.ru
[Mon Nov 05 14:57:07.362438 2018] [:error] [pid 91851] [client 2001:41d0:a:7268:::34448] [client 2001:41d0:a:7268::] ModSecurity: IPmatch: bad IPv6 specification "2001:41d0:a:7268". [hostname "xintana.com"] [uri "/wp-mains.php"] [unique_id "W@BaQ@ikfqS5hMAxw4u5@wAAABA"], referer: http://site.ru
[Mon Nov 05 14:57:07.362450 2018] [:error] [pid 91851] [client 2001:41d0:a:7268:::34448] [client 2001:41d0:a:7268::] ModSecurity: Rule processing failed (id=22003, msg=). [hostname "xintana.com"] [uri "/wp-mains.php"] [unique_id "W@BaQ@ikfqS5hMAxw4u5@wAAABA"], referer: http://site.ru
[Mon Nov 05 14:57:07.362464 2018] [:error] [pid 91851] [client 2001:41d0:a:7268:::34448] [client 2001:41d0:a:7268::] ModSecurity: IPmatch: bad IPv6 specification "2001:41d0:a:7268". [hostname "xintana.com"] [uri "/wp-mains.php"] [unique_id "W@BaQ@ikfqS5hMAxw4u5@wAAABA"], referer: http://site.ru
[Mon Nov 05 14:57:07.362476 2018] [:error] [pid 91851] [client 2001:41d0:a:7268:::34448] [client 2001:41d0:a:7268::] ModSecurity: Rule processing failed (id=22004, msg=). [hostname "xintana.com"] [uri "/wp-mains.php"] [unique_id "W@BaQ@ikfqS5hMAxw4u5@wAAABA"], referer: http://site.ru
[Mon Nov 05 14:57:07.362492 2018] [:error] [pid 91851] [client 2001:41d0:a:7268:::34448] [client 2001:41d0:a:7268::] ModSecurity: IPmatch: bad IPv6 specification "2001:41d0:a:7268". [hostname "xintana.com"] [uri "/wp-mains.php"] [unique_id "W@BaQ@ikfqS5hMAxw4u5@wAAABA"], referer: http://site.ru
[Mon Nov 05 14:57:07.362505 2018] [:error] [pid 91851] [client 2001:41d0:a:7268:::34448] [client 2001:41d0:a:7268::] ModSecurity: Rule processing failed (id=22005, msg=). [hostname "xintana.com"] [uri "/wp-mains.php"] [unique_id "W@BaQ@ikfqS5hMAxw4u5@wAAABA"], referer: http://site.ru
[Mon Nov 05 14:57:07.362518 2018] [:error] [pid 91851] [client 2001:41d0:a:7268:::34448] [client 2001:41d0:a:7268::] ModSecurity: IPmatch: bad IPv6 specification "2001:41d0:a:7268". [hostname "xintana.com"] [uri "/wp-mains.php"] [unique_id "W@BaQ@ikfqS5hMAxw4u5@wAAABA"], referer: http://site.ru
[Mon Nov 05 14:57:07.362530 2018] [:error] [pid 91851] [client 2001:41d0:a:7268:::34448] [client 2001:41d0:a:7268::] ModSecurity: Rule processing failed (id=22006, msg=). [hostname "xintana.com"] [uri "/wp-mains.php"] [unique_id "W@BaQ@ikfqS5hMAxw4u5@wAAABA"], referer: http://site.ru
