[Sun Nov 04 10:55:58.163516 2018] [:error] [pid 122042] [client 2001:41d0:1008:140c:::60022] [client 2001:41d0:1008:140c::] ModSecurity: IPmatch: bad IPv6 specification "2001:41d0:1008:140c". [hostname "handycraft.co"] [uri "/wp-content/uploads/logo_img.php"] [unique_id "W97QPlR-FDpGiWzg8UFKaAAAAAg"], referer: http://site.ru
[Sun Nov 04 10:55:58.163561 2018] [:error] [pid 122042] [client 2001:41d0:1008:140c:::60022] [client 2001:41d0:1008:140c::] ModSecurity: Rule processing failed (id=21001, msg=). [hostname "handycraft.co"] [uri "/wp-content/uploads/logo_img.php"] [unique_id "W97QPlR-FDpGiWzg8UFKaAAAAAg"], referer: http://site.ru
[Sun Nov 04 10:55:58.163580 2018] [:error] [pid 122042] [client 2001:41d0:1008:140c:::60022] [client 2001:41d0:1008:140c::] ModSecurity: IPmatch: bad IPv6 specification "2001:41d0:1008:140c". [hostname "handycraft.co"] [uri "/wp-content/uploads/logo_img.php"] [unique_id "W97QPlR-FDpGiWzg8UFKaAAAAAg"], referer: http://site.ru
[Sun Nov 04 10:55:58.163598 2018] [:error] [pid 122042] [client 2001:41d0:1008:140c:::60022] [client 2001:41d0:1008:140c::] ModSecurity: Rule processing failed (id=22001, msg=). [hostname "handycraft.co"] [uri "/wp-content/uploads/logo_img.php"] [unique_id "W97QPlR-FDpGiWzg8UFKaAAAAAg"], referer: http://site.ru
[Sun Nov 04 10:55:58.163614 2018] [:error] [pid 122042] [client 2001:41d0:1008:140c:::60022] [client 2001:41d0:1008:140c::] ModSecurity: IPmatch: bad IPv6 specification "2001:41d0:1008:140c". [hostname "handycraft.co"] [uri "/wp-content/uploads/logo_img.php"] [unique_id "W97QPlR-FDpGiWzg8UFKaAAAAAg"], referer: http://site.ru
[Sun Nov 04 10:55:58.163628 2018] [:error] [pid 122042] [client 2001:41d0:1008:140c:::60022] [client 2001:41d0:1008:140c::] ModSecurity: Rule processing failed (id=22002, msg=). [hostname "handycraft.co"] [uri "/wp-content/uploads/logo_img.php"] [unique_id "W97QPlR-FDpGiWzg8UFKaAAAAAg"], referer: http://site.ru
[Sun Nov 04 10:55:58.163642 2018] [:error] [pid 122042] [client 2001:41d0:1008:140c:::60022] [client 2001:41d0:1008:140c::] ModSecurity: IPmatch: bad IPv6 specification "2001:41d0:1008:140c". [hostname "handycraft.co"] [uri "/wp-content/uploads/logo_img.php"] [unique_id "W97QPlR-FDpGiWzg8UFKaAAAAAg"], referer: http://site.ru
[Sun Nov 04 10:55:58.163656 2018] [:error] [pid 122042] [client 2001:41d0:1008:140c:::60022] [client 2001:41d0:1008:140c::] ModSecurity: Rule processing failed (id=22003, msg=). [hostname "handycraft.co"] [uri "/wp-content/uploads/logo_img.php"] [unique_id "W97QPlR-FDpGiWzg8UFKaAAAAAg"], referer: http://site.ru
[Sun Nov 04 10:55:58.163674 2018] [:error] [pid 122042] [client 2001:41d0:1008:140c:::60022] [client 2001:41d0:1008:140c::] ModSecurity: IPmatch: bad IPv6 specification "2001:41d0:1008:140c". [hostname "handycraft.co"] [uri "/wp-content/uploads/logo_img.php"] [unique_id "W97QPlR-FDpGiWzg8UFKaAAAAAg"], referer: http://site.ru
[Sun Nov 04 10:55:58.163688 2018] [:error] [pid 122042] [client 2001:41d0:1008:140c:::60022] [client 2001:41d0:1008:140c::] ModSecurity: Rule processing failed (id=22004, msg=). [hostname "handycraft.co"] [uri "/wp-content/uploads/logo_img.php"] [unique_id "W97QPlR-FDpGiWzg8UFKaAAAAAg"], referer: http://site.ru
[Sun Nov 04 10:55:58.163703 2018] [:error] [pid 122042] [client 2001:41d0:1008:140c:::60022] [client 2001:41d0:1008:140c::] ModSecurity: IPmatch: bad IPv6 specification "2001:41d0:1008:140c". [hostname "handycraft.co"] [uri "/wp-content/uploads/logo_img.php"] [unique_id "W97QPlR-FDpGiWzg8UFKaAAAAAg"], referer: http://site.ru
[Sun Nov 04 10:55:58.163717 2018] [:error] [pid 122042] [client 2001:41d0:1008:140c:::60022] [client 2001:41d0:1008:140c::] ModSecurity: Rule processing failed (id=22005, msg=). [hostname "handycraft.co"] [uri "/wp-content/uploads/logo_img.php"] [unique_id "W97QPlR-FDpGiWzg8UFKaAAAAAg"], referer: http://site.ru
[Sun Nov 04 10:55:58.163742 2018] [:error] [pid 122042] [client 2001:41d0:1008:140c:::60022] [client 2001:41d0:1008:140c::] ModSecurity: IPmatch: bad IPv6 specification "2001:41d0:1008:140c". [hostname "handycraft.co"] [uri "/wp-content/uploads/logo_img.php"] [unique_id "W97QPlR-FDpGiWzg8UFKaAAAAAg"], referer: http://site.ru
[Sun Nov 04 10:55:58.163762 2018] [:error] [pid 122042] [client 2001:41d0:1008:140c:::60022] [client 2001:41d0:1008:140c::] ModSecurity: Rule processing failed (id=22006, msg=). [hostname "handycraft.co"] [uri "/wp-content/uploads/logo_img.php"] [unique_id "W97QPlR-FDpGiWzg8UFKaAAAAAg"], referer: http://site.ru
[Sun Nov 04 10:56:01.697679 2018] [:error] [pid 122423] [client 2001:41d0:1008:140c:::60192] [client 2001:41d0:1008:140c::] ModSecurity: IPmatch: bad IPv6 specification "2001:41d0:1008:140c". [hostname "handycraft.co"] [uri "/wp-content/uploads/logo_img.php"] [unique_id "W97QQWa4EoH9Tww2E3wHfwAAAAk"], referer: http://site.ru
[Sun Nov 04 10:56:01.697696 2018] [:error] [pid 122423] [client 2001:41d0:1008:140c:::60192] [client 2001:41d0:1008:140c::] ModSecurity: Rule processing failed (id=21001, msg=). [hostname "handycraft.co"] [uri "/wp-content/uploads/logo_img.php"] [unique_id "W97QQWa4EoH9Tww2E3wHfwAAAAk"], referer: http://site.ru
[Sun Nov 04 10:56:01.697705 2018] [:error] [pid 122423] [client 2001:41d0:1008:140c:::60192] [client 2001:41d0:1008:140c::] ModSecurity: IPmatch: bad IPv6 specification "2001:41d0:1008:140c". [hostname "handycraft.co"] [uri "/wp-content/uploads/logo_img.php"] [unique_id "W97QQWa4EoH9Tww2E3wHfwAAAAk"], referer: http://site.ru
[Sun Nov 04 10:56:01.697712 2018] [:error] [pid 122423] [client 2001:41d0:1008:140c:::60192] [client 2001:41d0:1008:140c::] ModSecurity: Rule processing failed (id=22001, msg=). [hostname "handycraft.co"] [uri "/wp-content/uploads/logo_img.php"] [unique_id "W97QQWa4EoH9Tww2E3wHfwAAAAk"], referer: http://site.ru
[Sun Nov 04 10:56:01.697720 2018] [:error] [pid 122423] [client 2001:41d0:1008:140c:::60192] [client 2001:41d0:1008:140c::] ModSecurity: IPmatch: bad IPv6 specification "2001:41d0:1008:140c". [hostname "handycraft.co"] [uri "/wp-content/uploads/logo_img.php"] [unique_id "W97QQWa4EoH9Tww2E3wHfwAAAAk"], referer: http://site.ru
[Sun Nov 04 10:56:01.697727 2018] [:error] [pid 122423] [client 2001:41d0:1008:140c:::60192] [client 2001:41d0:1008:140c::] ModSecurity: Rule processing failed (id=22002, msg=). [hostname "handycraft.co"] [uri "/wp-content/uploads/logo_img.php"] [unique_id "W97QQWa4EoH9Tww2E3wHfwAAAAk"], referer: http://site.ru
[Sun Nov 04 10:56:01.697735 2018] [:error] [pid 122423] [client 2001:41d0:1008:140c:::60192] [client 2001:41d0:1008:140c::] ModSecurity: IPmatch: bad IPv6 specification "2001:41d0:1008:140c". [hostname "handycraft.co"] [uri "/wp-content/uploads/logo_img.php"] [unique_id "W97QQWa4EoH9Tww2E3wHfwAAAAk"], referer: http://site.ru
[Sun Nov 04 10:56:01.697741 2018] [:error] [pid 122423] [client 2001:41d0:1008:140c:::60192] [client 2001:41d0:1008:140c::] ModSecurity: Rule processing failed (id=22003, msg=). [hostname "handycraft.co"] [uri "/wp-content/uploads/logo_img.php"] [unique_id "W97QQWa4EoH9Tww2E3wHfwAAAAk"], referer: http://site.ru
[Sun Nov 04 10:56:01.697749 2018] [:error] [pid 122423] [client 2001:41d0:1008:140c:::60192] [client 2001:41d0:1008:140c::] ModSecurity: IPmatch: bad IPv6 specification "2001:41d0:1008:140c". [hostname "handycraft.co"] [uri "/wp-content/uploads/logo_img.php"] [unique_id "W97QQWa4EoH9Tww2E3wHfwAAAAk"], referer: http://site.ru
[Sun Nov 04 10:56:01.697756 2018] [:error] [pid 122423] [client 2001:41d0:1008:140c:::60192] [client 2001:41d0:1008:140c::] ModSecurity: Rule processing failed (id=22004, msg=). [hostname "handycraft.co"] [uri "/wp-content/uploads/logo_img.php"] [unique_id "W97QQWa4EoH9Tww2E3wHfwAAAAk"], referer: http://site.ru
[Sun Nov 04 10:56:01.697763 2018] [:error] [pid 122423] [client 2001:41d0:1008:140c:::60192] [client 2001:41d0:1008:140c::] ModSecurity: IPmatch: bad IPv6 specification "2001:41d0:1008:140c". [hostname "handycraft.co"] [uri "/wp-content/uploads/logo_img.php"] [unique_id "W97QQWa4EoH9Tww2E3wHfwAAAAk"], referer: http://site.ru
[Sun Nov 04 10:56:01.697770 2018] [:error] [pid 122423] [client 2001:41d0:1008:140c:::60192] [client 2001:41d0:1008:140c::] ModSecurity: Rule processing failed (id=22005, msg=). [hostname "handycraft.co"] [uri "/wp-content/uploads/logo_img.php"] [unique_id "W97QQWa4EoH9Tww2E3wHfwAAAAk"], referer: http://site.ru
[Sun Nov 04 10:56:01.697789 2018] [:error] [pid 122423] [client 2001:41d0:1008:140c:::60192] [client 2001:41d0:1008:140c::] ModSecurity: IPmatch: bad IPv6 specification "2001:41d0:1008:140c". [hostname "handycraft.co"] [uri "/wp-content/uploads/logo_img.php"] [unique_id "W97QQWa4EoH9Tww2E3wHfwAAAAk"], referer: http://site.ru
[Sun Nov 04 10:56:01.697795 2018] [:error] [pid 122423] [client 2001:41d0:1008:140c:::60192] [client 2001:41d0:1008:140c::] ModSecurity: Rule processing failed (id=22006, msg=). [hostname "handycraft.co"] [uri "/wp-content/uploads/logo_img.php"] [unique_id "W97QQWa4EoH9Tww2E3wHfwAAAAk"], referer: http://site.ru
[Sun Nov 04 13:53:34.194861 2018] [:error] [pid 122513] [client 2001:41d0:a:7268:::50674] [client 2001:41d0:a:7268::] ModSecurity: IPmatch: bad IPv6 specification "2001:41d0:a:7268". [hostname "handycraft.co"] [uri "/wp-admin/network/green.php"] [unique_id "W9753qAUAvS5gRNIkNuQQQAAAAA"], referer: http://site.ru
[Sun Nov 04 13:53:34.194887 2018] [:error] [pid 122513] [client 2001:41d0:a:7268:::50674] [client 2001:41d0:a:7268::] ModSecurity: Rule processing failed (id=21001, msg=). [hostname "handycraft.co"] [uri "/wp-admin/network/green.php"] [unique_id "W9753qAUAvS5gRNIkNuQQQAAAAA"], referer: http://site.ru
[Sun Nov 04 13:53:34.194902 2018] [:error] [pid 122513] [client 2001:41d0:a:7268:::50674] [client 2001:41d0:a:7268::] ModSecurity: IPmatch: bad IPv6 specification "2001:41d0:a:7268". [hostname "handycraft.co"] [uri "/wp-admin/network/green.php"] [unique_id "W9753qAUAvS5gRNIkNuQQQAAAAA"], referer: http://site.ru
[Sun Nov 04 13:53:34.194916 2018] [:error] [pid 122513] [client 2001:41d0:a:7268:::50674] [client 2001:41d0:a:7268::] ModSecurity: Rule processing failed (id=22001, msg=). [hostname "handycraft.co"] [uri "/wp-admin/network/green.php"] [unique_id "W9753qAUAvS5gRNIkNuQQQAAAAA"], referer: http://site.ru
[Sun Nov 04 13:53:34.194929 2018] [:error] [pid 122513] [client 2001:41d0:a:7268:::50674] [client 2001:41d0:a:7268::] ModSecurity: IPmatch: bad IPv6 specification "2001:41d0:a:7268". [hostname "handycraft.co"] [uri "/wp-admin/network/green.php"] [unique_id "W9753qAUAvS5gRNIkNuQQQAAAAA"], referer: http://site.ru
[Sun Nov 04 13:53:34.194943 2018] [:error] [pid 122513] [client 2001:41d0:a:7268:::50674] [client 2001:41d0:a:7268::] ModSecurity: Rule processing failed (id=22002, msg=). [hostname "handycraft.co"] [uri "/wp-admin/network/green.php"] [unique_id "W9753qAUAvS5gRNIkNuQQQAAAAA"], referer: http://site.ru
[Sun Nov 04 13:53:34.194970 2018] [:error] [pid 122513] [client 2001:41d0:a:7268:::50674] [client 2001:41d0:a:7268::] ModSecurity: IPmatch: bad IPv6 specification "2001:41d0:a:7268". [hostname "handycraft.co"] [uri "/wp-admin/network/green.php"] [unique_id "W9753qAUAvS5gRNIkNuQQQAAAAA"], referer: http://site.ru
[Sun Nov 04 13:53:34.194981 2018] [:error] [pid 122513] [client 2001:41d0:a:7268:::50674] [client 2001:41d0:a:7268::] ModSecurity: Rule processing failed (id=22003, msg=). [hostname "handycraft.co"] [uri "/wp-admin/network/green.php"] [unique_id "W9753qAUAvS5gRNIkNuQQQAAAAA"], referer: http://site.ru
[Sun Nov 04 13:53:34.194994 2018] [:error] [pid 122513] [client 2001:41d0:a:7268:::50674] [client 2001:41d0:a:7268::] ModSecurity: IPmatch: bad IPv6 specification "2001:41d0:a:7268". [hostname "handycraft.co"] [uri "/wp-admin/network/green.php"] [unique_id "W9753qAUAvS5gRNIkNuQQQAAAAA"], referer: http://site.ru
[Sun Nov 04 13:53:34.195005 2018] [:error] [pid 122513] [client 2001:41d0:a:7268:::50674] [client 2001:41d0:a:7268::] ModSecurity: Rule processing failed (id=22004, msg=). [hostname "handycraft.co"] [uri "/wp-admin/network/green.php"] [unique_id "W9753qAUAvS5gRNIkNuQQQAAAAA"], referer: http://site.ru
[Sun Nov 04 13:53:34.195017 2018] [:error] [pid 122513] [client 2001:41d0:a:7268:::50674] [client 2001:41d0:a:7268::] ModSecurity: IPmatch: bad IPv6 specification "2001:41d0:a:7268". [hostname "handycraft.co"] [uri "/wp-admin/network/green.php"] [unique_id "W9753qAUAvS5gRNIkNuQQQAAAAA"], referer: http://site.ru
[Sun Nov 04 13:53:34.195032 2018] [:error] [pid 122513] [client 2001:41d0:a:7268:::50674] [client 2001:41d0:a:7268::] ModSecurity: Rule processing failed (id=22005, msg=). [hostname "handycraft.co"] [uri "/wp-admin/network/green.php"] [unique_id "W9753qAUAvS5gRNIkNuQQQAAAAA"], referer: http://site.ru
[Sun Nov 04 13:53:34.195044 2018] [:error] [pid 122513] [client 2001:41d0:a:7268:::50674] [client 2001:41d0:a:7268::] ModSecurity: IPmatch: bad IPv6 specification "2001:41d0:a:7268". [hostname "handycraft.co"] [uri "/wp-admin/network/green.php"] [unique_id "W9753qAUAvS5gRNIkNuQQQAAAAA"], referer: http://site.ru
[Sun Nov 04 13:53:34.195057 2018] [:error] [pid 122513] [client 2001:41d0:a:7268:::50674] [client 2001:41d0:a:7268::] ModSecurity: Rule processing failed (id=22006, msg=). [hostname "handycraft.co"] [uri "/wp-admin/network/green.php"] [unique_id "W9753qAUAvS5gRNIkNuQQQAAAAA"], referer: http://site.ru
[Sun Nov 04 13:54:13.707525 2018] [:error] [pid 124036] [client 2001:41d0:a:7268:::53590] [client 2001:41d0:a:7268::] ModSecurity: IPmatch: bad IPv6 specification "2001:41d0:a:7268". [hostname "handycraft.co"] [uri "/wp-admin/network/green.php"] [unique_id "W976BWIeA34Ixs6qUyeCxgAAAAM"], referer: http://site.ru
[Sun Nov 04 13:54:13.707553 2018] [:error] [pid 124036] [client 2001:41d0:a:7268:::53590] [client 2001:41d0:a:7268::] ModSecurity: Rule processing failed (id=21001, msg=). [hostname "handycraft.co"] [uri "/wp-admin/network/green.php"] [unique_id "W976BWIeA34Ixs6qUyeCxgAAAAM"], referer: http://site.ru
[Sun Nov 04 13:54:13.707570 2018] [:error] [pid 124036] [client 2001:41d0:a:7268:::53590] [client 2001:41d0:a:7268::] ModSecurity: IPmatch: bad IPv6 specification "2001:41d0:a:7268". [hostname "handycraft.co"] [uri "/wp-admin/network/green.php"] [unique_id "W976BWIeA34Ixs6qUyeCxgAAAAM"], referer: http://site.ru
[Sun Nov 04 13:54:13.707583 2018] [:error] [pid 124036] [client 2001:41d0:a:7268:::53590] [client 2001:41d0:a:7268::] ModSecurity: Rule processing failed (id=22001, msg=). [hostname "handycraft.co"] [uri "/wp-admin/network/green.php"] [unique_id "W976BWIeA34Ixs6qUyeCxgAAAAM"], referer: http://site.ru
[Sun Nov 04 13:54:13.707597 2018] [:error] [pid 124036] [client 2001:41d0:a:7268:::53590] [client 2001:41d0:a:7268::] ModSecurity: IPmatch: bad IPv6 specification "2001:41d0:a:7268". [hostname "handycraft.co"] [uri "/wp-admin/network/green.php"] [unique_id "W976BWIeA34Ixs6qUyeCxgAAAAM"], referer: http://site.ru
[Sun Nov 04 13:54:13.707613 2018] [:error] [pid 124036] [client 2001:41d0:a:7268:::53590] [client 2001:41d0:a:7268::] ModSecurity: Rule processing failed (id=22002, msg=). [hostname "handycraft.co"] [uri "/wp-admin/network/green.php"] [unique_id "W976BWIeA34Ixs6qUyeCxgAAAAM"], referer: http://site.ru
[Sun Nov 04 13:54:13.707627 2018] [:error] [pid 124036] [client 2001:41d0:a:7268:::53590] [client 2001:41d0:a:7268::] ModSecurity: IPmatch: bad IPv6 specification "2001:41d0:a:7268". [hostname "handycraft.co"] [uri "/wp-admin/network/green.php"] [unique_id "W976BWIeA34Ixs6qUyeCxgAAAAM"], referer: http://site.ru
[Sun Nov 04 13:54:13.707639 2018] [:error] [pid 124036] [client 2001:41d0:a:7268:::53590] [client 2001:41d0:a:7268::] ModSecurity: Rule processing failed (id=22003, msg=). [hostname "handycraft.co"] [uri "/wp-admin/network/green.php"] [unique_id "W976BWIeA34Ixs6qUyeCxgAAAAM"], referer: http://site.ru
[Sun Nov 04 13:54:13.707653 2018] [:error] [pid 124036] [client 2001:41d0:a:7268:::53590] [client 2001:41d0:a:7268::] ModSecurity: IPmatch: bad IPv6 specification "2001:41d0:a:7268". [hostname "handycraft.co"] [uri "/wp-admin/network/green.php"] [unique_id "W976BWIeA34Ixs6qUyeCxgAAAAM"], referer: http://site.ru
[Sun Nov 04 13:54:13.707666 2018] [:error] [pid 124036] [client 2001:41d0:a:7268:::53590] [client 2001:41d0:a:7268::] ModSecurity: Rule processing failed (id=22004, msg=). [hostname "handycraft.co"] [uri "/wp-admin/network/green.php"] [unique_id "W976BWIeA34Ixs6qUyeCxgAAAAM"], referer: http://site.ru
[Sun Nov 04 13:54:13.707687 2018] [:error] [pid 124036] [client 2001:41d0:a:7268:::53590] [client 2001:41d0:a:7268::] ModSecurity: IPmatch: bad IPv6 specification "2001:41d0:a:7268". [hostname "handycraft.co"] [uri "/wp-admin/network/green.php"] [unique_id "W976BWIeA34Ixs6qUyeCxgAAAAM"], referer: http://site.ru
[Sun Nov 04 13:54:13.707712 2018] [:error] [pid 124036] [client 2001:41d0:a:7268:::53590] [client 2001:41d0:a:7268::] ModSecurity: Rule processing failed (id=22005, msg=). [hostname "handycraft.co"] [uri "/wp-admin/network/green.php"] [unique_id "W976BWIeA34Ixs6qUyeCxgAAAAM"], referer: http://site.ru
[Sun Nov 04 13:54:13.707726 2018] [:error] [pid 124036] [client 2001:41d0:a:7268:::53590] [client 2001:41d0:a:7268::] ModSecurity: IPmatch: bad IPv6 specification "2001:41d0:a:7268". [hostname "handycraft.co"] [uri "/wp-admin/network/green.php"] [unique_id "W976BWIeA34Ixs6qUyeCxgAAAAM"], referer: http://site.ru
[Sun Nov 04 13:54:13.707741 2018] [:error] [pid 124036] [client 2001:41d0:a:7268:::53590] [client 2001:41d0:a:7268::] ModSecurity: Rule processing failed (id=22006, msg=). [hostname "handycraft.co"] [uri "/wp-admin/network/green.php"] [unique_id "W976BWIeA34Ixs6qUyeCxgAAAAM"], referer: http://site.ru
