2018/11/03 01:01:06 [warn] 86986#0: *83702524 a client request body is buffered to a temporary file /var/cache/nginx/client_temp/0000133499, client: 193.169.252.91, server: ikbensterdam.com, request: "POST /xmlrpc.php HTTP/1.1", host: "ikbensterdam.com"
2018/11/03 01:01:11 [warn] 86986#0: *83702620 a client request body is buffered to a temporary file /var/cache/nginx/client_temp/0000133500, client: 193.169.252.91, server: ikbensterdam.com, request: "POST /xmlrpc.php HTTP/1.1", host: "ikbensterdam.com"
2018/11/03 01:01:27 [warn] 86986#0: *83702995 a client request body is buffered to a temporary file /var/cache/nginx/client_temp/0000133501, client: 193.169.252.91, server: ikbensterdam.com, request: "POST /xmlrpc.php HTTP/1.1", host: "ikbensterdam.com"
