[Mon Nov 05 04:10:21.390905 2018] [:error] [pid 177800] [client 165.225.170.35:44384] [client 165.225.170.35] ModSecurity: Access denied with code 403 (phase 2). Operator GE matched 20 at IP:bf_counter. [file "/etc/httpd/conf.modules.d/10-mod_security.conf"] [line "80"] [id "10033"] [msg "165.225.170.35 dropped in iptables/ip6tables for 10 minutes because of suspected brute-force attack."] [hostname "royalgeekness.com"] [uri "/xmlrpc.php"] [unique_id "W9-CrQf5Q6FieOJwPqlCXgAAABQ"]
[Mon Nov 05 21:01:48.887527 2018] [:error] [pid 74221] [client 185.234.217.218:52722] [client 185.234.217.218] ModSecurity: Access denied with code 403 (phase 2). Operator GE matched 20 at IP:bf_counter. [file "/etc/httpd/conf.modules.d/10-mod_security.conf"] [line "80"] [id "10033"] [msg "185.234.217.218 dropped in iptables/ip6tables for 10 minutes because of suspected brute-force attack."] [hostname "royalgeekness.com"] [uri "/wp-login.php"] [unique_id "W@CvvA2nZj-WUWeCfcaKJAAAADU"]
[Mon Nov 05 21:01:49.095556 2018] [:error] [pid 74196] [client 185.234.217.218:52734] [client 185.234.217.218] ModSecurity: Access denied with code 403 (phase 2). Operator GE matched 20 at IP:bf_counter. [file "/etc/httpd/conf.modules.d/10-mod_security.conf"] [line "80"] [id "10033"] [msg "185.234.217.218 dropped in iptables/ip6tables for 10 minutes because of suspected brute-force attack."] [hostname "royalgeekness.com"] [uri "/wp-login.php"] [unique_id "W@CvvR3MPGl1RwCE7znK-gAAADI"]
