[Thu Nov 01 17:17:12.074806 2018] [:error] [pid 186342] [client 2001:41d0:2:8ac5:::43856] [client 2001:41d0:2:8ac5::] ModSecurity: IPmatch: bad IPv6 specification "2001:41d0:2:8ac5". [hostname "supermonkeystar.com"] [uri "/seomarket.php"] [unique_id "W9s1GKjhgtQH8G-uzipJJQAAAAE"], referer: supermonkeystar.com
[Thu Nov 01 17:17:12.074845 2018] [:error] [pid 186342] [client 2001:41d0:2:8ac5:::43856] [client 2001:41d0:2:8ac5::] ModSecurity: Rule processing failed (id=21001, msg=). [hostname "supermonkeystar.com"] [uri "/seomarket.php"] [unique_id "W9s1GKjhgtQH8G-uzipJJQAAAAE"], referer: supermonkeystar.com
[Thu Nov 01 17:17:12.074860 2018] [:error] [pid 186342] [client 2001:41d0:2:8ac5:::43856] [client 2001:41d0:2:8ac5::] ModSecurity: IPmatch: bad IPv6 specification "2001:41d0:2:8ac5". [hostname "supermonkeystar.com"] [uri "/seomarket.php"] [unique_id "W9s1GKjhgtQH8G-uzipJJQAAAAE"], referer: supermonkeystar.com
[Thu Nov 01 17:17:12.074873 2018] [:error] [pid 186342] [client 2001:41d0:2:8ac5:::43856] [client 2001:41d0:2:8ac5::] ModSecurity: Rule processing failed (id=22001, msg=). [hostname "supermonkeystar.com"] [uri "/seomarket.php"] [unique_id "W9s1GKjhgtQH8G-uzipJJQAAAAE"], referer: supermonkeystar.com
[Thu Nov 01 17:17:12.074886 2018] [:error] [pid 186342] [client 2001:41d0:2:8ac5:::43856] [client 2001:41d0:2:8ac5::] ModSecurity: IPmatch: bad IPv6 specification "2001:41d0:2:8ac5". [hostname "supermonkeystar.com"] [uri "/seomarket.php"] [unique_id "W9s1GKjhgtQH8G-uzipJJQAAAAE"], referer: supermonkeystar.com
[Thu Nov 01 17:17:12.074897 2018] [:error] [pid 186342] [client 2001:41d0:2:8ac5:::43856] [client 2001:41d0:2:8ac5::] ModSecurity: Rule processing failed (id=22002, msg=). [hostname "supermonkeystar.com"] [uri "/seomarket.php"] [unique_id "W9s1GKjhgtQH8G-uzipJJQAAAAE"], referer: supermonkeystar.com
[Thu Nov 01 17:17:12.074910 2018] [:error] [pid 186342] [client 2001:41d0:2:8ac5:::43856] [client 2001:41d0:2:8ac5::] ModSecurity: IPmatch: bad IPv6 specification "2001:41d0:2:8ac5". [hostname "supermonkeystar.com"] [uri "/seomarket.php"] [unique_id "W9s1GKjhgtQH8G-uzipJJQAAAAE"], referer: supermonkeystar.com
[Thu Nov 01 17:17:12.074931 2018] [:error] [pid 186342] [client 2001:41d0:2:8ac5:::43856] [client 2001:41d0:2:8ac5::] ModSecurity: Rule processing failed (id=22003, msg=). [hostname "supermonkeystar.com"] [uri "/seomarket.php"] [unique_id "W9s1GKjhgtQH8G-uzipJJQAAAAE"], referer: supermonkeystar.com
[Thu Nov 01 17:17:12.074944 2018] [:error] [pid 186342] [client 2001:41d0:2:8ac5:::43856] [client 2001:41d0:2:8ac5::] ModSecurity: IPmatch: bad IPv6 specification "2001:41d0:2:8ac5". [hostname "supermonkeystar.com"] [uri "/seomarket.php"] [unique_id "W9s1GKjhgtQH8G-uzipJJQAAAAE"], referer: supermonkeystar.com
[Thu Nov 01 17:17:12.074955 2018] [:error] [pid 186342] [client 2001:41d0:2:8ac5:::43856] [client 2001:41d0:2:8ac5::] ModSecurity: Rule processing failed (id=22004, msg=). [hostname "supermonkeystar.com"] [uri "/seomarket.php"] [unique_id "W9s1GKjhgtQH8G-uzipJJQAAAAE"], referer: supermonkeystar.com
[Thu Nov 01 17:17:12.074968 2018] [:error] [pid 186342] [client 2001:41d0:2:8ac5:::43856] [client 2001:41d0:2:8ac5::] ModSecurity: IPmatch: bad IPv6 specification "2001:41d0:2:8ac5". [hostname "supermonkeystar.com"] [uri "/seomarket.php"] [unique_id "W9s1GKjhgtQH8G-uzipJJQAAAAE"], referer: supermonkeystar.com
[Thu Nov 01 17:17:12.074979 2018] [:error] [pid 186342] [client 2001:41d0:2:8ac5:::43856] [client 2001:41d0:2:8ac5::] ModSecurity: Rule processing failed (id=22005, msg=). [hostname "supermonkeystar.com"] [uri "/seomarket.php"] [unique_id "W9s1GKjhgtQH8G-uzipJJQAAAAE"], referer: supermonkeystar.com
[Thu Nov 01 17:17:12.074991 2018] [:error] [pid 186342] [client 2001:41d0:2:8ac5:::43856] [client 2001:41d0:2:8ac5::] ModSecurity: IPmatch: bad IPv6 specification "2001:41d0:2:8ac5". [hostname "supermonkeystar.com"] [uri "/seomarket.php"] [unique_id "W9s1GKjhgtQH8G-uzipJJQAAAAE"], referer: supermonkeystar.com
[Thu Nov 01 17:17:12.075002 2018] [:error] [pid 186342] [client 2001:41d0:2:8ac5:::43856] [client 2001:41d0:2:8ac5::] ModSecurity: Rule processing failed (id=22006, msg=). [hostname "supermonkeystar.com"] [uri "/seomarket.php"] [unique_id "W9s1GKjhgtQH8G-uzipJJQAAAAE"], referer: supermonkeystar.com
[Thu Nov 01 18:20:46.750875 2018] [:error] [pid 137238] [client 2001:41d0:8:d1e0:::35270] [client 2001:41d0:8:d1e0::] ModSecurity: IPmatch: bad IPv6 specification "2001:41d0:8:d1e0". [hostname "supermonkeystar.com"] [uri "/wp-main.php"] [unique_id "W9tD-mQfHAxkU@0xJY53ggAAADw"], referer: supermonkeystar.com
[Thu Nov 01 18:20:46.750903 2018] [:error] [pid 137238] [client 2001:41d0:8:d1e0:::35270] [client 2001:41d0:8:d1e0::] ModSecurity: Rule processing failed (id=21001, msg=). [hostname "supermonkeystar.com"] [uri "/wp-main.php"] [unique_id "W9tD-mQfHAxkU@0xJY53ggAAADw"], referer: supermonkeystar.com
[Thu Nov 01 18:20:46.750916 2018] [:error] [pid 137238] [client 2001:41d0:8:d1e0:::35270] [client 2001:41d0:8:d1e0::] ModSecurity: IPmatch: bad IPv6 specification "2001:41d0:8:d1e0". [hostname "supermonkeystar.com"] [uri "/wp-main.php"] [unique_id "W9tD-mQfHAxkU@0xJY53ggAAADw"], referer: supermonkeystar.com
[Thu Nov 01 18:20:46.750926 2018] [:error] [pid 137238] [client 2001:41d0:8:d1e0:::35270] [client 2001:41d0:8:d1e0::] ModSecurity: Rule processing failed (id=22001, msg=). [hostname "supermonkeystar.com"] [uri "/wp-main.php"] [unique_id "W9tD-mQfHAxkU@0xJY53ggAAADw"], referer: supermonkeystar.com
[Thu Nov 01 18:20:46.750938 2018] [:error] [pid 137238] [client 2001:41d0:8:d1e0:::35270] [client 2001:41d0:8:d1e0::] ModSecurity: IPmatch: bad IPv6 specification "2001:41d0:8:d1e0". [hostname "supermonkeystar.com"] [uri "/wp-main.php"] [unique_id "W9tD-mQfHAxkU@0xJY53ggAAADw"], referer: supermonkeystar.com
[Thu Nov 01 18:20:46.750948 2018] [:error] [pid 137238] [client 2001:41d0:8:d1e0:::35270] [client 2001:41d0:8:d1e0::] ModSecurity: Rule processing failed (id=22002, msg=). [hostname "supermonkeystar.com"] [uri "/wp-main.php"] [unique_id "W9tD-mQfHAxkU@0xJY53ggAAADw"], referer: supermonkeystar.com
[Thu Nov 01 18:20:46.750959 2018] [:error] [pid 137238] [client 2001:41d0:8:d1e0:::35270] [client 2001:41d0:8:d1e0::] ModSecurity: IPmatch: bad IPv6 specification "2001:41d0:8:d1e0". [hostname "supermonkeystar.com"] [uri "/wp-main.php"] [unique_id "W9tD-mQfHAxkU@0xJY53ggAAADw"], referer: supermonkeystar.com
[Thu Nov 01 18:20:46.750969 2018] [:error] [pid 137238] [client 2001:41d0:8:d1e0:::35270] [client 2001:41d0:8:d1e0::] ModSecurity: Rule processing failed (id=22003, msg=). [hostname "supermonkeystar.com"] [uri "/wp-main.php"] [unique_id "W9tD-mQfHAxkU@0xJY53ggAAADw"], referer: supermonkeystar.com
[Thu Nov 01 18:20:46.750980 2018] [:error] [pid 137238] [client 2001:41d0:8:d1e0:::35270] [client 2001:41d0:8:d1e0::] ModSecurity: IPmatch: bad IPv6 specification "2001:41d0:8:d1e0". [hostname "supermonkeystar.com"] [uri "/wp-main.php"] [unique_id "W9tD-mQfHAxkU@0xJY53ggAAADw"], referer: supermonkeystar.com
[Thu Nov 01 18:20:46.750989 2018] [:error] [pid 137238] [client 2001:41d0:8:d1e0:::35270] [client 2001:41d0:8:d1e0::] ModSecurity: Rule processing failed (id=22004, msg=). [hostname "supermonkeystar.com"] [uri "/wp-main.php"] [unique_id "W9tD-mQfHAxkU@0xJY53ggAAADw"], referer: supermonkeystar.com
[Thu Nov 01 18:20:46.751006 2018] [:error] [pid 137238] [client 2001:41d0:8:d1e0:::35270] [client 2001:41d0:8:d1e0::] ModSecurity: IPmatch: bad IPv6 specification "2001:41d0:8:d1e0". [hostname "supermonkeystar.com"] [uri "/wp-main.php"] [unique_id "W9tD-mQfHAxkU@0xJY53ggAAADw"], referer: supermonkeystar.com
[Thu Nov 01 18:20:46.751016 2018] [:error] [pid 137238] [client 2001:41d0:8:d1e0:::35270] [client 2001:41d0:8:d1e0::] ModSecurity: Rule processing failed (id=22005, msg=). [hostname "supermonkeystar.com"] [uri "/wp-main.php"] [unique_id "W9tD-mQfHAxkU@0xJY53ggAAADw"], referer: supermonkeystar.com
[Thu Nov 01 18:20:46.751027 2018] [:error] [pid 137238] [client 2001:41d0:8:d1e0:::35270] [client 2001:41d0:8:d1e0::] ModSecurity: IPmatch: bad IPv6 specification "2001:41d0:8:d1e0". [hostname "supermonkeystar.com"] [uri "/wp-main.php"] [unique_id "W9tD-mQfHAxkU@0xJY53ggAAADw"], referer: supermonkeystar.com
[Thu Nov 01 18:20:46.751046 2018] [:error] [pid 137238] [client 2001:41d0:8:d1e0:::35270] [client 2001:41d0:8:d1e0::] ModSecurity: Rule processing failed (id=22006, msg=). [hostname "supermonkeystar.com"] [uri "/wp-main.php"] [unique_id "W9tD-mQfHAxkU@0xJY53ggAAADw"], referer: supermonkeystar.com
[Thu Nov 01 18:56:56.394407 2018] [:error] [pid 19608] [client 145.239.29.60:59474] [client 145.239.29.60] ModSecurity: Access denied with code 403 (phase 2). Pattern match "\\\\.php" at REQUEST_FILENAME. [file "/etc/httpd/conf.modules.d/10-mod_security.conf"] [line "100"] [id "11003"] [msg "MailPoet Plugin Exploit"] [hostname "supermonkeystar.com"] [uri "/wp-content/uploads/wysija/themes/attari/attari.php"] [unique_id "W9tMeMiO68uFjM@kDpHCIgAAAAQ"]
