2018/11/04 04:20:46 [warn] 32315#0: *86844064 a client request body is buffered to a temporary file /var/cache/nginx/client_temp/0000137666, client: 51.68.112.111, server: www.xintana.com, request: "POST /xmlrpc.php HTTP/1.1", host: "xintanalegends.com"
2018/11/04 04:20:47 [warn] 32315#0: *86844064 a client request body is buffered to a temporary file /var/cache/nginx/client_temp/0000137667, client: 51.68.112.111, server: www.xintana.com, request: "POST /xmlrpc.php HTTP/1.1", host: "xintanalegends.com"
2018/11/04 04:20:47 [warn] 32315#0: *86844064 a client request body is buffered to a temporary file /var/cache/nginx/client_temp/0000137668, client: 51.68.112.111, server: www.xintana.com, request: "POST /xmlrpc.php HTTP/1.1", host: "xintanalegends.com"
2018/11/04 04:20:48 [warn] 32315#0: *86844064 a client request body is buffered to a temporary file /var/cache/nginx/client_temp/0000137669, client: 51.68.112.111, server: www.xintana.com, request: "POST /xmlrpc.php HTTP/1.1", host: "xintanalegends.com"
2018/11/04 04:20:49 [warn] 32315#0: *86844064 a client request body is buffered to a temporary file /var/cache/nginx/client_temp/0000137670, client: 51.68.112.111, server: www.xintana.com, request: "POST /xmlrpc.php HTTP/1.1", host: "xintanalegends.com"
2018/11/04 04:20:49 [warn] 32315#0: *86844064 a client request body is buffered to a temporary file /var/cache/nginx/client_temp/0000137671, client: 51.68.112.111, server: www.xintana.com, request: "POST /xmlrpc.php HTTP/1.1", host: "xintanalegends.com"
2018/11/04 04:20:50 [warn] 32315#0: *86844064 a client request body is buffered to a temporary file /var/cache/nginx/client_temp/0000137672, client: 51.68.112.111, server: www.xintana.com, request: "POST /xmlrpc.php HTTP/1.1", host: "xintanalegends.com"
2018/11/04 16:41:17 [warn] 32315#0: *88386522 a client request body is buffered to a temporary file /var/cache/nginx/client_temp/0000139802, client: 51.68.112.111, server: www.xintana.com, request: "POST /xmlrpc.php HTTP/1.1", host: "xintanalegends.com"
2018/11/04 16:41:18 [warn] 32315#0: *88386522 a client request body is buffered to a temporary file /var/cache/nginx/client_temp/0000139803, client: 51.68.112.111, server: www.xintana.com, request: "POST /xmlrpc.php HTTP/1.1", host: "xintanalegends.com"
2018/11/04 16:41:18 [warn] 32315#0: *88386522 a client request body is buffered to a temporary file /var/cache/nginx/client_temp/0000139804, client: 51.68.112.111, server: www.xintana.com, request: "POST /xmlrpc.php HTTP/1.1", host: "xintanalegends.com"
2018/11/04 16:41:19 [warn] 32315#0: *88386522 a client request body is buffered to a temporary file /var/cache/nginx/client_temp/0000139805, client: 51.68.112.111, server: www.xintana.com, request: "POST /xmlrpc.php HTTP/1.1", host: "xintanalegends.com"
2018/11/04 16:41:20 [warn] 32315#0: *88386522 a client request body is buffered to a temporary file /var/cache/nginx/client_temp/0000139806, client: 51.68.112.111, server: www.xintana.com, request: "POST /xmlrpc.php HTTP/1.1", host: "xintanalegends.com"
2018/11/04 16:41:20 [warn] 32315#0: *88386522 a client request body is buffered to a temporary file /var/cache/nginx/client_temp/0000139807, client: 51.68.112.111, server: www.xintana.com, request: "POST /xmlrpc.php HTTP/1.1", host: "xintanalegends.com"
2018/11/04 16:41:21 [warn] 32315#0: *88386522 a client request body is buffered to a temporary file /var/cache/nginx/client_temp/0000139808, client: 51.68.112.111, server: www.xintana.com, request: "POST /xmlrpc.php HTTP/1.1", host: "xintanalegends.com"
2018/11/04 22:30:06 [warn] 110490#0: *89286308 a client request body is buffered to a temporary file /var/cache/nginx/client_temp/0000140597, client: 198.23.202.38, server: www.xintana.com, request: "POST /xmlrpc.php HTTP/1.1", host: "xintana.com"
2018/11/04 22:30:07 [warn] 110490#0: *89286308 a client request body is buffered to a temporary file /var/cache/nginx/client_temp/0000140598, client: 198.23.202.38, server: www.xintana.com, request: "POST /xmlrpc.php HTTP/1.1", host: "xintana.com"
