2018/11/04 04:03:01 [warn] 32315#0: *86817805 a client request body is buffered to a temporary file /var/cache/nginx/client_temp/0000137649, client: 13.78.24.40, server: www.handycraft.co, request: "POST /xmlrpc.php HTTP/1.1", host: "handycraft.co"
2018/11/04 06:43:41 [warn] 32314#0: *87056756 a client request body is buffered to a temporary file /var/cache/nginx/client_temp/0000138045, client: 185.250.42.229, server: www.handycraft.co, request: "POST / HTTP/1.1", host: "handycraft.co", referrer: "http://handycraft.co/"
2018/11/04 11:16:00 [warn] 32314#0: *87627708 a client request body is buffered to a temporary file /var/cache/nginx/client_temp/0000138752, client: 185.251.71.116, server: www.handycraft.co, request: "POST / HTTP/1.1", host: "handycraft.co", referrer: "http://handycraft.co/"
2018/11/04 15:21:39 [warn] 32315#0: *88193745 a client request body is buffered to a temporary file /var/cache/nginx/client_temp/0000139657, client: 85.202.195.134, server: www.handycraft.co, request: "POST / HTTP/1.1", host: "handycraft.co", referrer: "http://handycraft.co/"
2018/11/04 19:21:31 [warn] 32314#0: *88796788 a client request body is buffered to a temporary file /var/cache/nginx/client_temp/0000140062, client: 94.158.22.95, server: www.handycraft.co, request: "POST / HTTP/1.1", host: "handycraft.co", referrer: "http://handycraft.co/"
