[Mon Nov 05 05:40:55.667305 2018] [:error] [pid 167618] [client 46.252.205.135:50980] [client 46.252.205.135] ModSecurity: Access denied with code 403 (phase 2). Operator GE matched 20 at IP:bf_counter. [file "/etc/httpd/conf.modules.d/10-mod_security.conf"] [line "80"] [id "10033"] [msg "46.252.205.135 dropped in iptables/ip6tables for 10 minutes because of suspected brute-force attack."] [hostname "supermonkeystar.com"] [uri "/wp-login.php"] [unique_id "W9-X5yqLhzEvsS9v2YlJ6AAAAB8"]
[Mon Nov 05 05:40:55.774142 2018] [:error] [pid 167749] [client 46.252.205.135:50992] [client 46.252.205.135] ModSecurity: Access denied with code 403 (phase 2). Operator GE matched 20 at IP:bf_counter. [file "/etc/httpd/conf.modules.d/10-mod_security.conf"] [line "80"] [id "10033"] [msg "46.252.205.135 dropped in iptables/ip6tables for 10 minutes because of suspected brute-force attack."] [hostname "supermonkeystar.com"] [uri "/wp-login.php"] [unique_id "W9-X53@XcJF9VMmJTVgmQQAAABY"]
[Mon Nov 05 05:40:55.886257 2018] [:error] [pid 162406] [client 46.252.205.135:50998] [client 46.252.205.135] ModSecurity: Access denied with code 403 (phase 2). Operator GE matched 20 at IP:bf_counter. [file "/etc/httpd/conf.modules.d/10-mod_security.conf"] [line "80"] [id "10033"] [msg "46.252.205.135 dropped in iptables/ip6tables for 10 minutes because of suspected brute-force attack."] [hostname "supermonkeystar.com"] [uri "/wp-login.php"] [unique_id "W9-X58oZXipri1KOhcnrNAAAAA0"]
[Mon Nov 05 12:23:06.368010 2018] [:error] [pid 105087] [client 109.170.160.109:47084] [client 109.170.160.109] ModSecurity: Access denied with code 403 (phase 2). Operator GE matched 20 at IP:bf_counter. [file "/etc/httpd/conf.modules.d/10-mod_security.conf"] [line "80"] [id "10033"] [msg "109.170.160.109 dropped in iptables/ip6tables for 10 minutes because of suspected brute-force attack."] [hostname "supermonkeystar.com"] [uri "/wp-login.php"] [unique_id "W@A2KifmpLNvYgtlifXkZwAAAAk"]
[Mon Nov 05 12:24:30.249213 2018] [:error] [pid 117320] [client 112.24.104.228:53874] [client 112.24.104.228] ModSecurity: Access denied with code 403 (phase 2). Operator GE matched 20 at IP:bf_counter. [file "/etc/httpd/conf.modules.d/10-mod_security.conf"] [line "80"] [id "10033"] [msg "112.24.104.228 dropped in iptables/ip6tables for 10 minutes because of suspected brute-force attack."] [hostname "supermonkeystar.com"] [uri "/wp-login.php"] [unique_id "W@A2fkehYdeDmipM4YA-@wAAAA0"]
[Mon Nov 05 12:25:19.040026 2018] [:error] [pid 116162] [client 112.53.66.27:57289] [client 112.53.66.27] ModSecurity: Access denied with code 403 (phase 2). Operator GE matched 20 at IP:bf_counter. [file "/etc/httpd/conf.modules.d/10-mod_security.conf"] [line "80"] [id "10033"] [msg "112.53.66.27 dropped in iptables/ip6tables for 10 minutes because of suspected brute-force attack."] [hostname "supermonkeystar.com"] [uri "/wp-login.php"] [unique_id "W@A2rusR6H3rCSzobHe9HAAAAAg"]
[Mon Nov 05 12:32:52.301321 2018] [:error] [pid 144089] [client 177.159.122.251:43700] [client 177.159.122.251] ModSecurity: Access denied with code 403 (phase 2). Operator GE matched 20 at IP:bf_counter. [file "/etc/httpd/conf.modules.d/10-mod_security.conf"] [line "80"] [id "10033"] [msg "177.159.122.251 dropped in iptables/ip6tables for 10 minutes because of suspected brute-force attack."] [hostname "supermonkeystar.com"] [uri "/wp-login.php"] [unique_id "W@A4dCDhfk8XQmVS4X1HTQAAAAA"]
[Mon Nov 05 12:34:51.653550 2018] [:error] [pid 147286] [client 60.174.192.240:53160] [client 60.174.192.240] ModSecurity: Access denied with code 403 (phase 2). Operator GE matched 20 at IP:bf_counter. [file "/etc/httpd/conf.modules.d/10-mod_security.conf"] [line "80"] [id "10033"] [msg "60.174.192.240 dropped in iptables/ip6tables for 10 minutes because of suspected brute-force attack."] [hostname "supermonkeystar.com"] [uri "/wp-login.php"] [unique_id "W@A469CE2aBjxpCOl8d-BwAAAAE"]
[Mon Nov 05 12:38:48.913035 2018] [:error] [pid 154550] [client 59.125.2.63:44958] [client 59.125.2.63] ModSecurity: Access denied with code 403 (phase 2). Operator GE matched 20 at IP:bf_counter. [file "/etc/httpd/conf.modules.d/10-mod_security.conf"] [line "80"] [id "10033"] [msg "59.125.2.63 dropped in iptables/ip6tables for 10 minutes because of suspected brute-force attack."] [hostname "supermonkeystar.com"] [uri "/wp-login.php"] [unique_id "W@A52FtTa59g0WP0NyhN@AAAAAU"]
[Mon Nov 05 12:40:19.146925 2018] [:error] [pid 159050] [client 197.45.163.63:52404] [client 197.45.163.63] ModSecurity: Access denied with code 403 (phase 2). Operator GE matched 20 at IP:bf_counter. [file "/etc/httpd/conf.modules.d/10-mod_security.conf"] [line "80"] [id "10033"] [msg "197.45.163.63 dropped in iptables/ip6tables for 10 minutes because of suspected brute-force attack."] [hostname "supermonkeystar.com"] [uri "/wp-login.php"] [unique_id "W@A6M2T1OrT@udcPjlA5SAAAABA"]
[Mon Nov 05 12:43:45.400509 2018] [:error] [pid 168201] [client 190.13.106.87:43782] [client 190.13.106.87] ModSecurity: Access denied with code 403 (phase 2). Operator GE matched 20 at IP:bf_counter. [file "/etc/httpd/conf.modules.d/10-mod_security.conf"] [line "80"] [id "10033"] [msg "190.13.106.87 dropped in iptables/ip6tables for 10 minutes because of suspected brute-force attack."] [hostname "supermonkeystar.com"] [uri "/wp-login.php"] [unique_id "W@A7Afh8IbalzeE1thO3EgAAAAY"]
[Mon Nov 05 12:44:44.221128 2018] [:error] [pid 168165] [client 223.100.152.42:48564] [client 223.100.152.42] ModSecurity: Access denied with code 403 (phase 2). Operator GE matched 20 at IP:bf_counter. [file "/etc/httpd/conf.modules.d/10-mod_security.conf"] [line "80"] [id "10033"] [msg "223.100.152.42 dropped in iptables/ip6tables for 10 minutes because of suspected brute-force attack."] [hostname "supermonkeystar.com"] [uri "/wp-login.php"] [unique_id "W@A7PP-KzVzFAbf202utzQAAAAE"]
[Mon Nov 05 12:45:41.594797 2018] [:error] [pid 167418] [client 190.202.44.194:53218] [client 190.202.44.194] ModSecurity: Access denied with code 403 (phase 2). Operator GE matched 20 at IP:bf_counter. [file "/etc/httpd/conf.modules.d/10-mod_security.conf"] [line "80"] [id "10033"] [msg "190.202.44.194 dropped in iptables/ip6tables for 10 minutes because of suspected brute-force attack."] [hostname "supermonkeystar.com"] [uri "/wp-login.php"] [unique_id "W@A7dRiGLXRmn2DpuJeYeQAAAAg"]
[Mon Nov 05 12:46:39.690590 2018] [:error] [pid 171795] [client 189.114.67.195:58946] [client 189.114.67.195] ModSecurity: Access denied with code 403 (phase 2). Operator GE matched 20 at IP:bf_counter. [file "/etc/httpd/conf.modules.d/10-mod_security.conf"] [line "80"] [id "10033"] [msg "189.114.67.195 dropped in iptables/ip6tables for 10 minutes because of suspected brute-force attack."] [hostname "supermonkeystar.com"] [uri "/wp-login.php"] [unique_id "W@A7r03zN36vJKs73Wj5yQAAAAs"]
[Mon Nov 05 12:48:05.269055 2018] [:error] [pid 172634] [client 60.6.230.88:37214] [client 60.6.230.88] ModSecurity: Access denied with code 403 (phase 2). Operator GE matched 20 at IP:bf_counter. [file "/etc/httpd/conf.modules.d/10-mod_security.conf"] [line "80"] [id "10033"] [msg "60.6.230.88 dropped in iptables/ip6tables for 10 minutes because of suspected brute-force attack."] [hostname "supermonkeystar.com"] [uri "/wp-login.php"] [unique_id "W@A8BVM5VdVby4SqXdcgdQAAABU"]
[Mon Nov 05 12:53:17.641119 2018] [:error] [pid 191254] [client 118.163.135.18:35040] [client 118.163.135.18] ModSecurity: Access denied with code 403 (phase 2). Operator GE matched 20 at IP:bf_counter. [file "/etc/httpd/conf.modules.d/10-mod_security.conf"] [line "80"] [id "10033"] [msg "118.163.135.18 dropped in iptables/ip6tables for 10 minutes because of suspected brute-force attack."] [hostname "supermonkeystar.com"] [uri "/wp-login.php"] [unique_id "W@A9Pb3iI2yzGFXZuOjOWAAAABM"]
[Mon Nov 05 12:58:29.548322 2018] [:error] [pid 6127] [client 218.22.98.122:36630] [client 218.22.98.122] ModSecurity: Access denied with code 403 (phase 2). Operator GE matched 20 at IP:bf_counter. [file "/etc/httpd/conf.modules.d/10-mod_security.conf"] [line "80"] [id "10033"] [msg "218.22.98.122 dropped in iptables/ip6tables for 10 minutes because of suspected brute-force attack."] [hostname "supermonkeystar.com"] [uri "/wp-login.php"] [unique_id "W@A@deXnGB-3cvUIVOQCVwAAAA4"]
[Mon Nov 05 12:59:23.738607 2018] [:error] [pid 4366] [client 60.246.3.47:41152] [client 60.246.3.47] ModSecurity: Access denied with code 403 (phase 2). Operator GE matched 20 at IP:bf_counter. [file "/etc/httpd/conf.modules.d/10-mod_security.conf"] [line "80"] [id "10033"] [msg "60.246.3.47 dropped in iptables/ip6tables for 10 minutes because of suspected brute-force attack."] [hostname "supermonkeystar.com"] [uri "/wp-login.php"] [unique_id "W@A@qzT4UwXUFpt3FCvw1AAAABI"]
[Mon Nov 05 13:00:25.447206 2018] [:error] [pid 4974] [client 177.135.101.5:51282] [client 177.135.101.5] ModSecurity: Access denied with code 403 (phase 2). Operator GE matched 20 at IP:bf_counter. [file "/etc/httpd/conf.modules.d/10-mod_security.conf"] [line "80"] [id "10033"] [msg "177.135.101.5 dropped in iptables/ip6tables for 10 minutes because of suspected brute-force attack."] [hostname "supermonkeystar.com"] [uri "/wp-login.php"] [unique_id "W@A@6ctnY7RPze4w4EWLFQAAAAE"]
[Mon Nov 05 13:01:08.152162 2018] [:error] [pid 5078] [client 218.28.171.213:56192] [client 218.28.171.213] ModSecurity: Access denied with code 403 (phase 2). Operator GE matched 20 at IP:bf_counter. [file "/etc/httpd/conf.modules.d/10-mod_security.conf"] [line "80"] [id "10033"] [msg "218.28.171.213 dropped in iptables/ip6tables for 10 minutes because of suspected brute-force attack."] [hostname "supermonkeystar.com"] [uri "/wp-login.php"] [unique_id "W@A-FJS0wtiSJPH7AmFJNgAAAA0"]
[Mon Nov 05 13:02:30.590553 2018] [:error] [pid 21005] [client 123.15.58.162:33870] [client 123.15.58.162] ModSecurity: Access denied with code 403 (phase 2). Operator GE matched 20 at IP:bf_counter. [file "/etc/httpd/conf.modules.d/10-mod_security.conf"] [line "80"] [id "10033"] [msg "123.15.58.162 dropped in iptables/ip6tables for 10 minutes because of suspected brute-force attack."] [hostname "supermonkeystar.com"] [uri "/wp-login.php"] [unique_id "W@A-ZiJt8ZqUVh2BdgJOvgAAABA"]
[Mon Nov 05 13:03:11.069665 2018] [:error] [pid 23471] [client 111.30.31.176:36974] [client 111.30.31.176] ModSecurity: Access denied with code 403 (phase 2). Operator GE matched 20 at IP:bf_counter. [file "/etc/httpd/conf.modules.d/10-mod_security.conf"] [line "80"] [id "10033"] [msg "111.30.31.176 dropped in iptables/ip6tables for 10 minutes because of suspected brute-force attack."] [hostname "supermonkeystar.com"] [uri "/wp-login.php"] [unique_id "W@A-jt0BeawtNGLGh4saJAAAABk"]
[Mon Nov 05 13:05:17.991972 2018] [:error] [pid 23126] [client 221.4.197.154:48102] [client 221.4.197.154] ModSecurity: Access denied with code 403 (phase 2). Operator GE matched 20 at IP:bf_counter. [file "/etc/httpd/conf.modules.d/10-mod_security.conf"] [line "80"] [id "10033"] [msg "221.4.197.154 dropped in iptables/ip6tables for 10 minutes because of suspected brute-force attack."] [hostname "supermonkeystar.com"] [uri "/wp-login.php"] [unique_id "W@BADVfq2kQn49FrmA8YMwAAAAU"]
[Mon Nov 05 13:05:57.382528 2018] [:error] [pid 29352] [client 180.169.36.91:51772] [client 180.169.36.91] ModSecurity: Access denied with code 403 (phase 2). Operator GE matched 20 at IP:bf_counter. [file "/etc/httpd/conf.modules.d/10-mod_security.conf"] [line "80"] [id "10033"] [msg "180.169.36.91 dropped in iptables/ip6tables for 10 minutes because of suspected brute-force attack."] [hostname "supermonkeystar.com"] [uri "/wp-login.php"] [unique_id "W@BANdyzau5xdClMbzxAKgAAAAY"]
[Mon Nov 05 13:06:55.413515 2018] [:error] [pid 31233] [client 218.249.232.178:58052] [client 218.249.232.178] ModSecurity: Access denied with code 403 (phase 2). Operator GE matched 20 at IP:bf_counter. [file "/etc/httpd/conf.modules.d/10-mod_security.conf"] [line "80"] [id "10033"] [msg "218.249.232.178 dropped in iptables/ip6tables for 10 minutes because of suspected brute-force attack."] [hostname "supermonkeystar.com"] [uri "/wp-login.php"] [unique_id "W@BAb1P2X7X6HH0FqkswjAAAAAM"]
[Mon Nov 05 13:08:04.820749 2018] [:error] [pid 34636] [client 60.6.223.191:38016] [client 60.6.223.191] ModSecurity: Access denied with code 403 (phase 2). Operator GE matched 20 at IP:bf_counter. [file "/etc/httpd/conf.modules.d/10-mod_security.conf"] [line "80"] [id "10033"] [msg "60.6.223.191 dropped in iptables/ip6tables for 10 minutes because of suspected brute-force attack."] [hostname "supermonkeystar.com"] [uri "/wp-login.php"] [unique_id "W@BAtD3GBTjo@zeVTebk6gAAAA4"]
[Mon Nov 05 13:09:58.786492 2018] [:error] [pid 36674] [client 189.204.52.237:45970] [client 189.204.52.237] ModSecurity: Access denied with code 403 (phase 2). Operator GE matched 20 at IP:bf_counter. [file "/etc/httpd/conf.modules.d/10-mod_security.conf"] [line "80"] [id "10033"] [msg "189.204.52.237 dropped in iptables/ip6tables for 10 minutes because of suspected brute-force attack."] [hostname "supermonkeystar.com"] [uri "/wp-login.php"] [unique_id "W@BBJij6BQ4sgiQDLqm02QAAAAE"]
[Mon Nov 05 13:12:00.988117 2018] [:error] [pid 38746] [client 60.30.5.5:56026] [client 60.30.5.5] ModSecurity: Access denied with code 403 (phase 2). Operator GE matched 20 at IP:bf_counter. [file "/etc/httpd/conf.modules.d/10-mod_security.conf"] [line "80"] [id "10033"] [msg "60.30.5.5 dropped in iptables/ip6tables for 10 minutes because of suspected brute-force attack."] [hostname "supermonkeystar.com"] [uri "/wp-login.php"] [unique_id "W@BBoCiICB06K6w9KQSMkQAAAAA"]
[Mon Nov 05 13:15:12.764674 2018] [:error] [pid 53160] [client 186.215.199.69:43240] [client 186.215.199.69] ModSecurity: Access denied with code 403 (phase 2). Operator GE matched 20 at IP:bf_counter. [file "/etc/httpd/conf.modules.d/10-mod_security.conf"] [line "80"] [id "10033"] [msg "186.215.199.69 dropped in iptables/ip6tables for 10 minutes because of suspected brute-force attack."] [hostname "supermonkeystar.com"] [uri "/wp-login.php"] [unique_id "W@BCYHLDZt2Ut8MFQ-X7pwAAAAY"]
[Mon Nov 05 13:17:58.959588 2018] [:error] [pid 59739] [client 119.48.16.182:54932] [client 119.48.16.182] ModSecurity: Access denied with code 403 (phase 2). Operator GE matched 20 at IP:bf_counter. [file "/etc/httpd/conf.modules.d/10-mod_security.conf"] [line "80"] [id "10033"] [msg "119.48.16.182 dropped in iptables/ip6tables for 10 minutes because of suspected brute-force attack."] [hostname "supermonkeystar.com"] [uri "/wp-login.php"] [unique_id "W@BDBulC242YSVK0@KJBWwAAAAo"]
[Mon Nov 05 13:20:48.586279 2018] [:error] [pid 65666] [client 125.46.81.195:39518] [client 125.46.81.195] ModSecurity: Access denied with code 403 (phase 2). Operator GE matched 20 at IP:bf_counter. [file "/etc/httpd/conf.modules.d/10-mod_security.conf"] [line "80"] [id "10033"] [msg "125.46.81.195 dropped in iptables/ip6tables for 10 minutes because of suspected brute-force attack."] [hostname "supermonkeystar.com"] [uri "/wp-login.php"] [unique_id "W@BDsHJFib09zHUnIx4HnwAAABA"]
[Mon Nov 05 13:28:08.314679 2018] [:error] [pid 83273] [client 120.194.7.10:43314] [client 120.194.7.10] ModSecurity: Access denied with code 403 (phase 2). Operator GE matched 20 at IP:bf_counter. [file "/etc/httpd/conf.modules.d/10-mod_security.conf"] [line "80"] [id "10033"] [msg "120.194.7.10 dropped in iptables/ip6tables for 10 minutes because of suspected brute-force attack."] [hostname "supermonkeystar.com"] [uri "/wp-login.php"] [unique_id "W@BFaCGa-lSVpDIrrjWq6gAAABU"]
[Mon Nov 05 13:29:10.095759 2018] [:error] [pid 82815] [client 137.59.45.16:48498] [client 137.59.45.16] ModSecurity: Access denied with code 403 (phase 2). Operator GE matched 20 at IP:bf_counter. [file "/etc/httpd/conf.modules.d/10-mod_security.conf"] [line "80"] [id "10033"] [msg "137.59.45.16 dropped in iptables/ip6tables for 10 minutes because of suspected brute-force attack."] [hostname "supermonkeystar.com"] [uri "/wp-login.php"] [unique_id "W@BFpoVP6kWXHSiVglGQUwAAAAo"]
[Mon Nov 05 13:29:43.807201 2018] [:error] [pid 84323] [client 110.249.143.106:50986] [client 110.249.143.106] ModSecurity: Access denied with code 403 (phase 2). Operator GE matched 20 at IP:bf_counter. [file "/etc/httpd/conf.modules.d/10-mod_security.conf"] [line "80"] [id "10033"] [msg "110.249.143.106 dropped in iptables/ip6tables for 10 minutes because of suspected brute-force attack."] [hostname "supermonkeystar.com"] [uri "/wp-login.php"] [unique_id "W@BFx2nAlgSki3EGnRWXiAAAAAU"]
[Mon Nov 05 13:29:56.150495 2018] [:error] [pid 87235] [client 189.204.52.237:51688] [client 189.204.52.237] ModSecurity: Access denied with code 403 (phase 2). Operator GE matched 20 at IP:bf_counter. [file "/etc/httpd/conf.modules.d/10-mod_security.conf"] [line "80"] [id "10033"] [msg "189.204.52.237 dropped in iptables/ip6tables for 10 minutes because of suspected brute-force attack."] [hostname "supermonkeystar.com"] [uri "/wp-login.php"] [unique_id "W@BF1OOlhJWz0MSVLhWpXgAAAAM"]
[Tue Nov 06 01:49:08.537840 2018] [:error] [pid 136956] [client 5.62.49.86:36562] [client 5.62.49.86] ModSecurity: Access denied with code 403 (phase 2). Operator GE matched 20 at IP:bf_counter. [file "/etc/httpd/conf.modules.d/10-mod_security.conf"] [line "80"] [id "10033"] [msg "5.62.49.86 dropped in iptables/ip6tables for 10 minutes because of suspected brute-force attack."] [hostname "supermonkeystar.com"] [uri "/xmlrpc.php"] [unique_id "W@DzFGtiiH8re5zNcGoXaQAAAEU"]
