[Mon Nov 05 04:51:47.493240 2018] [:error] [pid 53960] [client 185.234.217.123:60072] [client 185.234.217.123] ModSecurity: Access denied with code 403 (phase 2). Operator GE matched 20 at IP:bf_counter. [file "/etc/httpd/conf.modules.d/10-mod_security.conf"] [line "80"] [id "10033"] [msg "185.234.217.123 dropped in iptables/ip6tables for 10 minutes because of suspected brute-force attack."] [hostname "radicalgraphics.eu"] [uri "/wp-login.php"] [unique_id "W9-MY@ZSjtkGqhcfJjH6lAAAAAI"]
[Mon Nov 05 09:50:23.690190 2018] [:error] [pid 132927] [client 2001:41d0:a:6dde:::56074] [client 2001:41d0:a:6dde::] ModSecurity: IPmatch: bad IPv6 specification "2001:41d0:a:6dde". [hostname "radicalgraphics.nl"] [uri "/wp-admin/network/green.php"] [unique_id "W@ASX8USPdns34aYfGLk7AAAAAk"], referer: http://site.ru
[Mon Nov 05 09:50:23.690224 2018] [:error] [pid 132927] [client 2001:41d0:a:6dde:::56074] [client 2001:41d0:a:6dde::] ModSecurity: Rule processing failed (id=21001, msg=). [hostname "radicalgraphics.nl"] [uri "/wp-admin/network/green.php"] [unique_id "W@ASX8USPdns34aYfGLk7AAAAAk"], referer: http://site.ru
[Mon Nov 05 09:50:23.690239 2018] [:error] [pid 132927] [client 2001:41d0:a:6dde:::56074] [client 2001:41d0:a:6dde::] ModSecurity: IPmatch: bad IPv6 specification "2001:41d0:a:6dde". [hostname "radicalgraphics.nl"] [uri "/wp-admin/network/green.php"] [unique_id "W@ASX8USPdns34aYfGLk7AAAAAk"], referer: http://site.ru
[Mon Nov 05 09:50:23.690254 2018] [:error] [pid 132927] [client 2001:41d0:a:6dde:::56074] [client 2001:41d0:a:6dde::] ModSecurity: Rule processing failed (id=22001, msg=). [hostname "radicalgraphics.nl"] [uri "/wp-admin/network/green.php"] [unique_id "W@ASX8USPdns34aYfGLk7AAAAAk"], referer: http://site.ru
[Mon Nov 05 09:50:23.690267 2018] [:error] [pid 132927] [client 2001:41d0:a:6dde:::56074] [client 2001:41d0:a:6dde::] ModSecurity: IPmatch: bad IPv6 specification "2001:41d0:a:6dde". [hostname "radicalgraphics.nl"] [uri "/wp-admin/network/green.php"] [unique_id "W@ASX8USPdns34aYfGLk7AAAAAk"], referer: http://site.ru
[Mon Nov 05 09:50:23.690281 2018] [:error] [pid 132927] [client 2001:41d0:a:6dde:::56074] [client 2001:41d0:a:6dde::] ModSecurity: Rule processing failed (id=22002, msg=). [hostname "radicalgraphics.nl"] [uri "/wp-admin/network/green.php"] [unique_id "W@ASX8USPdns34aYfGLk7AAAAAk"], referer: http://site.ru
[Mon Nov 05 09:50:23.690294 2018] [:error] [pid 132927] [client 2001:41d0:a:6dde:::56074] [client 2001:41d0:a:6dde::] ModSecurity: IPmatch: bad IPv6 specification "2001:41d0:a:6dde". [hostname "radicalgraphics.nl"] [uri "/wp-admin/network/green.php"] [unique_id "W@ASX8USPdns34aYfGLk7AAAAAk"], referer: http://site.ru
[Mon Nov 05 09:50:23.690308 2018] [:error] [pid 132927] [client 2001:41d0:a:6dde:::56074] [client 2001:41d0:a:6dde::] ModSecurity: Rule processing failed (id=22003, msg=). [hostname "radicalgraphics.nl"] [uri "/wp-admin/network/green.php"] [unique_id "W@ASX8USPdns34aYfGLk7AAAAAk"], referer: http://site.ru
[Mon Nov 05 09:50:23.690325 2018] [:error] [pid 132927] [client 2001:41d0:a:6dde:::56074] [client 2001:41d0:a:6dde::] ModSecurity: IPmatch: bad IPv6 specification "2001:41d0:a:6dde". [hostname "radicalgraphics.nl"] [uri "/wp-admin/network/green.php"] [unique_id "W@ASX8USPdns34aYfGLk7AAAAAk"], referer: http://site.ru
[Mon Nov 05 09:50:23.690337 2018] [:error] [pid 132927] [client 2001:41d0:a:6dde:::56074] [client 2001:41d0:a:6dde::] ModSecurity: Rule processing failed (id=22004, msg=). [hostname "radicalgraphics.nl"] [uri "/wp-admin/network/green.php"] [unique_id "W@ASX8USPdns34aYfGLk7AAAAAk"], referer: http://site.ru
[Mon Nov 05 09:50:23.690373 2018] [:error] [pid 132927] [client 2001:41d0:a:6dde:::56074] [client 2001:41d0:a:6dde::] ModSecurity: IPmatch: bad IPv6 specification "2001:41d0:a:6dde". [hostname "radicalgraphics.nl"] [uri "/wp-admin/network/green.php"] [unique_id "W@ASX8USPdns34aYfGLk7AAAAAk"], referer: http://site.ru
[Mon Nov 05 09:50:23.690401 2018] [:error] [pid 132927] [client 2001:41d0:a:6dde:::56074] [client 2001:41d0:a:6dde::] ModSecurity: Rule processing failed (id=22005, msg=). [hostname "radicalgraphics.nl"] [uri "/wp-admin/network/green.php"] [unique_id "W@ASX8USPdns34aYfGLk7AAAAAk"], referer: http://site.ru
[Mon Nov 05 09:50:23.690424 2018] [:error] [pid 132927] [client 2001:41d0:a:6dde:::56074] [client 2001:41d0:a:6dde::] ModSecurity: IPmatch: bad IPv6 specification "2001:41d0:a:6dde". [hostname "radicalgraphics.nl"] [uri "/wp-admin/network/green.php"] [unique_id "W@ASX8USPdns34aYfGLk7AAAAAk"], referer: http://site.ru
[Mon Nov 05 09:50:23.690435 2018] [:error] [pid 132927] [client 2001:41d0:a:6dde:::56074] [client 2001:41d0:a:6dde::] ModSecurity: Rule processing failed (id=22006, msg=). [hostname "radicalgraphics.nl"] [uri "/wp-admin/network/green.php"] [unique_id "W@ASX8USPdns34aYfGLk7AAAAAk"], referer: http://site.ru
[Mon Nov 05 09:50:24.266292 2018] [:error] [pid 141148] [client 2001:41d0:a:6dde:::56124] [client 2001:41d0:a:6dde::] ModSecurity: IPmatch: bad IPv6 specification "2001:41d0:a:6dde". [hostname "www.radicalgraphics.nl"] [uri "/wp-admin/network/green.php"] [unique_id "W@ASYBSIKuSqPoCNY-uRaAAAACU"], referer: http://site.ru
[Mon Nov 05 09:50:24.266313 2018] [:error] [pid 141148] [client 2001:41d0:a:6dde:::56124] [client 2001:41d0:a:6dde::] ModSecurity: Rule processing failed (id=21001, msg=). [hostname "www.radicalgraphics.nl"] [uri "/wp-admin/network/green.php"] [unique_id "W@ASYBSIKuSqPoCNY-uRaAAAACU"], referer: http://site.ru
[Mon Nov 05 09:50:24.266326 2018] [:error] [pid 141148] [client 2001:41d0:a:6dde:::56124] [client 2001:41d0:a:6dde::] ModSecurity: IPmatch: bad IPv6 specification "2001:41d0:a:6dde". [hostname "www.radicalgraphics.nl"] [uri "/wp-admin/network/green.php"] [unique_id "W@ASYBSIKuSqPoCNY-uRaAAAACU"], referer: http://site.ru
[Mon Nov 05 09:50:24.266336 2018] [:error] [pid 141148] [client 2001:41d0:a:6dde:::56124] [client 2001:41d0:a:6dde::] ModSecurity: Rule processing failed (id=22001, msg=). [hostname "www.radicalgraphics.nl"] [uri "/wp-admin/network/green.php"] [unique_id "W@ASYBSIKuSqPoCNY-uRaAAAACU"], referer: http://site.ru
[Mon Nov 05 09:50:24.266360 2018] [:error] [pid 141148] [client 2001:41d0:a:6dde:::56124] [client 2001:41d0:a:6dde::] ModSecurity: IPmatch: bad IPv6 specification "2001:41d0:a:6dde". [hostname "www.radicalgraphics.nl"] [uri "/wp-admin/network/green.php"] [unique_id "W@ASYBSIKuSqPoCNY-uRaAAAACU"], referer: http://site.ru
[Mon Nov 05 09:50:24.266371 2018] [:error] [pid 141148] [client 2001:41d0:a:6dde:::56124] [client 2001:41d0:a:6dde::] ModSecurity: Rule processing failed (id=22002, msg=). [hostname "www.radicalgraphics.nl"] [uri "/wp-admin/network/green.php"] [unique_id "W@ASYBSIKuSqPoCNY-uRaAAAACU"], referer: http://site.ru
[Mon Nov 05 09:50:24.266381 2018] [:error] [pid 141148] [client 2001:41d0:a:6dde:::56124] [client 2001:41d0:a:6dde::] ModSecurity: IPmatch: bad IPv6 specification "2001:41d0:a:6dde". [hostname "www.radicalgraphics.nl"] [uri "/wp-admin/network/green.php"] [unique_id "W@ASYBSIKuSqPoCNY-uRaAAAACU"], referer: http://site.ru
[Mon Nov 05 09:50:24.266391 2018] [:error] [pid 141148] [client 2001:41d0:a:6dde:::56124] [client 2001:41d0:a:6dde::] ModSecurity: Rule processing failed (id=22003, msg=). [hostname "www.radicalgraphics.nl"] [uri "/wp-admin/network/green.php"] [unique_id "W@ASYBSIKuSqPoCNY-uRaAAAACU"], referer: http://site.ru
[Mon Nov 05 09:50:24.266401 2018] [:error] [pid 141148] [client 2001:41d0:a:6dde:::56124] [client 2001:41d0:a:6dde::] ModSecurity: IPmatch: bad IPv6 specification "2001:41d0:a:6dde". [hostname "www.radicalgraphics.nl"] [uri "/wp-admin/network/green.php"] [unique_id "W@ASYBSIKuSqPoCNY-uRaAAAACU"], referer: http://site.ru
[Mon Nov 05 09:50:24.266410 2018] [:error] [pid 141148] [client 2001:41d0:a:6dde:::56124] [client 2001:41d0:a:6dde::] ModSecurity: Rule processing failed (id=22004, msg=). [hostname "www.radicalgraphics.nl"] [uri "/wp-admin/network/green.php"] [unique_id "W@ASYBSIKuSqPoCNY-uRaAAAACU"], referer: http://site.ru
[Mon Nov 05 09:50:24.266420 2018] [:error] [pid 141148] [client 2001:41d0:a:6dde:::56124] [client 2001:41d0:a:6dde::] ModSecurity: IPmatch: bad IPv6 specification "2001:41d0:a:6dde". [hostname "www.radicalgraphics.nl"] [uri "/wp-admin/network/green.php"] [unique_id "W@ASYBSIKuSqPoCNY-uRaAAAACU"], referer: http://site.ru
[Mon Nov 05 09:50:24.266442 2018] [:error] [pid 141148] [client 2001:41d0:a:6dde:::56124] [client 2001:41d0:a:6dde::] ModSecurity: Rule processing failed (id=22005, msg=). [hostname "www.radicalgraphics.nl"] [uri "/wp-admin/network/green.php"] [unique_id "W@ASYBSIKuSqPoCNY-uRaAAAACU"], referer: http://site.ru
[Mon Nov 05 09:50:24.266456 2018] [:error] [pid 141148] [client 2001:41d0:a:6dde:::56124] [client 2001:41d0:a:6dde::] ModSecurity: IPmatch: bad IPv6 specification "2001:41d0:a:6dde". [hostname "www.radicalgraphics.nl"] [uri "/wp-admin/network/green.php"] [unique_id "W@ASYBSIKuSqPoCNY-uRaAAAACU"], referer: http://site.ru
[Mon Nov 05 09:50:24.266465 2018] [:error] [pid 141148] [client 2001:41d0:a:6dde:::56124] [client 2001:41d0:a:6dde::] ModSecurity: Rule processing failed (id=22006, msg=). [hostname "www.radicalgraphics.nl"] [uri "/wp-admin/network/green.php"] [unique_id "W@ASYBSIKuSqPoCNY-uRaAAAACU"], referer: http://site.ru
