2018/11/04 05:47:55 [warn] 32314#0: *86967361 a client request body is buffered to a temporary file /var/cache/nginx/client_temp/0000137992, client: 13.78.24.40, server: supermonkeystar.com, request: "POST /xmlrpc.php HTTP/1.1", host: "supermonkeystar.com"
2018/11/04 05:47:57 [warn] 32314#0: *86967361 a client request body is buffered to a temporary file /var/cache/nginx/client_temp/0000137993, client: 13.78.24.40, server: supermonkeystar.com, request: "POST /xmlrpc.php HTTP/1.1", host: "supermonkeystar.com"
2018/11/04 05:47:58 [warn] 32314#0: *86967361 a client request body is buffered to a temporary file /var/cache/nginx/client_temp/0000137994, client: 13.78.24.40, server: supermonkeystar.com, request: "POST /xmlrpc.php HTTP/1.1", host: "supermonkeystar.com"
2018/11/04 05:47:59 [warn] 32314#0: *86967361 a client request body is buffered to a temporary file /var/cache/nginx/client_temp/0000137995, client: 13.78.24.40, server: supermonkeystar.com, request: "POST /xmlrpc.php HTTP/1.1", host: "supermonkeystar.com"
2018/11/04 05:48:00 [warn] 32314#0: *86967361 a client request body is buffered to a temporary file /var/cache/nginx/client_temp/0000137996, client: 13.78.24.40, server: supermonkeystar.com, request: "POST /xmlrpc.php HTTP/1.1", host: "supermonkeystar.com"
2018/11/04 05:48:01 [warn] 32314#0: *86967361 a client request body is buffered to a temporary file /var/cache/nginx/client_temp/0000137997, client: 13.78.24.40, server: supermonkeystar.com, request: "POST /xmlrpc.php HTTP/1.1", host: "supermonkeystar.com"
2018/11/04 05:48:02 [warn] 32314#0: *86967361 a client request body is buffered to a temporary file /var/cache/nginx/client_temp/0000137998, client: 13.78.24.40, server: supermonkeystar.com, request: "POST /xmlrpc.php HTTP/1.1", host: "supermonkeystar.com"
2018/11/04 20:45:06 [warn] 110489#0: *89027355 a client request body is buffered to a temporary file /var/cache/nginx/client_temp/0000140237, client: 198.23.202.38, server: supermonkeystar.com, request: "POST /xmlrpc.php HTTP/1.1", host: "supermonkeystar.com"
2018/11/04 20:45:07 [warn] 110489#0: *89027355 a client request body is buffered to a temporary file /var/cache/nginx/client_temp/0000140238, client: 198.23.202.38, server: supermonkeystar.com, request: "POST /xmlrpc.php HTTP/1.1", host: "supermonkeystar.com"
