[Fri Nov 02 09:21:17.143907 2018] [:error] [pid 87177] [client 185.234.217.192:44300] [client 185.234.217.192] ModSecurity: Access denied with code 403 (phase 2). Operator GE matched 20 at IP:bf_counter. [file "/etc/httpd/conf.modules.d/10-mod_security.conf"] [line "80"] [id "10033"] [msg "185.234.217.192 dropped in iptables/ip6tables for 10 minutes because of suspected brute-force attack."] [hostname "xintanalegends.com"] [uri "/wp-login.php"] [unique_id "W9wXDQ3nZMadQ9I-USN38wAAAA0"]
[Fri Nov 02 09:21:17.280769 2018] [:error] [pid 92107] [client 185.234.217.192:44318] [client 185.234.217.192] ModSecurity: Access denied with code 403 (phase 2). Operator GE matched 20 at IP:bf_counter. [file "/etc/httpd/conf.modules.d/10-mod_security.conf"] [line "80"] [id "10033"] [msg "185.234.217.192 dropped in iptables/ip6tables for 10 minutes because of suspected brute-force attack."] [hostname "xintana.com"] [uri "/wp-login.php"] [unique_id "W9wXDSFmxwBFxW6ktZp2-AAAABc"]
[Fri Nov 02 09:21:17.373999 2018] [:error] [pid 96313] [client 185.234.217.192:44336] [client 185.234.217.192] ModSecurity: Access denied with code 403 (phase 2). Operator GE matched 20 at IP:bf_counter. [file "/etc/httpd/conf.modules.d/10-mod_security.conf"] [line "80"] [id "10033"] [msg "185.234.217.192 dropped in iptables/ip6tables for 10 minutes because of suspected brute-force attack."] [hostname "xintanalegends.com"] [uri "/wp-login.php"] [unique_id "W9wXDehcrYs8zyFAtl3KzwAAAAs"]
[Fri Nov 02 15:35:27.491424 2018] [:error] [pid 34105] [client 2001:41d0:8:d1e0:::36388] [client 2001:41d0:8:d1e0::] ModSecurity: IPmatch: bad IPv6 specification "2001:41d0:8:d1e0". [hostname "xintanalegends.com"] [uri "/login.php"] [unique_id "W9xuv6ZJjLXScQmS41JGsQAAAAA"], referer: xintanalegends.com
[Fri Nov 02 15:35:27.491451 2018] [:error] [pid 34105] [client 2001:41d0:8:d1e0:::36388] [client 2001:41d0:8:d1e0::] ModSecurity: Rule processing failed (id=21001, msg=). [hostname "xintanalegends.com"] [uri "/login.php"] [unique_id "W9xuv6ZJjLXScQmS41JGsQAAAAA"], referer: xintanalegends.com
[Fri Nov 02 15:35:27.491467 2018] [:error] [pid 34105] [client 2001:41d0:8:d1e0:::36388] [client 2001:41d0:8:d1e0::] ModSecurity: IPmatch: bad IPv6 specification "2001:41d0:8:d1e0". [hostname "xintanalegends.com"] [uri "/login.php"] [unique_id "W9xuv6ZJjLXScQmS41JGsQAAAAA"], referer: xintanalegends.com
[Fri Nov 02 15:35:27.491483 2018] [:error] [pid 34105] [client 2001:41d0:8:d1e0:::36388] [client 2001:41d0:8:d1e0::] ModSecurity: Rule processing failed (id=22001, msg=). [hostname "xintanalegends.com"] [uri "/login.php"] [unique_id "W9xuv6ZJjLXScQmS41JGsQAAAAA"], referer: xintanalegends.com
[Fri Nov 02 15:35:27.491497 2018] [:error] [pid 34105] [client 2001:41d0:8:d1e0:::36388] [client 2001:41d0:8:d1e0::] ModSecurity: IPmatch: bad IPv6 specification "2001:41d0:8:d1e0". [hostname "xintanalegends.com"] [uri "/login.php"] [unique_id "W9xuv6ZJjLXScQmS41JGsQAAAAA"], referer: xintanalegends.com
[Fri Nov 02 15:35:27.491509 2018] [:error] [pid 34105] [client 2001:41d0:8:d1e0:::36388] [client 2001:41d0:8:d1e0::] ModSecurity: Rule processing failed (id=22002, msg=). [hostname "xintanalegends.com"] [uri "/login.php"] [unique_id "W9xuv6ZJjLXScQmS41JGsQAAAAA"], referer: xintanalegends.com
[Fri Nov 02 15:35:27.491523 2018] [:error] [pid 34105] [client 2001:41d0:8:d1e0:::36388] [client 2001:41d0:8:d1e0::] ModSecurity: IPmatch: bad IPv6 specification "2001:41d0:8:d1e0". [hostname "xintanalegends.com"] [uri "/login.php"] [unique_id "W9xuv6ZJjLXScQmS41JGsQAAAAA"], referer: xintanalegends.com
[Fri Nov 02 15:35:27.491535 2018] [:error] [pid 34105] [client 2001:41d0:8:d1e0:::36388] [client 2001:41d0:8:d1e0::] ModSecurity: Rule processing failed (id=22003, msg=). [hostname "xintanalegends.com"] [uri "/login.php"] [unique_id "W9xuv6ZJjLXScQmS41JGsQAAAAA"], referer: xintanalegends.com
[Fri Nov 02 15:35:27.491548 2018] [:error] [pid 34105] [client 2001:41d0:8:d1e0:::36388] [client 2001:41d0:8:d1e0::] ModSecurity: IPmatch: bad IPv6 specification "2001:41d0:8:d1e0". [hostname "xintanalegends.com"] [uri "/login.php"] [unique_id "W9xuv6ZJjLXScQmS41JGsQAAAAA"], referer: xintanalegends.com
[Fri Nov 02 15:35:27.491570 2018] [:error] [pid 34105] [client 2001:41d0:8:d1e0:::36388] [client 2001:41d0:8:d1e0::] ModSecurity: Rule processing failed (id=22004, msg=). [hostname "xintanalegends.com"] [uri "/login.php"] [unique_id "W9xuv6ZJjLXScQmS41JGsQAAAAA"], referer: xintanalegends.com
[Fri Nov 02 15:35:27.491585 2018] [:error] [pid 34105] [client 2001:41d0:8:d1e0:::36388] [client 2001:41d0:8:d1e0::] ModSecurity: IPmatch: bad IPv6 specification "2001:41d0:8:d1e0". [hostname "xintanalegends.com"] [uri "/login.php"] [unique_id "W9xuv6ZJjLXScQmS41JGsQAAAAA"], referer: xintanalegends.com
[Fri Nov 02 15:35:27.491598 2018] [:error] [pid 34105] [client 2001:41d0:8:d1e0:::36388] [client 2001:41d0:8:d1e0::] ModSecurity: Rule processing failed (id=22005, msg=). [hostname "xintanalegends.com"] [uri "/login.php"] [unique_id "W9xuv6ZJjLXScQmS41JGsQAAAAA"], referer: xintanalegends.com
[Fri Nov 02 15:35:27.491611 2018] [:error] [pid 34105] [client 2001:41d0:8:d1e0:::36388] [client 2001:41d0:8:d1e0::] ModSecurity: IPmatch: bad IPv6 specification "2001:41d0:8:d1e0". [hostname "xintanalegends.com"] [uri "/login.php"] [unique_id "W9xuv6ZJjLXScQmS41JGsQAAAAA"], referer: xintanalegends.com
[Fri Nov 02 15:35:27.491625 2018] [:error] [pid 34105] [client 2001:41d0:8:d1e0:::36388] [client 2001:41d0:8:d1e0::] ModSecurity: Rule processing failed (id=22006, msg=). [hostname "xintanalegends.com"] [uri "/login.php"] [unique_id "W9xuv6ZJjLXScQmS41JGsQAAAAA"], referer: xintanalegends.com
[Fri Nov 02 18:52:50.778990 2018] [:error] [pid 111039] [client 2001:41d0:8:d1e0:::58866] [client 2001:41d0:8:d1e0::] ModSecurity: IPmatch: bad IPv6 specification "2001:41d0:8:d1e0". [hostname "xintana.com"] [uri "/wp-content/wp-object-cache.php"] [unique_id "W9ydAsiTKCETpK3qEmWdRAAAAAU"], referer: xintana.com
[Fri Nov 02 18:52:50.779006 2018] [:error] [pid 111039] [client 2001:41d0:8:d1e0:::58866] [client 2001:41d0:8:d1e0::] ModSecurity: Rule processing failed (id=21001, msg=). [hostname "xintana.com"] [uri "/wp-content/wp-object-cache.php"] [unique_id "W9ydAsiTKCETpK3qEmWdRAAAAAU"], referer: xintana.com
[Fri Nov 02 18:52:50.779014 2018] [:error] [pid 111039] [client 2001:41d0:8:d1e0:::58866] [client 2001:41d0:8:d1e0::] ModSecurity: IPmatch: bad IPv6 specification "2001:41d0:8:d1e0". [hostname "xintana.com"] [uri "/wp-content/wp-object-cache.php"] [unique_id "W9ydAsiTKCETpK3qEmWdRAAAAAU"], referer: xintana.com
[Fri Nov 02 18:52:50.779021 2018] [:error] [pid 111039] [client 2001:41d0:8:d1e0:::58866] [client 2001:41d0:8:d1e0::] ModSecurity: Rule processing failed (id=22001, msg=). [hostname "xintana.com"] [uri "/wp-content/wp-object-cache.php"] [unique_id "W9ydAsiTKCETpK3qEmWdRAAAAAU"], referer: xintana.com
[Fri Nov 02 18:52:50.779028 2018] [:error] [pid 111039] [client 2001:41d0:8:d1e0:::58866] [client 2001:41d0:8:d1e0::] ModSecurity: IPmatch: bad IPv6 specification "2001:41d0:8:d1e0". [hostname "xintana.com"] [uri "/wp-content/wp-object-cache.php"] [unique_id "W9ydAsiTKCETpK3qEmWdRAAAAAU"], referer: xintana.com
[Fri Nov 02 18:52:50.779038 2018] [:error] [pid 111039] [client 2001:41d0:8:d1e0:::58866] [client 2001:41d0:8:d1e0::] ModSecurity: Rule processing failed (id=22002, msg=). [hostname "xintana.com"] [uri "/wp-content/wp-object-cache.php"] [unique_id "W9ydAsiTKCETpK3qEmWdRAAAAAU"], referer: xintana.com
[Fri Nov 02 18:52:50.779045 2018] [:error] [pid 111039] [client 2001:41d0:8:d1e0:::58866] [client 2001:41d0:8:d1e0::] ModSecurity: IPmatch: bad IPv6 specification "2001:41d0:8:d1e0". [hostname "xintana.com"] [uri "/wp-content/wp-object-cache.php"] [unique_id "W9ydAsiTKCETpK3qEmWdRAAAAAU"], referer: xintana.com
[Fri Nov 02 18:52:50.779051 2018] [:error] [pid 111039] [client 2001:41d0:8:d1e0:::58866] [client 2001:41d0:8:d1e0::] ModSecurity: Rule processing failed (id=22003, msg=). [hostname "xintana.com"] [uri "/wp-content/wp-object-cache.php"] [unique_id "W9ydAsiTKCETpK3qEmWdRAAAAAU"], referer: xintana.com
[Fri Nov 02 18:52:50.779059 2018] [:error] [pid 111039] [client 2001:41d0:8:d1e0:::58866] [client 2001:41d0:8:d1e0::] ModSecurity: IPmatch: bad IPv6 specification "2001:41d0:8:d1e0". [hostname "xintana.com"] [uri "/wp-content/wp-object-cache.php"] [unique_id "W9ydAsiTKCETpK3qEmWdRAAAAAU"], referer: xintana.com
[Fri Nov 02 18:52:50.779072 2018] [:error] [pid 111039] [client 2001:41d0:8:d1e0:::58866] [client 2001:41d0:8:d1e0::] ModSecurity: Rule processing failed (id=22004, msg=). [hostname "xintana.com"] [uri "/wp-content/wp-object-cache.php"] [unique_id "W9ydAsiTKCETpK3qEmWdRAAAAAU"], referer: xintana.com
[Fri Nov 02 18:52:50.779078 2018] [:error] [pid 111039] [client 2001:41d0:8:d1e0:::58866] [client 2001:41d0:8:d1e0::] ModSecurity: IPmatch: bad IPv6 specification "2001:41d0:8:d1e0". [hostname "xintana.com"] [uri "/wp-content/wp-object-cache.php"] [unique_id "W9ydAsiTKCETpK3qEmWdRAAAAAU"], referer: xintana.com
[Fri Nov 02 18:52:50.779085 2018] [:error] [pid 111039] [client 2001:41d0:8:d1e0:::58866] [client 2001:41d0:8:d1e0::] ModSecurity: Rule processing failed (id=22005, msg=). [hostname "xintana.com"] [uri "/wp-content/wp-object-cache.php"] [unique_id "W9ydAsiTKCETpK3qEmWdRAAAAAU"], referer: xintana.com
[Fri Nov 02 18:52:50.779091 2018] [:error] [pid 111039] [client 2001:41d0:8:d1e0:::58866] [client 2001:41d0:8:d1e0::] ModSecurity: IPmatch: bad IPv6 specification "2001:41d0:8:d1e0". [hostname "xintana.com"] [uri "/wp-content/wp-object-cache.php"] [unique_id "W9ydAsiTKCETpK3qEmWdRAAAAAU"], referer: xintana.com
[Fri Nov 02 18:52:50.779097 2018] [:error] [pid 111039] [client 2001:41d0:8:d1e0:::58866] [client 2001:41d0:8:d1e0::] ModSecurity: Rule processing failed (id=22006, msg=). [hostname "xintana.com"] [uri "/wp-content/wp-object-cache.php"] [unique_id "W9ydAsiTKCETpK3qEmWdRAAAAAU"], referer: xintana.com
