[Sun Nov 04 22:53:04.820894 2018] [:error] [pid 85461] [client 211.138.182.198:42546] [client 211.138.182.198] ModSecurity: Access denied with code 403 (phase 2). Operator GE matched 20 at IP:bf_counter. [file "/etc/httpd/conf.modules.d/10-mod_security.conf"] [line "80"] [id "10033"] [msg "211.138.182.198 dropped in iptables/ip6tables for 10 minutes because of suspected brute-force attack."] [hostname "xintanalegends.com"] [uri "/wp-login.php"] [unique_id "W994UNLhGr0en1I4eDB-LwAAAA0"]
[Sun Nov 04 22:54:06.538149 2018] [:error] [pid 86806] [client 116.228.50.194:45558] [client 116.228.50.194] ModSecurity: Access denied with code 403 (phase 2). Operator GE matched 20 at IP:bf_counter. [file "/etc/httpd/conf.modules.d/10-mod_security.conf"] [line "80"] [id "10033"] [msg "116.228.50.194 dropped in iptables/ip6tables for 10 minutes because of suspected brute-force attack."] [hostname "xintanalegends.com"] [uri "/wp-login.php"] [unique_id "W994jllnGTDzTF7qPHd3lwAAABo"]
[Sun Nov 04 22:54:19.035490 2018] [:error] [pid 86670] [client 58.244.173.130:46444] [client 58.244.173.130] ModSecurity: Access denied with code 403 (phase 2). Operator GE matched 20 at IP:bf_counter. [file "/etc/httpd/conf.modules.d/10-mod_security.conf"] [line "80"] [id "10033"] [msg "58.244.173.130 dropped in iptables/ip6tables for 10 minutes because of suspected brute-force attack."] [hostname "xintanalegends.com"] [uri "/wp-login.php"] [unique_id "W994muysNFBIfXXjQ7fgiAAAAAE"]
[Sun Nov 04 22:54:46.182638 2018] [:error] [pid 86806] [client 114.119.10.171:47784] [client 114.119.10.171] ModSecurity: Access denied with code 403 (phase 2). Operator GE matched 20 at IP:bf_counter. [file "/etc/httpd/conf.modules.d/10-mod_security.conf"] [line "80"] [id "10033"] [msg "114.119.10.171 dropped in iptables/ip6tables for 10 minutes because of suspected brute-force attack."] [hostname "xintanalegends.com"] [uri "/wp-login.php"] [unique_id "W994tllnGTDzTF7qPHd33QAAABo"]
[Sun Nov 04 22:54:58.068372 2018] [:error] [pid 67210] [client 60.173.79.120:48402] [client 60.173.79.120] ModSecurity: Access denied with code 403 (phase 2). Operator GE matched 20 at IP:bf_counter. [file "/etc/httpd/conf.modules.d/10-mod_security.conf"] [line "80"] [id "10033"] [msg "60.173.79.120 dropped in iptables/ip6tables for 10 minutes because of suspected brute-force attack."] [hostname "xintanalegends.com"] [uri "/wp-login.php"] [unique_id "W994wQaomuSU5vqAH7DRtQAAABQ"]
[Sun Nov 04 22:55:42.638784 2018] [:error] [pid 89016] [client 189.204.6.157:50598] [client 189.204.6.157] ModSecurity: Access denied with code 403 (phase 2). Operator GE matched 20 at IP:bf_counter. [file "/etc/httpd/conf.modules.d/10-mod_security.conf"] [line "80"] [id "10033"] [msg "189.204.6.157 dropped in iptables/ip6tables for 10 minutes because of suspected brute-force attack."] [hostname "xintanalegends.com"] [uri "/wp-login.php"] [unique_id "W9947mYfw9q1b8YRP-j5owAAABM"]
[Sun Nov 04 22:56:14.448852 2018] [:error] [pid 88443] [client 61.178.74.27:52504] [client 61.178.74.27] ModSecurity: Access denied with code 403 (phase 2). Operator GE matched 20 at IP:bf_counter. [file "/etc/httpd/conf.modules.d/10-mod_security.conf"] [line "80"] [id "10033"] [msg "61.178.74.27 dropped in iptables/ip6tables for 10 minutes because of suspected brute-force attack."] [hostname "xintanalegends.com"] [uri "/wp-login.php"] [unique_id "W995DgdeLERgpYhwq-W4TwAAAAw"]
[Sun Nov 04 22:56:55.427376 2018] [:error] [pid 84055] [client 220.164.2.99:54378] [client 220.164.2.99] ModSecurity: Access denied with code 403 (phase 2). Operator GE matched 20 at IP:bf_counter. [file "/etc/httpd/conf.modules.d/10-mod_security.conf"] [line "80"] [id "10033"] [msg "220.164.2.99 dropped in iptables/ip6tables for 10 minutes because of suspected brute-force attack."] [hostname "xintanalegends.com"] [uri "/wp-login.php"] [unique_id "W995N7u3c-moytzFX4FL5AAAAB0"]
[Sun Nov 04 22:58:17.864998 2018] [:error] [pid 92065] [client 220.178.2.114:59070] [client 220.178.2.114] ModSecurity: Access denied with code 403 (phase 2). Operator GE matched 20 at IP:bf_counter. [file "/etc/httpd/conf.modules.d/10-mod_security.conf"] [line "80"] [id "10033"] [msg "220.178.2.114 dropped in iptables/ip6tables for 10 minutes because of suspected brute-force attack."] [hostname "xintanalegends.com"] [uri "/wp-login.php"] [unique_id "W995iWaLoAm1AwJRTBYfNwAAABA"]
[Sun Nov 04 22:59:42.910384 2018] [:error] [pid 94869] [client 218.28.76.99:34866] [client 218.28.76.99] ModSecurity: Access denied with code 403 (phase 2). Operator GE matched 20 at IP:bf_counter. [file "/etc/httpd/conf.modules.d/10-mod_security.conf"] [line "80"] [id "10033"] [msg "218.28.76.99 dropped in iptables/ip6tables for 10 minutes because of suspected brute-force attack."] [hostname "xintanalegends.com"] [uri "/wp-login.php"] [unique_id "W9953sa65iPnXr4xWlO0ZgAAAAA"]
