[Tue Nov 06 16:09:49.266512 2018] [autoindex:error] [pid 143305] [client 104.227.77.214:38902] AH01276: Cannot serve directory /home/radicalg/webapps/looklala_wordpress_4_3_1/wp-content/themes/lms/framework/: No matching DirectoryIndex (index.html,index.htm,index.cgi,index.py,index.php,index.spy,nph-index.cgi,index.shtml) found, and server-generated directory index forbidden by Options directive, referer: http://www.ikbensterdam.com/
[Tue Nov 06 16:09:49.929705 2018] [autoindex:error] [pid 142122] [client 162.244.144.245:38930] AH01276: Cannot serve directory /home/radicalg/webapps/looklala_wordpress_4_3_1/wp-content/themes/lms/framework/: No matching DirectoryIndex (index.html,index.htm,index.cgi,index.py,index.php,index.spy,nph-index.cgi,index.shtml) found, and server-generated directory index forbidden by Options directive, referer: http://www.ikbensterdam.com/
[Tue Nov 06 16:09:50.588418 2018] [autoindex:error] [pid 146090] [client 167.160.64.119:38986] AH01276: Cannot serve directory /home/radicalg/webapps/looklala_wordpress_4_3_1/wp-content/themes/lms/framework/: No matching DirectoryIndex (index.html,index.htm,index.cgi,index.py,index.php,index.spy,nph-index.cgi,index.shtml) found, and server-generated directory index forbidden by Options directive, referer: http://www.ikbensterdam.com/
[Tue Nov 06 16:09:51.368224 2018] [autoindex:error] [pid 145626] [client 167.160.67.25:39034] AH01276: Cannot serve directory /home/radicalg/webapps/looklala_wordpress_4_3_1/wp-content/themes/lms/framework/: No matching DirectoryIndex (index.html,index.htm,index.cgi,index.py,index.php,index.spy,nph-index.cgi,index.shtml) found, and server-generated directory index forbidden by Options directive, referer: http://www.ikbensterdam.com/
