2018/11/03 03:59:19 [warn] 86985#0: *83950968 a client request body is buffered to a temporary file /var/cache/nginx/client_temp/0000133944, client: 185.250.42.36, server: www.handycraft.co, request: "POST / HTTP/1.1", host: "handycraft.co", referrer: "http://handycraft.co/"
2018/11/03 10:23:33 [warn] 86986#0: *84656726 a client request body is buffered to a temporary file /var/cache/nginx/client_temp/0000134902, client: 5.62.159.131, server: www.handycraft.co, request: "POST / HTTP/1.1", host: "handycraft.co", referrer: "http://handycraft.co/"
2018/11/03 14:34:22 [warn] 86986#0: *85185819 a client request body is buffered to a temporary file /var/cache/nginx/client_temp/0000135554, client: 193.32.95.219, server: www.handycraft.co, request: "POST / HTTP/1.1", host: "handycraft.co", referrer: "http://handycraft.co/"
2018/11/03 19:39:38 [warn] 86986#0: *85906234 a client request body is buffered to a temporary file /var/cache/nginx/client_temp/0000136335, client: 188.72.126.44, server: www.handycraft.co, request: "POST / HTTP/1.1", host: "handycraft.co", referrer: "http://handycraft.co/"
2018/11/03 22:46:13 [warn] 46242#0: *86314567 a client request body is buffered to a temporary file /var/cache/nginx/client_temp/0000137084, client: 185.251.71.204, server: www.handycraft.co, request: "POST / HTTP/1.1", host: "handycraft.co", referrer: "http://handycraft.co/"
2018/11/03 23:38:59 [warn] 21295#0: *86412724 a client request body is buffered to a temporary file /var/cache/nginx/client_temp/0000137164, client: 165.225.170.35, server: www.handycraft.co, request: "POST /xmlrpc.php HTTP/1.1", host: "handycraft.co"
2018/11/04 02:51:21 [warn] 32314#0: *86717145 a client request body is buffered to a temporary file /var/cache/nginx/client_temp/0000137606, client: 5.101.220.159, server: www.handycraft.co, request: "POST / HTTP/1.1", host: "handycraft.co", referrer: "http://handycraft.co/"
