[Sat Nov 03 16:05:13.276630 2018] [:error] [pid 133328] [client 149.56.251.139:34476] [client 149.56.251.139] ModSecurity: Access denied with code 403 (phase 2). Operator GE matched 20 at IP:bf_counter. [file "/etc/httpd/conf.modules.d/10-mod_security.conf"] [line "80"] [id "10033"] [msg "149.56.251.139 dropped in iptables/ip6tables for 10 minutes because of suspected brute-force attack."] [hostname "xintana.com"] [uri "/xmlrpc.php"] [unique_id "W93HOfJsK8Jz-qYodB0i@QAAAAs"]
[Sat Nov 03 18:40:23.824493 2018] [:error] [pid 84057] [client 2001:41d0:a:6dde:::51578] [client 2001:41d0:a:6dde::] ModSecurity: IPmatch: bad IPv6 specification "2001:41d0:a:6dde". [hostname "xintana.com"] [uri "/_.php"] [unique_id "W93rl2rXXBTX8kIuvktc9QAAAA4"], referer: http://site.ru
[Sat Nov 03 18:40:23.824724 2018] [:error] [pid 84057] [client 2001:41d0:a:6dde:::51578] [client 2001:41d0:a:6dde::] ModSecurity: Rule processing failed (id=21001, msg=). [hostname "xintana.com"] [uri "/_.php"] [unique_id "W93rl2rXXBTX8kIuvktc9QAAAA4"], referer: http://site.ru
[Sat Nov 03 18:40:23.824745 2018] [:error] [pid 84057] [client 2001:41d0:a:6dde:::51578] [client 2001:41d0:a:6dde::] ModSecurity: IPmatch: bad IPv6 specification "2001:41d0:a:6dde". [hostname "xintana.com"] [uri "/_.php"] [unique_id "W93rl2rXXBTX8kIuvktc9QAAAA4"], referer: http://site.ru
[Sat Nov 03 18:40:23.824757 2018] [:error] [pid 84057] [client 2001:41d0:a:6dde:::51578] [client 2001:41d0:a:6dde::] ModSecurity: Rule processing failed (id=22001, msg=). [hostname "xintana.com"] [uri "/_.php"] [unique_id "W93rl2rXXBTX8kIuvktc9QAAAA4"], referer: http://site.ru
[Sat Nov 03 18:40:23.824769 2018] [:error] [pid 84057] [client 2001:41d0:a:6dde:::51578] [client 2001:41d0:a:6dde::] ModSecurity: IPmatch: bad IPv6 specification "2001:41d0:a:6dde". [hostname "xintana.com"] [uri "/_.php"] [unique_id "W93rl2rXXBTX8kIuvktc9QAAAA4"], referer: http://site.ru
[Sat Nov 03 18:40:23.824780 2018] [:error] [pid 84057] [client 2001:41d0:a:6dde:::51578] [client 2001:41d0:a:6dde::] ModSecurity: Rule processing failed (id=22002, msg=). [hostname "xintana.com"] [uri "/_.php"] [unique_id "W93rl2rXXBTX8kIuvktc9QAAAA4"], referer: http://site.ru
[Sat Nov 03 18:40:23.824852 2018] [:error] [pid 84057] [client 2001:41d0:a:6dde:::51578] [client 2001:41d0:a:6dde::] ModSecurity: IPmatch: bad IPv6 specification "2001:41d0:a:6dde". [hostname "xintana.com"] [uri "/_.php"] [unique_id "W93rl2rXXBTX8kIuvktc9QAAAA4"], referer: http://site.ru
[Sat Nov 03 18:40:23.824864 2018] [:error] [pid 84057] [client 2001:41d0:a:6dde:::51578] [client 2001:41d0:a:6dde::] ModSecurity: Rule processing failed (id=22003, msg=). [hostname "xintana.com"] [uri "/_.php"] [unique_id "W93rl2rXXBTX8kIuvktc9QAAAA4"], referer: http://site.ru
[Sat Nov 03 18:40:23.824876 2018] [:error] [pid 84057] [client 2001:41d0:a:6dde:::51578] [client 2001:41d0:a:6dde::] ModSecurity: IPmatch: bad IPv6 specification "2001:41d0:a:6dde". [hostname "xintana.com"] [uri "/_.php"] [unique_id "W93rl2rXXBTX8kIuvktc9QAAAA4"], referer: http://site.ru
[Sat Nov 03 18:40:23.824886 2018] [:error] [pid 84057] [client 2001:41d0:a:6dde:::51578] [client 2001:41d0:a:6dde::] ModSecurity: Rule processing failed (id=22004, msg=). [hostname "xintana.com"] [uri "/_.php"] [unique_id "W93rl2rXXBTX8kIuvktc9QAAAA4"], referer: http://site.ru
[Sat Nov 03 18:40:23.824903 2018] [:error] [pid 84057] [client 2001:41d0:a:6dde:::51578] [client 2001:41d0:a:6dde::] ModSecurity: IPmatch: bad IPv6 specification "2001:41d0:a:6dde". [hostname "xintana.com"] [uri "/_.php"] [unique_id "W93rl2rXXBTX8kIuvktc9QAAAA4"], referer: http://site.ru
[Sat Nov 03 18:40:23.824915 2018] [:error] [pid 84057] [client 2001:41d0:a:6dde:::51578] [client 2001:41d0:a:6dde::] ModSecurity: Rule processing failed (id=22005, msg=). [hostname "xintana.com"] [uri "/_.php"] [unique_id "W93rl2rXXBTX8kIuvktc9QAAAA4"], referer: http://site.ru
[Sat Nov 03 18:40:23.824927 2018] [:error] [pid 84057] [client 2001:41d0:a:6dde:::51578] [client 2001:41d0:a:6dde::] ModSecurity: IPmatch: bad IPv6 specification "2001:41d0:a:6dde". [hostname "xintana.com"] [uri "/_.php"] [unique_id "W93rl2rXXBTX8kIuvktc9QAAAA4"], referer: http://site.ru
[Sat Nov 03 18:40:23.824946 2018] [:error] [pid 84057] [client 2001:41d0:a:6dde:::51578] [client 2001:41d0:a:6dde::] ModSecurity: Rule processing failed (id=22006, msg=). [hostname "xintana.com"] [uri "/_.php"] [unique_id "W93rl2rXXBTX8kIuvktc9QAAAA4"], referer: http://site.ru
[Sat Nov 03 18:40:25.599067 2018] [:error] [pid 80799] [client 2001:41d0:a:6dde:::51712] [client 2001:41d0:a:6dde::] ModSecurity: IPmatch: bad IPv6 specification "2001:41d0:a:6dde". [hostname "xintana.com"] [uri "/_.php"] [unique_id "W93rmUcxf0E3p8dlTA9-VwAAAAA"], referer: http://site.ru
[Sat Nov 03 18:40:25.599096 2018] [:error] [pid 80799] [client 2001:41d0:a:6dde:::51712] [client 2001:41d0:a:6dde::] ModSecurity: Rule processing failed (id=21001, msg=). [hostname "xintana.com"] [uri "/_.php"] [unique_id "W93rmUcxf0E3p8dlTA9-VwAAAAA"], referer: http://site.ru
[Sat Nov 03 18:40:25.599113 2018] [:error] [pid 80799] [client 2001:41d0:a:6dde:::51712] [client 2001:41d0:a:6dde::] ModSecurity: IPmatch: bad IPv6 specification "2001:41d0:a:6dde". [hostname "xintana.com"] [uri "/_.php"] [unique_id "W93rmUcxf0E3p8dlTA9-VwAAAAA"], referer: http://site.ru
[Sat Nov 03 18:40:25.599127 2018] [:error] [pid 80799] [client 2001:41d0:a:6dde:::51712] [client 2001:41d0:a:6dde::] ModSecurity: Rule processing failed (id=22001, msg=). [hostname "xintana.com"] [uri "/_.php"] [unique_id "W93rmUcxf0E3p8dlTA9-VwAAAAA"], referer: http://site.ru
[Sat Nov 03 18:40:25.599140 2018] [:error] [pid 80799] [client 2001:41d0:a:6dde:::51712] [client 2001:41d0:a:6dde::] ModSecurity: IPmatch: bad IPv6 specification "2001:41d0:a:6dde". [hostname "xintana.com"] [uri "/_.php"] [unique_id "W93rmUcxf0E3p8dlTA9-VwAAAAA"], referer: http://site.ru
[Sat Nov 03 18:40:25.599153 2018] [:error] [pid 80799] [client 2001:41d0:a:6dde:::51712] [client 2001:41d0:a:6dde::] ModSecurity: Rule processing failed (id=22002, msg=). [hostname "xintana.com"] [uri "/_.php"] [unique_id "W93rmUcxf0E3p8dlTA9-VwAAAAA"], referer: http://site.ru
[Sat Nov 03 18:40:25.599166 2018] [:error] [pid 80799] [client 2001:41d0:a:6dde:::51712] [client 2001:41d0:a:6dde::] ModSecurity: IPmatch: bad IPv6 specification "2001:41d0:a:6dde". [hostname "xintana.com"] [uri "/_.php"] [unique_id "W93rmUcxf0E3p8dlTA9-VwAAAAA"], referer: http://site.ru
[Sat Nov 03 18:40:25.599178 2018] [:error] [pid 80799] [client 2001:41d0:a:6dde:::51712] [client 2001:41d0:a:6dde::] ModSecurity: Rule processing failed (id=22003, msg=). [hostname "xintana.com"] [uri "/_.php"] [unique_id "W93rmUcxf0E3p8dlTA9-VwAAAAA"], referer: http://site.ru
[Sat Nov 03 18:40:25.599191 2018] [:error] [pid 80799] [client 2001:41d0:a:6dde:::51712] [client 2001:41d0:a:6dde::] ModSecurity: IPmatch: bad IPv6 specification "2001:41d0:a:6dde". [hostname "xintana.com"] [uri "/_.php"] [unique_id "W93rmUcxf0E3p8dlTA9-VwAAAAA"], referer: http://site.ru
[Sat Nov 03 18:40:25.599203 2018] [:error] [pid 80799] [client 2001:41d0:a:6dde:::51712] [client 2001:41d0:a:6dde::] ModSecurity: Rule processing failed (id=22004, msg=). [hostname "xintana.com"] [uri "/_.php"] [unique_id "W93rmUcxf0E3p8dlTA9-VwAAAAA"], referer: http://site.ru
[Sat Nov 03 18:40:25.599217 2018] [:error] [pid 80799] [client 2001:41d0:a:6dde:::51712] [client 2001:41d0:a:6dde::] ModSecurity: IPmatch: bad IPv6 specification "2001:41d0:a:6dde". [hostname "xintana.com"] [uri "/_.php"] [unique_id "W93rmUcxf0E3p8dlTA9-VwAAAAA"], referer: http://site.ru
[Sat Nov 03 18:40:25.599233 2018] [:error] [pid 80799] [client 2001:41d0:a:6dde:::51712] [client 2001:41d0:a:6dde::] ModSecurity: Rule processing failed (id=22005, msg=). [hostname "xintana.com"] [uri "/_.php"] [unique_id "W93rmUcxf0E3p8dlTA9-VwAAAAA"], referer: http://site.ru
[Sat Nov 03 18:40:25.599247 2018] [:error] [pid 80799] [client 2001:41d0:a:6dde:::51712] [client 2001:41d0:a:6dde::] ModSecurity: IPmatch: bad IPv6 specification "2001:41d0:a:6dde". [hostname "xintana.com"] [uri "/_.php"] [unique_id "W93rmUcxf0E3p8dlTA9-VwAAAAA"], referer: http://site.ru
[Sat Nov 03 18:40:25.599258 2018] [:error] [pid 80799] [client 2001:41d0:a:6dde:::51712] [client 2001:41d0:a:6dde::] ModSecurity: Rule processing failed (id=22006, msg=). [hostname "xintana.com"] [uri "/_.php"] [unique_id "W93rmUcxf0E3p8dlTA9-VwAAAAA"], referer: http://site.ru
