2018/11/02 05:52:43 [warn] 86986#0: *81080305 a client request body is buffered to a temporary file /var/cache/nginx/client_temp/0000128912, client: 185.136.163.112, server: www.xintana.com, request: "POST /xmlrpc.php HTTP/1.1", host: "xintana.com"
2018/11/02 05:52:49 [warn] 86986#0: *81080305 a client request body is buffered to a temporary file /var/cache/nginx/client_temp/0000128914, client: 185.136.163.112, server: www.xintana.com, request: "POST /xmlrpc.php HTTP/1.1", host: "xintana.com"
2018/11/02 19:43:04 [warn] 86986#0: *83082309 a client request body is buffered to a temporary file /var/cache/nginx/client_temp/0000132758, client: 45.32.79.177, server: www.xintana.com, request: "POST /xmlrpc.php HTTP/1.1", host: "xintanalegends.com"
2018/11/02 19:43:05 [warn] 86986#0: *83082309 a client request body is buffered to a temporary file /var/cache/nginx/client_temp/0000132759, client: 45.32.79.177, server: www.xintana.com, request: "POST /xmlrpc.php HTTP/1.1", host: "xintanalegends.com"
2018/11/02 19:43:06 [warn] 86986#0: *83082309 a client request body is buffered to a temporary file /var/cache/nginx/client_temp/0000132760, client: 45.32.79.177, server: www.xintana.com, request: "POST /xmlrpc.php HTTP/1.1", host: "xintanalegends.com"
2018/11/02 19:43:07 [warn] 86986#0: *83082309 a client request body is buffered to a temporary file /var/cache/nginx/client_temp/0000132761, client: 45.32.79.177, server: www.xintana.com, request: "POST /xmlrpc.php HTTP/1.1", host: "xintanalegends.com"
2018/11/02 19:43:08 [warn] 86986#0: *83082309 a client request body is buffered to a temporary file /var/cache/nginx/client_temp/0000132762, client: 45.32.79.177, server: www.xintana.com, request: "POST /xmlrpc.php HTTP/1.1", host: "xintanalegends.com"
2018/11/02 19:43:09 [warn] 86986#0: *83082309 a client request body is buffered to a temporary file /var/cache/nginx/client_temp/0000132763, client: 45.32.79.177, server: www.xintana.com, request: "POST /xmlrpc.php HTTP/1.1", host: "xintanalegends.com"
2018/11/02 19:43:10 [warn] 86986#0: *83082309 a client request body is buffered to a temporary file /var/cache/nginx/client_temp/0000132764, client: 45.32.79.177, server: www.xintana.com, request: "POST /xmlrpc.php HTTP/1.1", host: "xintanalegends.com"
2018/11/02 22:04:15 [warn] 86985#0: *83413093 a client request body is buffered to a temporary file /var/cache/nginx/client_temp/0000133322, client: 54.39.185.73, server: www.xintana.com, request: "POST /wp-admin/admin-ajax.php HTTP/1.1", host: "xintanalegends.com"
2018/11/02 22:04:17 [warn] 86986#0: *83413225 a client request body is buffered to a temporary file /var/cache/nginx/client_temp/0000133323, client: 54.39.185.73, server: www.xintana.com, request: "POST /wp-content/plugins/wp-symposium/server/php/index.php HTTP/1.1", host: "xintanalegends.com"
2018/11/02 22:25:37 [warn] 86986#0: *83454453 a client request body is buffered to a temporary file /var/cache/nginx/client_temp/0000133368, client: 45.32.79.177, server: www.xintana.com, request: "POST /wp-admin/admin-ajax.php HTTP/1.1", host: "xintanalegends.com"
2018/11/02 22:25:40 [warn] 86986#0: *83454578 a client request body is buffered to a temporary file /var/cache/nginx/client_temp/0000133369, client: 45.32.79.177, server: www.xintana.com, request: "POST /wp-content/plugins/wp-symposium/server/php/index.php HTTP/1.1", host: "xintanalegends.com"
