2018/11/02 07:49:07 [warn] 86985#0: *81302189 a client request body is buffered to a temporary file /var/cache/nginx/client_temp/0000129418, client: 159.69.37.186, server: www.radicalgraphics.nl, request: "POST /xmlrpc.php HTTP/1.1", host: "www.radicalgraphics.nl"
2018/11/02 08:53:58 [warn] 86985#0: *81446926 a client request body is buffered to a temporary file /var/cache/nginx/client_temp/0000129900, client: 159.69.37.186, server: www.radicalgraphics.nl, request: "POST /xmlrpc.php HTTP/1.1", host: "www.radicalgraphics.nl"
2018/11/03 00:10:14 [warn] 86985#0: *83634358 a client request body is buffered to a temporary file /var/cache/nginx/client_temp/0000133465, client: 221.229.204.71, server: www.radicalgraphics.nl, request: "POST //user/swfupload.asp HTTP/1.1", host: "www.radicalgraphics.nl", referrer: "http://www.radicalgraphics.nl//user/user_upfile.asp?channelid=2&Type=Pic"
2018/11/03 00:10:18 [warn] 86985#0: *83634358 a client request body is buffered to a temporary file /var/cache/nginx/client_temp/0000133466, client: 221.229.204.71, server: www.radicalgraphics.nl, request: "POST //user/swfupload.asp HTTP/1.1", host: "www.radicalgraphics.nl", referrer: "http://www.radicalgraphics.nl//user/user_upfile.asp?channelid=2&Type=Pic"
