[Fri Nov 02 06:19:31.329511 2018] [autoindex:error] [pid 81077] [client 37.1.204.92:43984] AH01276: Cannot serve directory /home/radicalg/webapps/royalgeekness/wp-content/uploads/: No matching DirectoryIndex (index.html,index.htm,index.cgi,index.py,index.php,index.spy,nph-index.cgi,index.shtml) found, and server-generated directory index forbidden by Options directive, referer: http://royalgeekness.com/wp-content/uploads/
[Fri Nov 02 06:19:31.350606 2018] [autoindex:error] [pid 83345] [client 37.1.204.92:43988] AH01276: Cannot serve directory /home/radicalg/webapps/royalgeekness/wp-content/uploads/: No matching DirectoryIndex (index.html,index.htm,index.cgi,index.py,index.php,index.spy,nph-index.cgi,index.shtml) found, and server-generated directory index forbidden by Options directive, referer: http://royalgeekness.com/wp-content/uploads/
[Fri Nov 02 06:19:31.371703 2018] [autoindex:error] [pid 74069] [client 37.1.204.92:43990] AH01276: Cannot serve directory /home/radicalg/webapps/royalgeekness/wp-content/uploads/: No matching DirectoryIndex (index.html,index.htm,index.cgi,index.py,index.php,index.spy,nph-index.cgi,index.shtml) found, and server-generated directory index forbidden by Options directive, referer: http://royalgeekness.com/wp-content/uploads/
[Fri Nov 02 06:19:31.393215 2018] [autoindex:error] [pid 83137] [client 37.1.204.92:43992] AH01276: Cannot serve directory /home/radicalg/webapps/royalgeekness/wp-content/uploads/: No matching DirectoryIndex (index.html,index.htm,index.cgi,index.py,index.php,index.spy,nph-index.cgi,index.shtml) found, and server-generated directory index forbidden by Options directive, referer: http://royalgeekness.com/wp-content/uploads/
[Fri Nov 02 06:19:31.413052 2018] [autoindex:error] [pid 72014] [client 37.1.204.92:43998] AH01276: Cannot serve directory /home/radicalg/webapps/royalgeekness/wp-content/uploads/: No matching DirectoryIndex (index.html,index.htm,index.cgi,index.py,index.php,index.spy,nph-index.cgi,index.shtml) found, and server-generated directory index forbidden by Options directive, referer: http://royalgeekness.com/wp-content/uploads/
[Fri Nov 02 06:19:31.433961 2018] [autoindex:error] [pid 81077] [client 37.1.204.92:44000] AH01276: Cannot serve directory /home/radicalg/webapps/royalgeekness/wp-content/uploads/: No matching DirectoryIndex (index.html,index.htm,index.cgi,index.py,index.php,index.spy,nph-index.cgi,index.shtml) found, and server-generated directory index forbidden by Options directive, referer: http://royalgeekness.com/wp-content/uploads/
[Fri Nov 02 06:19:31.454867 2018] [autoindex:error] [pid 83345] [client 37.1.204.92:44002] AH01276: Cannot serve directory /home/radicalg/webapps/royalgeekness/wp-content/uploads/: No matching DirectoryIndex (index.html,index.htm,index.cgi,index.py,index.php,index.spy,nph-index.cgi,index.shtml) found, and server-generated directory index forbidden by Options directive, referer: http://royalgeekness.com/wp-content/uploads/
[Fri Nov 02 06:19:31.517358 2018] [autoindex:error] [pid 77645] [client 37.1.204.92:44006] AH01276: Cannot serve directory /home/radicalg/webapps/royalgeekness/wp-content/uploads/: No matching DirectoryIndex (index.html,index.htm,index.cgi,index.py,index.php,index.spy,nph-index.cgi,index.shtml) found, and server-generated directory index forbidden by Options directive, referer: http://royalgeekness.com/wp-content/uploads/
[Fri Nov 02 06:19:31.584633 2018] [autoindex:error] [pid 74069] [client 37.1.204.92:44008] AH01276: Cannot serve directory /home/radicalg/webapps/royalgeekness/wp-content/uploads/: No matching DirectoryIndex (index.html,index.htm,index.cgi,index.py,index.php,index.spy,nph-index.cgi,index.shtml) found, and server-generated directory index forbidden by Options directive, referer: http://royalgeekness.com/wp-content/uploads/
[Fri Nov 02 06:19:31.608857 2018] [autoindex:error] [pid 83137] [client 37.1.204.92:44010] AH01276: Cannot serve directory /home/radicalg/webapps/royalgeekness/wp-content/uploads/: No matching DirectoryIndex (index.html,index.htm,index.cgi,index.py,index.php,index.spy,nph-index.cgi,index.shtml) found, and server-generated directory index forbidden by Options directive, referer: http://royalgeekness.com/wp-content/uploads/
[Fri Nov 02 18:10:59.780023 2018] [:error] [pid 11081] [client 2001:41d0:a:2dd3:::57438] [client 2001:41d0:a:2dd3::] ModSecurity: IPmatch: bad IPv6 specification "2001:41d0:a:2dd3". [hostname "royalgeekness.com"] [uri "/login.php"] [unique_id "W9yTM@W@heYVy3prVa0TngAAAAc"], referer: royalgeekness.com
[Fri Nov 02 18:10:59.780262 2018] [:error] [pid 11081] [client 2001:41d0:a:2dd3:::57438] [client 2001:41d0:a:2dd3::] ModSecurity: Rule processing failed (id=21001, msg=). [hostname "royalgeekness.com"] [uri "/login.php"] [unique_id "W9yTM@W@heYVy3prVa0TngAAAAc"], referer: royalgeekness.com
[Fri Nov 02 18:10:59.780276 2018] [:error] [pid 11081] [client 2001:41d0:a:2dd3:::57438] [client 2001:41d0:a:2dd3::] ModSecurity: IPmatch: bad IPv6 specification "2001:41d0:a:2dd3". [hostname "royalgeekness.com"] [uri "/login.php"] [unique_id "W9yTM@W@heYVy3prVa0TngAAAAc"], referer: royalgeekness.com
[Fri Nov 02 18:10:59.780287 2018] [:error] [pid 11081] [client 2001:41d0:a:2dd3:::57438] [client 2001:41d0:a:2dd3::] ModSecurity: Rule processing failed (id=22001, msg=). [hostname "royalgeekness.com"] [uri "/login.php"] [unique_id "W9yTM@W@heYVy3prVa0TngAAAAc"], referer: royalgeekness.com
[Fri Nov 02 18:10:59.780298 2018] [:error] [pid 11081] [client 2001:41d0:a:2dd3:::57438] [client 2001:41d0:a:2dd3::] ModSecurity: IPmatch: bad IPv6 specification "2001:41d0:a:2dd3". [hostname "royalgeekness.com"] [uri "/login.php"] [unique_id "W9yTM@W@heYVy3prVa0TngAAAAc"], referer: royalgeekness.com
[Fri Nov 02 18:10:59.780308 2018] [:error] [pid 11081] [client 2001:41d0:a:2dd3:::57438] [client 2001:41d0:a:2dd3::] ModSecurity: Rule processing failed (id=22002, msg=). [hostname "royalgeekness.com"] [uri "/login.php"] [unique_id "W9yTM@W@heYVy3prVa0TngAAAAc"], referer: royalgeekness.com
[Fri Nov 02 18:10:59.780321 2018] [:error] [pid 11081] [client 2001:41d0:a:2dd3:::57438] [client 2001:41d0:a:2dd3::] ModSecurity: IPmatch: bad IPv6 specification "2001:41d0:a:2dd3". [hostname "royalgeekness.com"] [uri "/login.php"] [unique_id "W9yTM@W@heYVy3prVa0TngAAAAc"], referer: royalgeekness.com
[Fri Nov 02 18:10:59.780331 2018] [:error] [pid 11081] [client 2001:41d0:a:2dd3:::57438] [client 2001:41d0:a:2dd3::] ModSecurity: Rule processing failed (id=22003, msg=). [hostname "royalgeekness.com"] [uri "/login.php"] [unique_id "W9yTM@W@heYVy3prVa0TngAAAAc"], referer: royalgeekness.com
[Fri Nov 02 18:10:59.780366 2018] [:error] [pid 11081] [client 2001:41d0:a:2dd3:::57438] [client 2001:41d0:a:2dd3::] ModSecurity: IPmatch: bad IPv6 specification "2001:41d0:a:2dd3". [hostname "royalgeekness.com"] [uri "/login.php"] [unique_id "W9yTM@W@heYVy3prVa0TngAAAAc"], referer: royalgeekness.com
[Fri Nov 02 18:10:59.780378 2018] [:error] [pid 11081] [client 2001:41d0:a:2dd3:::57438] [client 2001:41d0:a:2dd3::] ModSecurity: Rule processing failed (id=22004, msg=). [hostname "royalgeekness.com"] [uri "/login.php"] [unique_id "W9yTM@W@heYVy3prVa0TngAAAAc"], referer: royalgeekness.com
[Fri Nov 02 18:10:59.780390 2018] [:error] [pid 11081] [client 2001:41d0:a:2dd3:::57438] [client 2001:41d0:a:2dd3::] ModSecurity: IPmatch: bad IPv6 specification "2001:41d0:a:2dd3". [hostname "royalgeekness.com"] [uri "/login.php"] [unique_id "W9yTM@W@heYVy3prVa0TngAAAAc"], referer: royalgeekness.com
[Fri Nov 02 18:10:59.780400 2018] [:error] [pid 11081] [client 2001:41d0:a:2dd3:::57438] [client 2001:41d0:a:2dd3::] ModSecurity: Rule processing failed (id=22005, msg=). [hostname "royalgeekness.com"] [uri "/login.php"] [unique_id "W9yTM@W@heYVy3prVa0TngAAAAc"], referer: royalgeekness.com
[Fri Nov 02 18:10:59.780411 2018] [:error] [pid 11081] [client 2001:41d0:a:2dd3:::57438] [client 2001:41d0:a:2dd3::] ModSecurity: IPmatch: bad IPv6 specification "2001:41d0:a:2dd3". [hostname "royalgeekness.com"] [uri "/login.php"] [unique_id "W9yTM@W@heYVy3prVa0TngAAAAc"], referer: royalgeekness.com
[Fri Nov 02 18:10:59.780421 2018] [:error] [pid 11081] [client 2001:41d0:a:2dd3:::57438] [client 2001:41d0:a:2dd3::] ModSecurity: Rule processing failed (id=22006, msg=). [hostname "royalgeekness.com"] [uri "/login.php"] [unique_id "W9yTM@W@heYVy3prVa0TngAAAAc"], referer: royalgeekness.com
[Fri Nov 02 18:14:29.818898 2018] [:error] [pid 23781] [client 2001:41d0:a:2dd3:::46320] [client 2001:41d0:a:2dd3::] ModSecurity: IPmatch: bad IPv6 specification "2001:41d0:a:2dd3". [hostname "royalgeekness.com"] [uri "/wp-content/wp-object-cache.php"] [unique_id "W9yUBfnGgaDbS1ORrBmzewAAAAc"], referer: royalgeekness.com
[Fri Nov 02 18:14:29.818922 2018] [:error] [pid 23781] [client 2001:41d0:a:2dd3:::46320] [client 2001:41d0:a:2dd3::] ModSecurity: Rule processing failed (id=21001, msg=). [hostname "royalgeekness.com"] [uri "/wp-content/wp-object-cache.php"] [unique_id "W9yUBfnGgaDbS1ORrBmzewAAAAc"], referer: royalgeekness.com
[Fri Nov 02 18:14:29.818935 2018] [:error] [pid 23781] [client 2001:41d0:a:2dd3:::46320] [client 2001:41d0:a:2dd3::] ModSecurity: IPmatch: bad IPv6 specification "2001:41d0:a:2dd3". [hostname "royalgeekness.com"] [uri "/wp-content/wp-object-cache.php"] [unique_id "W9yUBfnGgaDbS1ORrBmzewAAAAc"], referer: royalgeekness.com
[Fri Nov 02 18:14:29.818945 2018] [:error] [pid 23781] [client 2001:41d0:a:2dd3:::46320] [client 2001:41d0:a:2dd3::] ModSecurity: Rule processing failed (id=22001, msg=). [hostname "royalgeekness.com"] [uri "/wp-content/wp-object-cache.php"] [unique_id "W9yUBfnGgaDbS1ORrBmzewAAAAc"], referer: royalgeekness.com
[Fri Nov 02 18:14:29.818955 2018] [:error] [pid 23781] [client 2001:41d0:a:2dd3:::46320] [client 2001:41d0:a:2dd3::] ModSecurity: IPmatch: bad IPv6 specification "2001:41d0:a:2dd3". [hostname "royalgeekness.com"] [uri "/wp-content/wp-object-cache.php"] [unique_id "W9yUBfnGgaDbS1ORrBmzewAAAAc"], referer: royalgeekness.com
[Fri Nov 02 18:14:29.818977 2018] [:error] [pid 23781] [client 2001:41d0:a:2dd3:::46320] [client 2001:41d0:a:2dd3::] ModSecurity: Rule processing failed (id=22002, msg=). [hostname "royalgeekness.com"] [uri "/wp-content/wp-object-cache.php"] [unique_id "W9yUBfnGgaDbS1ORrBmzewAAAAc"], referer: royalgeekness.com
[Fri Nov 02 18:14:29.818988 2018] [:error] [pid 23781] [client 2001:41d0:a:2dd3:::46320] [client 2001:41d0:a:2dd3::] ModSecurity: IPmatch: bad IPv6 specification "2001:41d0:a:2dd3". [hostname "royalgeekness.com"] [uri "/wp-content/wp-object-cache.php"] [unique_id "W9yUBfnGgaDbS1ORrBmzewAAAAc"], referer: royalgeekness.com
[Fri Nov 02 18:14:29.818998 2018] [:error] [pid 23781] [client 2001:41d0:a:2dd3:::46320] [client 2001:41d0:a:2dd3::] ModSecurity: Rule processing failed (id=22003, msg=). [hostname "royalgeekness.com"] [uri "/wp-content/wp-object-cache.php"] [unique_id "W9yUBfnGgaDbS1ORrBmzewAAAAc"], referer: royalgeekness.com
[Fri Nov 02 18:14:29.819011 2018] [:error] [pid 23781] [client 2001:41d0:a:2dd3:::46320] [client 2001:41d0:a:2dd3::] ModSecurity: IPmatch: bad IPv6 specification "2001:41d0:a:2dd3". [hostname "royalgeekness.com"] [uri "/wp-content/wp-object-cache.php"] [unique_id "W9yUBfnGgaDbS1ORrBmzewAAAAc"], referer: royalgeekness.com
[Fri Nov 02 18:14:29.819020 2018] [:error] [pid 23781] [client 2001:41d0:a:2dd3:::46320] [client 2001:41d0:a:2dd3::] ModSecurity: Rule processing failed (id=22004, msg=). [hostname "royalgeekness.com"] [uri "/wp-content/wp-object-cache.php"] [unique_id "W9yUBfnGgaDbS1ORrBmzewAAAAc"], referer: royalgeekness.com
[Fri Nov 02 18:14:29.819030 2018] [:error] [pid 23781] [client 2001:41d0:a:2dd3:::46320] [client 2001:41d0:a:2dd3::] ModSecurity: IPmatch: bad IPv6 specification "2001:41d0:a:2dd3". [hostname "royalgeekness.com"] [uri "/wp-content/wp-object-cache.php"] [unique_id "W9yUBfnGgaDbS1ORrBmzewAAAAc"], referer: royalgeekness.com
[Fri Nov 02 18:14:29.819041 2018] [:error] [pid 23781] [client 2001:41d0:a:2dd3:::46320] [client 2001:41d0:a:2dd3::] ModSecurity: Rule processing failed (id=22005, msg=). [hostname "royalgeekness.com"] [uri "/wp-content/wp-object-cache.php"] [unique_id "W9yUBfnGgaDbS1ORrBmzewAAAAc"], referer: royalgeekness.com
[Fri Nov 02 18:14:29.819050 2018] [:error] [pid 23781] [client 2001:41d0:a:2dd3:::46320] [client 2001:41d0:a:2dd3::] ModSecurity: IPmatch: bad IPv6 specification "2001:41d0:a:2dd3". [hostname "royalgeekness.com"] [uri "/wp-content/wp-object-cache.php"] [unique_id "W9yUBfnGgaDbS1ORrBmzewAAAAc"], referer: royalgeekness.com
[Fri Nov 02 18:14:29.819064 2018] [:error] [pid 23781] [client 2001:41d0:a:2dd3:::46320] [client 2001:41d0:a:2dd3::] ModSecurity: Rule processing failed (id=22006, msg=). [hostname "royalgeekness.com"] [uri "/wp-content/wp-object-cache.php"] [unique_id "W9yUBfnGgaDbS1ORrBmzewAAAAc"], referer: royalgeekness.com
