54.39.185.73 - - [02/Nov/2018:02:43:59 +0000] "GET /robots.txt HTTP/1.0" 404 208 "-" "Mozilla/5.0 (Windows NT 10.0; WOW64) AppleWebKit/537.36 (KHTML, like Gecko) Chrome/49.0.2623.75 Safari/537.36 OPR/36.0.2130.32"
54.39.185.73 - - [02/Nov/2018:02:43:59 +0000] "GET / HTTP/1.0" 404 198 "-" "Mozilla/5.0 (Windows NT 10.0; WOW64) AppleWebKit/537.36 (KHTML, like Gecko) Chrome/49.0.2623.75 Safari/537.36 OPR/36.0.2130.32"
54.39.185.73 - - [02/Nov/2018:02:43:59 +0000] "GET /xmlrpc.php?rsd HTTP/1.0" 404 208 "-" "Mozilla/5.0 (Windows NT 10.0; WOW64) AppleWebKit/537.36 (KHTML, like Gecko) Chrome/49.0.2623.75 Safari/537.36 OPR/36.0.2130.32"
54.39.185.73 - - [02/Nov/2018:02:43:59 +0000] "GET /blog/robots.txt HTTP/1.0" 404 213 "-" "Mozilla/5.0 (Windows NT 10.0; WOW64) AppleWebKit/537.36 (KHTML, like Gecko) Chrome/49.0.2623.75 Safari/537.36 OPR/36.0.2130.32"
54.39.185.73 - - [02/Nov/2018:02:43:59 +0000] "GET /blog/ HTTP/1.0" 404 203 "-" "Mozilla/5.0 (Windows NT 10.0; WOW64) AppleWebKit/537.36 (KHTML, like Gecko) Chrome/49.0.2623.75 Safari/537.36 OPR/36.0.2130.32"
54.39.185.73 - - [02/Nov/2018:02:44:00 +0000] "GET /wordpress/ HTTP/1.0" 404 208 "-" "Mozilla/5.0 (Windows NT 10.0; WOW64) AppleWebKit/537.36 (KHTML, like Gecko) Chrome/49.0.2623.75 Safari/537.36 OPR/36.0.2130.32"
54.39.185.73 - - [02/Nov/2018:02:44:00 +0000] "GET /wp/ HTTP/1.0" 404 201 "-" "Mozilla/5.0 (Windows NT 10.0; WOW64) AppleWebKit/537.36 (KHTML, like Gecko) Chrome/49.0.2623.75 Safari/537.36 OPR/36.0.2130.32"
