91.146.121.3 - - [31/Oct/2018:03:37:53 +0000] "GET / HTTP/1.0" 200 114689 "-" "Mozilla/5.0 (Windows NT 6.1; WOW64) AppleWebKit/537.36 (KHTML, like Gecko) Chrome/51.0.2704.63 Safari/537.36"
185.222.202.104 - - [31/Oct/2018:03:49:40 +0000] "GET / HTTP/1.0" 200 114689 "-" "Mozilla/5.0 (Windows NT 6.1; WOW64) AppleWebKit/537.36 (KHTML, like Gecko) Chrome/56.0.2924.87 Safari/537.36 OPR/43.0.2442.991"
54.36.148.247 - - [31/Oct/2018:03:57:32 +0000] "GET /lekker-figuur/feed/ HTTP/1.0" 404 2223 "-" "Mozilla/5.0 (compatible; AhrefsBot/5.2; +http://ahrefs.com/robot/)"
89.248.169.130 - - [31/Oct/2018:04:07:39 +0000] "POST /xmlrpc.php HTTP/1.0" 404 2197 "-" "Mozilla/5.0 (Macintosh; U; Intel Mac OS X 10.6; fr; rv:1.9.2.8) Gecko/20100722 Firefox/3.6.8"
89.248.169.130 - - [31/Oct/2018:04:07:39 +0000] "POST /xmlrpc.php HTTP/1.0" 404 2197 "-" "Mozilla/5.0 (Macintosh; U; Intel Mac OS X 10.6; fr; rv:1.9.2.8) Gecko/20100722 Firefox/3.6.8"
89.248.169.130 - - [31/Oct/2018:04:07:39 +0000] "POST /xmlrpc.php HTTP/1.0" 404 2197 "-" "Mozilla/5.0 (Macintosh; U; Intel Mac OS X 10.6; fr; rv:1.9.2.8) Gecko/20100722 Firefox/3.6.8"
89.248.169.130 - - [31/Oct/2018:04:07:39 +0000] "POST /xmlrpc.php HTTP/1.0" 404 2197 "-" "Mozilla/5.0 (Macintosh; U; Intel Mac OS X 10.6; fr; rv:1.9.2.8) Gecko/20100722 Firefox/3.6.8"
95.108.213.49 - - [31/Oct/2018:04:22:46 +0000] "GET /robots.txt HTTP/1.0" 404 2196 "-" "Mozilla/5.0 (compatible; YandexBot/3.0; +http://yandex.com/bots)"
141.8.142.11 - - [31/Oct/2018:04:22:50 +0000] "GET /wp-content/uploads/2015/09/img_8183-e1442486195930-1024x521.jpg HTTP/1.0" 404 2355 "-" "Mozilla/5.0 (compatible; YandexImages/3.0; +http://yandex.com/bots)"
97.74.228.245 - - [31/Oct/2018:04:28:16 +0000] "POST /xmlrpc.php HTTP/1.0" 404 2197 "-" "Mozilla/5.0 (Macintosh; U; Intel Mac OS X 10.6; fr; rv:1.9.2.8) Gecko/20100722 Firefox/3.6.8"
123.57.254.142 - - [31/Oct/2018:05:13:09 +0000] "POST /xmlrpc.php HTTP/1.0" 404 2197 "-" "Mozilla/5.0 (Macintosh; U; Intel Mac OS X 10.6; fr; rv:1.9.2.8) Gecko/20100722 Firefox/3.6.8"
123.57.254.142 - - [31/Oct/2018:05:13:09 +0000] "POST /xmlrpc.php HTTP/1.0" 404 2197 "-" "Mozilla/5.0 (Macintosh; U; Intel Mac OS X 10.6; fr; rv:1.9.2.8) Gecko/20100722 Firefox/3.6.8"
66.70.174.17 - - [31/Oct/2018:06:19:59 +0000] "GET / HTTP/1.0" 200 114689 "-" "Mozilla/5.0 (Macintosh; Intel Mac OS X 10_12_6) AppleWebKit/603.3.8 (KHTML, like Gecko) Version/10.1.2 Safari/603.3.8"
97.74.228.245 - - [31/Oct/2018:06:41:19 +0000] "POST /xmlrpc.php HTTP/1.0" 404 2197 "-" "Mozilla/5.0 (Macintosh; U; Intel Mac OS X 10.6; fr; rv:1.9.2.8) Gecko/20100722 Firefox/3.6.8"
2002:d15a:e152::d15a:e152 - - [31/Oct/2018:06:48:24 +0000] "GET /modules/productpageadverts/uploadimage.php HTTP/1.0" 404 2292 "http://radicalbit.com/modules/productpageadverts/uploadimage.php" "Mozilla/5.0 (Windows NT 6.1; WOW64) AppleWebKit/537.36 (KHTML, like Gecko) Chrome/42.0.2311.152 Safari/537.36"
185.193.125.190 - - [31/Oct/2018:06:58:23 +0000] "GET / HTTP/1.0" 200 114689 "-" "Mozilla/5.0 (Windows NT 6.2; Win64; x64) AppleWebKit/537.36 (KHTML, like Gecko) Chrome/51.0.2704.79 Safari/537.36 Edge/14.14393"
185.56.80.242 - - [31/Oct/2018:07:36:21 +0000] "GET / HTTP/1.0" 200 114689 "-" "Mozilla/5.0 (Windows NT 6.1; Win64; x64) AppleWebKit/537.36 (KHTML, like Gecko) Chrome/60.0.3112.113 Safari/537.36"
164.132.51.91 - - [31/Oct/2018:08:32:05 +0000] "GET / HTTP/1.0" 200 114689 "-" "Mozilla/5.0 (Windows NT 6.1; WOW64) AppleWebKit/537.36 (KHTML, like Gecko) Chrome/51.0.2704.63 Safari/537.36"
164.132.51.91 - - [31/Oct/2018:08:32:07 +0000] "GET / HTTP/1.0" 200 114689 "-" "Mozilla/5.0 (Windows NT 6.1; WOW64) AppleWebKit/537.36 (KHTML, like Gecko) Chrome/51.0.2704.63 Safari/537.36"
97.74.228.245 - - [31/Oct/2018:08:58:28 +0000] "POST /xmlrpc.php HTTP/1.0" 404 2197 "-" "Mozilla/5.0 (Macintosh; U; Intel Mac OS X 10.6; fr; rv:1.9.2.8) Gecko/20100722 Firefox/3.6.8"
193.171.202.150 - - [31/Oct/2018:09:14:24 +0000] "GET / HTTP/1.0" 200 114689 "-" "Mozilla/5.0 (Windows NT 6.3; Win64; x64) AppleWebKit/537.36 (KHTML, like Gecko) Chrome/60.0.3112.113 Safari/537.36"
192.3.169.210 - - [31/Oct/2018:09:27:53 +0000] "GET / HTTP/1.0" 200 114689 "-" "Mozilla/5.0 (Windows NT 10.0; WOW64) AppleWebKit/537.36 (KHTML, like Gecko) Chrome/56.0.2924.87 Safari/537.36 OPR/43.0.2442.991"
192.160.102.166 - - [31/Oct/2018:09:28:41 +0000] "GET / HTTP/1.0" 200 114689 "-" "Mozilla/5.0 (compatible; MSIE 10.0; Windows NT 6.1; Trident/6.0)"
185.56.80.242 - - [31/Oct/2018:10:37:18 +0000] "GET / HTTP/1.0" 200 114689 "-" "Mozilla/5.0 (Windows NT 6.0; Win64; x64) AppleWebKit/537.36 (KHTML, like Gecko) Chrome/57.0.2987.133 Safari/537.36"
185.129.62.63 - - [31/Oct/2018:10:46:42 +0000] "GET / HTTP/1.0" 200 114689 "-" "Mozilla/5.0 (Windows NT 10.0; WOW64) AppleWebKit/537.36 (KHTML, like Gecko) Chrome/55.0.2883.87 Safari/537.36 OPR/42.0.2393.94"
176.126.252.11 - - [31/Oct/2018:10:59:30 +0000] "GET / HTTP/1.0" 200 114689 "-" "Mozilla/5.0 (Windows NT 10.0; WOW64) AppleWebKit/537.36 (KHTML, like Gecko) Chrome/52.0.2743.116 Safari/537.36"
97.74.228.245 - - [31/Oct/2018:11:16:42 +0000] "POST /xmlrpc.php HTTP/1.0" 404 2197 "-" "Mozilla/5.0 (Macintosh; U; Intel Mac OS X 10.6; fr; rv:1.9.2.8) Gecko/20100722 Firefox/3.6.8"
193.201.224.210 - - [31/Oct/2018:11:43:49 +0000] "GET /wp-content/themes/Ghost/includes/uploadify/upload_settings_image.php HTTP/1.0" 404 2370 "http://radicalbit.com/wp-content/themes/Ghost/includes/uploadify/upload_settings_image.php" "Mozilla/5.0 (Windows NT 6.1; WOW64) AppleWebKit/537.36 (KHTML, like Gecko) Chrome/42.0.2311.152 Safari/537.36"
110.83.60.116 - - [31/Oct/2018:11:47:34 +0000] "HEAD /wp-content/themes/twentysixteen/inc/template-tags.php HTTP/1.0" 404 - "-" "-"
62.210.116.201 - - [31/Oct/2018:12:02:18 +0000] "GET / HTTP/1.0" 200 114689 "-" "Mozilla/5.0 (compatible; MSIE 9.0; Windows NT 6.1; WOW64; Trident/5.0)"
89.248.169.130 - - [31/Oct/2018:12:28:58 +0000] "POST /xmlrpc.php HTTP/1.0" 404 2197 "-" "Mozilla/5.0 (Macintosh; U; Intel Mac OS X 10.6; fr; rv:1.9.2.8) Gecko/20100722 Firefox/3.6.8"
89.248.169.130 - - [31/Oct/2018:12:28:58 +0000] "POST /xmlrpc.php HTTP/1.0" 404 2197 "-" "Mozilla/5.0 (Macintosh; U; Intel Mac OS X 10.6; fr; rv:1.9.2.8) Gecko/20100722 Firefox/3.6.8"
89.248.169.130 - - [31/Oct/2018:12:28:59 +0000] "POST /xmlrpc.php HTTP/1.0" 404 2197 "-" "Mozilla/5.0 (Macintosh; U; Intel Mac OS X 10.6; fr; rv:1.9.2.8) Gecko/20100722 Firefox/3.6.8"
89.248.169.130 - - [31/Oct/2018:12:28:59 +0000] "POST /xmlrpc.php HTTP/1.0" 404 2197 "-" "Mozilla/5.0 (Macintosh; U; Intel Mac OS X 10.6; fr; rv:1.9.2.8) Gecko/20100722 Firefox/3.6.8"
158.174.122.218 - - [31/Oct/2018:13:04:50 +0000] "GET / HTTP/1.0" 200 114689 "-" "Mozilla/5.0 (Windows NT 6.3; Win64; x64) AppleWebKit/537.36 (KHTML, like Gecko) Chrome/46.0.2486.0 Safari/537.36 Edge/13.10586"
185.220.101.28 - - [31/Oct/2018:13:18:27 +0000] "GET / HTTP/1.0" 200 114689 "-" "Mozilla/5.0 (Windows NT 6.1; WOW64; rv:56.0) Gecko/20100101 Firefox/56.0"
141.255.162.36 - - [31/Oct/2018:13:29:39 +0000] "GET / HTTP/1.0" 200 114689 "-" "Mozilla/5.0 (Windows NT 6.2; Win64; x64) AppleWebKit/537.36 (KHTML, like Gecko) Chrome/57.0.2987.133 Safari/537.36"
199.249.230.67 - - [31/Oct/2018:13:37:14 +0000] "GET / HTTP/1.0" 200 114689 "-" "Mozilla/5.0 (Windows NT 10.0; Win64; x64) AppleWebKit/537.36 (KHTML, like Gecko) Chrome/58.0.3029.110 Safari/537.36"
97.74.228.245 - - [31/Oct/2018:13:54:04 +0000] "POST /xmlrpc.php HTTP/1.0" 404 2197 "-" "Mozilla/5.0 (Macintosh; U; Intel Mac OS X 10.6; fr; rv:1.9.2.8) Gecko/20100722 Firefox/3.6.8"
197.231.221.211 - - [31/Oct/2018:14:09:26 +0000] "GET / HTTP/1.0" 200 114689 "-" "Mozilla/5.0 (Windows NT 10.0; Win64; x64) AppleWebKit/537.36 (KHTML, like Gecko) Chrome/59.0.3071.115 Safari/537.36"
93.120.179.197 - - [31/Oct/2018:14:23:33 +0000] "GET / HTTP/1.0" 200 114689 "http://radicalbit.com/" "Mozilla/5.0 (Windows NT 6.1; Win64; x64) AppleWebKit/537.36 (KHTML, like Gecko) Chrome/67.0.3396.87 Safari/537.36 OPR/54.0.2952.51"
37.1.205.52 - - [31/Oct/2018:14:24:09 +0000] "GET / HTTP/1.0" 200 114689 "-" "Mozilla/4.0 (compatible; MSIE 6.0; Windows NT 5.1; SV1)"
46.165.230.5 - - [31/Oct/2018:14:47:25 +0000] "GET / HTTP/1.0" 200 114689 "-" "Mozilla/5.0 (Windows NT 10.0; Win64; x64) AppleWebKit/537.36 (KHTML, like Gecko) Chrome/54.0.2840.99 Safari/537.36"
141.8.142.11 - - [31/Oct/2018:15:17:51 +0000] "GET /robots.txt HTTP/1.0" 404 2196 "-" "Mozilla/5.0 (compatible; YandexBot/3.0; +http://yandex.com/bots)"
95.108.181.113 - - [31/Oct/2018:15:17:51 +0000] "GET /robots.txt HTTP/1.0" 404 2200 "-" "Mozilla/5.0 (compatible; YandexBot/3.0; +http://yandex.com/bots)"
178.154.244.15 - - [31/Oct/2018:15:17:55 +0000] "GET / HTTP/1.0" 200 114689 "-" "Mozilla/5.0 (compatible; YandexBot/3.0; +http://yandex.com/bots)"
95.108.181.61 - - [31/Oct/2018:15:18:00 +0000] "GET / HTTP/1.0" 200 114689 "-" "Mozilla/5.0 (compatible; YandexBot/3.0; +http://yandex.com/bots)"
89.234.157.254 - - [31/Oct/2018:15:26:34 +0000] "GET / HTTP/1.0" 200 114689 "-" "Mozilla/5.0 (Macintosh; Intel Mac OS X 10_12_6) AppleWebKit/537.36 (KHTML, like Gecko) Chrome/61.0.3163.100 Safari/537.36"
62.210.129.246 - - [31/Oct/2018:15:38:53 +0000] "GET / HTTP/1.0" 200 114689 "-" "Mozilla/5.0 (X11; Linux x86_64; rv:45.0) Gecko/20100101 Thunderbird/45.3.0"
185.56.80.242 - - [31/Oct/2018:15:57:55 +0000] "GET / HTTP/1.0" 200 114689 "-" "Mozilla/5.0 (Windows NT 10.0; Win64; x64) AppleWebKit/537.36 (KHTML, like Gecko) Chrome/62.0.3202.89 Safari/537.36"
97.74.228.245 - - [31/Oct/2018:16:13:07 +0000] "POST /xmlrpc.php HTTP/1.0" 404 2197 "-" "Mozilla/5.0 (Macintosh; U; Intel Mac OS X 10.6; fr; rv:1.9.2.8) Gecko/20100722 Firefox/3.6.8"
192.42.116.28 - - [31/Oct/2018:16:42:43 +0000] "GET / HTTP/1.0" 200 114689 "-" "Mozilla/5.0 (Windows NT 6.1; WOW64) AppleWebKit/537.36 (KHTML, like Gecko) Chrome/55.0.2883.87 Safari/537.36 OPR/42.0.2393.94"
69.12.66.241 - - [31/Oct/2018:16:49:29 +0000] "GET /wp-content/plugins/wp-option-tree/up.php HTTP/1.0" 404 2286 "http://radicalbit.com/wp-content/plugins/wp-option-tree/up.php" "Mozilla/5.0 (Windows NT 6.1; WOW64) AppleWebKit/537.36 (KHTML, like Gecko) Chrome/42.0.2311.152 Safari/537.36"
109.69.67.17 - - [31/Oct/2018:17:06:08 +0000] "GET / HTTP/1.0" 200 114689 "-" "Mozilla/5.0 (Windows NT 5.1) AppleWebKit/537.36 (KHTML, like Gecko) Chrome/49.0.2623.112 Safari/537.36"
209.126.101.29 - - [31/Oct/2018:17:07:55 +0000] "GET / HTTP/1.0" 200 114689 "-" "Mozilla/5.0 (Windows NT 10.0; Win64; x64) AppleWebKit/537.36 (KHTML, like Gecko) Chrome/60.0.3112.90 Safari/537.36"
34.220.134.17 - - [31/Oct/2018:17:18:41 +0000] "GET / HTTP/1.0" 200 114689 "-" "Mozilla/5.0 (X11; Ubuntu; Linux x86_64) AppleWebKit/537.36 (KHTML, like Gecko) Chrome/60.0.3112.101 Safari/537.36"
185.220.101.25 - - [31/Oct/2018:17:32:51 +0000] "GET / HTTP/1.0" 200 114689 "-" "Mozilla/5.0 (Windows NT 5.1; Win64; x64) AppleWebKit/537.36 (KHTML, like Gecko) Chrome/46.0.2486.0 Safari/537.36 Edge/13.10586"
66.70.174.11 - - [31/Oct/2018:17:38:43 +0000] "GET / HTTP/1.0" 200 114689 "-" "Mozilla/5.0 (compatible; MSIE 9.0; Windows NT 6.0; Trident/5.0)"
197.231.221.211 - - [31/Oct/2018:17:48:16 +0000] "GET / HTTP/1.0" 200 114689 "-" "Mozilla/5.0 (Windows NT 6.1; Win64; x64) AppleWebKit/537.36 (KHTML, like Gecko) Chrome/51.0.2704.79 Safari/537.36 Edge/14.14393"
80.67.172.162 - - [31/Oct/2018:17:56:03 +0000] "GET / HTTP/1.0" 200 114689 "-" "Mozilla/5.0 (Windows NT 6.1; WOW64) AppleWebKit/537.36 (KHTML, like Gecko) Chrome/46.0.2490.80 Safari/537.36"
216.218.222.12 - - [31/Oct/2018:18:02:50 +0000] "GET / HTTP/1.0" 200 114689 "-" "Mozilla/5.0 (Windows NT 10.0; Win64; x64) AppleWebKit/537.36 (KHTML, like Gecko) Chrome/60.0.3112.78 Safari/537.36 OPR/47.0.2631.39"
104.244.73.126 - - [31/Oct/2018:18:26:31 +0000] "GET / HTTP/1.0" 200 114689 "-" "Mozilla/5.0 (Windows NT 6.3; WOW64) AppleWebKit/537.36 (KHTML, like Gecko) Chrome/51.0.2704.106 Safari/537.36"
97.74.228.245 - - [31/Oct/2018:18:28:51 +0000] "POST /xmlrpc.php HTTP/1.0" 404 2197 "-" "Mozilla/5.0 (Macintosh; U; Intel Mac OS X 10.6; fr; rv:1.9.2.8) Gecko/20100722 Firefox/3.6.8"
185.56.80.242 - - [31/Oct/2018:18:41:29 +0000] "GET / HTTP/1.0" 200 114689 "-" "Mozilla/5.0 (Macintosh; Intel Mac OS X 10_11_6) AppleWebKit/601.7.7 (KHTML, like Gecko) Version/9.1.2 Safari/601.7.7"
163.172.41.228 - - [31/Oct/2018:19:06:11 +0000] "GET / HTTP/1.0" 200 114689 "-" "Mozilla/5.0 (Macintosh; Intel Mac OS X 10_10_5) AppleWebKit/603.3.8 (KHTML, like Gecko) Version/10.1.2 Safari/603.3.8"
37.187.129.166 - - [31/Oct/2018:19:19:33 +0000] "GET / HTTP/1.0" 200 114689 "-" "Mozilla/5.0 (Windows NT 6.1; WOW64; rv:52.0) Gecko/20100101 Firefox/52.0"
51.15.49.134 - - [31/Oct/2018:19:38:54 +0000] "GET / HTTP/1.0" 200 114689 "-" "Mozilla/5.0 (X11; Ubuntu; Linux x86_64; rv:15.0) Gecko/20100101 Firefox/15.0"
185.220.101.1 - - [31/Oct/2018:19:41:03 +0000] "GET / HTTP/1.0" 200 114689 "-" "Mozilla/5.0 (Windows NT 10.0; Win64; x64) AppleWebKit/537.36 (KHTML, like Gecko) Chrome/46.0.2486.0 Safari/537.36 Edge/13.10586"
185.220.101.9 - - [31/Oct/2018:19:43:31 +0000] "GET / HTTP/1.0" 200 114689 "-" "Mozilla/5.0 (Windows NT 10.0; WOW64) AppleWebKit/537.36 (KHTML, like Gecko) Chrome/56.0.2924.87 Safari/537.36 OPR/43.0.2442.991"
185.220.101.12 - - [31/Oct/2018:19:44:58 +0000] "GET / HTTP/1.0" 200 114689 "-" "Mozilla/5.0 (Windows NT 10.0; Win64; x64) AppleWebKit/537.36 (KHTML, like Gecko) Chrome/60.0.3112.90 Safari/537.36"
54.36.150.80 - - [31/Oct/2018:19:51:51 +0000] "GET /robots.txt HTTP/1.0" 404 2196 "-" "Mozilla/5.0 (compatible; AhrefsBot/5.2; +http://ahrefs.com/robot/)"
54.36.149.7 - - [31/Oct/2018:19:51:51 +0000] "GET / HTTP/1.0" 200 114689 "-" "Mozilla/5.0 (compatible; AhrefsBot/5.2; +http://ahrefs.com/robot/)"
157.55.39.252 - - [31/Oct/2018:19:51:57 +0000] "GET /learn/ HTTP/1.0" 404 2184 "-" "Mozilla/5.0 (compatible; bingbot/2.0; +http://www.bing.com/bingbot.htm)"
192.42.116.28 - - [31/Oct/2018:20:00:56 +0000] "GET / HTTP/1.0" 200 114689 "-" "Mozilla/5.0 (compatible; MSIE 9.0; Windows NT 6.0; Trident/5.0)"
123.57.254.142 - - [31/Oct/2018:20:09:23 +0000] "POST /xmlrpc.php HTTP/1.0" 404 2197 "-" "Mozilla/5.0 (Macintosh; U; Intel Mac OS X 10.6; fr; rv:1.9.2.8) Gecko/20100722 Firefox/3.6.8"
123.57.254.142 - - [31/Oct/2018:20:09:23 +0000] "POST /xmlrpc.php HTTP/1.0" 404 2197 "-" "Mozilla/5.0 (Macintosh; U; Intel Mac OS X 10.6; fr; rv:1.9.2.8) Gecko/20100722 Firefox/3.6.8"
5.199.130.127 - - [31/Oct/2018:20:10:11 +0000] "GET / HTTP/1.0" 200 114689 "-" "Mozilla/5.0 (Macintosh; Intel Mac OS X 10_13_6) AppleWebKit/605.1.15 (KHTML, like Gecko) Version/11.1.2 Safari/605.1.15"
104.200.20.46 - - [31/Oct/2018:20:13:28 +0000] "GET / HTTP/1.0" 200 114689 "-" "Mozilla/5.0 (Macintosh; Intel Mac OS X 10_12_3) AppleWebKit/602.4.8 (KHTML, like Gecko) Version/10.0.3 Safari/602.4.8"
185.220.101.27 - - [31/Oct/2018:20:38:37 +0000] "GET / HTTP/1.0" 200 114689 "-" "Mozilla/5.0 (Windows NT 6.1; WOW64; rv:48.0) Gecko/20100101 Firefox/48.0"
176.126.252.12 - - [31/Oct/2018:20:42:13 +0000] "GET / HTTP/1.0" 200 114689 "-" "Mozilla/5.0 (Windows NT 10.0; WOW64) AppleWebKit/537.36 (KHTML, like Gecko) Chrome/55.0.2883.87 Safari/537.36 OPR/42.0.2393.94"
97.74.228.245 - - [31/Oct/2018:20:43:37 +0000] "POST /xmlrpc.php HTTP/1.0" 404 2197 "-" "Mozilla/5.0 (Macintosh; U; Intel Mac OS X 10.6; fr; rv:1.9.2.8) Gecko/20100722 Firefox/3.6.8"
171.25.193.78 - - [31/Oct/2018:20:51:58 +0000] "GET / HTTP/1.0" 200 114689 "-" "Mozilla/5.0 (Windows NT 6.1; WOW64; rv:48.0) Gecko/20100101 Firefox/48.0"
89.248.169.130 - - [31/Oct/2018:20:53:35 +0000] "POST /xmlrpc.php HTTP/1.0" 404 2197 "-" "Mozilla/5.0 (Macintosh; U; Intel Mac OS X 10.6; fr; rv:1.9.2.8) Gecko/20100722 Firefox/3.6.8"
89.248.169.130 - - [31/Oct/2018:20:53:35 +0000] "POST /xmlrpc.php HTTP/1.0" 404 2197 "-" "Mozilla/5.0 (Macintosh; U; Intel Mac OS X 10.6; fr; rv:1.9.2.8) Gecko/20100722 Firefox/3.6.8"
89.248.169.130 - - [31/Oct/2018:20:53:35 +0000] "POST /xmlrpc.php HTTP/1.0" 404 2197 "-" "Mozilla/5.0 (Macintosh; U; Intel Mac OS X 10.6; fr; rv:1.9.2.8) Gecko/20100722 Firefox/3.6.8"
89.248.169.130 - - [31/Oct/2018:20:53:35 +0000] "POST /xmlrpc.php HTTP/1.0" 404 2197 "-" "Mozilla/5.0 (Macintosh; U; Intel Mac OS X 10.6; fr; rv:1.9.2.8) Gecko/20100722 Firefox/3.6.8"
51.15.43.205 - - [31/Oct/2018:21:05:14 +0000] "GET / HTTP/1.0" 200 114689 "-" "Mozilla/5.0 (Windows NT 10.0; WOW64; rv:48.0) Gecko/20100101 Firefox/48.0"
37.187.26.42 - - [31/Oct/2018:21:19:22 +0000] "GET / HTTP/1.0" 200 114689 "-" "Mozilla/5.0 (compatible; Googlebot/2.1; +http://www.google.com/bot.html)"
180.76.15.147 - - [31/Oct/2018:21:51:04 +0000] "GET / HTTP/1.0" 200 114689 "-" "Mozilla/5.0 (compatible; Baiduspider/2.0; +http://www.baidu.com/search/spider.html)"
77.88.87.74 - - [31/Oct/2018:21:54:11 +0000] "GET /wp-content/themes/twentyeleven/seo_script.php HTTP/1.0" 404 2301 "radicalbit.com" "Mozilla/5.1 (Windows NT 6.0; WOW64) AppleWebKit/537.37 (KHTML, like Gecko) Chrome/58.0.1145.75 Safari/537.37"
77.88.87.74 - - [31/Oct/2018:21:55:48 +0000] "GET /wp-content/uploads/2018/08/seo_script.php HTTP/1.0" 404 2289 "radicalbit.com" "Mozilla/5.1 (Windows NT 6.0; WOW64) AppleWebKit/537.37 (KHTML, like Gecko) Chrome/58.0.1145.75 Safari/537.37"
195.176.3.20 - - [31/Oct/2018:21:56:46 +0000] "GET / HTTP/1.0" 200 114689 "-" "Mozilla/5.0 (Windows NT 6.1; WOW64) AppleWebKit/537.36 (KHTML, like Gecko) Chrome/51.0.2704.106 Safari/537.36"
77.88.87.74 - - [31/Oct/2018:21:57:22 +0000] "GET /wp-content/uploads/2018/08/seos.php HTTP/1.0" 404 2271 "radicalbit.com" "Mozilla/5.1 (Windows NT 6.0; WOW64) AppleWebKit/537.37 (KHTML, like Gecko) Chrome/58.0.1145.75 Safari/537.37"
77.88.87.74 - - [31/Oct/2018:21:57:53 +0000] "GET /wp-content/plugins/background-image-cropper/image/ico/seo_script.php HTTP/1.0" 404 2370 "radicalbit.com" "Mozilla/5.1 (Windows NT 6.0; WOW64) AppleWebKit/537.37 (KHTML, like Gecko) Chrome/58.0.1145.75 Safari/537.37"
77.88.87.74 - - [31/Oct/2018:21:58:46 +0000] "GET /seos.php HTTP/1.0" 404 2190 "radicalbit.com" "Mozilla/5.1 (Windows NT 6.0; WOW64) AppleWebKit/537.37 (KHTML, like Gecko) Chrome/58.0.1145.75 Safari/537.37"
77.88.87.74 - - [31/Oct/2018:21:59:39 +0000] "GET /wp-content/themes/clean-commerce/test2.php HTTP/1.0" 404 2292 "radicalbit.com" "Mozilla/5.1 (Windows NT 6.0; WOW64) AppleWebKit/537.37 (KHTML, like Gecko) Chrome/58.0.1145.75 Safari/537.37"
77.88.87.74 - - [31/Oct/2018:21:59:50 +0000] "GET /assets/images/seo_script.php HTTP/1.0" 404 2250 "radicalbit.com" "Mozilla/5.1 (Windows NT 6.0; WOW64) AppleWebKit/537.37 (KHTML, like Gecko) Chrome/58.0.1145.75 Safari/537.37"
77.88.87.74 - - [31/Oct/2018:22:01:55 +0000] "GET /wp-content/uploads/2018/08/st.php HTTP/1.0" 404 2265 "radicalbit.com" "Mozilla/5.1 (Windows NT 6.0; WOW64) AppleWebKit/537.37 (KHTML, like Gecko) Chrome/58.0.1145.75 Safari/537.37"
62.210.129.246 - - [31/Oct/2018:22:19:10 +0000] "GET / HTTP/1.0" 200 114689 "-" "Mozilla/5.0 (Windows NT 6.1; WOW64; rv:48.0) Gecko/20100101 Firefox/48.0"
180.76.15.30 - - [31/Oct/2018:22:24:24 +0000] "GET /wp-admin/admin-ajax.php?link=html-inline-1460632935598 HTTP/1.0" 404 2266 "-" "Mozilla/5.0 (compatible; Baiduspider/2.0; +http://www.baidu.com/search/spider.html)"
218.66.74.237 - - [31/Oct/2018:22:46:19 +0000] "HEAD /wp-content/themes/twentyseventeen/sidebar.php HTTP/1.0" 404 - "-" "-"
97.74.228.245 - - [31/Oct/2018:22:56:10 +0000] "POST /xmlrpc.php HTTP/1.0" 404 2197 "-" "Mozilla/5.0 (Macintosh; U; Intel Mac OS X 10.6; fr; rv:1.9.2.8) Gecko/20100722 Firefox/3.6.8"
52.53.201.78 - - [31/Oct/2018:23:18:51 +0000] "GET / HTTP/1.0" 200 114689 "-" "Mozilla/5.0 (Macintosh; Intel Mac OS X 10_12_6) AppleWebKit/537.36 (KHTML, like Gecko) Chrome/61.0.3163.100 Safari/537.36"
51.38.162.232 - - [31/Oct/2018:23:20:28 +0000] "GET / HTTP/1.0" 200 114689 "-" "Mozilla/5.0 (Windows NT 6.3; WOW64; rv:50.0) Gecko/20100101 Firefox/50.0"
89.234.157.254 - - [31/Oct/2018:23:31:53 +0000] "GET / HTTP/1.0" 200 114689 "-" "Mozilla/5.0 (Windows NT 6.1; Trident/7.0; rv:11.0) like Gecko"
109.70.100.19 - - [31/Oct/2018:23:37:38 +0000] "GET / HTTP/1.0" 200 114689 "-" "Mozilla/5.0 (Windows NT 6.1; WOW64) AppleWebKit/537.36 (KHTML, like Gecko) Chrome/51.0.2704.63 Safari/537.36"
192.42.116.18 - - [31/Oct/2018:23:52:34 +0000] "GET / HTTP/1.0" 200 114689 "-" "Mozilla/5.0 (Windows NT 5.1; rv:7.0.1) Gecko/20100101 Firefox/7.0.1"
18.85.22.239 - - [01/Nov/2018:00:07:57 +0000] "GET / HTTP/1.0" 200 114689 "-" "Mozilla/5.0 (Macintosh; Intel Mac OS X 10_11_4) AppleWebKit/601.5.17 (KHTML, like Gecko) Version/9.1 Safari/601.5.17"
158.174.122.218 - - [01/Nov/2018:00:08:30 +0000] "GET / HTTP/1.0" 200 114689 "-" "Mozilla/5.0 (Windows NT 6.1; Win64; x64) AppleWebKit/537.36 (KHTML, like Gecko) Chrome/66.0.3359.117 Safari/537.36"
198.96.155.3 - - [01/Nov/2018:00:09:15 +0000] "GET / HTTP/1.0" 200 114689 "-" "Mozilla/5.0 (Windows NT 10.0; Win64; x64) AppleWebKit/537.36 (KHTML, like Gecko) Chrome/66.0.3359.181 Safari/537.36"
162.247.74.217 - - [01/Nov/2018:00:10:37 +0000] "GET / HTTP/1.0" 200 114689 "-" "Mozilla/5.0 (Macintosh; Intel Mac OS X 10_11_4) AppleWebKit/601.5.17 (KHTML, like Gecko) Version/9.1 Safari/601.5.17"
199.249.230.70 - - [01/Nov/2018:00:16:11 +0000] "GET / HTTP/1.0" 200 114689 "-" "Mozilla/5.0 (Windows NT 6.1; Win64; x64) AppleWebKit/537.36 (KHTML, like Gecko) Chrome/51.0.2704.79 Safari/537.36 Edge/14.14393"
97.74.228.245 - - [01/Nov/2018:01:11:21 +0000] "POST /xmlrpc.php HTTP/1.0" 404 2197 "-" "Mozilla/5.0 (Macintosh; U; Intel Mac OS X 10.6; fr; rv:1.9.2.8) Gecko/20100722 Firefox/3.6.8"
104.244.75.82 - - [01/Nov/2018:02:07:04 +0000] "GET / HTTP/1.0" 200 114689 "-" "Mozilla/5.0 (Windows NT 6.1; WOW64; rv:46.0) Gecko/20100101 Firefox/46.0"
78.85.245.102 - - [01/Nov/2018:02:14:42 +0000] "GET //installer-backup.php HTTP/1.0" 404 2226 "-" "Mozilla/5.0 (Windows NT 6.3; WOW64; rv:48.0) Gecko/20100101 Firefox/48.0)"
