52.13.98.112 - - [06/Nov/2018:07:34:56 +0000] "GET / HTTP/1.0" 200 1767 "-" "Mozilla/5.0 (Macintosh; Intel Mac OS X 10_10_3) AppleWebKit/537.36 (KHTML, like Gecko) Chrome/44.0.2403.89 Safari/537.36"
52.173.241.248 - - [06/Nov/2018:11:39:57 +0000] "GET / HTTP/1.0" 200 1767 "-" "Mozilla/5.0 (Windows NT 6.1; Win64; x64) AppleWebKit/537.36 (KHTML, like Gecko) Chrome/65.0.3325.181 Safari/537.36"
2002:d15a:e152::d15a:e152 - - [06/Nov/2018:13:06:04 +0000] "GET /modules/homepageadvertise2/uploadimage.php HTTP/1.0" 404 2033 "http://indieguerrilla.com/modules/homepageadvertise2/uploadimage.php" "Mozilla/5.0 (Windows NT 6.1; WOW64) AppleWebKit/537.36 (KHTML, like Gecko) Chrome/42.0.2311.152 Safari/537.36"
52.53.201.78 - - [06/Nov/2018:22:06:41 +0000] "GET / HTTP/1.0" 200 1767 "-" "Mozilla/5.0 (Macintosh; Intel Mac OS X 10_12_6) AppleWebKit/537.36 (KHTML, like Gecko) Chrome/61.0.3163.100 Safari/537.36"
209.17.96.226 - - [06/Nov/2018:22:25:13 +0000] "GET / HTTP/1.0" 200 1767 "-" "Mozilla/5.0 (compatible; Nimbostratus-Bot/v1.3.2; http://cloudsystemnetworks.com)"
