46.226.58.62 - - [31/Oct/2018:14:09:31 +0000] "GET /wp-content/uploads/2014/12/Environment_05.jpg HTTP/1.0" 404 243 "http://radicalg.webfactional.com" "Mozilla/5.0 (Windows NT 10.0; Win64; x64) AppleWebKit/537.36 (KHTML, like Gecko) Chrome/69.0.3497.100 Safari/537.36"
46.226.58.62 - - [31/Oct/2018:14:09:32 +0000] "GET /wp-content/uploads/2014/12/Environment_05.jpg HTTP/1.0" 404 243 "http://radicalg.webfactional.com" "Mozilla/5.0 (Windows NT 10.0; Win64; x64) AppleWebKit/537.36 (KHTML, like Gecko) Chrome/69.0.3497.100 Safari/537.36"
157.55.39.29 - - [31/Oct/2018:17:14:59 +0000] "GET /robots.txt HTTP/1.0" 404 208 "-" "Mozilla/5.0 (compatible; bingbot/2.0; +http://www.bing.com/bingbot.htm)"
207.46.13.175 - - [31/Oct/2018:18:20:00 +0000] "GET /vragenlijst HTTP/1.0" 404 209 "-" "Mozilla/5.0 (iPhone; CPU iPhone OS 7_0 like Mac OS X) AppleWebKit/537.51.1 (KHTML, like Gecko) Version/7.0 Mobile/11A465 Safari/9537.53 (compatible; bingbot/2.0; +http://www.bing.com/bingbot.htm)"
66.249.75.129 - - [01/Nov/2018:01:43:49 +0000] "GET /robots.txt HTTP/1.0" 404 208 "-" "Mozilla/5.0 (compatible; Googlebot/2.1; +http://www.google.com/bot.html)"
66.249.75.129 - - [01/Nov/2018:01:44:10 +0000] "GET / HTTP/1.0" 404 198 "-" "Mozilla/5.0 (Linux; Android 6.0.1; Nexus 5X Build/MMB29P) AppleWebKit/537.36 (KHTML, like Gecko) Chrome/41.0.2272.96 Mobile Safari/537.36 (compatible; Googlebot/2.1; +http://www.google.com/bot.html)"
