193.169.252.91 - - [03/Nov/2018:04:55:45 +0000] "GET /wp-login.php HTTP/1.0" 404 1943 "http://indieguerrilla.com/wp-login.php" "Mozilla/4.0 (compatible; MSIE 9.0; Windows NT 6.1; 125LA; .NET CLR 2.0.50727; .NET CLR 3.0.04506.648; .NET CLR 3.5.21022)"
193.169.252.91 - - [03/Nov/2018:04:55:46 +0000] "GET /wp-login.php HTTP/1.0" 404 1943 "http://indieguerrilla.com/wp-login.php" "Mozilla/4.0 (compatible; MSIE 9.0; Windows NT 6.1; 125LA; .NET CLR 2.0.50727; .NET CLR 3.0.04506.648; .NET CLR 3.5.21022)"
157.55.39.39 - - [03/Nov/2018:08:05:56 +0000] "GET /robots.txt HTTP/1.0" 404 1937 "-" "Mozilla/5.0 (compatible; bingbot/2.0; +http://www.bing.com/bingbot.htm)"
207.46.13.154 - - [03/Nov/2018:08:06:03 +0000] "GET / HTTP/1.0" 200 1767 "-" "Mozilla/5.0 (iPhone; CPU iPhone OS 7_0 like Mac OS X) AppleWebKit/537.51.1 (KHTML, like Gecko) Version/7.0 Mobile/11A465 Safari/9537.53 (compatible; bingbot/2.0; +http://www.bing.com/bingbot.htm)"
157.55.39.187 - - [03/Nov/2018:08:06:10 +0000] "GET /robots.txt HTTP/1.0" 404 1937 "-" "Mozilla/5.0 (compatible; bingbot/2.0; +http://www.bing.com/bingbot.htm)"
71.6.165.200 - - [03/Nov/2018:09:11:03 +0000] "GET / HTTP/1.0" 200 1767 "-" "Mozilla/5.0 (Windows NT 6.1) AppleWebKit/537.36 (KHTML, like Gecko) Chrome/41.0.2228.0 Safari/537.36"
71.6.165.200 - - [03/Nov/2018:09:11:04 +0000] "GET /robots.txt HTTP/1.0" 404 1937 "-" "-"
71.6.165.200 - - [03/Nov/2018:09:11:06 +0000] "GET /sitemap.xml HTTP/1.0" 404 1940 "-" "-"
71.6.165.200 - - [03/Nov/2018:09:11:09 +0000] "GET /.well-known/security.txt HTTP/1.0" 404 1979 "-" "-"
71.6.165.200 - - [03/Nov/2018:09:11:13 +0000] "GET /favicon.ico HTTP/1.0" 404 1940 "-" "python-requests/2.10.0"
147.135.4.74 - - [03/Nov/2018:09:15:27 +0000] "GET / HTTP/1.0" 200 1767 "-" "Scrapy/1.5.1 (+https://scrapy.org)"
193.169.252.186 - - [03/Nov/2018:09:51:38 +0000] "GET /wp-login.php HTTP/1.0" 404 1943 "http://indieguerrilla.com/wp-login.php" "Mozilla/4.0 (compatible; MSIE 9.0; Windows NT 6.1; 125LA; .NET CLR 2.0.50727; .NET CLR 3.0.04506.648; .NET CLR 3.5.21022)"
193.169.252.186 - - [03/Nov/2018:09:51:38 +0000] "GET /wp-login.php HTTP/1.0" 404 1943 "http://indieguerrilla.com/wp-login.php" "Mozilla/4.0 (compatible; MSIE 9.0; Windows NT 6.1; 125LA; .NET CLR 2.0.50727; .NET CLR 3.0.04506.648; .NET CLR 3.5.21022)"
135.23.221.142 - - [03/Nov/2018:13:48:43 +0000] "HEAD / HTTP/1.0" 200 - "-" "Ver. 5.7 x64"
135.23.221.142 - - [03/Nov/2018:13:48:43 +0000] "GET / HTTP/1.0" 200 1767 "-" "Ver. 5.7 x64"
191.101.103.248 - - [03/Nov/2018:14:12:05 +0000] "GET / HTTP/1.0" 200 1767 "-" "Mozilla/5.0 (Windows NT 10.0; Win64; x64) AppleWebKit/537.36 (KHTML, like Gecko) Chrome/69.0.3497.100 Safari/537.36"
66.249.66.64 - - [04/Nov/2018:00:48:44 +0000] "GET /robots.txt HTTP/1.0" 404 1941 "-" "Mozilla/5.0 (compatible; Googlebot/2.1; +http://www.google.com/bot.html)"
66.249.66.95 - - [04/Nov/2018:00:48:50 +0000] "GET / HTTP/1.0" 200 1767 "-" "Mozilla/5.0 (compatible; Googlebot/2.1; +http://www.google.com/bot.html)"
52.165.166.139 - - [04/Nov/2018:01:41:14 +0000] "GET / HTTP/1.0" 200 1767 "-" "Mozilla/5.0 (Macintosh; Intel Mac OS X 10_13_3) AppleWebKit/537.36 (KHTML, like Gecko) Chrome/64.0.3282.186 Safari/537.36"
