157.55.39.39 - - [01/Nov/2018:03:54:02 +0000] "GET /robots.txt HTTP/1.0" 404 1937 "-" "Mozilla/5.0 (compatible; bingbot/2.0; +http://www.bing.com/bingbot.htm)"
40.77.167.17 - - [01/Nov/2018:04:06:02 +0000] "GET / HTTP/1.0" 200 1767 "-" "Mozilla/5.0 (iPhone; CPU iPhone OS 7_0 like Mac OS X) AppleWebKit/537.51.1 (KHTML, like Gecko) Version/7.0 Mobile/11A465 Safari/9537.53 (compatible; bingbot/2.0; +http://www.bing.com/bingbot.htm)"
157.55.39.88 - - [01/Nov/2018:04:09:33 +0000] "GET /robots.txt HTTP/1.0" 404 1937 "-" "Mozilla/5.0 (compatible; bingbot/2.0; +http://www.bing.com/bingbot.htm)"
139.81.114.245 - - [01/Nov/2018:04:36:01 +0000] "GET / HTTP/1.0" 200 1767 "-" "Mozilla/5.0 (Macintosh; Intel Mac OS X 10_12_5) AppleWebKit/537.36 (KHTML, like Gecko) Chrome/58.0.3029.110 Safari/537.36"
192.34.80.176 - - [01/Nov/2018:06:47:28 +0000] "GET / HTTP/1.0" 200 1767 "-" "Mozilla/5.0 (Windows NT 6.2; Win64; x64) AppleWebKit/537.36 (KHTML, like Gecko) Chrome/60.0.3112.90 Safari/537.36"
192.34.80.176 - - [01/Nov/2018:06:47:29 +0000] "GET / HTTP/1.0" 200 1767 "-" "Mozilla/5.0 (Windows NT 6.2; Win64; x64) AppleWebKit/537.36 (KHTML, like Gecko) Chrome/60.0.3112.90 Safari/537.36"
192.34.80.176 - - [01/Nov/2018:06:47:30 +0000] "GET / HTTP/1.0" 200 1767 "-" "Mozilla/5.0 (Windows NT 6.2; Win64; x64) AppleWebKit/537.36 (KHTML, like Gecko) Chrome/60.0.3112.90 Safari/537.36"
185.220.101.25 - - [01/Nov/2018:06:47:41 +0000] "GET /wp-login.php?action=register HTTP/1.0" 404 1959 "-" "Mozilla/5.0 (Windows NT 6.2; Win64; x64) AppleWebKit/537.36 (KHTML, like Gecko) Chrome/60.0.3112.90 Safari/537.36"
192.42.116.26 - - [01/Nov/2018:06:47:43 +0000] "GET / HTTP/1.0" 200 1767 "-" "Mozilla/5.0 (Windows NT 6.2; Win64; x64) AppleWebKit/537.36 (KHTML, like Gecko) Chrome/60.0.3112.90 Safari/537.36"
192.42.116.26 - - [01/Nov/2018:06:47:45 +0000] "GET /index.php?option=com_user&task=register HTTP/1.0" 404 1968 "-" "Mozilla/5.0 (Windows NT 6.2; Win64; x64) AppleWebKit/537.36 (KHTML, like Gecko) Chrome/60.0.3112.90 Safari/537.36"
192.42.116.26 - - [01/Nov/2018:06:47:46 +0000] "GET /user/register HTTP/1.0" 404 1946 "-" "Mozilla/5.0 (Windows NT 6.2; Win64; x64) AppleWebKit/537.36 (KHTML, like Gecko) Chrome/60.0.3112.90 Safari/537.36"
52.165.148.51 - - [01/Nov/2018:07:02:22 +0000] "GET / HTTP/1.0" 200 1767 "-" "Mozilla/5.0 (Windows NT 10.0; Win64; x64) AppleWebKit/537.36 (KHTML, like Gecko) Chrome/65.0.3325.181 Safari/537.36"
89.163.131.167 - - [01/Nov/2018:11:09:21 +0000] "HEAD / HTTP/1.0" 200 - "-" "Mozilla/5.0 (compatible; Uptimebot/1.0; +http://www.uptime.com/uptimebot)"
188.166.22.77 - - [01/Nov/2018:11:11:04 +0000] "GET / HTTP/1.0" 200 1767 "-" "Mozilla/4.0 (compatible; MSIE 7.0; Windows NT 6.1; WOW64; Trident/6.0;)"
180.76.15.34 - - [01/Nov/2018:11:46:48 +0000] "GET /robots.txt HTTP/1.0" 404 1937 "-" "Mozilla/5.0 (Windows NT 5.1; rv:6.0.2) Gecko/20100101 Firefox/6.0.2"
180.76.15.162 - - [01/Nov/2018:11:46:48 +0000] "GET /robots.txt HTTP/1.0" 404 1937 "-" "Mozilla/5.0 (Windows NT 5.1; rv:6.0.2) Gecko/20100101 Firefox/6.0.2"
180.76.15.140 - - [01/Nov/2018:11:47:39 +0000] "GET / HTTP/1.0" 200 1767 "-" "Mozilla/5.0 (compatible; Baiduspider/2.0; +http://www.baidu.com/search/spider.html)"
163.172.4.153 - - [01/Nov/2018:15:39:45 +0000] "GET / HTTP/1.0" 200 1767 "http://indieguerrilla.com/" "Mozilla/5.0 (Windows NT 6.1; Win64; x64; rv:53.0) Gecko/20100101 Firefox/53.0"
159.203.167.43 - - [01/Nov/2018:19:22:57 +0000] "GET / HTTP/1.0" 200 1767 "-" "Mozilla/5.0 (compatible; NetcraftSurveyAgent/1.0; +info@netcraft.com)"
