52.165.166.139 - - [05/Nov/2018:09:08:16 +0000] "GET / HTTP/1.0" 200 1767 "-" "Mozilla/5.0 (Windows NT 10.0; Win64; x64) AppleWebKit/537.36 (KHTML, like Gecko) Chrome/65.0.3325.181 Safari/537.36"
2a03:2880:30ff:a::face:b00c - - [05/Nov/2018:09:54:53 +0000] "GET /robots.txt HTTP/1.0" 404 1937 "-" "facebookexternalhit/1.1 (+http://www.facebook.com/externalhit_uatext.php)"
2a03:2880:30ff:6::face:b00c - - [05/Nov/2018:11:13:46 +0000] "GET / HTTP/1.0" 200 1767 "https://www.facebook.com/" "Mozilla/5.0 (Windows NT 10.0; Win64; x64) AppleWebKit/537.36 (KHTML, like Gecko) Chrome/70.0.3538.77 Safari/537.36"
2a03:2880:30ff:6::face:b00c - - [05/Nov/2018:11:13:46 +0000] "GET /favicon.ico HTTP/1.0" 404 1940 "http://indieguerrilla.com/" "Mozilla/5.0 (Windows NT 10.0; Win64; x64) AppleWebKit/537.36 (KHTML, like Gecko) Chrome/70.0.3538.77 Safari/537.36"
39.98.62.173 - - [05/Nov/2018:13:10:14 +0000] "GET / HTTP/1.0" 200 1767 "-" "-"
157.55.39.39 - - [05/Nov/2018:13:30:13 +0000] "GET /robots.txt HTTP/1.0" 404 1937 "-" "Mozilla/5.0 (compatible; bingbot/2.0; +http://www.bing.com/bingbot.htm)"
207.46.13.154 - - [05/Nov/2018:13:30:16 +0000] "GET / HTTP/1.0" 200 1767 "-" "Mozilla/5.0 (iPhone; CPU iPhone OS 7_0 like Mac OS X) AppleWebKit/537.51.1 (KHTML, like Gecko) Version/7.0 Mobile/11A465 Safari/9537.53 (compatible; bingbot/2.0; +http://www.bing.com/bingbot.htm)"
157.55.39.187 - - [05/Nov/2018:13:30:24 +0000] "GET /robots.txt HTTP/1.0" 404 1937 "-" "Mozilla/5.0 (compatible; bingbot/2.0; +http://www.bing.com/bingbot.htm)"
110.83.60.227 - - [05/Nov/2018:16:35:00 +0000] "HEAD /wp-blog-header.php HTTP/1.0" 404 - "-" "-"
180.76.15.160 - - [06/Nov/2018:00:48:05 +0000] "GET / HTTP/1.0" 200 1767 "-" "Mozilla/5.0 (compatible; Baiduspider/2.0; +http://www.baidu.com/search/spider.html)"
