[Wed Oct 31 03:09:47.384169 2018] [wsgi:error] [pid 41634:tid 139911732283136] Not Found: /
[Wed Oct 31 04:39:18.955035 2018] [wsgi:error] [pid 41633:tid 139911648356096] Not Found: /robots.txt
[Wed Oct 31 04:39:22.770969 2018] [wsgi:error] [pid 41633:tid 139911740675840] Not Found: /
[Wed Oct 31 22:36:59.415786 2018] [wsgi:error] [pid 41634:tid 139911673534208] Not Found: /
