[Mon Nov 05 03:38:28.069675 2018] [wsgi:error] [pid 36790:tid 139785300133632] [remote 127.0.0.1:35674] Not Found: /xmlrpc.php
[Mon Nov 05 03:53:51.735009 2018] [wsgi:error] [pid 36790:tid 139785308526336] [remote 127.0.0.1:45182] Not Found: /robots.txt
[Mon Nov 05 03:53:51.828464 2018] [wsgi:error] [pid 36791:tid 139785367275264] [remote 127.0.0.1:45185] Not Found: /xmlrpc.php
[Mon Nov 05 03:53:52.485933 2018] [wsgi:error] [pid 36791:tid 139785308526336] [remote 127.0.0.1:45210] Not Found: /wp-json/wp/v2/users/
[Mon Nov 05 03:53:52.945794 2018] [wsgi:error] [pid 36790:tid 139785300133632] [remote 127.0.0.1:45236] Not Found: /xmlrpc.php
[Mon Nov 05 04:06:46.635976 2018] [wsgi:error] [pid 36790:tid 139785308526336] [remote 127.0.0.1:50772] Not Found: /learn/
[Mon Nov 05 04:52:54.348578 2018] [wsgi:error] [pid 36790:tid 139785300133632] [remote 127.0.0.1:50438] Not Found: /xmlrpc.php
[Mon Nov 05 04:52:54.697168 2018] [wsgi:error] [pid 36791:tid 139785308526336] [remote 127.0.0.1:50472] Not Found: /xmlrpc.php
[Mon Nov 05 04:52:54.714806 2018] [wsgi:error] [pid 36790:tid 139785308526336] [remote 127.0.0.1:50474] Not Found: /xmlrpc.php
[Mon Nov 05 04:52:55.032591 2018] [wsgi:error] [pid 36790:tid 139785300133632] [remote 127.0.0.1:50482] Not Found: /xmlrpc.php
[Mon Nov 05 05:55:27.322097 2018] [wsgi:error] [pid 36791:tid 139785367275264] [remote 127.0.0.1:46402] Not Found: /xmlrpc.php
[Mon Nov 05 07:50:42.916772 2018] [wsgi:error] [pid 36790:tid 139785300133632] [remote 127.0.0.1:38338] Not Found: /wp-admin/default.php
[Mon Nov 05 07:50:55.712995 2018] [wsgi:error] [pid 36791:tid 139785308526336] [remote 127.0.0.1:38966] Not Found: /wp-admin/default.php
[Mon Nov 05 07:50:59.897532 2018] [wsgi:error] [pid 36790:tid 139785308526336] [remote 127.0.0.1:39226] Not Found: /wp-admin/default.php
[Mon Nov 05 08:11:23.534095 2018] [wsgi:error] [pid 36791:tid 139785367275264] [remote 127.0.0.1:41614] Not Found: /xmlrpc.php
[Mon Nov 05 08:36:35.888824 2018] [wsgi:error] [pid 36791:tid 139785308526336] [remote 127.0.0.1:38220] Not Found: /wp-blog-posts.php
[Mon Nov 05 09:14:03.723559 2018] [wsgi:error] [pid 36790:tid 139785300133632] [remote 127.0.0.1:47796] Not Found: /wp-content/themes/gaukingo/db.php
[Mon Nov 05 09:19:51.067498 2018] [wsgi:error] [pid 36791:tid 139785367275264] [remote 127.0.0.1:45686] Not Found: /robots.txt
[Mon Nov 05 09:29:28.857527 2018] [wsgi:error] [pid 36790:tid 139785300133632] [remote 127.0.0.1:59526] Not Found: /index_files/rtl.css
[Mon Nov 05 09:44:10.122859 2018] [wsgi:error] [pid 36791:tid 139785367275264] [remote 127.0.0.1:42792] Not Found: /wp-login.php
[Mon Nov 05 09:44:10.168812 2018] [wsgi:error] [pid 36790:tid 139785308526336] [remote 127.0.0.1:42802] Not Found: /apple-touch-icon-precomposed.png
[Mon Nov 05 09:44:10.188171 2018] [wsgi:error] [pid 36791:tid 139785308526336] [remote 127.0.0.1:42804] Not Found: /apple-touch-icon.png
[Mon Nov 05 09:44:10.225029 2018] [wsgi:error] [pid 36790:tid 139785300133632] [remote 127.0.0.1:42810] Not Found: /favicon.ico
[Mon Nov 05 09:44:10.248841 2018] [wsgi:error] [pid 36790:tid 139785308526336] [remote 127.0.0.1:42816] Not Found: /apple-touch-icon-precomposed.png
[Mon Nov 05 09:44:10.274142 2018] [wsgi:error] [pid 36791:tid 139785367275264] [remote 127.0.0.1:42820] Not Found: /apple-touch-icon.png
[Mon Nov 05 09:44:10.298316 2018] [wsgi:error] [pid 36790:tid 139785300133632] [remote 127.0.0.1:42822] Not Found: /favicon.ico
[Mon Nov 05 09:44:10.329717 2018] [wsgi:error] [pid 36791:tid 139785308526336] [remote 127.0.0.1:42824] Not Found: /wp-login.php
[Mon Nov 05 09:44:10.359710 2018] [wsgi:error] [pid 36790:tid 139785308526336] [remote 127.0.0.1:42826] Not Found: /apple-touch-icon-precomposed.png
[Mon Nov 05 09:44:10.388591 2018] [wsgi:error] [pid 36791:tid 139785367275264] [remote 127.0.0.1:42830] Not Found: /apple-touch-icon.png
[Mon Nov 05 09:44:10.418546 2018] [wsgi:error] [pid 36790:tid 139785300133632] [remote 127.0.0.1:42832] Not Found: /favicon.ico
[Mon Nov 05 09:44:10.437290 2018] [wsgi:error] [pid 36790:tid 139785308526336] [remote 127.0.0.1:42836] Not Found: /apple-touch-icon-precomposed.png
[Mon Nov 05 09:44:10.463034 2018] [wsgi:error] [pid 36791:tid 139785308526336] [remote 127.0.0.1:42838] Not Found: /apple-touch-icon.png
[Mon Nov 05 09:44:10.488706 2018] [wsgi:error] [pid 36790:tid 139785300133632] [remote 127.0.0.1:42840] Not Found: /favicon.ico
[Mon Nov 05 10:25:46.504753 2018] [wsgi:error] [pid 36791:tid 139785367275264] [remote 127.0.0.1:40112] Not Found: /xmlrpc.php
[Mon Nov 05 10:56:02.016804 2018] [wsgi:error] [pid 36790:tid 139785308526336] [remote 127.0.0.1:55682] Not Found: /wp-content/themes/organizer/lib_upload/server/php/index.php
[Mon Nov 05 10:56:03.874622 2018] [wsgi:error] [pid 36790:tid 139785300133632] [remote 127.0.0.1:55946] Not Found: /wp-content/plugins/csv2wpec-coupon/csv2wpecCoupon_FileUpload.php
[Mon Nov 05 12:05:20.737590 2018] [wsgi:error] [pid 36791:tid 139785308526336] [remote 127.0.0.1:40324] Not Found: /wp-content/plugins/resizer-img/accdb.php
[Mon Nov 05 12:05:26.511637 2018] [wsgi:error] [pid 36790:tid 139785308526336] [remote 127.0.0.1:40794] Not Found: /wp-content/plugins/resizer-img/accdb.php
[Mon Nov 05 12:36:06.797816 2018] [wsgi:error] [pid 36791:tid 139785367275264] [remote 127.0.0.1:47958] Not Found: /robots.txt
[Mon Nov 05 12:58:30.814740 2018] [wsgi:error] [pid 36791:tid 139785367275264] [remote 127.0.0.1:52646] Not Found: /xmlrpc.php
[Mon Nov 05 14:09:56.678398 2018] [wsgi:error] [pid 36790:tid 139785308526336] [remote 127.0.0.1:53912] Not Found: /xmlrpc.php
[Mon Nov 05 14:09:56.849863 2018] [wsgi:error] [pid 36791:tid 139785308526336] [remote 127.0.0.1:53916] Not Found: /xmlrpc.php
[Mon Nov 05 14:09:57.165021 2018] [wsgi:error] [pid 36790:tid 139785300133632] [remote 127.0.0.1:53927] Not Found: /xmlrpc.php
[Mon Nov 05 14:10:51.839587 2018] [wsgi:error] [pid 36790:tid 139785308526336] [remote 127.0.0.1:57846] Not Found: /shell.php
[Mon Nov 05 14:11:07.192239 2018] [wsgi:error] [pid 36791:tid 139785367275264] [remote 127.0.0.1:59140] Not Found: /shell.php
[Mon Nov 05 14:39:20.571747 2018] [wsgi:error] [pid 36790:tid 139785300133632] [remote 127.0.0.1:38376] Not Found: /robots.txt
[Mon Nov 05 14:39:21.154822 2018] [wsgi:error] [pid 36790:tid 139785308526336] [remote 127.0.0.1:38424] Not Found: /maak-visuele-aantekeningen-met-deze-5-tips/feed/
[Mon Nov 05 15:15:40.304571 2018] [wsgi:error] [pid 36791:tid 139785308526336] [remote 127.0.0.1:51680] Not Found: /xmlrpc.php
[Mon Nov 05 15:50:13.167314 2018] [wsgi:error] [pid 36790:tid 139785300133632] [remote 127.0.0.1:52606] Not Found: /kracht-van-de-flip/feed/
[Mon Nov 05 17:33:21.344394 2018] [wsgi:error] [pid 36791:tid 139785308526336] [remote 127.0.0.1:54905] Not Found: /xmlrpc.php
[Mon Nov 05 17:40:07.976587 2018] [wsgi:error] [pid 36791:tid 139785367275264] [remote 127.0.0.1:58072] Not Found: /wp-login.php
[Mon Nov 05 17:43:08.282077 2018] [wsgi:error] [pid 36790:tid 139785308526336] [remote 127.0.0.1:44924] Not Found: /robots.txt
[Mon Nov 05 18:01:43.714368 2018] [wsgi:error] [pid 36790:tid 139785300133632] [remote 127.0.0.1:44714] Not Found: /xmlrpc.php
[Mon Nov 05 18:01:43.714480 2018] [wsgi:error] [pid 36791:tid 139785367275264] [remote 127.0.0.1:44716] Not Found: /xmlrpc.php
[Mon Nov 05 19:01:19.346262 2018] [wsgi:error] [pid 36790:tid 139785300133632] [remote 127.0.0.1:39952] Not Found: /poppetjes-tekenen-zoveel-wensen-zoveel-mensen/
[Mon Nov 05 19:43:26.165138 2018] [wsgi:error] [pid 36790:tid 139785300133632] [remote 127.0.0.1:50728] Not Found: /wp-organizer.php
[Mon Nov 05 19:47:09.672643 2018] [wsgi:error] [pid 36791:tid 139785367275264] [remote 127.0.0.1:40516] Not Found: /xmlrpc.php
[Mon Nov 05 19:48:10.992558 2018] [wsgi:error] [pid 36790:tid 139785308526336] [remote 127.0.0.1:44826] Not Found: /wp-content/wordpress_cache.php
[Mon Nov 05 19:50:00.096216 2018] [wsgi:error] [pid 36791:tid 139785308526336] [remote 127.0.0.1:51274] Not Found: /wp-login.php
[Mon Nov 05 21:30:55.435124 2018] [wsgi:error] [pid 36790:tid 139785308526336] [remote 127.0.0.1:35572] Not Found: /modules/mod_ariimageslidersa/098.php
[Mon Nov 05 21:31:06.674429 2018] [wsgi:error] [pid 36791:tid 139785308526336] [remote 127.0.0.1:36339] Not Found: /modules/mod_ariimageslidersa/098.php
[Mon Nov 05 21:31:16.716470 2018] [wsgi:error] [pid 36790:tid 139785300133632] [remote 127.0.0.1:37046] Not Found: /modules/mod_ariimageslidersa/098.php
[Mon Nov 05 21:56:55.854359 2018] [wsgi:error] [pid 36790:tid 139785308526336] [remote 127.0.0.1:33004] Not Found: /robots.txt
[Mon Nov 05 21:56:58.642076 2018] [wsgi:error] [pid 36791:tid 139785308526336] [remote 127.0.0.1:33256] Not Found: /sitemap.xml
[Mon Nov 05 21:57:02.083911 2018] [wsgi:error] [pid 36790:tid 139785300133632] [remote 127.0.0.1:33378] Not Found: /.well-known/security.txt
[Mon Nov 05 21:57:13.613946 2018] [wsgi:error] [pid 36790:tid 139785308526336] [remote 127.0.0.1:33826] Not Found: /favicon.ico
[Mon Nov 05 21:59:35.791756 2018] [wsgi:error] [pid 36791:tid 139785367275264] [remote 127.0.0.1:43398] Not Found: /xmlrpc.php
[Mon Nov 05 22:20:25.638487 2018] [wsgi:error] [pid 36790:tid 139785300133632] [remote 127.0.0.1:44078] Not Found: /wp-content/plugins/xnxx/xnxx.php
[Mon Nov 05 23:19:51.816959 2018] [wsgi:error] [pid 36791:tid 139785308526336] [remote 127.0.0.1:51300] Not Found: /xmlrpc.php
[Mon Nov 05 23:19:51.976682 2018] [wsgi:error] [pid 36790:tid 139785300133632] [remote 127.0.0.1:51316] Not Found: /xmlrpc.php
[Mon Nov 05 23:19:52.313571 2018] [wsgi:error] [pid 36791:tid 139785367275264] [remote 127.0.0.1:51330] Not Found: /xmlrpc.php
[Mon Nov 05 23:19:52.493837 2018] [wsgi:error] [pid 36790:tid 139785308526336] [remote 127.0.0.1:51338] Not Found: /xmlrpc.php
[Mon Nov 05 23:54:35.013198 2018] [wsgi:error] [pid 36791:tid 139785308526336] [remote 127.0.0.1:39922] Not Found: /wso.php
[Mon Nov 05 23:57:39.117610 2018] [wsgi:error] [pid 36790:tid 139785308526336] [remote 127.0.0.1:46472] Not Found: /learn/
[Tue Nov 06 00:08:22.716179 2018] [wsgi:error] [pid 36790:tid 139785300133632] [remote 127.0.0.1:53410] Not Found: /xmlrpc.php
[Tue Nov 06 00:08:47.440269 2018] [wsgi:error] [pid 36791:tid 139785308526336] [remote 127.0.0.1:54528] Not Found: /wp-admin/setup-config.php
[Tue Nov 06 01:27:19.587102 2018] [wsgi:error] [pid 36790:tid 139785300133632] [remote 127.0.0.1:47150] Not Found: /xmlrpc.php
[Tue Nov 06 01:27:19.751189 2018] [wsgi:error] [pid 36791:tid 139785308526336] [remote 127.0.0.1:47156] Not Found: /wp-login.php
[Tue Nov 06 01:53:49.008252 2018] [wsgi:error] [pid 36790:tid 139785300133632] [remote 127.0.0.1:35136] Not Found: /wp-content/uploads/logo_img.php
[Tue Nov 06 02:17:08.965706 2018] [wsgi:error] [pid 36790:tid 139785308526336] [remote 127.0.0.1:53330] Not Found: /xmlrpc.php
