[Sat Nov 03 03:33:45 2018] [error] [client 127.0.0.1] Target WSGI script not found or unable to stat: /home/radicalg/webapps/looklala/looklalasite/wsgi.py
[Sun Nov 04 01:27:40 2018] [error] [client 127.0.0.1] Target WSGI script not found or unable to stat: /home/radicalg/webapps/looklala/looklalasite/wsgi.py
[Sun Nov 04 01:27:42 2018] [error] [client 127.0.0.1] Target WSGI script not found or unable to stat: /home/radicalg/webapps/looklala/looklalasite/wsgi.py
