[Wed Oct 31 14:09:31 2018] [error] [client 127.0.0.1] Target WSGI script not found or unable to stat: /home/radicalg/webapps/looklala/looklalasite/wsgi.py, referer: http://radicalg.webfactional.com
[Wed Oct 31 14:09:32 2018] [error] [client 127.0.0.1] Target WSGI script not found or unable to stat: /home/radicalg/webapps/looklala/looklalasite/wsgi.py, referer: http://radicalg.webfactional.com
[Wed Oct 31 17:14:59 2018] [error] [client 127.0.0.1] Target WSGI script not found or unable to stat: /home/radicalg/webapps/looklala/looklalasite/wsgi.py
[Wed Oct 31 18:20:00 2018] [error] [client 127.0.0.1] Target WSGI script not found or unable to stat: /home/radicalg/webapps/looklala/looklalasite/wsgi.py
[Thu Nov 01 01:43:49 2018] [error] [client 127.0.0.1] Target WSGI script not found or unable to stat: /home/radicalg/webapps/looklala/looklalasite/wsgi.py
[Thu Nov 01 01:44:10 2018] [error] [client 127.0.0.1] Target WSGI script not found or unable to stat: /home/radicalg/webapps/looklala/looklalasite/wsgi.py
