[Sun Nov 04 04:54:56.897490 2018] [wsgi:error] [pid 41633:tid 139911648356096] Not Found: /
[Sun Nov 04 06:30:58.378232 2018] [wsgi:error] [pid 41634:tid 139911732283136] Not Found: /
[Sun Nov 04 10:00:35.495749 2018] [wsgi:error] [pid 41633:tid 139911740675840] Not Found: /
[Sun Nov 04 15:45:54.644087 2018] [wsgi:error] [pid 41634:tid 139911673534208] Not Found: /
[Sun Nov 04 17:07:55.433681 2018] [wsgi:error] [pid 41633:tid 139911648356096] Not Found: /wp/wp-admin/setup-config.php
[Sun Nov 04 17:07:55.535231 2018] [wsgi:error] [pid 41634:tid 139911732283136] Not Found: /wordpress/wp-admin/setup-config.php
[Sun Nov 04 22:11:14.470692 2018] [wsgi:error] [pid 41633:tid 139911740675840] Not Found: /robots.txt
[Sun Nov 04 22:11:14.559797 2018] [wsgi:error] [pid 41634:tid 139911673534208] Not Found: /xmlrpc.php
[Sun Nov 04 22:11:14.645958 2018] [wsgi:error] [pid 41633:tid 139911648356096] Not Found: /
[Sun Nov 04 22:11:14.729378 2018] [wsgi:error] [pid 41634:tid 139911732283136] Not Found: /blog/robots.txt
[Sun Nov 04 22:11:14.829423 2018] [wsgi:error] [pid 41634:tid 139911673534208] Not Found: /blog/
[Sun Nov 04 22:11:14.926856 2018] [wsgi:error] [pid 41634:tid 139911732283136] Not Found: /wordpress/
[Sun Nov 04 22:11:15.018847 2018] [wsgi:error] [pid 41633:tid 139911740675840] Not Found: /wp/
[Mon Nov 05 01:37:23.771747 2018] [wsgi:error] [pid 41634:tid 139911673534208] Not Found: /
