[Sat Nov 03 03:55:04.822755 2018] [wsgi:error] [pid 36790:tid 139785283348224] [remote 127.0.0.1:33594] Not Found: /wp-login.php
[Sat Nov 03 03:57:07.447169 2018] [wsgi:error] [pid 36791:tid 139785300133632] [remote 127.0.0.1:39150] Not Found: /wp-login.php
[Sat Nov 03 04:04:51.941968 2018] [wsgi:error] [pid 36790:tid 139785367275264] [remote 127.0.0.1:36242] Not Found: /xmlrpc.php
[Sat Nov 03 04:04:52.092553 2018] [wsgi:error] [pid 36790:tid 139785283348224] [remote 127.0.0.1:36260] Not Found: /xmlrpc.php
[Sat Nov 03 04:58:10.697958 2018] [wsgi:error] [pid 36790:tid 139785367275264] [remote 127.0.0.1:49520] Not Found: /xmlrpc.php
[Sat Nov 03 05:49:17.669507 2018] [wsgi:error] [pid 36791:tid 139785205180160] [remote 127.0.0.1:45216] Not Found: /sec.php
[Sat Nov 03 06:23:40.525822 2018] [wsgi:error] [pid 36790:tid 139785283348224] [remote 127.0.0.1:43150] Not Found: /work-case-sample/
[Sat Nov 03 07:09:42.805437 2018] [wsgi:error] [pid 36790:tid 139785367275264] [remote 127.0.0.1:34104] Not Found: /xmlrpc.php
[Sat Nov 03 07:25:03.107646 2018] [wsgi:error] [pid 36791:tid 139785205180160] [remote 127.0.0.1:40928] Not Found: /robots.txt
[Sat Nov 03 07:25:54.953686 2018] [wsgi:error] [pid 36790:tid 139785283348224] [remote 127.0.0.1:43766] Not Found: /index_files/analytics.js.download
[Sat Nov 03 07:25:55.009332 2018] [wsgi:error] [pid 36791:tid 139785205180160] [remote 127.0.0.1:43768] Not Found: /index_files/analytics.js(1).download
[Sat Nov 03 07:25:55.139674 2018] [wsgi:error] [pid 36790:tid 139785367275264] [remote 127.0.0.1:43770] Not Found: /index_files/wp-emoji-release.min.js.download
[Sat Nov 03 07:25:55.183870 2018] [wsgi:error] [pid 36790:tid 139785283348224] [remote 127.0.0.1:43778] Not Found: /index_files/jquery.webui-popover.min.css
[Sat Nov 03 07:25:55.220202 2018] [wsgi:error] [pid 36791:tid 139785300133632] [remote 127.0.0.1:43780] Not Found: /index_files/lifterlms.min.css
[Sat Nov 03 07:25:55.259804 2018] [wsgi:error] [pid 36790:tid 139785367275264] [remote 127.0.0.1:43782] Not Found: /index_files/style(1).css
[Sat Nov 03 07:25:55.298120 2018] [wsgi:error] [pid 36791:tid 139785205180160] [remote 127.0.0.1:43784] Not Found: /index_files/css
[Sat Nov 03 07:25:55.335982 2018] [wsgi:error] [pid 36790:tid 139785283348224] [remote 127.0.0.1:43786] Not Found: /index_files/spectrum.css
[Sat Nov 03 07:25:55.373306 2018] [wsgi:error] [pid 36791:tid 139785300133632] [remote 127.0.0.1:43790] Not Found: /index_files/svgavatars.css
[Sat Nov 03 07:25:55.399244 2018] [wsgi:error] [pid 36791:tid 139785205180160] [remote 127.0.0.1:43796] Not Found: /index_files/style.css
[Sat Nov 03 07:25:55.399523 2018] [wsgi:error] [pid 36790:tid 139785367275264] [remote 127.0.0.1:43792] Not Found: /index_files/styles.css
[Sat Nov 03 07:25:55.403676 2018] [wsgi:error] [pid 36790:tid 139785283348224] [remote 127.0.0.1:43794] Not Found: /index_files/rtl.css
[Sat Nov 03 07:25:55.404879 2018] [wsgi:error] [pid 36791:tid 139785300133632] [remote 127.0.0.1:43800] Not Found: /index_files/front.min.css
[Sat Nov 03 07:25:55.410620 2018] [wsgi:error] [pid 36790:tid 139785300133632] [remote 127.0.0.1:43802] Not Found: /index_files/svgavatars-custom.css
[Sat Nov 03 07:25:55.439690 2018] [wsgi:error] [pid 36791:tid 139785367275264] [remote 127.0.0.1:43804] Not Found: /index_files/frontend-forms.css
[Sat Nov 03 07:25:55.443929 2018] [wsgi:error] [pid 36790:tid 139785283348224] [remote 127.0.0.1:43806] Not Found: /index_files/jquery-ui-1.9.1.custom.css
[Sat Nov 03 07:25:55.445748 2018] [wsgi:error] [pid 36791:tid 139785300133632] [remote 127.0.0.1:43808] Not Found: /index_files/sweetalert2.css
[Sat Nov 03 07:25:55.447973 2018] [wsgi:error] [pid 36790:tid 139785300133632] [remote 127.0.0.1:43810] Not Found: /index_files/style(2).css
[Sat Nov 03 07:25:55.451749 2018] [wsgi:error] [pid 36791:tid 139785205180160] [remote 127.0.0.1:43812] Not Found: /index_files/css(1)
[Sat Nov 03 07:25:55.486636 2018] [wsgi:error] [pid 36791:tid 139785308526336] [remote 127.0.0.1:43814] Not Found: /index_files/css(2)
[Sat Nov 03 07:25:55.487515 2018] [wsgi:error] [pid 36790:tid 139785367275264] [remote 127.0.0.1:43816] Not Found: /index_files/style(3).css
[Sat Nov 03 07:25:55.492169 2018] [wsgi:error] [pid 36790:tid 139785300133632] [remote 127.0.0.1:43820] Not Found: /index_files/style(4).css
[Sat Nov 03 07:25:55.493393 2018] [wsgi:error] [pid 36791:tid 139785300133632] [remote 127.0.0.1:43822] Not Found: /index_files/css(3)
[Sat Nov 03 07:25:55.497924 2018] [wsgi:error] [pid 36791:tid 139785205180160] [remote 127.0.0.1:43818] Not Found: /index_files/css-stars.css
[Sat Nov 03 07:25:55.524937 2018] [wsgi:error] [pid 36790:tid 139785283348224] [remote 127.0.0.1:43824] Not Found: /index_files/style(5).css
[Sat Nov 03 07:25:55.527096 2018] [wsgi:error] [pid 36791:tid 139785367275264] [remote 127.0.0.1:43826] Not Found: /index_files/css(4)
[Sat Nov 03 07:25:55.529815 2018] [wsgi:error] [pid 36790:tid 139785300133632] [remote 127.0.0.1:43828] Not Found: /index_files/dashicons.min.css
[Sat Nov 03 07:25:55.532645 2018] [wsgi:error] [pid 36791:tid 139785205180160] [remote 127.0.0.1:43830] Not Found: /index_files/et-extra-customizer-global-15393515465325.min.css
[Sat Nov 03 07:25:55.538938 2018] [wsgi:error] [pid 36790:tid 139785367275264] [remote 127.0.0.1:43832] Not Found: /index_files/classic-10_7.css
[Sat Nov 03 07:25:55.567599 2018] [wsgi:error] [pid 36790:tid 139785300133632] [remote 127.0.0.1:43840] Not Found: /index_files/jquery.js.download
[Sat Nov 03 07:25:55.568116 2018] [wsgi:error] [pid 36791:tid 139785300133632] [remote 127.0.0.1:43836] Not Found: /index_files/mediaelementplayer-legacy.min.css
[Sat Nov 03 07:25:55.574470 2018] [wsgi:error] [pid 36791:tid 139785205180160] [remote 127.0.0.1:43838] Not Found: /index_files/wp-mediaelement.min.css
[Sat Nov 03 07:25:55.578028 2018] [wsgi:error] [pid 36790:tid 139785367275264] [remote 127.0.0.1:43844] Not Found: /index_files/front.min.js.download
[Sat Nov 03 07:25:55.579074 2018] [wsgi:error] [pid 36791:tid 139785367275264] [remote 127.0.0.1:43842] Not Found: /index_files/jquery-migrate.min.js.download
[Sat Nov 03 07:25:55.604306 2018] [wsgi:error] [pid 36791:tid 139785308526336] [remote 127.0.0.1:43846] Not Found: /index_files/core.min.js.download
[Sat Nov 03 07:25:55.612580 2018] [wsgi:error] [pid 36790:tid 139785300133632] [remote 127.0.0.1:43848] Not Found: /index_files/widget.min.js.download
[Sat Nov 03 07:25:55.614478 2018] [wsgi:error] [pid 36791:tid 139785367275264] [remote 127.0.0.1:43852] Not Found: /index_files/collapse.js.download
[Sat Nov 03 07:25:55.617898 2018] [wsgi:error] [pid 36790:tid 139785367275264] [remote 127.0.0.1:43850] Not Found: /index_files/datepicker.min.js.download
[Sat Nov 03 07:25:55.619465 2018] [wsgi:error] [pid 36791:tid 139785308526336] [remote 127.0.0.1:43854] Not Found: /index_files/mouse.min.js.download
[Sat Nov 03 07:25:55.642972 2018] [wsgi:error] [pid 36790:tid 139785283348224] [remote 127.0.0.1:43858] Not Found: /index_files/transition.js.download
[Sat Nov 03 07:25:55.650573 2018] [wsgi:error] [pid 36791:tid 139785205180160] [remote 127.0.0.1:43860] Not Found: /index_files/svg.min.js.download
[Sat Nov 03 07:25:55.655934 2018] [wsgi:error] [pid 36791:tid 139785308526336] [remote 127.0.0.1:43862] Not Found: /index_files/spectrum.min.js.download
[Sat Nov 03 07:25:55.657152 2018] [wsgi:error] [pid 36790:tid 139785367275264] [remote 127.0.0.1:43864] Not Found: /index_files/jquery.scrollbar.min.js.download
[Sat Nov 03 07:25:55.659891 2018] [wsgi:error] [pid 36791:tid 139785367275264] [remote 127.0.0.1:43866] Not Found: /index_files/rgbcolor.js.download
[Sat Nov 03 07:25:55.679795 2018] [wsgi:error] [pid 36790:tid 139785283348224] [remote 127.0.0.1:43868] Not Found: /index_files/StackBlur.js.download
[Sat Nov 03 07:25:55.687500 2018] [wsgi:error] [pid 36791:tid 139785205180160] [remote 127.0.0.1:43872] Not Found: /index_files/canvg.js.download
[Sat Nov 03 07:25:55.698848 2018] [wsgi:error] [pid 36791:tid 139785367275264] [remote 127.0.0.1:43874] Not Found: /index_files/svgavatars.result.min.js.download
[Sat Nov 03 07:25:55.705088 2018] [wsgi:error] [pid 36791:tid 139785205180160] [remote 127.0.0.1:43876] Not Found: /index_files/moxie.min.js.download
[Sat Nov 03 07:25:55.705192 2018] [wsgi:error] [pid 36790:tid 139785367275264] [remote 127.0.0.1:43878] Not Found: /index_files/plupload.min.js.download
[Sat Nov 03 07:25:55.716956 2018] [wsgi:error] [pid 36791:tid 139785308526336] [remote 127.0.0.1:43880] Not Found: /index_files/handlers.min.js.download
[Sat Nov 03 07:25:55.722984 2018] [wsgi:error] [pid 36791:tid 139785205180160] [remote 127.0.0.1:43882] Not Found: /index_files/jquery-ui-timepicker-addon.js.download
[Sat Nov 03 07:25:55.744866 2018] [wsgi:error] [pid 36790:tid 139785283348224] [remote 127.0.0.1:43886] Not Found: /index_files/sortable.min.js.download
[Sat Nov 03 07:25:55.745577 2018] [wsgi:error] [pid 36791:tid 139785308526336] [remote 127.0.0.1:43888] Not Found: /index_files/upload.js.download
[Sat Nov 03 07:25:55.749990 2018] [wsgi:error] [pid 36790:tid 139785367275264] [remote 127.0.0.1:43890] Not Found: /index_files/frontend-form.min.js.download
[Sat Nov 03 07:25:55.754932 2018] [wsgi:error] [pid 36791:tid 139785205180160] [remote 127.0.0.1:43892] Not Found: /index_files/sweetalert2.js.download
[Sat Nov 03 07:25:55.759090 2018] [wsgi:error] [pid 36790:tid 139785300133632] [remote 127.0.0.1:43894] Not Found: /index_files/jquery.barrating.min.js.download
[Sat Nov 03 07:25:55.780772 2018] [wsgi:error] [pid 36791:tid 139785308526336] [remote 127.0.0.1:43896] Not Found: /index_files/billing-address.js.download
[Sat Nov 03 07:25:55.967595 2018] [wsgi:error] [pid 36791:tid 139785205180160] [remote 127.0.0.1:43900] Not Found: /index_files/front.min.js.download
[Sat Nov 03 07:25:55.979679 2018] [wsgi:error] [pid 36790:tid 139785367275264] [remote 127.0.0.1:43902] Not Found: /index_files/mc-validate.js.download
[Sat Nov 03 07:25:56.021746 2018] [wsgi:error] [pid 36791:tid 139785308526336] [remote 127.0.0.1:43904] Not Found: /index_files/core.min.js.download
[Sat Nov 03 07:25:56.031414 2018] [wsgi:error] [pid 36791:tid 139785205180160] [remote 127.0.0.1:43906] Not Found: /index_files/llms.min.js.download
[Sat Nov 03 07:25:56.094867 2018] [wsgi:error] [pid 36790:tid 139785300133632] [remote 127.0.0.1:43908] Not Found: /index_files/widget.min.js.download
[Sat Nov 03 07:25:56.108631 2018] [wsgi:error] [pid 36791:tid 139785308526336] [remote 127.0.0.1:43910] Not Found: /index_files/scripts.js.download
[Sat Nov 03 07:25:56.140135 2018] [wsgi:error] [pid 36790:tid 139785367275264] [remote 127.0.0.1:43912] Not Found: /index_files/datepicker.min.js.download
[Sat Nov 03 07:25:56.163654 2018] [wsgi:error] [pid 36791:tid 139785205180160] [remote 127.0.0.1:43914] Not Found: /index_files/position.min.js.download
[Sat Nov 03 07:25:56.185975 2018] [wsgi:error] [pid 36790:tid 139785300133632] [remote 127.0.0.1:43916] Not Found: /index_files/mouse.min.js.download
[Sat Nov 03 07:25:56.208921 2018] [wsgi:error] [pid 36791:tid 139785308526336] [remote 127.0.0.1:43918] Not Found: /index_files/tooltip.min.js.download
[Sat Nov 03 07:25:56.230808 2018] [wsgi:error] [pid 36790:tid 139785367275264] [remote 127.0.0.1:43920] Not Found: /index_files/collapse.js.download
[Sat Nov 03 07:25:56.251296 2018] [wsgi:error] [pid 36791:tid 139785205180160] [remote 127.0.0.1:43922] Not Found: /index_files/slider.min.js.download
[Sat Nov 03 07:25:56.279171 2018] [wsgi:error] [pid 36791:tid 139785308526336] [remote 127.0.0.1:43924] Not Found: /index_files/transition.js.download
[Sat Nov 03 07:25:56.294396 2018] [wsgi:error] [pid 36791:tid 139785205180160] [remote 127.0.0.1:43926] Not Found: /index_files/jquery.webui-popover.min.js.download
[Sat Nov 03 07:25:56.327655 2018] [wsgi:error] [pid 36791:tid 139785308526336] [remote 127.0.0.1:43930] Not Found: /index_files/svg.min.js.download
[Sat Nov 03 07:25:56.335612 2018] [wsgi:error] [pid 36791:tid 139785205180160] [remote 127.0.0.1:43932] Not Found: /index_files/llms-ajax.min.js.download
[Sat Nov 03 07:25:56.370473 2018] [wsgi:error] [pid 36790:tid 139785300133632] [remote 127.0.0.1:43934] Not Found: /index_files/spectrum.min.js.download
[Sat Nov 03 07:25:56.377406 2018] [wsgi:error] [pid 36791:tid 139785308526336] [remote 127.0.0.1:43936] Not Found: /index_files/llms-form-checkout.min.js.download
[Sat Nov 03 07:25:56.418224 2018] [wsgi:error] [pid 36790:tid 139785367275264] [remote 127.0.0.1:43938] Not Found: /index_files/jquery.scrollbar.min.js.download
[Sat Nov 03 07:25:56.422883 2018] [wsgi:error] [pid 36790:tid 139785300133632] [remote 127.0.0.1:43940] Not Found: /index_files/menu.min.js.download
[Sat Nov 03 07:25:56.464811 2018] [wsgi:error] [pid 36790:tid 139785283348224] [remote 127.0.0.1:43942] Not Found: /index_files/rgbcolor.js.download
[Sat Nov 03 07:25:56.474000 2018] [wsgi:error] [pid 36791:tid 139785205180160] [remote 127.0.0.1:43944] Not Found: /index_files/wp-a11y.min.js.download
[Sat Nov 03 07:25:56.511368 2018] [wsgi:error] [pid 36790:tid 139785300133632] [remote 127.0.0.1:43946] Not Found: /index_files/StackBlur.js.download
[Sat Nov 03 07:25:56.513477 2018] [wsgi:error] [pid 36791:tid 139785308526336] [remote 127.0.0.1:43948] Not Found: /index_files/autocomplete.min.js.download
[Sat Nov 03 07:25:56.553260 2018] [wsgi:error] [pid 36791:tid 139785205180160] [remote 127.0.0.1:43951] Not Found: /index_files/canvg.js.download
[Sat Nov 03 07:25:56.555590 2018] [wsgi:error] [pid 36790:tid 139785283348224] [remote 127.0.0.1:43952] Not Found: /index_files/suggest.min.js.download
[Sat Nov 03 07:25:56.598279 2018] [wsgi:error] [pid 36791:tid 139785308526336] [remote 127.0.0.1:43954] Not Found: /index_files/svgavatars.result.min.js.download
[Sat Nov 03 07:25:56.599484 2018] [wsgi:error] [pid 36790:tid 139785300133632] [remote 127.0.0.1:43956] Not Found: /index_files/subscriptions.js.download
[Sat Nov 03 07:25:56.639029 2018] [wsgi:error] [pid 36791:tid 139785205180160] [remote 127.0.0.1:43958] Not Found: /index_files/moxie.min.js.download
[Sat Nov 03 07:25:56.639500 2018] [wsgi:error] [pid 36790:tid 139785283348224] [remote 127.0.0.1:43960] Not Found: /index_files/idle-timer.min.js.download
[Sat Nov 03 07:25:56.683630 2018] [wsgi:error] [pid 36791:tid 139785308526336] [remote 127.0.0.1:43964] Not Found: /index_files/custom.js.download
[Sat Nov 03 07:25:56.684334 2018] [wsgi:error] [pid 36790:tid 139785300133632] [remote 127.0.0.1:43966] Not Found: /index_files/plupload.min.js.download
[Sat Nov 03 07:25:56.736844 2018] [wsgi:error] [pid 36790:tid 139785283348224] [remote 127.0.0.1:43974] Not Found: /index_files/handlers.min.js.download
[Sat Nov 03 07:25:56.737725 2018] [wsgi:error] [pid 36791:tid 139785205180160] [remote 127.0.0.1:43972] Not Found: /index_files/conditional-logic.js.download
[Sat Nov 03 07:25:56.786315 2018] [wsgi:error] [pid 36791:tid 139785308526336] [remote 127.0.0.1:43976] Not Found: /index_files/jquery-ui-timepicker-addon.js.download
[Sat Nov 03 07:25:56.787426 2018] [wsgi:error] [pid 36790:tid 139785300133632] [remote 127.0.0.1:43978] Not Found: /index_files/masonry.min.js.download
[Sat Nov 03 07:25:56.831292 2018] [wsgi:error] [pid 36791:tid 139785205180160] [remote 127.0.0.1:43982] Not Found: /index_files/sortable.min.js.download
[Sat Nov 03 07:25:56.849569 2018] [wsgi:error] [pid 36791:tid 139785308526336] [remote 127.0.0.1:43984] Not Found: /index_files/scripts.min.js.download
[Sat Nov 03 07:25:56.874214 2018] [wsgi:error] [pid 36790:tid 139785283348224] [remote 127.0.0.1:43986] Not Found: /index_files/upload.js.download
[Sat Nov 03 07:25:56.890996 2018] [wsgi:error] [pid 36791:tid 139785205180160] [remote 127.0.0.1:43990] Not Found: /index_files/common.js.download
[Sat Nov 03 07:25:56.952419 2018] [wsgi:error] [pid 36791:tid 139785308526336] [remote 127.0.0.1:43995] Not Found: /index_files/frontend-form.min.js.download
[Sat Nov 03 07:25:56.954394 2018] [wsgi:error] [pid 36790:tid 139785300133632] [remote 127.0.0.1:43996] Not Found: /index_files/wp-embed.min.js.download
[Sat Nov 03 07:25:57.028415 2018] [wsgi:error] [pid 36790:tid 139785283348224] [remote 127.0.0.1:44004] Not Found: /index_files/mediaelement-and-player.min.js.download
[Sat Nov 03 07:25:57.046976 2018] [wsgi:error] [pid 36791:tid 139785205180160] [remote 127.0.0.1:44006] Not Found: /index_files/sweetalert2.js.download
[Sat Nov 03 07:25:57.073048 2018] [wsgi:error] [pid 36790:tid 139785300133632] [remote 127.0.0.1:44010] Not Found: /index_files/mediaelement-migrate.min.js.download
[Sat Nov 03 07:25:57.093256 2018] [wsgi:error] [pid 36790:tid 139785283348224] [remote 127.0.0.1:44014] Not Found: /index_files/jquery.barrating.min.js.download
[Sat Nov 03 07:25:57.146444 2018] [wsgi:error] [pid 36791:tid 139785308526336] [remote 127.0.0.1:44016] Not Found: /index_files/wp-mediaelement.min.js.download
[Sat Nov 03 07:25:57.202426 2018] [wsgi:error] [pid 36790:tid 139785300133632] [remote 127.0.0.1:44018] Not Found: /index_files/billing-address.js.download
[Sat Nov 03 07:25:57.202615 2018] [wsgi:error] [pid 36791:tid 139785205180160] [remote 127.0.0.1:44020] Not Found: /index_files/wp-emoji-release.min.js(1).download
[Sat Nov 03 07:25:57.260220 2018] [wsgi:error] [pid 36791:tid 139785308526336] [remote 127.0.0.1:44024] Not Found: /index_files/et-extra-customizer-global-15393515465325.min.css
[Sat Nov 03 07:25:57.260369 2018] [wsgi:error] [pid 36790:tid 139785283348224] [remote 127.0.0.1:44022] Not Found: /index_files/classic-10_7.css
[Sat Nov 03 07:25:57.265213 2018] [wsgi:error] [pid 36790:tid 139785300133632] [remote 127.0.0.1:44026] Not Found: /index_files/mc-validate.js.download
[Sat Nov 03 07:25:57.331715 2018] [wsgi:error] [pid 36790:tid 139785367275264] [remote 127.0.0.1:44028] Not Found: /index_files/NINJA_LOGO_WEB.png
[Sat Nov 03 07:25:57.334269 2018] [wsgi:error] [pid 36791:tid 139785205180160] [remote 127.0.0.1:44030] Not Found: /index_files/Home_watis01.png
[Sat Nov 03 07:25:57.338198 2018] [wsgi:error] [pid 36790:tid 139785283348224] [remote 127.0.0.1:44036] Not Found: /index_files/team2-1.jpg
[Sat Nov 03 07:25:57.340559 2018] [wsgi:error] [pid 36791:tid 139785308526336] [remote 127.0.0.1:44034] Not Found: /index_files/Beter-logo.png
[Sat Nov 03 07:25:57.342892 2018] [wsgi:error] [pid 36790:tid 139785300133632] [remote 127.0.0.1:44032] Not Found: /index_files/logo_volzin.png
[Sat Nov 03 07:25:57.345211 2018] [wsgi:error] [pid 36791:tid 139785367275264] [remote 127.0.0.1:44038] Not Found: /index_files/sands.jpg
[Sat Nov 03 07:25:57.382606 2018] [wsgi:error] [pid 36790:tid 139785300133632] [remote 127.0.0.1:44042] Not Found: /index_files/mediaelementplayer-legacy.min.css
[Sat Nov 03 07:25:57.387668 2018] [wsgi:error] [pid 36790:tid 139785308526336] [remote 127.0.0.1:44040] Not Found: /index_files/wp-mediaelement.min.css
[Sat Nov 03 07:25:57.396689 2018] [wsgi:error] [pid 36791:tid 139785300133632] [remote 127.0.0.1:44044] Not Found: /index_files/Ninja_esra.png
[Sat Nov 03 07:25:57.397652 2018] [wsgi:error] [pid 36790:tid 139785283348224] [remote 127.0.0.1:44046] Not Found: /index_files/Ninja_jose.png
[Sat Nov 03 07:25:57.401885 2018] [wsgi:error] [pid 36791:tid 139785367275264] [remote 127.0.0.1:44048] Not Found: /index_files/Ninja_manuel.png
[Sat Nov 03 07:25:57.402765 2018] [wsgi:error] [pid 36790:tid 139785308526336] [remote 127.0.0.1:44050] Not Found: /index_files/Ninja_elwyn.png
[Sat Nov 03 07:25:57.441876 2018] [wsgi:error] [pid 36791:tid 139785308526336] [remote 127.0.0.1:44054] Not Found: /index_files/logo_JAMIENEE.png
[Sat Nov 03 07:25:57.446628 2018] [wsgi:error] [pid 36790:tid 139785300133632] [remote 127.0.0.1:44056] Not Found: /index_files/llms.min.js.download
[Sat Nov 03 07:25:57.489647 2018] [wsgi:error] [pid 36790:tid 139785308526336] [remote 127.0.0.1:44058] Not Found: /index_files/scripts.js.download
[Sat Nov 03 07:25:57.648414 2018] [wsgi:error] [pid 36791:tid 139785367275264] [remote 127.0.0.1:44068] Not Found: /index_files/position.min.js.download
[Sat Nov 03 07:25:57.697767 2018] [wsgi:error] [pid 36790:tid 139785300133632] [remote 127.0.0.1:44072] Not Found: /index_files/tooltip.min.js.download
[Sat Nov 03 07:25:57.740197 2018] [wsgi:error] [pid 36791:tid 139785308526336] [remote 127.0.0.1:44074] Not Found: /index_files/slider.min.js.download
[Sat Nov 03 07:25:57.787123 2018] [wsgi:error] [pid 36790:tid 139785308526336] [remote 127.0.0.1:44078] Not Found: /index_files/jquery.webui-popover.min.js.download
[Sat Nov 03 07:25:57.835591 2018] [wsgi:error] [pid 36791:tid 139785367275264] [remote 127.0.0.1:44080] Not Found: /index_files/llms-ajax.min.js.download
[Sat Nov 03 07:25:57.883256 2018] [wsgi:error] [pid 36790:tid 139785300133632] [remote 127.0.0.1:44084] Not Found: /index_files/llms-form-checkout.min.js.download
[Sat Nov 03 07:25:57.928686 2018] [wsgi:error] [pid 36791:tid 139785308526336] [remote 127.0.0.1:44088] Not Found: /index_files/menu.min.js.download
[Sat Nov 03 07:25:57.982361 2018] [wsgi:error] [pid 36790:tid 139785308526336] [remote 127.0.0.1:44090] Not Found: /index_files/wp-a11y.min.js.download
[Sat Nov 03 07:25:58.033621 2018] [wsgi:error] [pid 36791:tid 139785367275264] [remote 127.0.0.1:44096] Not Found: /index_files/autocomplete.min.js.download
[Sat Nov 03 07:25:58.074812 2018] [wsgi:error] [pid 36790:tid 139785300133632] [remote 127.0.0.1:44098] Not Found: /index_files/suggest.min.js.download
[Sat Nov 03 07:25:58.120376 2018] [wsgi:error] [pid 36791:tid 139785308526336] [remote 127.0.0.1:44102] Not Found: /index_files/subscriptions.js.download
[Sat Nov 03 07:25:58.163810 2018] [wsgi:error] [pid 36790:tid 139785308526336] [remote 127.0.0.1:44110] Not Found: /index_files/idle-timer.min.js.download
[Sat Nov 03 07:25:58.211103 2018] [wsgi:error] [pid 36791:tid 139785367275264] [remote 127.0.0.1:44112] Not Found: /index_files/custom.js.download
[Sat Nov 03 07:25:58.255880 2018] [wsgi:error] [pid 36790:tid 139785300133632] [remote 127.0.0.1:44116] Not Found: /index_files/conditional-logic.js.download
[Sat Nov 03 07:25:58.296682 2018] [wsgi:error] [pid 36791:tid 139785308526336] [remote 127.0.0.1:44118] Not Found: /index_files/masonry.min.js.download
[Sat Nov 03 07:25:58.338465 2018] [wsgi:error] [pid 36790:tid 139785308526336] [remote 127.0.0.1:44122] Not Found: /index_files/scripts.min.js.download
[Sat Nov 03 07:25:58.380377 2018] [wsgi:error] [pid 36790:tid 139785300133632] [remote 127.0.0.1:44126] Not Found: /index_files/common.js.download
[Sat Nov 03 07:25:58.421774 2018] [wsgi:error] [pid 36791:tid 139785367275264] [remote 127.0.0.1:44130] Not Found: /index_files/wp-embed.min.js.download
[Sat Nov 03 07:25:58.472430 2018] [wsgi:error] [pid 36790:tid 139785308526336] [remote 127.0.0.1:44132] Not Found: /index_files/mediaelement-and-player.min.js.download
[Sat Nov 03 07:25:58.524864 2018] [wsgi:error] [pid 36791:tid 139785308526336] [remote 127.0.0.1:44134] Not Found: /index_files/mediaelement-migrate.min.js.download
[Sat Nov 03 07:25:58.572980 2018] [wsgi:error] [pid 36790:tid 139785300133632] [remote 127.0.0.1:44136] Not Found: /index_files/wp-mediaelement.min.js.download
[Sat Nov 03 07:31:24.318202 2018] [wsgi:error] [pid 36791:tid 139785367275264] [remote 127.0.0.1:36146] Not Found: /xmlrpc.php
[Sat Nov 03 07:31:24.640750 2018] [wsgi:error] [pid 36791:tid 139785308526336] [remote 127.0.0.1:36168] Not Found: /xmlrpc.php
[Sat Nov 03 07:31:24.718262 2018] [wsgi:error] [pid 36790:tid 139785308526336] [remote 127.0.0.1:36177] Not Found: /xmlrpc.php
[Sat Nov 03 07:31:24.802024 2018] [wsgi:error] [pid 36791:tid 139785367275264] [remote 127.0.0.1:36186] Not Found: /xmlrpc.php
[Sat Nov 03 08:47:46.217844 2018] [wsgi:error] [pid 36790:tid 139785300133632] [remote 127.0.0.1:57850] Not Found: /robots.txt
[Sat Nov 03 08:47:46.482508 2018] [wsgi:error] [pid 36791:tid 139785308526336] [remote 127.0.0.1:57864] Not Found: /xmlrpc.php
[Sat Nov 03 08:47:48.073051 2018] [wsgi:error] [pid 36791:tid 139785367275264] [remote 127.0.0.1:57974] Not Found: /wp-json/wp/v2/users/
[Sat Nov 03 08:47:49.644198 2018] [wsgi:error] [pid 36790:tid 139785308526336] [remote 127.0.0.1:58080] Not Found: /xmlrpc.php
[Sat Nov 03 09:03:33.629070 2018] [wsgi:error] [pid 36791:tid 139785308526336] [remote 127.0.0.1:44998] Not Found: /wp-login.php
[Sat Nov 03 09:24:42.768866 2018] [wsgi:error] [pid 36790:tid 139785300133632] [remote 127.0.0.1:51594] Not Found: /xmlrpc.php
[Sat Nov 03 09:53:44.439514 2018] [wsgi:error] [pid 36791:tid 139785367275264] [remote 127.0.0.1:34530] Not Found: /wp-login.php
[Sat Nov 03 10:25:51.517836 2018] [wsgi:error] [pid 36791:tid 139785308526336] [remote 127.0.0.1:53896] Not Found: /wp-content/wp-caches.php
[Sat Nov 03 10:28:40.589384 2018] [wsgi:error] [pid 36790:tid 139785308526336] [remote 127.0.0.1:39390] Not Found: /wp-content/plugins/html404/wso25.php
[Sat Nov 03 11:38:10.323852 2018] [wsgi:error] [pid 36791:tid 139785367275264] [remote 127.0.0.1:43154] Not Found: /xmlrpc.php
[Sat Nov 03 12:01:00.366620 2018] [wsgi:error] [pid 36790:tid 139785300133632] [remote 127.0.0.1:54118] Not Found: /wp-content/themes/twentyseventeen/comments.php
[Sat Nov 03 12:10:47.219844 2018] [wsgi:error] [pid 36791:tid 139785308526336] [remote 127.0.0.1:44433] Not Found: /samen-visualiseren/feed/
[Sat Nov 03 12:23:58.624082 2018] [wsgi:error] [pid 36790:tid 139785308526336] [remote 127.0.0.1:53708] Not Found: /wordpress/
[Sat Nov 03 12:23:59.790720 2018] [wsgi:error] [pid 36791:tid 139785308526336] [remote 127.0.0.1:53806] Not Found: /wp/
[Sat Nov 03 12:24:01.952812 2018] [wsgi:error] [pid 36790:tid 139785300133632] [remote 127.0.0.1:53998] Not Found: /blog/
[Sat Nov 03 12:24:03.248069 2018] [wsgi:error] [pid 36791:tid 139785367275264] [remote 127.0.0.1:54094] Not Found: /new/
[Sat Nov 03 12:24:07.434306 2018] [wsgi:error] [pid 36790:tid 139785308526336] [remote 127.0.0.1:54454] Not Found: /old/
[Sat Nov 03 12:24:09.221810 2018] [wsgi:error] [pid 36791:tid 139785308526336] [remote 127.0.0.1:54590] Not Found: /test/
[Sat Nov 03 13:07:42.338849 2018] [wsgi:error] [pid 36791:tid 139785367275264] [remote 127.0.0.1:54318] Not Found: /index_files/styles.css
[Sat Nov 03 13:16:15.753256 2018] [wsgi:error] [pid 36790:tid 139785308526336] [remote 127.0.0.1:39126] Not Found: /wp-content/plugins/team-admin/2.php
[Sat Nov 03 13:16:22.578228 2018] [wsgi:error] [pid 36790:tid 139785300133632] [remote 127.0.0.1:39628] Not Found: /jm-ajax/upload_file/
[Sat Nov 03 13:16:34.741055 2018] [wsgi:error] [pid 36791:tid 139785308526336] [remote 127.0.0.1:40578] Not Found: /wp-content/plugins/console_contact_form/upload_file.php
[Sat Nov 03 13:41:02.449742 2018] [wsgi:error] [pid 36790:tid 139785300133632] [remote 127.0.0.1:36434] Not Found: /index_files/css
[Sat Nov 03 14:00:57.073137 2018] [wsgi:error] [pid 36791:tid 139785308526336] [remote 127.0.0.1:43082] Not Found: /xmlrpc.php
[Sat Nov 03 14:14:22.430207 2018] [wsgi:error] [pid 36790:tid 139785308526336] [remote 127.0.0.1:45140] Not Found: /wp-content/uploads/2016/05/JAM-Communicatietraining-Visueel-Denken_april-20161.pdf
[Sat Nov 03 16:11:26.409414 2018] [wsgi:error] [pid 36790:tid 139785300133632] [remote 127.0.0.1:51348] Not Found: /xmlrpc.php
[Sat Nov 03 16:12:26.419193 2018] [wsgi:error] [pid 36791:tid 139785308526336] [remote 127.0.0.1:56604] Not Found: /xmlrpc.php
[Sat Nov 03 16:12:26.774878 2018] [wsgi:error] [pid 36791:tid 139785367275264] [remote 127.0.0.1:56646] Not Found: /xmlrpc.php
[Sat Nov 03 16:12:26.833990 2018] [wsgi:error] [pid 36790:tid 139785308526336] [remote 127.0.0.1:56650] Not Found: /xmlrpc.php
[Sat Nov 03 16:12:26.848637 2018] [wsgi:error] [pid 36791:tid 139785308526336] [remote 127.0.0.1:56652] Not Found: /xmlrpc.php
[Sat Nov 03 16:47:16.977906 2018] [wsgi:error] [pid 36791:tid 139785308526336] [remote 127.0.0.1:41878] Not Found: /wp-includes/Text/Tiff.php
[Sat Nov 03 17:27:24.136667 2018] [wsgi:error] [pid 36790:tid 139785300133632] [remote 127.0.0.1:51248] Not Found: /methode-om-te-visualiseren-tijdens-een-gesprek/
[Sat Nov 03 18:20:11.723047 2018] [wsgi:error] [pid 36791:tid 139785367275264] [remote 127.0.0.1:53616] Not Found: /xmlrpc.php
[Sat Nov 03 19:32:37.551901 2018] [wsgi:error] [pid 36791:tid 139785367275264] [remote 127.0.0.1:58964] Not Found: /xmlrpc.php
[Sat Nov 03 19:32:37.565022 2018] [wsgi:error] [pid 36791:tid 139785308526336] [remote 127.0.0.1:58966] Not Found: /xmlrpc.php
[Sat Nov 03 20:29:04.496310 2018] [wsgi:error] [pid 36791:tid 139785308526336] [remote 127.0.0.1:37606] Not Found: /xmlrpc.php
[Sat Nov 03 21:25:25.146369 2018] [wsgi:error] [pid 36791:tid 139785367275264] [remote 127.0.0.1:47844] Not Found: /xmlrpz.php
[Sat Nov 03 21:25:30.836666 2018] [wsgi:error] [pid 36790:tid 139785300133632] [remote 127.0.0.1:48340] Not Found: /xmlrpz.php
[Sat Nov 03 22:07:56.853251 2018] [wsgi:error] [pid 36791:tid 139785308526336] [remote 127.0.0.1:39258] Not Found: /wp-login.php
[Sat Nov 03 22:38:03.262679 2018] [wsgi:error] [pid 36790:tid 139785308526336] [remote 127.0.0.1:50572] Not Found: /xmlrpc.php
[Sat Nov 03 23:57:43.154180 2018] [wsgi:error] [pid 36791:tid 139785367275264] [remote 127.0.0.1:42164] Not Found: /wp-content/themes/twentysixteen/inc/customizer.php
[Sun Nov 04 00:46:48.042659 2018] [wsgi:error] [pid 36790:tid 139785300133632] [remote 127.0.0.1:52700] Not Found: /xmlrpc.php
[Sun Nov 04 01:09:31.659582 2018] [wsgi:error] [pid 36790:tid 139785308526336] [remote 127.0.0.1:50652] Not Found: /xmlrpc.php
[Sun Nov 04 01:09:32.212151 2018] [wsgi:error] [pid 36791:tid 139785308526336] [remote 127.0.0.1:50678] Not Found: /xmlrpc.php
[Sun Nov 04 01:09:32.369482 2018] [wsgi:error] [pid 36790:tid 139785300133632] [remote 127.0.0.1:50687] Not Found: /xmlrpc.php
[Sun Nov 04 01:09:32.449160 2018] [wsgi:error] [pid 36791:tid 139785367275264] [remote 127.0.0.1:50688] Not Found: /xmlrpc.php
[Sun Nov 04 01:44:54.868242 2018] [wsgi:error] [pid 36790:tid 139785308526336] [remote 127.0.0.1:48980] Not Found: /wp-content/plugins/reflex-gallery/admin/scripts/FileUploader/php.php
[Sun Nov 04 01:46:49.749796 2018] [wsgi:error] [pid 36790:tid 139785300133632] [remote 127.0.0.1:55358] Not Found: /robots.txt
[Sun Nov 04 01:47:28.792774 2018] [wsgi:error] [pid 36790:tid 139785308526336] [remote 127.0.0.1:57420] Not Found: /index_files/css(4)
[Sun Nov 04 01:47:29.857556 2018] [wsgi:error] [pid 36791:tid 139785367275264] [remote 127.0.0.1:57440] Not Found: /index_files/collapse.js.download
[Sun Nov 04 01:47:30.819367 2018] [wsgi:error] [pid 36790:tid 139785300133632] [remote 127.0.0.1:57472] Not Found: /index_files/wp-embed.min.js.download
[Sun Nov 04 01:47:31.864251 2018] [wsgi:error] [pid 36791:tid 139785308526336] [remote 127.0.0.1:57498] Not Found: /index_files/front.min.js.download
[Sun Nov 04 01:47:32.898891 2018] [wsgi:error] [pid 36790:tid 139785308526336] [remote 127.0.0.1:57558] Not Found: /index_files/css
[Sun Nov 04 02:10:25.110148 2018] [wsgi:error] [pid 36791:tid 139785367275264] [remote 127.0.0.1:46068] Not Found: /robots.txt
[Sun Nov 04 02:10:25.666603 2018] [wsgi:error] [pid 36790:tid 139785300133632] [remote 127.0.0.1:46102] Not Found: /jam/
[Sun Nov 04 02:58:15.650494 2018] [wsgi:error] [pid 36791:tid 139785367275264] [remote 127.0.0.1:34046] Not Found: /xmlrpc.php
