[Tue Nov 06 04:29:26.240265 2018] [wsgi:error] [pid 36791:tid 139785367275264] [remote 127.0.0.1:58096] Not Found: /xmlrpc.php
[Tue Nov 06 04:34:40.308778 2018] [wsgi:error] [pid 36791:tid 139785308526336] [remote 127.0.0.1:44626] Not Found: /logo_img.php.suspected
[Tue Nov 06 05:11:16.458479 2018] [wsgi:error] [pid 36790:tid 139785300133632] [remote 127.0.0.1:39338] Not Found: /wp-content/upgrade/theme-compat/popup-pomo.php
[Tue Nov 06 06:39:21.314196 2018] [wsgi:error] [pid 36791:tid 139785308526336] [remote 127.0.0.1:56932] Not Found: /xmlrpc.php
[Tue Nov 06 07:37:39.748745 2018] [wsgi:error] [pid 36791:tid 139785308526336] [remote 127.0.0.1:43764] Not Found: /xmlrpc.php
[Tue Nov 06 07:37:39.908276 2018] [wsgi:error] [pid 36790:tid 139785308526336] [remote 127.0.0.1:43772] Not Found: /xmlrpc.php
[Tue Nov 06 07:44:37.381853 2018] [wsgi:error] [pid 36791:tid 139785367275264] [remote 127.0.0.1:42480] Not Found: /wp-login.php
[Tue Nov 06 08:05:28.307112 2018] [wsgi:error] [pid 36791:tid 139785308526336] [remote 127.0.0.1:46478] Not Found: /user.php
[Tue Nov 06 08:05:45.619121 2018] [wsgi:error] [pid 36790:tid 139785300133632] [remote 127.0.0.1:47520] Not Found: /user.php
[Tue Nov 06 08:15:35.035864 2018] [wsgi:error] [pid 36790:tid 139785308526336] [remote 127.0.0.1:58424] Not Found: /htaccess.php
[Tue Nov 06 08:15:40.444638 2018] [wsgi:error] [pid 36791:tid 139785367275264] [remote 127.0.0.1:58838] Not Found: /htaccess.php
[Tue Nov 06 08:50:14.110249 2018] [wsgi:error] [pid 36791:tid 139785308526336] [remote 127.0.0.1:54934] Not Found: /xmlrpc.php
[Tue Nov 06 08:54:22.985018 2018] [wsgi:error] [pid 36790:tid 139785300133632] [remote 127.0.0.1:44572] Not Found: /xmlrpc.php
[Tue Nov 06 08:54:23.336141 2018] [wsgi:error] [pid 36790:tid 139785308526336] [remote 127.0.0.1:44586] Not Found: /xmlrpc.php
[Tue Nov 06 08:54:23.349019 2018] [wsgi:error] [pid 36790:tid 139785300133632] [remote 127.0.0.1:44588] Not Found: /xmlrpc.php
[Tue Nov 06 08:54:26.553919 2018] [wsgi:error] [pid 36790:tid 139785308526336] [remote 127.0.0.1:44760] Not Found: /xmlrpc.php
[Tue Nov 06 10:36:21.495943 2018] [wsgi:error] [pid 36791:tid 139785308526336] [remote 127.0.0.1:57700] Not Found: /xmlrpc.php
[Tue Nov 06 10:36:21.719657 2018] [wsgi:error] [pid 36790:tid 139785300133632] [remote 127.0.0.1:57718] Not Found: /wp-login.php
[Tue Nov 06 11:04:12.285589 2018] [wsgi:error] [pid 36790:tid 139785308526336] [remote 127.0.0.1:35284] Not Found: /xmlrpc.php
[Tue Nov 06 13:35:47.599691 2018] [wsgi:error] [pid 36791:tid 139785367275264] [remote 127.0.0.1:38276] Not Found: /wp-includes/css/css.php
[Tue Nov 06 13:37:08.971470 2018] [wsgi:error] [pid 36790:tid 139785300133632] [remote 127.0.0.1:43750] Not Found: /xmlrpc.php
[Tue Nov 06 15:02:37.623561 2018] [wsgi:error] [pid 36791:tid 139785308526336] [remote 127.0.0.1:47290] Not Found: /wp-blog-mail.php
[Tue Nov 06 15:02:38.845338 2018] [wsgi:error] [pid 36790:tid 139785308526336] [remote 127.0.0.1:47326] Not Found: /wp-blog-mail.php
[Tue Nov 06 15:03:17.145644 2018] [wsgi:error] [pid 36791:tid 139785367275264] [remote 127.0.0.1:50154] Not Found: /wp-blog-mail.php
[Tue Nov 06 15:03:24.196490 2018] [wsgi:error] [pid 36790:tid 139785300133632] [remote 127.0.0.1:50480] Not Found: /wp-blog-mail.php
[Tue Nov 06 15:04:48.411640 2018] [wsgi:error] [pid 36791:tid 139785308526336] [remote 127.0.0.1:58142] Not Found: /robots.txt
[Tue Nov 06 15:04:48.524971 2018] [wsgi:error] [pid 36790:tid 139785308526336] [remote 127.0.0.1:58150] Not Found: /robots.txt
[Tue Nov 06 15:07:42.420484 2018] [wsgi:error] [pid 36790:tid 139785308526336] [remote 127.0.0.1:41284] Not Found: /wp-admin/network/green.php
[Tue Nov 06 15:40:20.078278 2018] [wsgi:error] [pid 36790:tid 139785300133632] [remote 127.0.0.1:43984] Not Found: /wp-caches.php
[Tue Nov 06 15:43:48.179568 2018] [wsgi:error] [pid 36791:tid 139785367275264] [remote 127.0.0.1:59174] Not Found: /wp-logout.php
[Tue Nov 06 15:47:32.368773 2018] [wsgi:error] [pid 36790:tid 139785308526336] [remote 127.0.0.1:46522] Not Found: /wp-content/plugins/ajax-user/zz.php.pjpeg
[Tue Nov 06 15:47:35.074505 2018] [wsgi:error] [pid 36791:tid 139785308526336] [remote 127.0.0.1:46698] Not Found: /wp-content/plugins/ajax-user/zz.php.pjpeg
[Tue Nov 06 15:51:36.585450 2018] [wsgi:error] [pid 36790:tid 139785300133632] [remote 127.0.0.1:37878] Not Found: /xmlrpc.php
[Tue Nov 06 16:07:01.529024 2018] [wsgi:error] [pid 36791:tid 139785367275264] [remote 127.0.0.1:44250] Not Found: /wp-backup.php
[Tue Nov 06 16:38:42.774385 2018] [wsgi:error] [pid 36790:tid 139785308526336] [remote 127.0.0.1:55214] Not Found: /wp-json/wp/v2/users/
[Tue Nov 06 16:38:43.344629 2018] [wsgi:error] [pid 36791:tid 139785308526336] [remote 127.0.0.1:55244] Not Found: /xmlrpc.php
[Tue Nov 06 16:38:43.423253 2018] [wsgi:error] [pid 36790:tid 139785300133632] [remote 127.0.0.1:55252] Not Found: /xmlrpc.php
[Tue Nov 06 17:19:33.825855 2018] [wsgi:error] [pid 36790:tid 139785300133632] [remote 127.0.0.1:58790] Not Found: /wp-admin/network/green.php
[Tue Nov 06 17:19:37.231685 2018] [wsgi:error] [pid 36791:tid 139785308526336] [remote 127.0.0.1:59008] Not Found: /wp-admin/network/green.php
[Tue Nov 06 17:19:38.319767 2018] [wsgi:error] [pid 36790:tid 139785308526336] [remote 127.0.0.1:59086] Not Found: /wp-admin/network/green.php
[Tue Nov 06 17:41:21.721808 2018] [wsgi:error] [pid 36790:tid 139785300133632] [remote 127.0.0.1:37068] Not Found: /robots.txt
[Tue Nov 06 18:19:37.567755 2018] [wsgi:error] [pid 36791:tid 139785308526336] [remote 127.0.0.1:33646] Not Found: /xmlrpc.php
[Tue Nov 06 18:19:37.588587 2018] [wsgi:error] [pid 36790:tid 139785308526336] [remote 127.0.0.1:33650] Not Found: /xmlrpc.php
[Tue Nov 06 18:19:37.903921 2018] [wsgi:error] [pid 36790:tid 139785300133632] [remote 127.0.0.1:33664] Not Found: /xmlrpc.php
[Tue Nov 06 18:19:37.992897 2018] [wsgi:error] [pid 36791:tid 139785367275264] [remote 127.0.0.1:33672] Not Found: /xmlrpc.php
[Tue Nov 06 18:45:06.416940 2018] [wsgi:error] [pid 36790:tid 139785308526336] [remote 127.0.0.1:37411] Not Found: /wp-system.php
[Tue Nov 06 18:45:19.316451 2018] [wsgi:error] [pid 36791:tid 139785308526336] [remote 127.0.0.1:38504] Not Found: /wp-system.php
[Tue Nov 06 19:01:56.222488 2018] [wsgi:error] [pid 36790:tid 139785300133632] [remote 127.0.0.1:55444] Not Found: /wp-includes/admin_login.php
[Tue Nov 06 19:02:00.980150 2018] [wsgi:error] [pid 36791:tid 139785308526336] [remote 127.0.0.1:55730] Not Found: /wp-includes/admin_login.php
[Tue Nov 06 19:24:15.525971 2018] [wsgi:error] [pid 36790:tid 139785300133632] [remote 127.0.0.1:44506] Not Found: /robots.txt
[Tue Nov 06 19:24:16.084011 2018] [wsgi:error] [pid 36790:tid 139785308526336] [remote 127.0.0.1:44560] Not Found: /vrouwen-kapsels-in-4-stappen/
[Tue Nov 06 20:09:20.308132 2018] [wsgi:error] [pid 36791:tid 139785367275264] [remote 127.0.0.1:54556] Not Found: /wp-admin/logo_img.php
[Tue Nov 06 20:09:30.119274 2018] [wsgi:error] [pid 36790:tid 139785308526336] [remote 127.0.0.1:55464] Not Found: /wp-admin/logo_img.php
[Tue Nov 06 20:30:52.617870 2018] [wsgi:error] [pid 36790:tid 139785300133632] [remote 127.0.0.1:54636] Not Found: /wp-login.php
[Tue Nov 06 20:31:02.066201 2018] [wsgi:error] [pid 36791:tid 139785367275264] [remote 127.0.0.1:55486] Not Found: /wp-login.php
[Tue Nov 06 21:02:35.940457 2018] [wsgi:error] [pid 36790:tid 139785300133632] [remote 127.0.0.1:33856] Not Found: /installer-backup.php
[Tue Nov 06 21:16:14.952858 2018] [wsgi:error] [pid 36790:tid 139785308526336] [remote 127.0.0.1:37202] Not Found: /rois.php
[Tue Nov 06 21:16:20.466759 2018] [wsgi:error] [pid 36791:tid 139785367275264] [remote 127.0.0.1:37474] Not Found: /rois.php
[Tue Nov 06 22:35:40.509866 2018] [wsgi:error] [pid 36791:tid 139785308526336] [remote 127.0.0.1:46804] Not Found: /xmlrpc.php
[Tue Nov 06 22:35:40.667468 2018] [wsgi:error] [pid 36790:tid 139785300133632] [remote 127.0.0.1:46810] Not Found: /xmlrpc.php
[Tue Nov 06 22:53:10.529035 2018] [wsgi:error] [pid 36791:tid 139785308526336] [remote 127.0.0.1:52186] Not Found: /wp-admin/includes/images.php
[Tue Nov 06 22:55:12.228939 2018] [wsgi:error] [pid 36790:tid 139785308526336] [remote 127.0.0.1:58856] Not Found: /wp-system.php
[Tue Nov 06 22:55:15.785596 2018] [wsgi:error] [pid 36791:tid 139785367275264] [remote 127.0.0.1:58998] Not Found: /wp-system.php
[Wed Nov 07 01:58:03.519677 2018] [wsgi:error] [pid 36790:tid 139785300133632] [remote 127.0.0.1:49656] Not Found: /wp-login.php
[Wed Nov 07 01:58:03.637415 2018] [wsgi:error] [pid 36791:tid 139785308526336] [remote 127.0.0.1:49662] Not Found: /wp-login.php
