[Sun Nov 04 04:00:49.570534 2018] [wsgi:error] [pid 36791:tid 139785308526336] [remote 127.0.0.1:36504] Not Found: /wp-includes/wp-caches.php
[Sun Nov 04 04:00:59.986072 2018] [wsgi:error] [pid 36790:tid 139785300133632] [remote 127.0.0.1:37022] Not Found: /wp-includes/wp-caches.php
[Sun Nov 04 04:23:35.778695 2018] [wsgi:error] [pid 36791:tid 139785367275264] [remote 127.0.0.1:38642] Not Found: /wp-admin/wp-caches.php
[Sun Nov 04 04:23:40.359942 2018] [wsgi:error] [pid 36790:tid 139785308526336] [remote 127.0.0.1:38920] Not Found: /wp-admin/wp-caches.php
[Sun Nov 04 05:14:21.430516 2018] [wsgi:error] [pid 36791:tid 139785308526336] [remote 127.0.0.1:57652] Not Found: /xmlrpc.php
[Sun Nov 04 05:15:50.699856 2018] [wsgi:error] [pid 36790:tid 139785300133632] [remote 127.0.0.1:32816] Not Found: /wp-content/plugins/wp-seo/wp-seo.php
[Sun Nov 04 05:16:00.119801 2018] [wsgi:error] [pid 36791:tid 139785367275264] [remote 127.0.0.1:33144] Not Found: /wp-content/plugins/wp-seo/wp-seo.php
[Sun Nov 04 07:28:53.628471 2018] [wsgi:error] [pid 36791:tid 139785367275264] [remote 127.0.0.1:60060] Not Found: /xmlrpc.php
[Sun Nov 04 07:58:32.021535 2018] [wsgi:error] [pid 36790:tid 139785308526336] [remote 127.0.0.1:45176] Not Found: /_.php
[Sun Nov 04 07:58:33.901899 2018] [wsgi:error] [pid 36791:tid 139785308526336] [remote 127.0.0.1:45212] Not Found: /_.php
[Sun Nov 04 09:19:48.489190 2018] [wsgi:error] [pid 36791:tid 139785308526336] [remote 127.0.0.1:53206] Not Found: /index_files/svgavatars-custom.css
[Sun Nov 04 09:26:29.378176 2018] [wsgi:error] [pid 36790:tid 139785308526336] [remote 127.0.0.1:49960] Not Found: /robots.txt
[Sun Nov 04 09:46:07.881960 2018] [wsgi:error] [pid 36791:tid 139785367275264] [remote 127.0.0.1:47352] Not Found: /xmlrpc.php
[Sun Nov 04 10:12:09.225804 2018] [wsgi:error] [pid 36790:tid 139785300133632] [remote 127.0.0.1:35776] Not Found: /xmlrpc.php
[Sun Nov 04 10:12:09.471948 2018] [wsgi:error] [pid 36791:tid 139785308526336] [remote 127.0.0.1:35786] Not Found: /xmlrpc.php
[Sun Nov 04 10:12:09.648185 2018] [wsgi:error] [pid 36790:tid 139785308526336] [remote 127.0.0.1:35792] Not Found: /xmlrpc.php
[Sun Nov 04 10:12:10.351502 2018] [wsgi:error] [pid 36791:tid 139785367275264] [remote 127.0.0.1:35854] Not Found: /xmlrpc.php
[Sun Nov 04 10:23:45.463275 2018] [wsgi:error] [pid 36790:tid 139785300133632] [remote 127.0.0.1:46900] Not Found: /xmlrpc.php
[Sun Nov 04 10:23:45.944597 2018] [wsgi:error] [pid 36790:tid 139785308526336] [remote 127.0.0.1:46936] Not Found: /xmlrpc.php
[Sun Nov 04 10:41:05.562109 2018] [wsgi:error] [pid 36791:tid 139785308526336] [remote 127.0.0.1:45364] Not Found: /robots.txt
[Sun Nov 04 10:41:08.142690 2018] [wsgi:error] [pid 36790:tid 139785300133632] [remote 127.0.0.1:45464] Not Found: /index_files/wp-mediaelement.min.css
[Sun Nov 04 10:41:09.133384 2018] [wsgi:error] [pid 36791:tid 139785308526336] [remote 127.0.0.1:45486] Not Found: /index_files/styles.css
[Sun Nov 04 10:41:11.572530 2018] [wsgi:error] [pid 36790:tid 139785308526336] [remote 127.0.0.1:45603] Not Found: /index_files/widget.min.js.download
[Sun Nov 04 10:41:13.086975 2018] [wsgi:error] [pid 36791:tid 139785367275264] [remote 127.0.0.1:45632] Not Found: /index_files/style(4).css
[Sun Nov 04 10:41:14.776767 2018] [wsgi:error] [pid 36790:tid 139785300133632] [remote 127.0.0.1:45706] Not Found: /index_files/wp-a11y.min.js.download
[Sun Nov 04 10:41:15.421163 2018] [wsgi:error] [pid 36791:tid 139785308526336] [remote 127.0.0.1:45724] Not Found: /index_files/collapse.js.download
[Sun Nov 04 10:41:16.730169 2018] [wsgi:error] [pid 36790:tid 139785308526336] [remote 127.0.0.1:45760] Not Found: /index_files/css-stars.css
[Sun Nov 04 10:41:17.507205 2018] [wsgi:error] [pid 36791:tid 139785367275264] [remote 127.0.0.1:45780] Not Found: /index_files/lifterlms.min.css
[Sun Nov 04 10:41:18.310678 2018] [wsgi:error] [pid 36790:tid 139785300133632] [remote 127.0.0.1:45794] Not Found: /index_files/style(2).css
[Sun Nov 04 10:42:33.364551 2018] [wsgi:error] [pid 36791:tid 139785308526336] [remote 127.0.0.1:49780] Not Found: /index_files/style.css
[Sun Nov 04 10:42:34.541526 2018] [wsgi:error] [pid 36790:tid 139785308526336] [remote 127.0.0.1:49864] Not Found: /index_files/style(1).css
[Sun Nov 04 12:05:25.053129 2018] [wsgi:error] [pid 36791:tid 139785367275264] [remote 127.0.0.1:40276] Not Found: /xmlrpc.php
[Sun Nov 04 14:15:04.986287 2018] [wsgi:error] [pid 36790:tid 139785300133632] [remote 127.0.0.1:41302] Not Found: /robots.txt
[Sun Nov 04 14:15:05.104036 2018] [wsgi:error] [pid 36791:tid 139785308526336] [remote 127.0.0.1:41314] Not Found: /robots.txt
[Sun Nov 04 14:28:06.831324 2018] [wsgi:error] [pid 36790:tid 139785300133632] [remote 127.0.0.1:60318] Not Found: /.git/info/refs
[Sun Nov 04 14:30:49.704450 2018] [wsgi:error] [pid 36791:tid 139785308526336] [remote 127.0.0.1:46584] Not Found: /xmlrpc.php
[Sun Nov 04 16:01:27.434430 2018] [wsgi:error] [pid 36791:tid 139785367275264] [remote 127.0.0.1:35090] Not Found: /wp-content/themes/twentysixteen/inc/customizer.php
[Sun Nov 04 16:41:58.527076 2018] [wsgi:error] [pid 36790:tid 139785300133632] [remote 127.0.0.1:59096] Not Found: /xmlrpc.php
[Sun Nov 04 18:11:09.562366 2018] [wsgi:error] [pid 36790:tid 139785300133632] [remote 127.0.0.1:44992] Not Found: /kickstart.php
[Sun Nov 04 18:50:59.480949 2018] [wsgi:error] [pid 36790:tid 139785308526336] [remote 127.0.0.1:50096] Not Found: /xmlrpc.php
[Sun Nov 04 19:07:13.051139 2018] [wsgi:error] [pid 36791:tid 139785308526336] [remote 127.0.0.1:34342] Not Found: /methode-om-te-visualiseren-tijdens-een-gesprek/
[Sun Nov 04 19:21:36.086835 2018] [wsgi:error] [pid 36790:tid 139785300133632] [remote 127.0.0.1:43428] Not Found: /robots.txt
[Sun Nov 04 19:23:40.108511 2018] [wsgi:error] [pid 36790:tid 139785308526336] [remote 127.0.0.1:54838] Not Found: /robots.txt
[Sun Nov 04 19:24:12.358600 2018] [wsgi:error] [pid 36791:tid 139785367275264] [remote 127.0.0.1:56872] Not Found: /freya/
[Sun Nov 04 19:26:33.370704 2018] [wsgi:error] [pid 36790:tid 139785300133632] [remote 127.0.0.1:36888] Not Found: /robots.txt
[Sun Nov 04 19:39:52.213195 2018] [wsgi:error] [pid 36791:tid 139785367275264] [remote 127.0.0.1:45808] Not Found: /xmlrpc.php
[Sun Nov 04 19:39:52.542508 2018] [wsgi:error] [pid 36790:tid 139785308526336] [remote 127.0.0.1:45834] Not Found: /xmlrpc.php
[Sun Nov 04 19:39:52.675196 2018] [wsgi:error] [pid 36790:tid 139785300133632] [remote 127.0.0.1:45844] Not Found: /xmlrpc.php
[Sun Nov 04 19:39:52.686477 2018] [wsgi:error] [pid 36791:tid 139785308526336] [remote 127.0.0.1:45846] Not Found: /xmlrpc.php
[Sun Nov 04 19:45:41.294141 2018] [wsgi:error] [pid 36790:tid 139785300133632] [remote 127.0.0.1:44866] Not Found: /wp-content/plugins/Aviliate/user.php
[Sun Nov 04 21:02:05.623870 2018] [wsgi:error] [pid 36791:tid 139785367275264] [remote 127.0.0.1:52374] Not Found: /xmlrpc.php
[Sun Nov 04 21:24:57.295522 2018] [wsgi:error] [pid 36790:tid 139785308526336] [remote 127.0.0.1:55172] Not Found: /wp-content/plugins/vcrm/x.php
[Sun Nov 04 22:51:23.180817 2018] [wsgi:error] [pid 36791:tid 139785308526336] [remote 127.0.0.1:52238] Not Found: /jam/
[Sun Nov 04 23:12:34.236655 2018] [wsgi:error] [pid 36790:tid 139785300133632] [remote 127.0.0.1:34250] Not Found: /xmlrpc.php
[Mon Nov 05 01:07:50.471684 2018] [wsgi:error] [pid 36791:tid 139785308526336] [remote 127.0.0.1:35524] Not Found: /wp-content/themes/ThisWay/includes/uploadify/upload_settings_image.php
[Mon Nov 05 01:25:46.099364 2018] [wsgi:error] [pid 36790:tid 139785300133632] [remote 127.0.0.1:45744] Not Found: /xmlrpc.php
[Mon Nov 05 01:34:45.382732 2018] [wsgi:error] [pid 36791:tid 139785367275264] [remote 127.0.0.1:37902] Not Found: /wp-content/uploads/2016/05/JAM-Communicatietraining-Visueel-Denken_april-20161.pdf
[Mon Nov 05 01:47:22.855057 2018] [wsgi:error] [pid 36791:tid 139785308526336] [remote 127.0.0.1:39578] Not Found: /wp-json/wp/v2/users/
[Mon Nov 05 01:47:23.176065 2018] [wsgi:error] [pid 36790:tid 139785300133632] [remote 127.0.0.1:39610] Not Found: /xmlrpc.php
[Mon Nov 05 01:47:23.257357 2018] [wsgi:error] [pid 36791:tid 139785367275264] [remote 127.0.0.1:39632] Not Found: /xmlrpc.php
[Mon Nov 05 02:32:32.485811 2018] [wsgi:error] [pid 36790:tid 139785308526336] [remote 127.0.0.1:46986] Not Found: /xmlrpc.php
[Mon Nov 05 02:32:32.676006 2018] [wsgi:error] [pid 36791:tid 139785308526336] [remote 127.0.0.1:47008] Not Found: /xmlrpc.php
