[Sun Nov 04 04:16:50 2018] [error] [client 127.0.0.1] Target WSGI script not found or unable to stat: /home/radicalg/webapps/looklala/looklalasite/wsgi.py
[Sun Nov 04 04:16:50 2018] [error] [client 127.0.0.1] Target WSGI script not found or unable to stat: /home/radicalg/webapps/looklala/looklalasite/wsgi.py
[Sun Nov 04 04:16:50 2018] [error] [client 127.0.0.1] Target WSGI script not found or unable to stat: /home/radicalg/webapps/looklala/looklalasite/wsgi.py
[Sun Nov 04 04:16:50 2018] [error] [client 127.0.0.1] Target WSGI script not found or unable to stat: /home/radicalg/webapps/looklala/looklalasite/wsgi.py
[Sun Nov 04 04:16:50 2018] [error] [client 127.0.0.1] Target WSGI script not found or unable to stat: /home/radicalg/webapps/looklala/looklalasite/wsgi.py
[Sun Nov 04 04:16:50 2018] [error] [client 127.0.0.1] Target WSGI script not found or unable to stat: /home/radicalg/webapps/looklala/looklalasite/wsgi.py
[Sun Nov 04 04:16:50 2018] [error] [client 127.0.0.1] Target WSGI script not found or unable to stat: /home/radicalg/webapps/looklala/looklalasite/wsgi.py
[Sun Nov 04 04:16:51 2018] [error] [client 127.0.0.1] Target WSGI script not found or unable to stat: /home/radicalg/webapps/looklala/looklalasite/wsgi.py
[Sun Nov 04 04:16:51 2018] [error] [client 127.0.0.1] Target WSGI script not found or unable to stat: /home/radicalg/webapps/looklala/looklalasite/wsgi.py
