[Fri Nov 02 08:31:49.543600 2018] [wsgi:error] [pid 41633:tid 139911648356096] Not Found: /
[Fri Nov 02 09:14:48.249540 2018] [wsgi:error] [pid 41634:tid 139911673534208] Not Found: /
[Fri Nov 02 09:31:52.220426 2018] [wsgi:error] [pid 41633:tid 139911740675840] Not Found: /
[Fri Nov 02 12:14:40.660471 2018] [wsgi:error] [pid 41634:tid 139911732283136] Not Found: /
[Fri Nov 02 12:18:36.327922 2018] [wsgi:error] [pid 41633:tid 139911648356096] Not Found: /
[Fri Nov 02 13:54:26.248568 2018] [wsgi:error] [pid 41634:tid 139911673534208] Not Found: /
[Fri Nov 02 14:00:46.660949 2018] [wsgi:error] [pid 41633:tid 139911740675840] Not Found: /
[Sat Nov 03 00:55:31.129433 2018] [wsgi:error] [pid 41634:tid 139911732283136] Not Found: /
