[Thu Nov 01 03:54:02.997185 2018] [wsgi:error] [pid 41634:tid 139911732283136] Not Found: /robots.txt
[Thu Nov 01 04:06:02.146386 2018] [wsgi:error] [pid 41633:tid 139911648356096] Not Found: /
[Thu Nov 01 04:09:33.506468 2018] [wsgi:error] [pid 41634:tid 139911673534208] Not Found: /robots.txt
[Thu Nov 01 04:36:01.913570 2018] [wsgi:error] [pid 41633:tid 139911740675840] Not Found: /
[Thu Nov 01 06:47:28.302391 2018] [wsgi:error] [pid 41634:tid 139911732283136] Not Found: /
[Thu Nov 01 06:47:29.263583 2018] [wsgi:error] [pid 41633:tid 139911648356096] Not Found: /
[Thu Nov 01 06:47:30.589602 2018] [wsgi:error] [pid 41634:tid 139911673534208] Not Found: /
[Thu Nov 01 06:47:41.556664 2018] [wsgi:error] [pid 41634:tid 139911732283136] Not Found: /wp-login.php
[Thu Nov 01 06:47:43.895084 2018] [wsgi:error] [pid 41634:tid 139911673534208] Not Found: /
[Thu Nov 01 06:47:45.271639 2018] [wsgi:error] [pid 41633:tid 139911740675840] Not Found: /index.php
[Thu Nov 01 06:47:46.936818 2018] [wsgi:error] [pid 41634:tid 139911732283136] Not Found: /user/register
[Thu Nov 01 07:02:22.199419 2018] [wsgi:error] [pid 41633:tid 139911648356096] Not Found: /
[Thu Nov 01 11:09:21.794396 2018] [wsgi:error] [pid 41634:tid 139911673534208] Not Found: /
[Thu Nov 01 11:11:04.229357 2018] [wsgi:error] [pid 41633:tid 139911740675840] Not Found: /
[Thu Nov 01 11:46:48.596247 2018] [wsgi:error] [pid 41634:tid 139911732283136] Not Found: /robots.txt
[Thu Nov 01 11:46:48.612861 2018] [wsgi:error] [pid 41633:tid 139911648356096] Not Found: /robots.txt
[Thu Nov 01 11:47:39.168940 2018] [wsgi:error] [pid 41634:tid 139911673534208] Not Found: /
[Thu Nov 01 15:39:45.118873 2018] [wsgi:error] [pid 41633:tid 139911740675840] Not Found: /
[Thu Nov 01 19:22:57.659403 2018] [wsgi:error] [pid 41634:tid 139911732283136] Not Found: /
