[Thu Nov 01 03:21:56.591725 2018] [wsgi:error] [pid 36791:tid 139785367275264] [remote 127.0.0.1:54488] Not Found: /xmlrpc.php
[Thu Nov 01 04:59:30.624158 2018] [wsgi:error] [pid 36791:tid 139785300133632] [remote 127.0.0.1:49776] Not Found: /index.php
[Thu Nov 01 05:24:07.061058 2018] [wsgi:error] [pid 36791:tid 139785367275264] [remote 127.0.0.1:60760] Not Found: /xmlrpc.php
[Thu Nov 01 05:24:07.542018 2018] [wsgi:error] [pid 36790:tid 139785367275264] [remote 127.0.0.1:60776] Not Found: /xmlrpc.php
[Thu Nov 01 05:24:07.635322 2018] [wsgi:error] [pid 36790:tid 139785300133632] [remote 127.0.0.1:60780] Not Found: /xmlrpc.php
[Thu Nov 01 05:24:07.720272 2018] [wsgi:error] [pid 36791:tid 139785300133632] [remote 127.0.0.1:60786] Not Found: /xmlrpc.php
[Thu Nov 01 05:32:28.923256 2018] [wsgi:error] [pid 36790:tid 139785367275264] [remote 127.0.0.1:36000] Not Found: /xmlrpc.php
[Thu Nov 01 06:06:24.624429 2018] [wsgi:error] [pid 36790:tid 139785367275264] [remote 127.0.0.1:34516] Not Found: /wp-admin/admin-ajax.php
[Thu Nov 01 06:39:44.578960 2018] [wsgi:error] [pid 36791:tid 139785300133632] [remote 127.0.0.1:49634] Not Found: /work-case-sample/
[Thu Nov 01 07:44:21.349770 2018] [wsgi:error] [pid 36791:tid 139785367275264] [remote 127.0.0.1:49602] Not Found: /xmlrpc.php
[Thu Nov 01 09:32:39.784682 2018] [wsgi:error] [pid 36791:tid 139785300133632] [remote 127.0.0.1:47216] Not Found: /xmlrpc.php
[Thu Nov 01 09:32:40.050098 2018] [wsgi:error] [pid 36790:tid 139785300133632] [remote 127.0.0.1:47230] Not Found: /xmlrpc.php
[Thu Nov 01 09:58:07.772174 2018] [wsgi:error] [pid 36791:tid 139785367275264] [remote 127.0.0.1:33772] Not Found: /xmlrpc.php
[Thu Nov 01 10:28:39.947195 2018] [wsgi:error] [pid 36791:tid 139785300133632] [remote 127.0.0.1:39428] Not Found: /robots.txt
[Thu Nov 01 10:28:41.564329 2018] [wsgi:error] [pid 36791:tid 139785367275264] [remote 127.0.0.1:39512] Not Found: /wp-content/themes/dikka-installable/style.css
[Thu Nov 01 10:28:42.514109 2018] [wsgi:error] [pid 36791:tid 139785300133632] [remote 127.0.0.1:39556] Not Found: /wp-content/themes/dikka-installable/assets/js/utils.js
[Thu Nov 01 10:28:43.448941 2018] [wsgi:error] [pid 36791:tid 139785367275264] [remote 127.0.0.1:39586] Not Found: /wp-content/themes/dikka-installable/assets/css/custom.css
[Thu Nov 01 10:28:45.184973 2018] [wsgi:error] [pid 36790:tid 139785300133632] [remote 127.0.0.1:39728] Not Found: /wp-content/themes/dikka-installable/assets/css/YTPlayer.css
[Thu Nov 01 10:28:46.102411 2018] [wsgi:error] [pid 36791:tid 139785300133632] [remote 127.0.0.1:39788] Not Found: /wp-content/themes/dikka-installable/assets/css/nivo_themes/default/default.css
[Thu Nov 01 10:28:47.124515 2018] [wsgi:error] [pid 36790:tid 139785367275264] [remote 127.0.0.1:39840] Not Found: /wp-content/themes/dikka-installable/assets/js/wow.js
[Thu Nov 01 10:28:48.810884 2018] [wsgi:error] [pid 36791:tid 139785367275264] [remote 127.0.0.1:40042] Not Found: /wp-content/plugins/revslider/public/assets/js/jquery.themepunch.revolution.min.js
[Thu Nov 01 10:28:49.710906 2018] [wsgi:error] [pid 36790:tid 139785300133632] [remote 127.0.0.1:40096] Not Found: /wp-content/themes/dikka-installable/assets/css/bootstrap.css
[Thu Nov 01 11:01:03.500536 2018] [wsgi:error] [pid 36791:tid 139785367275264] [remote 127.0.0.1:60357] Not Found: /wp-content/themes/twentyseventeen/sidebar.php
[Thu Nov 01 12:25:26.755599 2018] [wsgi:error] [pid 36790:tid 139785300133632] [remote 127.0.0.1:45742] Not Found: /xmlrpc.php
[Thu Nov 01 13:49:18.488646 2018] [wsgi:error] [pid 36790:tid 139785300133632] [remote 127.0.0.1:35380] Not Found: /xmlrpc.php
[Thu Nov 01 13:49:18.918878 2018] [wsgi:error] [pid 36791:tid 139785300133632] [remote 127.0.0.1:35396] Not Found: /xmlrpc.php
[Thu Nov 01 13:49:18.936993 2018] [wsgi:error] [pid 36790:tid 139785367275264] [remote 127.0.0.1:35398] Not Found: /xmlrpc.php
[Thu Nov 01 13:49:19.287281 2018] [wsgi:error] [pid 36791:tid 139785367275264] [remote 127.0.0.1:35418] Not Found: /xmlrpc.php
[Thu Nov 01 14:09:28.135955 2018] [wsgi:error] [pid 36791:tid 139785300133632] [remote 127.0.0.1:49970] Not Found: /wp-content/plugins/wp-mailinglist/vendors/uploadify/upload.php
[Thu Nov 01 14:10:22.331795 2018] [wsgi:error] [pid 36790:tid 139785367275264] [remote 127.0.0.1:55184] Not Found: /wp-login.php
[Thu Nov 01 14:49:41.709623 2018] [wsgi:error] [pid 36791:tid 139785300133632] [remote 127.0.0.1:60694] Not Found: /xmlrpc.php
[Thu Nov 01 15:05:39.921696 2018] [wsgi:error] [pid 36790:tid 139785367275264] [remote 127.0.0.1:55036] Not Found: /wp-content/themes/RightNow/includes/uploadify/upload_settings_image.php
[Thu Nov 01 17:08:04.523361 2018] [wsgi:error] [pid 36790:tid 139785300133632] [remote 127.0.0.1:34556] Not Found: /xmlrpc.php
[Thu Nov 01 19:23:37.914431 2018] [wsgi:error] [pid 36791:tid 139785367275264] [remote 127.0.0.1:57526] Not Found: /xmlrpc.php
[Thu Nov 01 19:55:42.371275 2018] [wsgi:error] [pid 36790:tid 139785300133632] [remote 127.0.0.1:43908] Not Found: /wp-upload-class.php
[Thu Nov 01 20:07:15.164809 2018] [wsgi:error] [pid 36791:tid 139785367275264] [remote 127.0.0.1:57952] Not Found: /robots.txt
[Thu Nov 01 20:07:15.720213 2018] [wsgi:error] [pid 36790:tid 139785300133632] [remote 127.0.0.1:57998] Not Found: /learn/
[Thu Nov 01 21:21:52.430253 2018] [wsgi:error] [pid 36791:tid 139785367275264] [remote 127.0.0.1:37189] Not Found: /wp-login.php
[Thu Nov 01 21:21:52.525222 2018] [wsgi:error] [pid 36790:tid 139785300133632] [remote 127.0.0.1:37204] Not Found: /wp-login.php
[Thu Nov 01 21:23:28.956382 2018] [wsgi:error] [pid 36791:tid 139785300133632] [remote 127.0.0.1:46780] Not Found: /seomarket.php
[Thu Nov 01 21:36:14.520267 2018] [wsgi:error] [pid 36791:tid 139785367275264] [remote 127.0.0.1:57352] Not Found: /xmlrpc.php
[Thu Nov 01 21:53:15.690190 2018] [wsgi:error] [pid 36791:tid 139785367275264] [remote 127.0.0.1:34378] Not Found: /robots.txt
[Thu Nov 01 21:53:15.958068 2018] [wsgi:error] [pid 36791:tid 139785300133632] [remote 127.0.0.1:34402] Not Found: /xmlrpc.php
[Thu Nov 01 21:53:17.543973 2018] [wsgi:error] [pid 36790:tid 139785367275264] [remote 127.0.0.1:34536] Not Found: /wp-json/wp/v2/users/
[Thu Nov 01 21:53:19.116394 2018] [wsgi:error] [pid 36791:tid 139785300133632] [remote 127.0.0.1:34650] Not Found: /xmlrpc.php
[Thu Nov 01 22:12:10.717844 2018] [wsgi:error] [pid 36790:tid 139785300133632] [remote 127.0.0.1:47160] Not Found: /xmlrpc.php
[Thu Nov 01 22:12:10.736250 2018] [wsgi:error] [pid 36791:tid 139785367275264] [remote 127.0.0.1:47164] Not Found: /xmlrpc.php
[Thu Nov 01 22:12:10.814182 2018] [wsgi:error] [pid 36790:tid 139785367275264] [remote 127.0.0.1:47172] Not Found: /xmlrpc.php
[Thu Nov 01 22:24:50.398450 2018] [wsgi:error] [pid 36790:tid 139785300133632] [remote 127.0.0.1:47332] Not Found: /wp-content/themes/twentyseventeen/search.php
[Thu Nov 01 22:44:17.863793 2018] [wsgi:error] [pid 36790:tid 139785300133632] [remote 127.0.0.1:44286] Not Found: /wp-main.php
[Thu Nov 01 23:33:44.881432 2018] [wsgi:error] [pid 36790:tid 139785367275264] [remote 127.0.0.1:39710] Not Found: /xmlrpc.php
[Thu Nov 01 23:33:45.036088 2018] [wsgi:error] [pid 36791:tid 139785300133632] [remote 127.0.0.1:39718] Not Found: /xmlrpc.php
[Thu Nov 01 23:45:13.750457 2018] [wsgi:error] [pid 36790:tid 139785300133632] [remote 127.0.0.1:56914] Not Found: /xmlrpc.php
[Fri Nov 02 01:56:05.000301 2018] [wsgi:error] [pid 36791:tid 139785367275264] [remote 127.0.0.1:46106] Not Found: /xmlrpc.php
[Fri Nov 02 02:04:31.760314 2018] [wsgi:error] [pid 36790:tid 139785367275264] [remote 127.0.0.1:47956] Not Found: /wp-clear.php
[Fri Nov 02 02:57:58.628637 2018] [wsgi:error] [pid 36790:tid 139785300133632] [remote 127.0.0.1:48934] Not Found: /wp-login.php
