[Fri Nov 02 15:43:35 2018] [error] [client 127.0.0.1] Target WSGI script not found or unable to stat: /home/radicalg/webapps/looklala/looklalasite/wsgi.py
[Fri Nov 02 15:45:03 2018] [error] [client 127.0.0.1] Target WSGI script not found or unable to stat: /home/radicalg/webapps/looklala/looklalasite/wsgi.py
[Fri Nov 02 20:35:32 2018] [error] [client 127.0.0.1] Target WSGI script not found or unable to stat: /home/radicalg/webapps/looklala/looklalasite/wsgi.py
[Fri Nov 02 20:35:36 2018] [error] [client 127.0.0.1] Target WSGI script not found or unable to stat: /home/radicalg/webapps/looklala/looklalasite/wsgi.py
[Fri Nov 02 23:41:27 2018] [error] [client 127.0.0.1] Target WSGI script not found or unable to stat: /home/radicalg/webapps/looklala/looklalasite/wsgi.py
[Fri Nov 02 23:41:27 2018] [error] [client 127.0.0.1] Target WSGI script not found or unable to stat: /home/radicalg/webapps/looklala/looklalasite/wsgi.py
[Fri Nov 02 23:41:27 2018] [error] [client 127.0.0.1] Target WSGI script not found or unable to stat: /home/radicalg/webapps/looklala/looklalasite/wsgi.py
[Fri Nov 02 23:41:27 2018] [error] [client 127.0.0.1] Target WSGI script not found or unable to stat: /home/radicalg/webapps/looklala/looklalasite/wsgi.py
[Fri Nov 02 23:41:27 2018] [error] [client 127.0.0.1] Target WSGI script not found or unable to stat: /home/radicalg/webapps/looklala/looklalasite/wsgi.py
[Fri Nov 02 23:41:28 2018] [error] [client 127.0.0.1] Target WSGI script not found or unable to stat: /home/radicalg/webapps/looklala/looklalasite/wsgi.py
[Fri Nov 02 23:41:28 2018] [error] [client 127.0.0.1] Target WSGI script not found or unable to stat: /home/radicalg/webapps/looklala/looklalasite/wsgi.py
[Fri Nov 02 23:41:28 2018] [error] [client 127.0.0.1] Target WSGI script not found or unable to stat: /home/radicalg/webapps/looklala/looklalasite/wsgi.py
[Fri Nov 02 23:41:28 2018] [error] [client 127.0.0.1] Target WSGI script not found or unable to stat: /home/radicalg/webapps/looklala/looklalasite/wsgi.py
[Sat Nov 03 02:41:46 2018] [error] [client 127.0.0.1] Target WSGI script not found or unable to stat: /home/radicalg/webapps/looklala/looklalasite/wsgi.py
