[Wed Oct 31 03:57:32.278004 2018] [wsgi:error] [pid 36791:tid 139785367275264] [remote 127.0.0.1:59118] Not Found: /lekker-figuur/feed/
[Wed Oct 31 04:07:39.567108 2018] [wsgi:error] [pid 36790:tid 139785300133632] [remote 127.0.0.1:44456] Not Found: /xmlrpc.php
[Wed Oct 31 04:07:39.661592 2018] [wsgi:error] [pid 36790:tid 139785367275264] [remote 127.0.0.1:44466] Not Found: /xmlrpc.php
[Wed Oct 31 04:07:39.791561 2018] [wsgi:error] [pid 36790:tid 139785300133632] [remote 127.0.0.1:44492] Not Found: /xmlrpc.php
[Wed Oct 31 04:07:39.864827 2018] [wsgi:error] [pid 36791:tid 139785300133632] [remote 127.0.0.1:44504] Not Found: /xmlrpc.php
[Wed Oct 31 04:22:46.850799 2018] [wsgi:error] [pid 36790:tid 139785367275264] [remote 127.0.0.1:46258] Not Found: /robots.txt
[Wed Oct 31 04:22:50.690321 2018] [wsgi:error] [pid 36791:tid 139785367275264] [remote 127.0.0.1:46512] Not Found: /wp-content/uploads/2015/09/img_8183-e1442486195930-1024x521.jpg
[Wed Oct 31 04:28:16.139555 2018] [wsgi:error] [pid 36791:tid 139785300133632] [remote 127.0.0.1:37290] Not Found: /xmlrpc.php
[Wed Oct 31 05:13:09.873023 2018] [wsgi:error] [pid 36790:tid 139785300133632] [remote 127.0.0.1:56808] Not Found: /xmlrpc.php
[Wed Oct 31 05:13:09.969211 2018] [wsgi:error] [pid 36790:tid 139785367275264] [remote 127.0.0.1:56824] Not Found: /xmlrpc.php
[Wed Oct 31 06:41:19.212873 2018] [wsgi:error] [pid 36791:tid 139785300133632] [remote 127.0.0.1:56632] Not Found: /xmlrpc.php
[Wed Oct 31 06:48:24.684165 2018] [wsgi:error] [pid 36790:tid 139785300133632] [remote 127.0.0.1:58264] Not Found: /modules/productpageadverts/uploadimage.php
[Wed Oct 31 08:58:28.669037 2018] [wsgi:error] [pid 36790:tid 139785300133632] [remote 127.0.0.1:36812] Not Found: /xmlrpc.php
[Wed Oct 31 11:16:42.100390 2018] [wsgi:error] [pid 36791:tid 139785367275264] [remote 127.0.0.1:50106] Not Found: /xmlrpc.php
[Wed Oct 31 11:43:49.483613 2018] [wsgi:error] [pid 36790:tid 139785300133632] [remote 127.0.0.1:41168] Not Found: /wp-content/themes/Ghost/includes/uploadify/upload_settings_image.php
[Wed Oct 31 11:47:34.051667 2018] [wsgi:error] [pid 36790:tid 139785367275264] [remote 127.0.0.1:58184] Not Found: /wp-content/themes/twentysixteen/inc/template-tags.php
[Wed Oct 31 12:28:58.272904 2018] [wsgi:error] [pid 36791:tid 139785300133632] [remote 127.0.0.1:47610] Not Found: /xmlrpc.php
[Wed Oct 31 12:28:58.374523 2018] [wsgi:error] [pid 36790:tid 139785367275264] [remote 127.0.0.1:47616] Not Found: /xmlrpc.php
[Wed Oct 31 12:28:59.284314 2018] [wsgi:error] [pid 36791:tid 139785367275264] [remote 127.0.0.1:47652] Not Found: /xmlrpc.php
[Wed Oct 31 12:28:59.637368 2018] [wsgi:error] [pid 36790:tid 139785300133632] [remote 127.0.0.1:47666] Not Found: /xmlrpc.php
[Wed Oct 31 13:54:04.806518 2018] [wsgi:error] [pid 36790:tid 139785300133632] [remote 127.0.0.1:37552] Not Found: /xmlrpc.php
[Wed Oct 31 15:17:51.162568 2018] [wsgi:error] [pid 36790:tid 139785367275264] [remote 127.0.0.1:46626] Not Found: /robots.txt
[Wed Oct 31 15:17:51.273451 2018] [wsgi:error] [pid 36791:tid 139785367275264] [remote 127.0.0.1:46636] Not Found: /robots.txt
[Wed Oct 31 16:13:07.563849 2018] [wsgi:error] [pid 36790:tid 139785300133632] [remote 127.0.0.1:59730] Not Found: /xmlrpc.php
[Wed Oct 31 16:49:29.373113 2018] [wsgi:error] [pid 36791:tid 139785367275264] [remote 127.0.0.1:60050] Not Found: /wp-content/plugins/wp-option-tree/up.php
[Wed Oct 31 18:28:51.505358 2018] [wsgi:error] [pid 36791:tid 139785300133632] [remote 127.0.0.1:60449] Not Found: /xmlrpc.php
[Wed Oct 31 19:51:51.342792 2018] [wsgi:error] [pid 36791:tid 139785367275264] [remote 127.0.0.1:45714] Not Found: /robots.txt
[Wed Oct 31 19:51:57.553793 2018] [wsgi:error] [pid 36791:tid 139785300133632] [remote 127.0.0.1:46094] Not Found: /learn/
[Wed Oct 31 20:09:23.892115 2018] [wsgi:error] [pid 36791:tid 139785367275264] [remote 127.0.0.1:54252] Not Found: /xmlrpc.php
[Wed Oct 31 20:09:23.925608 2018] [wsgi:error] [pid 36790:tid 139785300133632] [remote 127.0.0.1:54266] Not Found: /xmlrpc.php
[Wed Oct 31 20:43:37.712164 2018] [wsgi:error] [pid 36791:tid 139785300133632] [remote 127.0.0.1:37270] Not Found: /xmlrpc.php
[Wed Oct 31 20:53:35.690243 2018] [wsgi:error] [pid 36791:tid 139785367275264] [remote 127.0.0.1:37272] Not Found: /xmlrpc.php
[Wed Oct 31 20:53:35.693688 2018] [wsgi:error] [pid 36790:tid 139785300133632] [remote 127.0.0.1:37274] Not Found: /xmlrpc.php
[Wed Oct 31 20:53:35.697977 2018] [wsgi:error] [pid 36791:tid 139785300133632] [remote 127.0.0.1:37276] Not Found: /xmlrpc.php
[Wed Oct 31 20:53:35.779117 2018] [wsgi:error] [pid 36790:tid 139785367275264] [remote 127.0.0.1:37283] Not Found: /xmlrpc.php
[Wed Oct 31 21:54:11.937222 2018] [wsgi:error] [pid 36791:tid 139785367275264] [remote 127.0.0.1:34302] Not Found: /wp-content/themes/twentyeleven/seo_script.php
[Wed Oct 31 21:55:48.626604 2018] [wsgi:error] [pid 36790:tid 139785367275264] [remote 127.0.0.1:41034] Not Found: /wp-content/uploads/2018/08/seo_script.php
[Wed Oct 31 21:57:22.455171 2018] [wsgi:error] [pid 36790:tid 139785300133632] [remote 127.0.0.1:48158] Not Found: /wp-content/uploads/2018/08/seos.php
[Wed Oct 31 21:57:53.174559 2018] [wsgi:error] [pid 36791:tid 139785367275264] [remote 127.0.0.1:50302] Not Found: /wp-content/plugins/background-image-cropper/image/ico/seo_script.php
[Wed Oct 31 21:58:46.185273 2018] [wsgi:error] [pid 36790:tid 139785367275264] [remote 127.0.0.1:53822] Not Found: /seos.php
[Wed Oct 31 21:59:39.105593 2018] [wsgi:error] [pid 36791:tid 139785300133632] [remote 127.0.0.1:58704] Not Found: /wp-content/themes/clean-commerce/test2.php
[Wed Oct 31 21:59:50.514500 2018] [wsgi:error] [pid 36790:tid 139785300133632] [remote 127.0.0.1:59330] Not Found: /assets/images/seo_script.php
[Wed Oct 31 22:01:55.279857 2018] [wsgi:error] [pid 36791:tid 139785367275264] [remote 127.0.0.1:41056] Not Found: /wp-content/uploads/2018/08/st.php
[Wed Oct 31 22:24:24.615999 2018] [wsgi:error] [pid 36791:tid 139785300133632] [remote 127.0.0.1:49904] Not Found: /wp-admin/admin-ajax.php
[Wed Oct 31 22:46:19.445867 2018] [wsgi:error] [pid 36790:tid 139785300133632] [remote 127.0.0.1:58416] Not Found: /wp-content/themes/twentyseventeen/sidebar.php
[Wed Oct 31 22:56:10.625159 2018] [wsgi:error] [pid 36790:tid 139785367275264] [remote 127.0.0.1:40600] Not Found: /xmlrpc.php
[Thu Nov 01 01:11:21.918233 2018] [wsgi:error] [pid 36791:tid 139785367275264] [remote 127.0.0.1:39562] Not Found: /xmlrpc.php
[Thu Nov 01 02:14:42.091987 2018] [wsgi:error] [pid 36791:tid 139785300133632] [remote 127.0.0.1:60856] Not Found: /installer-backup.php
