[Tue Nov 06 07:34:56.607033 2018] [wsgi:error] [pid 41633:tid 139911740675840] Not Found: /
[Tue Nov 06 11:39:57.961138 2018] [wsgi:error] [pid 41634:tid 139911673534208] Not Found: /
[Tue Nov 06 13:06:04.360018 2018] [wsgi:error] [pid 41633:tid 139911648356096] Not Found: /modules/homepageadvertise2/uploadimage.php
[Tue Nov 06 22:06:41.860710 2018] [wsgi:error] [pid 41634:tid 139911732283136] Not Found: /
[Tue Nov 06 22:25:13.069357 2018] [wsgi:error] [pid 41633:tid 139911740675840] Not Found: /
