[Mon Nov 05 09:08:16.823857 2018] [wsgi:error] [pid 41633:tid 139911648356096] Not Found: /
[Mon Nov 05 09:54:53.519507 2018] [wsgi:error] [pid 41634:tid 139911732283136] Not Found: /robots.txt
[Mon Nov 05 11:13:46.030163 2018] [wsgi:error] [pid 41633:tid 139911740675840] Not Found: /
[Mon Nov 05 11:13:46.196709 2018] [wsgi:error] [pid 41634:tid 139911673534208] Not Found: /favicon.ico
[Mon Nov 05 13:10:14.174923 2018] [wsgi:error] [pid 41634:tid 139911732283136] Not Found: /
[Mon Nov 05 13:30:13.222277 2018] [wsgi:error] [pid 41633:tid 139911648356096] Not Found: /robots.txt
[Mon Nov 05 13:30:16.667552 2018] [wsgi:error] [pid 41633:tid 139911740675840] Not Found: /
[Mon Nov 05 13:30:24.012860 2018] [wsgi:error] [pid 41634:tid 139911673534208] Not Found: /robots.txt
[Mon Nov 05 16:35:00.280227 2018] [wsgi:error] [pid 41634:tid 139911732283136] Not Found: /wp-blog-header.php
[Tue Nov 06 00:48:05.448676 2018] [wsgi:error] [pid 41633:tid 139911648356096] Not Found: /
