[Sat Nov 03 04:55:45.887908 2018] [wsgi:error] [pid 41633:tid 139911648356096] Not Found: /wp-login.php
[Sat Nov 03 04:55:46.016698 2018] [wsgi:error] [pid 41634:tid 139911673534208] Not Found: /wp-login.php
[Sat Nov 03 08:05:56.719772 2018] [wsgi:error] [pid 41633:tid 139911740675840] Not Found: /robots.txt
[Sat Nov 03 08:06:03.250218 2018] [wsgi:error] [pid 41633:tid 139911648356096] Not Found: /
[Sat Nov 03 08:06:10.311193 2018] [wsgi:error] [pid 41634:tid 139911732283136] Not Found: /robots.txt
[Sat Nov 03 09:11:03.031919 2018] [wsgi:error] [pid 41634:tid 139911673534208] Not Found: /
[Sat Nov 03 09:11:04.836574 2018] [wsgi:error] [pid 41633:tid 139911740675840] Not Found: /robots.txt
[Sat Nov 03 09:11:06.375355 2018] [wsgi:error] [pid 41634:tid 139911732283136] Not Found: /sitemap.xml
[Sat Nov 03 09:11:09.220000 2018] [wsgi:error] [pid 41633:tid 139911648356096] Not Found: /.well-known/security.txt
[Sat Nov 03 09:11:13.646607 2018] [wsgi:error] [pid 41634:tid 139911673534208] Not Found: /favicon.ico
[Sat Nov 03 09:15:27.649144 2018] [wsgi:error] [pid 41633:tid 139911740675840] Not Found: /
[Sat Nov 03 09:51:38.821710 2018] [wsgi:error] [pid 41634:tid 139911732283136] Not Found: /wp-login.php
[Sat Nov 03 09:51:38.942417 2018] [wsgi:error] [pid 41633:tid 139911648356096] Not Found: /wp-login.php
[Sat Nov 03 13:48:43.033856 2018] [wsgi:error] [pid 41634:tid 139911673534208] Not Found: /
[Sat Nov 03 13:48:43.155256 2018] [wsgi:error] [pid 41633:tid 139911740675840] Not Found: /
[Sat Nov 03 14:12:05.549688 2018] [wsgi:error] [pid 41634:tid 139911732283136] Not Found: /
[Sun Nov 04 00:48:44.918283 2018] [wsgi:error] [pid 41633:tid 139911648356096] Not Found: /robots.txt
[Sun Nov 04 00:48:50.435519 2018] [wsgi:error] [pid 41634:tid 139911673534208] Not Found: /
[Sun Nov 04 01:41:14.512786 2018] [wsgi:error] [pid 41633:tid 139911740675840] Not Found: /
