[Fri Nov 02 02:43:59 2018] [error] [client 127.0.0.1] Target WSGI script not found or unable to stat: /home/radicalg/webapps/looklala/looklalasite/wsgi.py
[Fri Nov 02 02:43:59 2018] [error] [client 127.0.0.1] Target WSGI script not found or unable to stat: /home/radicalg/webapps/looklala/looklalasite/wsgi.py
[Fri Nov 02 02:43:59 2018] [error] [client 127.0.0.1] Target WSGI script not found or unable to stat: /home/radicalg/webapps/looklala/looklalasite/wsgi.py
[Fri Nov 02 02:43:59 2018] [error] [client 127.0.0.1] Target WSGI script not found or unable to stat: /home/radicalg/webapps/looklala/looklalasite/wsgi.py
[Fri Nov 02 02:43:59 2018] [error] [client 127.0.0.1] Target WSGI script not found or unable to stat: /home/radicalg/webapps/looklala/looklalasite/wsgi.py
[Fri Nov 02 02:44:00 2018] [error] [client 127.0.0.1] Target WSGI script not found or unable to stat: /home/radicalg/webapps/looklala/looklalasite/wsgi.py
[Fri Nov 02 02:44:00 2018] [error] [client 127.0.0.1] Target WSGI script not found or unable to stat: /home/radicalg/webapps/looklala/looklalasite/wsgi.py
