[Fri Nov 02 03:36:29.823437 2018] [wsgi:error] [pid 36790:tid 139785367275264] [remote 127.0.0.1:57194] Not Found: /wp-login.php
[Fri Nov 02 03:36:29.887206 2018] [wsgi:error] [pid 36791:tid 139785300133632] [remote 127.0.0.1:57202] Not Found: /wp-login.php
[Fri Nov 02 03:36:29.945778 2018] [wsgi:error] [pid 36790:tid 139785300133632] [remote 127.0.0.1:57208] Not Found: /wp-login.php
[Fri Nov 02 04:11:52.484204 2018] [wsgi:error] [pid 36791:tid 139785367275264] [remote 127.0.0.1:46726] Not Found: /xmlrpc.php
[Fri Nov 02 06:24:20.864666 2018] [wsgi:error] [pid 36790:tid 139785300133632] [remote 127.0.0.1:49378] Not Found: /xmlrpc.php
[Fri Nov 02 06:37:21.913580 2018] [wsgi:error] [pid 36791:tid 139785367275264] [remote 127.0.0.1:43776] Not Found: /xmlrpc.php
[Fri Nov 02 06:37:22.142866 2018] [wsgi:error] [pid 36790:tid 139785367275264] [remote 127.0.0.1:43794] Not Found: /xmlrpc.php
[Fri Nov 02 06:37:22.391283 2018] [wsgi:error] [pid 36790:tid 139785300133632] [remote 127.0.0.1:43812] Not Found: /xmlrpc.php
[Fri Nov 02 06:37:22.563905 2018] [wsgi:error] [pid 36791:tid 139785300133632] [remote 127.0.0.1:43826] Not Found: /xmlrpc.php
[Fri Nov 02 06:37:45.112912 2018] [wsgi:error] [pid 36791:tid 139785367275264] [remote 127.0.0.1:45872] Not Found: /robots.txt
[Fri Nov 02 06:38:53.098940 2018] [wsgi:error] [pid 36791:tid 139785367275264] [remote 127.0.0.1:50880] Not Found: /wp-login.php
[Fri Nov 02 06:38:53.222218 2018] [wsgi:error] [pid 36790:tid 139785367275264] [remote 127.0.0.1:50888] Not Found: /apple-touch-icon-precomposed.png
[Fri Nov 02 06:38:53.266161 2018] [wsgi:error] [pid 36791:tid 139785300133632] [remote 127.0.0.1:50892] Not Found: /apple-touch-icon.png
[Fri Nov 02 06:38:53.311859 2018] [wsgi:error] [pid 36790:tid 139785300133632] [remote 127.0.0.1:50896] Not Found: /favicon.ico
[Fri Nov 02 06:38:53.355449 2018] [wsgi:error] [pid 36790:tid 139785367275264] [remote 127.0.0.1:50900] Not Found: /apple-touch-icon-precomposed.png
[Fri Nov 02 06:38:53.403625 2018] [wsgi:error] [pid 36790:tid 139785300133632] [remote 127.0.0.1:50904] Not Found: /apple-touch-icon.png
[Fri Nov 02 06:38:53.449710 2018] [wsgi:error] [pid 36791:tid 139785367275264] [remote 127.0.0.1:50906] Not Found: /favicon.ico
[Fri Nov 02 06:38:53.515224 2018] [wsgi:error] [pid 36790:tid 139785367275264] [remote 127.0.0.1:50908] Not Found: /wp-login.php
[Fri Nov 02 06:38:53.582063 2018] [wsgi:error] [pid 36790:tid 139785300133632] [remote 127.0.0.1:50912] Not Found: /apple-touch-icon-precomposed.png
[Fri Nov 02 06:38:53.632731 2018] [wsgi:error] [pid 36791:tid 139785300133632] [remote 127.0.0.1:50922] Not Found: /apple-touch-icon.png
[Fri Nov 02 06:38:53.678782 2018] [wsgi:error] [pid 36790:tid 139785367275264] [remote 127.0.0.1:50924] Not Found: /favicon.ico
[Fri Nov 02 06:38:53.733143 2018] [wsgi:error] [pid 36790:tid 139785300133632] [remote 127.0.0.1:50930] Not Found: /apple-touch-icon-precomposed.png
[Fri Nov 02 06:38:53.775607 2018] [wsgi:error] [pid 36790:tid 139785367275264] [remote 127.0.0.1:50936] Not Found: /apple-touch-icon.png
[Fri Nov 02 06:38:53.821751 2018] [wsgi:error] [pid 36791:tid 139785367275264] [remote 127.0.0.1:50942] Not Found: /favicon.ico
[Fri Nov 02 06:39:48.153128 2018] [wsgi:error] [pid 36790:tid 139785300133632] [remote 127.0.0.1:55232] Not Found: /gouden-tip-tekst-visueler/
[Fri Nov 02 07:08:55.126119 2018] [wsgi:error] [pid 36791:tid 139785300133632] [remote 127.0.0.1:47088] Not Found: /groups/
[Fri Nov 02 07:56:27.602298 2018] [wsgi:error] [pid 36790:tid 139785300133632] [remote 127.0.0.1:37510] Not Found: /robots.txt
[Fri Nov 02 07:56:27.627945 2018] [wsgi:error] [pid 36791:tid 139785367275264] [remote 127.0.0.1:37516] Not Found: /robots.txt
[Fri Nov 02 07:56:46.048387 2018] [wsgi:error] [pid 36791:tid 139785300133632] [remote 127.0.0.1:38910] Not Found: /index_files/rtl.css
[Fri Nov 02 08:43:09.187608 2018] [wsgi:error] [pid 36790:tid 139785300133632] [remote 127.0.0.1:54508] Not Found: /xmlrpc.php
[Fri Nov 02 08:57:15.275694 2018] [wsgi:error] [pid 36790:tid 139785367275264] [remote 127.0.0.1:42216] Not Found: /vrouwen-kapsels-in-4-stappen/feed/
[Fri Nov 02 10:19:11.341035 2018] [wsgi:error] [pid 36790:tid 139785300133632] [remote 127.0.0.1:52828] Not Found: /wp-content/themes/twentyseventeen/search.php
[Fri Nov 02 11:01:09.235784 2018] [wsgi:error] [pid 36790:tid 139785300133632] [remote 127.0.0.1:57158] Not Found: /xmlrpc.php
[Fri Nov 02 13:10:33.288231 2018] [wsgi:error] [pid 36791:tid 139785300133632] [remote 127.0.0.1:59360] Not Found: /robots.txt
[Fri Nov 02 13:10:33.408217 2018] [wsgi:error] [pid 36790:tid 139785300133632] [remote 127.0.0.1:59366] Not Found: /robots.txt
[Fri Nov 02 13:31:05.983825 2018] [wsgi:error] [pid 36791:tid 139785300133632] [remote 127.0.0.1:51252] Not Found: /xmlrpc.php
[Fri Nov 02 13:37:26.459973 2018] [wsgi:error] [pid 36790:tid 139785300133632] [remote 127.0.0.1:54048] Not Found: /wp-content/plugins/reflex-gallery/admin/scripts/FileUploader/php.php
[Fri Nov 02 14:09:55.889556 2018] [wsgi:error] [pid 36791:tid 139785300133632] [remote 127.0.0.1:51076] Not Found: /xmlrpc.php
[Fri Nov 02 14:09:56.184577 2018] [wsgi:error] [pid 36790:tid 139785367275264] [remote 127.0.0.1:51128] Not Found: /xmlrpc.php
[Fri Nov 02 14:57:12.652315 2018] [wsgi:error] [pid 36791:tid 139785367275264] [remote 127.0.0.1:56598] Not Found: /xmlrpc.php
[Fri Nov 02 14:57:13.164674 2018] [wsgi:error] [pid 36790:tid 139785367275264] [remote 127.0.0.1:56642] Not Found: /xmlrpc.php
[Fri Nov 02 14:57:13.650033 2018] [wsgi:error] [pid 36791:tid 139785300133632] [remote 127.0.0.1:56684] Not Found: /xmlrpc.php
[Fri Nov 02 14:57:13.889086 2018] [wsgi:error] [pid 36790:tid 139785300133632] [remote 127.0.0.1:56706] Not Found: /xmlrpc.php
[Fri Nov 02 14:59:00.828942 2018] [wsgi:error] [pid 36790:tid 139785367275264] [remote 127.0.0.1:37404] Not Found: /index_files/analytics.js.download
[Fri Nov 02 14:59:01.134644 2018] [wsgi:error] [pid 36791:tid 139785300133632] [remote 127.0.0.1:37432] Not Found: /index_files/styles.css
[Fri Nov 02 14:59:01.175600 2018] [wsgi:error] [pid 36790:tid 139785300133632] [remote 127.0.0.1:37438] Not Found: /index_files/front.min.css
[Fri Nov 02 14:59:01.184299 2018] [wsgi:error] [pid 36791:tid 139785367275264] [remote 127.0.0.1:37440] Not Found: /index_files/style.css
[Fri Nov 02 14:59:01.438884 2018] [wsgi:error] [pid 36790:tid 139785367275264] [remote 127.0.0.1:37472] Not Found: /index_files/rtl.css
[Fri Nov 02 14:59:01.484704 2018] [wsgi:error] [pid 36791:tid 139785300133632] [remote 127.0.0.1:37478] Not Found: /index_files/jquery.webui-popover.min.css
[Fri Nov 02 14:59:01.497441 2018] [wsgi:error] [pid 36790:tid 139785300133632] [remote 127.0.0.1:37482] Not Found: /index_files/lifterlms.min.css
[Fri Nov 02 14:59:01.743501 2018] [wsgi:error] [pid 36791:tid 139785367275264] [remote 127.0.0.1:37502] Not Found: /index_files/style(1).css
[Fri Nov 02 14:59:01.797119 2018] [wsgi:error] [pid 36790:tid 139785367275264] [remote 127.0.0.1:37506] Not Found: /index_files/css
[Fri Nov 02 14:59:01.810436 2018] [wsgi:error] [pid 36791:tid 139785300133632] [remote 127.0.0.1:37508] Not Found: /index_files/spectrum.css
[Fri Nov 02 14:59:02.050115 2018] [wsgi:error] [pid 36791:tid 139785367275264] [remote 127.0.0.1:37520] Not Found: /index_files/svgavatars.css
[Fri Nov 02 14:59:02.108939 2018] [wsgi:error] [pid 36790:tid 139785300133632] [remote 127.0.0.1:37524] Not Found: /index_files/svgavatars-custom.css
[Fri Nov 02 14:59:02.124156 2018] [wsgi:error] [pid 36791:tid 139785300133632] [remote 127.0.0.1:37528] Not Found: /index_files/frontend-forms.css
[Fri Nov 02 14:59:02.356350 2018] [wsgi:error] [pid 36791:tid 139785367275264] [remote 127.0.0.1:37544] Not Found: /index_files/sweetalert2.css
[Fri Nov 02 14:59:02.420545 2018] [wsgi:error] [pid 36790:tid 139785367275264] [remote 127.0.0.1:37546] Not Found: /index_files/style(2).css
[Fri Nov 02 14:59:02.437982 2018] [wsgi:error] [pid 36791:tid 139785300133632] [remote 127.0.0.1:37550] Not Found: /index_files/css(1)
[Fri Nov 02 14:59:03.393277 2018] [wsgi:error] [pid 36790:tid 139785300133632] [remote 127.0.0.1:37610] Not Found: /index_files/css(2)
[Fri Nov 02 14:59:03.418706 2018] [wsgi:error] [pid 36791:tid 139785367275264] [remote 127.0.0.1:37614] Not Found: /index_files/css-stars.css
[Fri Nov 02 14:59:03.703271 2018] [wsgi:error] [pid 36790:tid 139785367275264] [remote 127.0.0.1:37650] Not Found: /index_files/style(4).css
[Fri Nov 02 14:59:03.732129 2018] [wsgi:error] [pid 36791:tid 139785300133632] [remote 127.0.0.1:37652] Not Found: /index_files/css(3)
[Fri Nov 02 14:59:03.773790 2018] [wsgi:error] [pid 36790:tid 139785300133632] [remote 127.0.0.1:37656] Not Found: /index_files/jquery-ui-1.9.1.custom.css
[Fri Nov 02 14:59:03.893159 2018] [wsgi:error] [pid 36791:tid 139785367275264] [remote 127.0.0.1:37679] Not Found: /index_files/style(3).css
[Fri Nov 02 14:59:04.014601 2018] [wsgi:error] [pid 36791:tid 139785300133632] [remote 127.0.0.1:37686] Not Found: /index_files/style(5).css
[Fri Nov 02 14:59:04.044810 2018] [wsgi:error] [pid 36791:tid 139785367275264] [remote 127.0.0.1:37690] Not Found: /index_files/css(4)
[Fri Nov 02 14:59:04.072795 2018] [wsgi:error] [pid 36790:tid 139785367275264] [remote 127.0.0.1:37694] Not Found: /index_files/dashicons.min.css
[Fri Nov 02 14:59:04.171657 2018] [wsgi:error] [pid 36791:tid 139785300133632] [remote 127.0.0.1:37701] Not Found: /index_files/jquery.js.download
[Fri Nov 02 14:59:04.198758 2018] [wsgi:error] [pid 36790:tid 139785300133632] [remote 127.0.0.1:37702] Not Found: /index_files/jquery-migrate.min.js.download
[Fri Nov 02 14:59:04.326474 2018] [wsgi:error] [pid 36791:tid 139785367275264] [remote 127.0.0.1:37720] Not Found: /index_files/front.min.js.download
[Fri Nov 02 14:59:04.357844 2018] [wsgi:error] [pid 36790:tid 139785367275264] [remote 127.0.0.1:37732] Not Found: /index_files/core.min.js.download
[Fri Nov 02 14:59:04.370642 2018] [wsgi:error] [pid 36791:tid 139785300133632] [remote 127.0.0.1:37734] Not Found: /index_files/widget.min.js.download
[Fri Nov 02 14:59:04.474468 2018] [wsgi:error] [pid 36790:tid 139785300133632] [remote 127.0.0.1:37744] Not Found: /index_files/et-extra-customizer-global-15393515465325.min.css
[Fri Nov 02 14:59:04.505185 2018] [wsgi:error] [pid 36791:tid 139785367275264] [remote 127.0.0.1:37752] Not Found: /index_files/datepicker.min.js.download
[Fri Nov 02 14:59:04.638103 2018] [wsgi:error] [pid 36790:tid 139785367275264] [remote 127.0.0.1:37770] Not Found: /index_files/mouse.min.js.download
[Fri Nov 02 14:59:04.668762 2018] [wsgi:error] [pid 36791:tid 139785300133632] [remote 127.0.0.1:37776] Not Found: /index_files/transition.js.download
[Fri Nov 02 14:59:04.671963 2018] [wsgi:error] [pid 36791:tid 139785367275264] [remote 127.0.0.1:37778] Not Found: /index_files/collapse.js.download
[Fri Nov 02 14:59:04.779371 2018] [wsgi:error] [pid 36790:tid 139785300133632] [remote 127.0.0.1:37794] Not Found: /index_files/svg.min.js.download
[Fri Nov 02 14:59:04.810250 2018] [wsgi:error] [pid 36790:tid 139785367275264] [remote 127.0.0.1:37802] Not Found: /index_files/spectrum.min.js.download
[Fri Nov 02 14:59:04.950663 2018] [wsgi:error] [pid 36790:tid 139785300133632] [remote 127.0.0.1:37810] Not Found: /index_files/jquery.scrollbar.min.js.download
[Fri Nov 02 14:59:04.970926 2018] [wsgi:error] [pid 36791:tid 139785205180160] [remote 127.0.0.1:37814] Not Found: /index_files/rgbcolor.js.download
[Fri Nov 02 14:59:04.990499 2018] [wsgi:error] [pid 36790:tid 139785367275264] [remote 127.0.0.1:37816] Not Found: /index_files/StackBlur.js.download
[Fri Nov 02 14:59:05.082726 2018] [wsgi:error] [pid 36791:tid 139785367275264] [remote 127.0.0.1:37822] Not Found: /index_files/classic-10_7.css
[Fri Nov 02 14:59:05.115712 2018] [wsgi:error] [pid 36790:tid 139785300133632] [remote 127.0.0.1:37828] Not Found: /index_files/mediaelementplayer-legacy.min.css
[Fri Nov 02 14:59:05.262204 2018] [wsgi:error] [pid 36790:tid 139785367275264] [remote 127.0.0.1:37850] Not Found: /index_files/wp-mediaelement.min.css
[Fri Nov 02 14:59:05.270412 2018] [wsgi:error] [pid 36791:tid 139785205180160] [remote 127.0.0.1:37852] Not Found: /index_files/canvg.js.download
[Fri Nov 02 14:59:05.301252 2018] [wsgi:error] [pid 36790:tid 139785300133632] [remote 127.0.0.1:37856] Not Found: /index_files/moxie.min.js.download
[Fri Nov 02 14:59:05.306071 2018] [wsgi:error] [pid 36791:tid 139785367275264] [remote 127.0.0.1:37858] Not Found: /index_files/svgavatars.result.min.js.download
[Fri Nov 02 14:59:05.386508 2018] [wsgi:error] [pid 36790:tid 139785367275264] [remote 127.0.0.1:37868] Not Found: /index_files/plupload.min.js.download
[Fri Nov 02 14:59:05.422055 2018] [wsgi:error] [pid 36791:tid 139785205180160] [remote 127.0.0.1:37874] Not Found: /index_files/handlers.min.js.download
[Fri Nov 02 14:59:05.568892 2018] [wsgi:error] [pid 36790:tid 139785300133632] [remote 127.0.0.1:37888] Not Found: /index_files/sortable.min.js.download
[Fri Nov 02 14:59:05.572249 2018] [wsgi:error] [pid 36791:tid 139785367275264] [remote 127.0.0.1:37890] Not Found: /index_files/jquery-ui-timepicker-addon.js.download
[Fri Nov 02 14:59:05.606487 2018] [wsgi:error] [pid 36791:tid 139785205180160] [remote 127.0.0.1:37898] Not Found: /index_files/upload.js.download
[Fri Nov 02 14:59:05.620752 2018] [wsgi:error] [pid 36790:tid 139785367275264] [remote 127.0.0.1:37902] Not Found: /index_files/frontend-form.min.js.download
[Fri Nov 02 14:59:05.692489 2018] [wsgi:error] [pid 36791:tid 139785367275264] [remote 127.0.0.1:37916] Not Found: /index_files/sweetalert2.js.download
[Fri Nov 02 14:59:05.728516 2018] [wsgi:error] [pid 36790:tid 139785300133632] [remote 127.0.0.1:37926] Not Found: /index_files/jquery.barrating.min.js.download
[Fri Nov 02 14:59:05.869139 2018] [wsgi:error] [pid 36791:tid 139785205180160] [remote 127.0.0.1:37938] Not Found: /index_files/billing-address.js.download
[Fri Nov 02 14:59:05.883835 2018] [wsgi:error] [pid 36790:tid 139785367275264] [remote 127.0.0.1:37942] Not Found: /index_files/transition.js.download
[Fri Nov 02 14:59:06.169784 2018] [wsgi:error] [pid 36791:tid 139785367275264] [remote 127.0.0.1:37970] Not Found: /index_files/mc-validate.js.download
[Fri Nov 02 14:59:06.196268 2018] [wsgi:error] [pid 36790:tid 139785300133632] [remote 127.0.0.1:37974] Not Found: /index_files/svg.min.js.download
[Fri Nov 02 14:59:06.471013 2018] [wsgi:error] [pid 36790:tid 139785367275264] [remote 127.0.0.1:37996] Not Found: /index_files/llms.min.js.download
[Fri Nov 02 14:59:06.507046 2018] [wsgi:error] [pid 36790:tid 139785300133632] [remote 127.0.0.1:38000] Not Found: /index_files/spectrum.min.js.download
[Fri Nov 02 14:59:06.771336 2018] [wsgi:error] [pid 36790:tid 139785367275264] [remote 127.0.0.1:38020] Not Found: /index_files/scripts.js.download
[Fri Nov 02 14:59:06.820070 2018] [wsgi:error] [pid 36791:tid 139785205180160] [remote 127.0.0.1:38028] Not Found: /index_files/jquery.scrollbar.min.js.download
[Fri Nov 02 14:59:07.072960 2018] [wsgi:error] [pid 36790:tid 139785300133632] [remote 127.0.0.1:38048] Not Found: /index_files/position.min.js.download
[Fri Nov 02 14:59:07.133100 2018] [wsgi:error] [pid 36790:tid 139785367275264] [remote 127.0.0.1:38054] Not Found: /index_files/rgbcolor.js.download
[Fri Nov 02 14:59:07.375291 2018] [wsgi:error] [pid 36791:tid 139785367275264] [remote 127.0.0.1:38066] Not Found: /index_files/tooltip.min.js.download
[Fri Nov 02 14:59:07.447300 2018] [wsgi:error] [pid 36791:tid 139785205180160] [remote 127.0.0.1:38074] Not Found: /index_files/StackBlur.js.download
[Fri Nov 02 14:59:07.675740 2018] [wsgi:error] [pid 36790:tid 139785300133632] [remote 127.0.0.1:38094] Not Found: /index_files/slider.min.js.download
[Fri Nov 02 14:59:07.759963 2018] [wsgi:error] [pid 36791:tid 139785367275264] [remote 127.0.0.1:38104] Not Found: /index_files/canvg.js.download
[Fri Nov 02 14:59:07.976302 2018] [wsgi:error] [pid 36790:tid 139785367275264] [remote 127.0.0.1:38116] Not Found: /index_files/jquery.webui-popover.min.js.download
[Fri Nov 02 14:59:08.073764 2018] [wsgi:error] [pid 36791:tid 139785205180160] [remote 127.0.0.1:38120] Not Found: /index_files/svgavatars.result.min.js.download
[Fri Nov 02 14:59:08.276810 2018] [wsgi:error] [pid 36790:tid 139785300133632] [remote 127.0.0.1:38128] Not Found: /index_files/llms-ajax.min.js.download
[Fri Nov 02 14:59:08.387017 2018] [wsgi:error] [pid 36791:tid 139785367275264] [remote 127.0.0.1:38140] Not Found: /index_files/moxie.min.js.download
[Fri Nov 02 14:59:08.576979 2018] [wsgi:error] [pid 36790:tid 139785367275264] [remote 127.0.0.1:38148] Not Found: /index_files/llms-form-checkout.min.js.download
[Fri Nov 02 14:59:08.700176 2018] [wsgi:error] [pid 36790:tid 139785300133632] [remote 127.0.0.1:38158] Not Found: /index_files/plupload.min.js.download
[Fri Nov 02 14:59:08.877896 2018] [wsgi:error] [pid 36791:tid 139785205180160] [remote 127.0.0.1:38178] Not Found: /index_files/menu.min.js.download
[Fri Nov 02 14:59:09.014489 2018] [wsgi:error] [pid 36791:tid 139785367275264] [remote 127.0.0.1:38202] Not Found: /index_files/handlers.min.js.download
[Fri Nov 02 14:59:09.176354 2018] [wsgi:error] [pid 36790:tid 139785367275264] [remote 127.0.0.1:38222] Not Found: /index_files/wp-a11y.min.js.download
[Fri Nov 02 14:59:09.325541 2018] [wsgi:error] [pid 36791:tid 139785205180160] [remote 127.0.0.1:38234] Not Found: /index_files/jquery-ui-timepicker-addon.js.download
[Fri Nov 02 14:59:09.477302 2018] [wsgi:error] [pid 36791:tid 139785367275264] [remote 127.0.0.1:38244] Not Found: /index_files/autocomplete.min.js.download
[Fri Nov 02 14:59:09.638527 2018] [wsgi:error] [pid 36790:tid 139785300133632] [remote 127.0.0.1:38256] Not Found: /index_files/sortable.min.js.download
[Fri Nov 02 14:59:09.778305 2018] [wsgi:error] [pid 36791:tid 139785205180160] [remote 127.0.0.1:38272] Not Found: /index_files/suggest.min.js.download
[Fri Nov 02 14:59:09.951517 2018] [wsgi:error] [pid 36790:tid 139785367275264] [remote 127.0.0.1:38278] Not Found: /index_files/upload.js.download
[Fri Nov 02 14:59:10.079404 2018] [wsgi:error] [pid 36791:tid 139785367275264] [remote 127.0.0.1:38296] Not Found: /index_files/subscriptions.js.download
[Fri Nov 02 14:59:10.264432 2018] [wsgi:error] [pid 36790:tid 139785300133632] [remote 127.0.0.1:38310] Not Found: /index_files/frontend-form.min.js.download
[Fri Nov 02 14:59:10.380132 2018] [wsgi:error] [pid 36790:tid 139785367275264] [remote 127.0.0.1:38322] Not Found: /index_files/idle-timer.min.js.download
[Fri Nov 02 14:59:10.577376 2018] [wsgi:error] [pid 36791:tid 139785205180160] [remote 127.0.0.1:38340] Not Found: /index_files/sweetalert2.js.download
[Fri Nov 02 14:59:10.681144 2018] [wsgi:error] [pid 36790:tid 139785300133632] [remote 127.0.0.1:38352] Not Found: /index_files/custom.js.download
[Fri Nov 02 14:59:10.889245 2018] [wsgi:error] [pid 36790:tid 139785367275264] [remote 127.0.0.1:38374] Not Found: /index_files/jquery.barrating.min.js.download
[Fri Nov 02 14:59:10.981075 2018] [wsgi:error] [pid 36791:tid 139785367275264] [remote 127.0.0.1:38382] Not Found: /index_files/conditional-logic.js.download
[Fri Nov 02 14:59:11.204114 2018] [wsgi:error] [pid 36790:tid 139785300133632] [remote 127.0.0.1:38400] Not Found: /index_files/billing-address.js.download
[Fri Nov 02 14:59:11.281974 2018] [wsgi:error] [pid 36791:tid 139785205180160] [remote 127.0.0.1:38408] Not Found: /index_files/masonry.min.js.download
[Fri Nov 02 14:59:11.517442 2018] [wsgi:error] [pid 36790:tid 139785367275264] [remote 127.0.0.1:38426] Not Found: /index_files/et-extra-customizer-global-15393515465325.min.css
[Fri Nov 02 14:59:11.579745 2018] [wsgi:error] [pid 36791:tid 139785367275264] [remote 127.0.0.1:38432] Not Found: /index_files/classic-10_7.css
[Fri Nov 02 14:59:11.825087 2018] [wsgi:error] [pid 36791:tid 139785205180160] [remote 127.0.0.1:38446] Not Found: /index_files/mc-validate.js.download
[Fri Nov 02 14:59:11.830845 2018] [wsgi:error] [pid 36791:tid 139785367275264] [remote 127.0.0.1:38450] Not Found: /index_files/scripts.min.js.download
[Fri Nov 02 14:59:11.880401 2018] [wsgi:error] [pid 36790:tid 139785300133632] [remote 127.0.0.1:38460] Not Found: /index_files/common.js.download
[Fri Nov 02 14:59:12.077801 2018] [wsgi:error] [pid 36791:tid 139785300133632] [remote 127.0.0.1:38472] Not Found: /index_files/NINJA_LOGO_WEB.png
[Fri Nov 02 14:59:12.128888 2018] [wsgi:error] [pid 36790:tid 139785367275264] [remote 127.0.0.1:38474] Not Found: /index_files/wp-embed.min.js.download
[Fri Nov 02 14:59:12.133435 2018] [wsgi:error] [pid 36791:tid 139785367275264] [remote 127.0.0.1:38476] Not Found: /index_files/mediaelement-and-player.min.js.download
[Fri Nov 02 14:59:12.142834 2018] [wsgi:error] [pid 36790:tid 139785300133632] [remote 127.0.0.1:38480] Not Found: /index_files/mediaelementplayer-legacy.min.css
[Fri Nov 02 14:59:12.148015 2018] [wsgi:error] [pid 36790:tid 139785367275264] [remote 127.0.0.1:38482] Not Found: /index_files/mediaelement-migrate.min.js.download
[Fri Nov 02 14:59:12.180463 2018] [wsgi:error] [pid 36791:tid 139785300133632] [remote 127.0.0.1:38484] Not Found: /index_files/wp-mediaelement.min.css
[Fri Nov 02 14:59:12.378819 2018] [wsgi:error] [pid 36790:tid 139785283348224] [remote 127.0.0.1:38494] Not Found: /index_files/wp-mediaelement.min.js.download
[Fri Nov 02 14:59:12.435080 2018] [wsgi:error] [pid 36791:tid 139785367275264] [remote 127.0.0.1:38500] Not Found: /index_files/analytics.js(1).download
[Fri Nov 02 14:59:12.440617 2018] [wsgi:error] [pid 36791:tid 139785300133632] [remote 127.0.0.1:38502] Not Found: /index_files/wp-emoji-release.min.js.download
[Fri Nov 02 14:59:12.454240 2018] [wsgi:error] [pid 36791:tid 139785205180160] [remote 127.0.0.1:38504] Not Found: /index_files/Home_watis01.png
[Fri Nov 02 14:59:12.463079 2018] [wsgi:error] [pid 36790:tid 139785367275264] [remote 127.0.0.1:38506] Not Found: /index_files/wp-emoji-release.min.js(1).download
[Fri Nov 02 14:59:12.480586 2018] [wsgi:error] [pid 36791:tid 139785300133632] [remote 127.0.0.1:38510] Not Found: /index_files/logo_volzin.png
[Fri Nov 02 14:59:12.678773 2018] [wsgi:error] [pid 36790:tid 139785283348224] [remote 127.0.0.1:38514] Not Found: /index_files/llms.min.js.download
[Fri Nov 02 14:59:12.741864 2018] [wsgi:error] [pid 36791:tid 139785205180160] [remote 127.0.0.1:38522] Not Found: /index_files/Beter-logo.png
[Fri Nov 02 14:59:12.746413 2018] [wsgi:error] [pid 36790:tid 139785367275264] [remote 127.0.0.1:38524] Not Found: /index_files/team2-1.jpg
[Fri Nov 02 14:59:12.765435 2018] [wsgi:error] [pid 36790:tid 139785283348224] [remote 127.0.0.1:38526] Not Found: /index_files/sands.jpg
[Fri Nov 02 14:59:12.778101 2018] [wsgi:error] [pid 36791:tid 139785300133632] [remote 127.0.0.1:38530] Not Found: /index_files/Ninja_esra.png
[Fri Nov 02 14:59:12.779759 2018] [wsgi:error] [pid 36790:tid 139785367275264] [remote 127.0.0.1:38532] Not Found: /index_files/Ninja_jose.png
[Fri Nov 02 14:59:12.978610 2018] [wsgi:error] [pid 36791:tid 139785205180160] [remote 127.0.0.1:38562] Not Found: /index_files/Ninja_manuel.png
[Fri Nov 02 14:59:13.047392 2018] [wsgi:error] [pid 36790:tid 139785283348224] [remote 127.0.0.1:38580] Not Found: /index_files/scripts.js.download
[Fri Nov 02 14:59:13.053631 2018] [wsgi:error] [pid 36791:tid 139785300133632] [remote 127.0.0.1:38582] Not Found: /index_files/Ninja_elwyn.png
[Fri Nov 02 14:59:13.077131 2018] [wsgi:error] [pid 36790:tid 139785367275264] [remote 127.0.0.1:38586] Not Found: /index_files/logo_JAMIENEE.png
[Fri Nov 02 14:59:13.354714 2018] [wsgi:error] [pid 36791:tid 139785205180160] [remote 127.0.0.1:38620] Not Found: /index_files/position.min.js.download
[Fri Nov 02 14:59:13.661594 2018] [wsgi:error] [pid 36790:tid 139785283348224] [remote 127.0.0.1:38662] Not Found: /index_files/tooltip.min.js.download
[Fri Nov 02 14:59:13.968353 2018] [wsgi:error] [pid 36791:tid 139785300133632] [remote 127.0.0.1:38708] Not Found: /index_files/slider.min.js.download
[Fri Nov 02 14:59:14.278746 2018] [wsgi:error] [pid 36791:tid 139785205180160] [remote 127.0.0.1:38720] Not Found: /index_files/jquery.webui-popover.min.js.download
[Fri Nov 02 14:59:14.585966 2018] [wsgi:error] [pid 36790:tid 139785367275264] [remote 127.0.0.1:38740] Not Found: /index_files/llms-ajax.min.js.download
[Fri Nov 02 14:59:14.893253 2018] [wsgi:error] [pid 36791:tid 139785300133632] [remote 127.0.0.1:38756] Not Found: /index_files/llms-form-checkout.min.js.download
[Fri Nov 02 14:59:15.199579 2018] [wsgi:error] [pid 36790:tid 139785283348224] [remote 127.0.0.1:38772] Not Found: /index_files/menu.min.js.download
[Fri Nov 02 14:59:15.506976 2018] [wsgi:error] [pid 36790:tid 139785367275264] [remote 127.0.0.1:38792] Not Found: /index_files/wp-a11y.min.js.download
[Fri Nov 02 14:59:15.814562 2018] [wsgi:error] [pid 36791:tid 139785205180160] [remote 127.0.0.1:38804] Not Found: /index_files/autocomplete.min.js.download
[Fri Nov 02 14:59:16.120760 2018] [wsgi:error] [pid 36790:tid 139785283348224] [remote 127.0.0.1:38820] Not Found: /index_files/suggest.min.js.download
[Fri Nov 02 14:59:16.426214 2018] [wsgi:error] [pid 36790:tid 139785367275264] [remote 127.0.0.1:38828] Not Found: /index_files/subscriptions.js.download
[Fri Nov 02 14:59:16.732573 2018] [wsgi:error] [pid 36791:tid 139785300133632] [remote 127.0.0.1:38858] Not Found: /index_files/idle-timer.min.js.download
[Fri Nov 02 14:59:17.039397 2018] [wsgi:error] [pid 36790:tid 139785283348224] [remote 127.0.0.1:38864] Not Found: /index_files/custom.js.download
[Fri Nov 02 14:59:17.346819 2018] [wsgi:error] [pid 36791:tid 139785205180160] [remote 127.0.0.1:38896] Not Found: /index_files/conditional-logic.js.download
[Fri Nov 02 14:59:17.652965 2018] [wsgi:error] [pid 36790:tid 139785367275264] [remote 127.0.0.1:38918] Not Found: /index_files/masonry.min.js.download
[Fri Nov 02 14:59:17.961146 2018] [wsgi:error] [pid 36791:tid 139785300133632] [remote 127.0.0.1:38960] Not Found: /index_files/scripts.min.js.download
[Fri Nov 02 14:59:18.270845 2018] [wsgi:error] [pid 36790:tid 139785283348224] [remote 127.0.0.1:38974] Not Found: /index_files/common.js.download
[Fri Nov 02 14:59:18.577662 2018] [wsgi:error] [pid 36791:tid 139785205180160] [remote 127.0.0.1:38998] Not Found: /index_files/wp-embed.min.js.download
[Fri Nov 02 14:59:18.884612 2018] [wsgi:error] [pid 36790:tid 139785367275264] [remote 127.0.0.1:39036] Not Found: /index_files/mediaelement-and-player.min.js.download
[Fri Nov 02 14:59:19.188754 2018] [wsgi:error] [pid 36791:tid 139785300133632] [remote 127.0.0.1:39056] Not Found: /index_files/mediaelement-migrate.min.js.download
[Fri Nov 02 14:59:19.493167 2018] [wsgi:error] [pid 36790:tid 139785283348224] [remote 127.0.0.1:39074] Not Found: /index_files/wp-mediaelement.min.js.download
[Fri Nov 02 15:37:43.412988 2018] [wsgi:error] [pid 36791:tid 139785205180160] [remote 127.0.0.1:35692] Not Found: /LinUO/het-whiteboard-slim-gebruiken-met-dit-een-tweetje/
[Fri Nov 02 15:46:34.563459 2018] [wsgi:error] [pid 36790:tid 139785367275264] [remote 127.0.0.1:53120] Not Found: /xmlrpc.php
[Fri Nov 02 15:58:46.995580 2018] [wsgi:error] [pid 36791:tid 139785300133632] [remote 127.0.0.1:33630] Not Found: /xmlrpc.php
[Fri Nov 02 18:01:24.258580 2018] [wsgi:error] [pid 36791:tid 139785300133632] [remote 127.0.0.1:53038] Not Found: /xmlrpc.php
[Fri Nov 02 20:14:05.154872 2018] [wsgi:error] [pid 36790:tid 139785367275264] [remote 127.0.0.1:50182] Not Found: /xmlrpc.php
[Fri Nov 02 20:33:45.045205 2018] [wsgi:error] [pid 36790:tid 139785283348224] [remote 127.0.0.1:54266] Not Found: /login.php
[Fri Nov 02 20:42:27.032597 2018] [wsgi:error] [pid 36790:tid 139785367275264] [remote 127.0.0.1:42628] Not Found: /wp-content/wp-object-cache.php
[Fri Nov 02 21:02:44.310985 2018] [wsgi:error] [pid 36791:tid 139785300133632] [remote 127.0.0.1:38190] Not Found: /robots.txt
[Fri Nov 02 21:02:44.870060 2018] [wsgi:error] [pid 36790:tid 139785283348224] [remote 127.0.0.1:38216] Not Found: /ipad-pro-pen-en-papier-eindelijk-echt-digitaal/
[Fri Nov 02 22:12:37.544272 2018] [wsgi:error] [pid 36790:tid 139785283348224] [remote 127.0.0.1:37474] Not Found: /wp-content/themes/twentyseventeen/comments.php
[Fri Nov 02 22:23:34.943003 2018] [wsgi:error] [pid 36790:tid 139785367275264] [remote 127.0.0.1:57698] Not Found: /xmlrpc.php
[Fri Nov 02 23:12:22.299761 2018] [wsgi:error] [pid 36790:tid 139785283348224] [remote 127.0.0.1:60058] Not Found: /xmlrpc.php
[Fri Nov 02 23:12:22.578688 2018] [wsgi:error] [pid 36790:tid 139785367275264] [remote 127.0.0.1:60074] Not Found: /xmlrpc.php
[Fri Nov 02 23:12:23.638782 2018] [wsgi:error] [pid 36790:tid 139785283348224] [remote 127.0.0.1:60258] Not Found: /xmlrpc.php
[Fri Nov 02 23:12:24.824917 2018] [wsgi:error] [pid 36791:tid 139785300133632] [remote 127.0.0.1:60572] Not Found: /xmlrpc.php
[Fri Nov 02 23:49:17.501645 2018] [wsgi:error] [pid 36791:tid 139785205180160] [remote 127.0.0.1:38620] Not Found: /wp-login.php
[Sat Nov 03 00:04:36.986884 2018] [wsgi:error] [pid 36790:tid 139785283348224] [remote 127.0.0.1:39284] Not Found: /robots.txt
[Sat Nov 03 00:04:38.601249 2018] [wsgi:error] [pid 36791:tid 139785300133632] [remote 127.0.0.1:39450] Not Found: /xmlrpc.php
[Sat Nov 03 00:05:03.086869 2018] [wsgi:error] [pid 36790:tid 139785367275264] [remote 127.0.0.1:40994] Not Found: /wp-json/wp/v2/users/
[Sat Nov 03 00:05:06.416208 2018] [wsgi:error] [pid 36791:tid 139785205180160] [remote 127.0.0.1:41158] Not Found: /xmlrpc.php
[Sat Nov 03 00:32:01.405750 2018] [wsgi:error] [pid 36790:tid 139785283348224] [remote 127.0.0.1:51484] Not Found: /xmlrpc.php
[Sat Nov 03 01:38:12.387104 2018] [wsgi:error] [pid 36790:tid 139785367275264] [remote 127.0.0.1:51386] Not Found: /herman/
[Sat Nov 03 02:43:41.392548 2018] [wsgi:error] [pid 36791:tid 139785300133632] [remote 127.0.0.1:36660] Not Found: /xmlrpc.php
[Sat Nov 03 02:59:10.193655 2018] [wsgi:error] [pid 36790:tid 139785367275264] [remote 127.0.0.1:58390] Not Found: /wp-login.php
